Name,FirstName,Result
Aho,Alfred,A
Babbage,Charles,A
Chaitin,Gregory,B
Dijkstra,Edsger,A
Eckert,John Preper,B
Floyd,Robert,B
G\"odel,Kurt,A
Huffman,David,B
Ichbiah, Jean,A
Joshi,Aravind,C
Knuth,Donald,C
Lovelace,Ada,A
Moore,Gordon,A
Neumann (Von),John,A
Ouserhout,John,B
Pascal,Blaise,A
Ritchie,Dennis,C
Shannon,Claude,C
Thompson,Ken,A
Ullman,Jeffrey,B
Vixie,Paul,B
Wall,Larry,B
Yao, Adrew Chi-Chih,C
Zuse,Konrad,C