PWD /home/yume/prods/libs/wallcalendar/doc
INPUT /home/yume/texlive/2017/texmf-var/web2c/luatex/lualatex.fmt
INPUT ./wallcalendar-code.tex
OUTPUT wallcalendar-code.log
INPUT /home/yume/texlive/2017/texmf-dist/tex/luatex/lualibs/lualibs-basic.lua
INPUT /home/yume/texlive/2017/texmf-dist/tex/luatex/lualibs/lualibs-lua.lua
INPUT /home/yume/texlive/2017/texmf-dist/tex/luatex/lualibs/lualibs-package.lua
INPUT /home/yume/texlive/2017/texmf-dist/tex/luatex/lualibs/lualibs-lpeg.lua
INPUT /home/yume/texlive/2017/texmf-dist/tex/luatex/lualibs/lualibs-function.lua
INPUT /home/yume/texlive/2017/texmf-dist/tex/luatex/lualibs/lualibs-string.lua
INPUT /home/yume/texlive/2017/texmf-dist/tex/luatex/lualibs/lualibs-table.lua
INPUT /home/yume/texlive/2017/texmf-dist/tex/luatex/lualibs/lualibs-boolean.lua
INPUT /home/yume/texlive/2017/texmf-dist/tex/luatex/lualibs/lualibs-number.lua
INPUT /home/yume/texlive/2017/texmf-dist/tex/luatex/lualibs/lualibs-math.lua
INPUT /home/yume/texlive/2017/texmf-dist/tex/luatex/lualibs/lualibs-io.lua
INPUT /home/yume/texlive/2017/texmf-dist/tex/luatex/lualibs/lualibs-os.lua
INPUT /home/yume/texlive/2017/texmf-dist/tex/luatex/lualibs/lualibs-file.lua
INPUT /home/yume/texlive/2017/texmf-dist/tex/luatex/lualibs/lualibs-gzip.lua
INPUT /home/yume/texlive/2017/texmf-dist/tex/luatex/lualibs/lualibs-md5.lua
INPUT /home/yume/texlive/2017/texmf-dist/tex/luatex/lualibs/lualibs-dir.lua
INPUT /home/yume/texlive/2017/texmf-dist/tex/luatex/lualibs/lualibs-unicode.lua
INPUT /home/yume/texlive/2017/texmf-dist/tex/luatex/lualibs/lualibs-url.lua
INPUT /home/yume/texlive/2017/texmf-dist/tex/luatex/lualibs/lualibs-set.lua
INPUT /home/yume/texlive/2017/texmf-dist/tex/luatex/lualibs/lualibs-compat.lua
INPUT /home/yume/texlive/2017/texmf-dist/tex/luatex/lualibs/lualibs-extended.lua
INPUT /home/yume/texlive/2017/texmf-dist/tex/luatex/lualibs/lualibs-util-str.lua
INPUT /home/yume/texlive/2017/texmf-dist/tex/luatex/lualibs/lualibs-util-fil.lua
INPUT /home/yume/texlive/2017/texmf-dist/tex/luatex/lualibs/lualibs-util-tab.lua
INPUT /home/yume/texlive/2017/texmf-dist/tex/luatex/lualibs/lualibs-util-sto.lua
INPUT /home/yume/texlive/2017/texmf-dist/tex/luatex/lualibs/lualibs-util-prs.lua
INPUT /home/yume/texlive/2017/texmf-dist/tex/luatex/lualibs/lualibs-util-dim.lua
INPUT /home/yume/texlive/2017/texmf-dist/tex/luatex/lualibs/lualibs-util-jsn.lua
INPUT /home/yume/texlive/2017/texmf-dist/tex/luatex/lualibs/lualibs-trac-inf.lua
INPUT /home/yume/texlive/2017/texmf-dist/tex/luatex/lualibs/lualibs-util-lua.lua
INPUT /home/yume/texlive/2017/texmf-dist/tex/luatex/lualibs/lualibs-util-deb.lua
INPUT /home/yume/texlive/2017/texmf-dist/tex/luatex/lualibs/lualibs-util-tpl.lua
INPUT /home/yume/texlive/2017/texmf-dist/tex/luatex/lualibs/lualibs-util-sta.lua
INPUT /home/yume/texlive/2017/texmf-dist/tex/luatex/luaotfload/luaotfload-characters.lua
INPUT ./memoir-article.cls
INPUT ./memoir-article.cls
INPUT /home/yume/texlive/2017/texmf-dist/tex/latex/pgfopts/pgfopts.sty
INPUT /home/yume/texlive/2017/texmf-dist/tex/latex/pgfopts/pgfopts.sty
INPUT /home/yume/texlive/2017/texmf-dist/tex/latex/pgf/utilities/pgfkeys.sty
INPUT /home/yume/texlive/2017/texmf-dist/tex/latex/pgf/utilities/pgfkeys.sty
INPUT /home/yume/texlive/2017/texmf-dist/tex/generic/pgf/utilities/pgfkeys.code.tex
INPUT /home/yume/texlive/2017/texmf-dist/tex/generic/pgf/utilities/pgfkeys.code.tex
INPUT /home/yume/texlive/2017/texmf-dist/tex/generic/pgf/utilities/pgfkeysfiltered.code.tex
INPUT /home/yume/texlive/2017/texmf-dist/tex/latex/tools/calc.sty
INPUT /home/yume/texlive/2017/texmf-dist/tex/latex/tools/calc.sty
INPUT /home/yume/texlive/2017/texmf-dist/tex/latex/memoir/memoir.cls
INPUT /home/yume/texlive/2017/texmf-dist/tex/latex/memoir/memoir.cls
INPUT /home/yume/texlive/2017/texmf-dist/tex/generic/luatex85/luatex85.sty
INPUT /home/yume/texlive/2017/texmf-dist/tex/generic/luatex85/luatex85.sty
INPUT /home/yume/texlive/2017/texmf-dist/tex/generic/oberdiek/ifpdf.sty
INPUT /home/yume/texlive/2017/texmf-dist/tex/generic/oberdiek/ifpdf.sty
INPUT /home/yume/texlive/2017/texmf-dist/tex/generic/oberdiek/ifpdf.sty
INPUT /home/yume/texlive/2017/texmf-dist/tex/latex/ifetex/ifetex.sty
INPUT /home/yume/texlive/2017/texmf-dist/tex/latex/ifetex/ifetex.sty
INPUT /home/yume/texlive/2017/texmf-dist/tex/latex/ifetex/ifetex.sty
INPUT /home/yume/texlive/2017/texmf-dist/tex/plain/ifetex/ifetex.tex
INPUT /home/yume/texlive/2017/texmf-dist/tex/generic/ifxetex/ifxetex.sty
INPUT /home/yume/texlive/2017/texmf-dist/tex/generic/ifxetex/ifxetex.sty
INPUT /home/yume/texlive/2017/texmf-dist/tex/generic/ifxetex/ifxetex.sty
INPUT /home/yume/texlive/2017/texmf-dist/tex/generic/oberdiek/ifluatex.sty
INPUT /home/yume/texlive/2017/texmf-dist/tex/generic/oberdiek/ifluatex.sty
INPUT /home/yume/texlive/2017/texmf-dist/tex/generic/oberdiek/ifluatex.sty
INPUT /home/yume/texlive/2017/texmf-dist/tex/latex/memoir/mem11.clo
INPUT /home/yume/texlive/2017/texmf-dist/tex/latex/memoir/mem11.clo
INPUT /home/yume/texlive/2017/texmf-var/luatex-cache/generic/fonts/otl/lmroman10-regular.luc
INPUT /home/yume/texlive/2017/texmf-var/luatex-cache/generic/fonts/otl/lmroman9-regular.luc
INPUT /home/yume/texlive/2017/texmf-dist/tex/latex/memoir/mempatch.sty
INPUT /home/yume/texlive/2017/texmf-dist/tex/latex/memoir/mempatch.sty
INPUT /home/yume/texlive/2017/texmf-dist/tex/latex/memoir/mempatch.sty
INPUT /home/yume/texlive/2017/texmf-dist/tex/generic/babel/babel.sty
INPUT /home/yume/texlive/2017/texmf-dist/tex/generic/babel/babel.sty
INPUT /home/yume/texlive/2017/texmf-dist/tex/generic/babel/luababel.def
INPUT /home/yume/texlive/2017/texmf-var/tex/generic/config/language.dat
INPUT /home/yume/texlive/2017/texmf-dist/tex/generic/babel-english/british.ldf
INPUT /home/yume/texlive/2017/texmf-dist/tex/generic/babel-english/british.ldf
INPUT /home/yume/texlive/2017/texmf-dist/tex/generic/babel-english/english.ldf
INPUT /home/yume/texlive/2017/texmf-dist/tex/generic/babel/babel.def
INPUT /home/yume/texlive/2017/texmf-dist/tex/generic/babel/luababel.def
INPUT /home/yume/texlive/2017/texmf-dist/tex/generic/hyph-utf8/loadhyph/loadhyph-en-gb.tex
INPUT /home/yume/texlive/2017/texmf-dist/tex/generic/hyph-utf8/patterns/tex/hyph-en-gb.tex
INPUT /home/yume/texlive/2017/texmf-dist/tex/latex/amsmath/amsmath.sty
INPUT /home/yume/texlive/2017/texmf-dist/tex/latex/amsmath/amsmath.sty
INPUT /home/yume/texlive/2017/texmf-dist/tex/latex/amsmath/amstext.sty
INPUT /home/yume/texlive/2017/texmf-dist/tex/latex/amsmath/amstext.sty
INPUT /home/yume/texlive/2017/texmf-dist/tex/latex/amsmath/amsgen.sty
INPUT /home/yume/texlive/2017/texmf-dist/tex/latex/amsmath/amsgen.sty
INPUT /home/yume/texlive/2017/texmf-dist/tex/latex/amsmath/amsbsy.sty
INPUT /home/yume/texlive/2017/texmf-dist/tex/latex/amsmath/amsbsy.sty
INPUT /home/yume/texlive/2017/texmf-dist/tex/latex/amsmath/amsopn.sty
INPUT /home/yume/texlive/2017/texmf-dist/tex/latex/amsmath/amsopn.sty
INPUT /home/yume/texlive/2017/texmf-dist/tex/latex/mathdesign/mathdesign.sty
INPUT /home/yume/texlive/2017/texmf-dist/tex/latex/mathdesign/mathdesign.sty
INPUT /home/yume/texlive/2017/texmf-dist/tex/latex/graphics/keyval.sty
INPUT /home/yume/texlive/2017/texmf-dist/tex/latex/graphics/keyval.sty
INPUT /home/yume/texlive/2017/texmf-dist/tex/latex/base/ifthen.sty
INPUT /home/yume/texlive/2017/texmf-dist/tex/latex/base/ifthen.sty
INPUT /home/yume/texlive/2017/texmf-dist/tex/latex/mathdesign/mdbch/mdbch.cfg
INPUT /home/yume/texlive/2017/texmf-dist/tex/latex/mathdesign/mdbch/mdbch.cfg
INPUT /home/yume/texlive/2017/texmf-dist/tex/latex/mathdesign/mdbch/mdbch.sty
INPUT /home/yume/texlive/2017/texmf-dist/tex/latex/mathdesign/mdbch/mdbch.sty
INPUT /home/yume/texlive/2017/texmf-dist/tex/latex/mathdesign/mdfont.def
INPUT /home/yume/texlive/2017/texmf-dist/tex/latex/mathdesign/mdfont.def
INPUT /home/yume/texlive/2017/texmf-dist/tex/latex/mathdesign/mdsffont.def
INPUT /home/yume/texlive/2017/texmf-dist/tex/latex/mathdesign/mdsffont.def
INPUT /home/yume/texlive/2017/texmf-dist/tex/latex/mathdesign/mdttfont.def
INPUT /home/yume/texlive/2017/texmf-dist/tex/latex/mathdesign/mdttfont.def
INPUT /home/yume/texlive/2017/texmf-dist/tex/latex/xkeyval/xkeyval.sty
INPUT /home/yume/texlive/2017/texmf-dist/tex/latex/xkeyval/xkeyval.sty
INPUT /home/yume/texlive/2017/texmf-dist/tex/generic/xkeyval/xkeyval.tex
INPUT /home/yume/texlive/2017/texmf-dist/tex/generic/xkeyval/xkvutils.tex
INPUT /home/yume/texlive/2017/texmf-dist/tex/latex/base/fontenc.sty
INPUT /home/yume/texlive/2017/texmf-dist/tex/latex/base/fontenc.sty
INPUT /home/yume/texlive/2017/texmf-dist/tex/latex/base/t1enc.def
INPUT /home/yume/texlive/2017/texmf-dist/tex/latex/base/t1enc.def
INPUT /home/yume/texlive/2017/texmf-dist/tex/latex/mathdesign/mdbch/t1mdbch.fd
INPUT /home/yume/texlive/2017/texmf-dist/tex/latex/mathdesign/mdbch/t1mdbch.fd
INPUT /home/yume/texlive/2017/texmf-dist/fonts/tfm/public/mathdesign/mdbch/mdbchr8t.tfm
INPUT /home/yume/texlive/2017/texmf-dist/fonts/vf/public/mathdesign/mdbch/mdbchr8t.vf
INPUT /home/yume/texlive/2017/texmf-dist/fonts/tfm/public/mathdesign/mdbch/md-chr8y.tfm
INPUT /home/yume/texlive/2017/texmf-dist/fonts/tfm/public/mathdesign/mdbch/md-chr8t.tfm
INPUT /home/yume/texlive/2017/texmf-dist/tex/latex/fontspec/fontspec.sty
INPUT /home/yume/texlive/2017/texmf-dist/tex/latex/fontspec/fontspec.sty
INPUT /home/yume/texlive/2017/texmf-dist/tex/latex/l3kernel/expl3.sty
INPUT /home/yume/texlive/2017/texmf-dist/tex/latex/l3kernel/expl3.sty
INPUT /home/yume/texlive/2017/texmf-dist/tex/latex/l3kernel/expl3-code.tex
INPUT /home/yume/texlive/2017/texmf-dist/tex/latex/l3kernel/expl3-code.tex
INPUT /home/yume/texlive/2017/texmf-dist/tex/generic/unicode-data/UnicodeData.txt
INPUT /home/yume/texlive/2017/texmf-dist/tex/generic/unicode-data/CaseFolding.txt
INPUT /home/yume/texlive/2017/texmf-dist/tex/generic/unicode-data/SpecialCasing.txt
INPUT /home/yume/texlive/2017/texmf-dist/fonts/tfm/public/cm/cmr10.tfm
INPUT /home/yume/texlive/2017/texmf-dist/fonts/tfm/public/cm/cmr10.tfm
INPUT /home/yume/texlive/2017/texmf-dist/fonts/tfm/public/cm/cmr10.tfm
INPUT /home/yume/texlive/2017/texmf-dist/fonts/tfm/public/cm/cmr10.tfm
INPUT /home/yume/texlive/2017/texmf-dist/fonts/tfm/public/cm/cmr10.tfm
INPUT /home/yume/texlive/2017/texmf-dist/fonts/tfm/public/cm/cmr10.tfm
INPUT /home/yume/texlive/2017/texmf-dist/fonts/tfm/public/cm/cmr10.tfm
INPUT /home/yume/texlive/2017/texmf-dist/fonts/tfm/public/cm/cmr10.tfm
INPUT /home/yume/texlive/2017/texmf-dist/tex/latex/l3kernel/l3pdfmode.def
INPUT /home/yume/texlive/2017/texmf-dist/tex/latex/l3kernel/l3pdfmode.def
INPUT /home/yume/texlive/2017/texmf-dist/tex/latex/l3packages/xparse/xparse.sty
INPUT /home/yume/texlive/2017/texmf-dist/tex/latex/l3packages/xparse/xparse.sty
INPUT /home/yume/texlive/2017/texmf-dist/tex/latex/fontspec/fontspec-luatex.sty
INPUT /home/yume/texlive/2017/texmf-dist/tex/latex/fontspec/fontspec-luatex.sty
INPUT /home/yume/texlive/2017/texmf-dist/tex/latex/base/tuenc.def
INPUT /home/yume/texlive/2017/texmf-dist/tex/latex/base/fontenc.sty
INPUT /home/yume/texlive/2017/texmf-dist/tex/latex/base/fontenc.sty
INPUT /home/yume/texlive/2017/texmf-dist/tex/latex/base/tuenc.def
INPUT /home/yume/texlive/2017/texmf-dist/tex/latex/base/tuenc.def
INPUT /home/yume/texlive/2017/texmf-dist/tex/latex/fontspec/fontspec.cfg
INPUT /home/yume/texlive/2017/texmf-dist/tex/latex/fontspec/fontspec.cfg
INPUT /home/yume/texlive/2017/texmf-var/luatex-cache/generic/fonts/otl/lmromandemi10-regular.luc
INPUT /home/yume/texlive/2017/texmf-var/luatex-cache/generic/fonts/otl/lmroman10-italic.luc
INPUT /home/yume/texlive/2017/texmf-var/luatex-cache/generic/fonts/otl/crimson-roman.luc
INPUT /home/yume/texlive/2017/texmf-var/luatex-cache/generic/fonts/otl/crimson-bold.luc
INPUT /home/yume/texlive/2017/texmf-var/luatex-cache/generic/fonts/otl/crimson-italic.luc
INPUT /home/yume/texlive/2017/texmf-var/luatex-cache/generic/fonts/otl/crimson-bolditalic.luc
INPUT /home/yume/texlive/2017/texmf-dist/tex/latex/xcolor/xcolor.sty
INPUT /home/yume/texlive/2017/texmf-dist/tex/latex/xcolor/xcolor.sty
INPUT /home/yume/texlive/2017/texmf-dist/tex/latex/graphics-cfg/color.cfg
INPUT /home/yume/texlive/2017/texmf-dist/tex/latex/graphics-cfg/color.cfg
INPUT /home/yume/texlive/2017/texmf-dist/tex/latex/graphics-def/luatex.def
INPUT /home/yume/texlive/2017/texmf-dist/tex/latex/graphics-def/luatex.def
INPUT /home/yume/texlive/2017/texmf-dist/tex/latex/graphics/graphicx.sty
INPUT /home/yume/texlive/2017/texmf-dist/tex/latex/graphics/graphicx.sty
INPUT /home/yume/texlive/2017/texmf-dist/tex/latex/graphics/graphics.sty
INPUT /home/yume/texlive/2017/texmf-dist/tex/latex/graphics/graphics.sty
INPUT /home/yume/texlive/2017/texmf-dist/tex/latex/graphics/trig.sty
INPUT /home/yume/texlive/2017/texmf-dist/tex/latex/graphics/trig.sty
INPUT /home/yume/texlive/2017/texmf-dist/tex/latex/graphics-cfg/graphics.cfg
INPUT /home/yume/texlive/2017/texmf-dist/tex/latex/graphics-cfg/graphics.cfg
INPUT /home/yume/texlive/2017/texmf-dist/tex/latex/enumitem/enumitem.sty
INPUT /home/yume/texlive/2017/texmf-dist/tex/latex/enumitem/enumitem.sty
INPUT /home/yume/texlive/2017/texmf-dist/tex/latex/tools/multicol.sty
INPUT /home/yume/texlive/2017/texmf-dist/tex/latex/tools/multicol.sty
INPUT /home/yume/texlive/2017/texmf-dist/tex/latex/hyperref/hyperref.sty
INPUT /home/yume/texlive/2017/texmf-dist/tex/latex/hyperref/hyperref.sty
INPUT /home/yume/texlive/2017/texmf-dist/tex/generic/oberdiek/hobsub-hyperref.sty
INPUT /home/yume/texlive/2017/texmf-dist/tex/generic/oberdiek/hobsub-hyperref.sty
INPUT /home/yume/texlive/2017/texmf-dist/tex/generic/oberdiek/hobsub-hyperref.sty
INPUT /home/yume/texlive/2017/texmf-dist/tex/generic/oberdiek/hobsub-generic.sty
INPUT /home/yume/texlive/2017/texmf-dist/tex/generic/oberdiek/hobsub-generic.sty
INPUT /home/yume/texlive/2017/texmf-dist/scripts/oberdiek/oberdiek.luatex.lua
INPUT /home/yume/texlive/2017/texmf-dist/tex/latex/oberdiek/auxhook.sty
INPUT /home/yume/texlive/2017/texmf-dist/tex/latex/oberdiek/auxhook.sty
INPUT /home/yume/texlive/2017/texmf-dist/tex/latex/oberdiek/kvoptions.sty
INPUT /home/yume/texlive/2017/texmf-dist/tex/latex/oberdiek/kvoptions.sty
INPUT /home/yume/texlive/2017/texmf-dist/tex/latex/hyperref/pd1enc.def
INPUT /home/yume/texlive/2017/texmf-dist/tex/latex/hyperref/pd1enc.def
INPUT /home/yume/texlive/2017/texmf-dist/tex/latex/latexconfig/hyperref.cfg
INPUT /home/yume/texlive/2017/texmf-dist/tex/latex/latexconfig/hyperref.cfg
INPUT /home/yume/texlive/2017/texmf-dist/tex/latex/url/url.sty
INPUT /home/yume/texlive/2017/texmf-dist/tex/latex/url/url.sty
INPUT /home/yume/texlive/2017/texmf-dist/tex/latex/memoir/memhfixc.sty
INPUT /home/yume/texlive/2017/texmf-dist/tex/latex/memoir/memhfixc.sty
INPUT /home/yume/texlive/2017/texmf-dist/tex/latex/hyperref/hluatex.def
INPUT /home/yume/texlive/2017/texmf-dist/tex/latex/hyperref/hluatex.def
INPUT /home/yume/texlive/2017/texmf-dist/tex/latex/oberdiek/rerunfilecheck.sty
INPUT /home/yume/texlive/2017/texmf-dist/tex/latex/oberdiek/rerunfilecheck.sty
INPUT /home/yume/texlive/2017/texmf-dist/tex/latex/titlesec/titletoc.sty
INPUT /home/yume/texlive/2017/texmf-dist/tex/latex/titlesec/titletoc.sty
INPUT /home/yume/texlive/2017/texmf-dist/tex/latex/eso-pic/eso-pic.sty
INPUT /home/yume/texlive/2017/texmf-dist/tex/latex/eso-pic/eso-pic.sty
INPUT /home/yume/texlive/2017/texmf-dist/tex/latex/hyperref/puenc.def
INPUT /home/yume/texlive/2017/texmf-dist/tex/latex/hyperref/puenc.def
INPUT /home/yume/texlive/2017/texmf-dist/tex/latex/oberdiek/bookmark.sty
INPUT /home/yume/texlive/2017/texmf-dist/tex/latex/oberdiek/bookmark.sty
INPUT /home/yume/texlive/2017/texmf-dist/tex/latex/oberdiek/bkm-pdftex.def
INPUT /home/yume/texlive/2017/texmf-dist/tex/latex/oberdiek/bkm-pdftex.def
INPUT /home/yume/texlive/2017/texmf-dist/tex/generic/ulem/ulem.sty
INPUT /home/yume/texlive/2017/texmf-dist/tex/generic/ulem/ulem.sty
INPUT /home/yume/texlive/2017/texmf-dist/fonts/tfm/public/latex-fonts/lasy6.tfm
INPUT /home/yume/texlive/2017/texmf-var/luatex-cache/generic/fonts/otl/kinnari.luc
INPUT /home/yume/texlive/2017/texmf-var/luatex-cache/generic/fonts/otl/kinnari-bolditalic.luc
INPUT /home/yume/texlive/2017/texmf-var/luatex-cache/generic/fonts/otl/kinnari-bold.luc
INPUT /home/yume/texlive/2017/texmf-var/luatex-cache/generic/fonts/otl/kinnari-oblique.luc
INPUT /home/yume/texlive/2017/texmf-dist/tex/latex/microtype/microtype.sty
INPUT /home/yume/texlive/2017/texmf-dist/tex/latex/microtype/microtype.sty
INPUT /home/yume/texlive/2017/texmf-dist/tex/latex/microtype/microtype-luatex.def
INPUT /home/yume/texlive/2017/texmf-dist/tex/latex/microtype/microtype-luatex.def
INPUT /home/yume/texlive/2017/texmf-dist/tex/luatex/luatexbase/luatexbase.sty
INPUT /home/yume/texlive/2017/texmf-dist/tex/luatex/luatexbase/luatexbase.sty
INPUT /home/yume/texlive/2017/texmf-dist/tex/luatex/ctablestack/ctablestack.sty
INPUT /home/yume/texlive/2017/texmf-dist/tex/luatex/ctablestack/ctablestack.sty
INPUT /home/yume/texlive/2017/texmf-dist/tex/latex/microtype/microtype.cfg
INPUT /home/yume/texlive/2017/texmf-dist/tex/latex/microtype/microtype.cfg
INPUT /home/yume/texlive/2017/texmf-dist/tex/latex/microtype/microtype.cfg
INPUT ./local.sty
INPUT ./local.sty
INPUT /home/yume/texlive/2017/texmf-dist/tex/latex/minted/minted.sty
INPUT /home/yume/texlive/2017/texmf-dist/tex/latex/minted/minted.sty
INPUT /home/yume/texlive/2017/texmf-dist/tex/latex/fvextra/fvextra.sty
INPUT /home/yume/texlive/2017/texmf-dist/tex/latex/fvextra/fvextra.sty
INPUT /home/yume/texlive/2017/texmf-dist/tex/latex/etoolbox/etoolbox.sty
INPUT /home/yume/texlive/2017/texmf-dist/tex/latex/etoolbox/etoolbox.sty
INPUT /home/yume/texlive/2017/texmf-dist/tex/latex/fancyvrb/fancyvrb.sty
INPUT /home/yume/texlive/2017/texmf-dist/tex/latex/fancyvrb/fancyvrb.sty
INPUT /home/yume/texlive/2017/texmf-dist/tex/latex/upquote/upquote.sty
INPUT /home/yume/texlive/2017/texmf-dist/tex/latex/upquote/upquote.sty
INPUT /home/yume/texlive/2017/texmf-dist/tex/latex/base/textcomp.sty
INPUT /home/yume/texlive/2017/texmf-dist/tex/latex/base/textcomp.sty
INPUT /home/yume/texlive/2017/texmf-dist/tex/latex/base/ts1enc.def
INPUT /home/yume/texlive/2017/texmf-dist/tex/latex/base/ts1enc.def
INPUT /home/yume/texlive/2017/texmf-dist/tex/latex/lineno/lineno.sty
INPUT /home/yume/texlive/2017/texmf-dist/tex/latex/lineno/lineno.sty
INPUT /home/yume/texlive/2017/texmf-var/luatex-cache/generic/fonts/otl/lmmono12-regular.luc
INPUT /home/yume/texlive/2017/texmf-dist/tex/latex/float/float.sty
INPUT /home/yume/texlive/2017/texmf-dist/tex/latex/float/float.sty
INPUT /home/yume/texlive/2017/texmf-dist/tex/latex/tools/shellesc.sty
INPUT /home/yume/texlive/2017/texmf-dist/tex/latex/tools/shellesc.sty
INPUT /home/yume/texlive/2017/texmf-dist/tex/latex/tools/shellesc.sty
INPUT /home/yume/texlive/2017/texmf-dist/tex/latex/ifplatform/ifplatform.sty
INPUT /home/yume/texlive/2017/texmf-dist/tex/latex/ifplatform/ifplatform.sty
INPUT /home/yume/texlive/2017/texmf-dist/tex/generic/oberdiek/catchfile.sty
INPUT /home/yume/texlive/2017/texmf-dist/tex/generic/oberdiek/catchfile.sty
INPUT ./wallcalendar-code.w18
INPUT ./wallcalendar-code.w18
INPUT /home/yume/texlive/2017/texmf-dist/tex/generic/xstring/xstring.sty
INPUT /home/yume/texlive/2017/texmf-dist/tex/generic/xstring/xstring.sty
INPUT /home/yume/texlive/2017/texmf-dist/tex/generic/xstring/xstring.tex
INPUT /home/yume/texlive/2017/texmf-dist/tex/latex/framed/framed.sty
INPUT /home/yume/texlive/2017/texmf-dist/tex/latex/framed/framed.sty
INPUT ./wallcalendar-code.aex
INPUT ./wallcalendar-code.aex
INPUT ./wallcalendar-code.aux
INPUT ./wallcalendar-code.aux
OUTPUT wallcalendar-code.aux
INPUT /home/yume/texlive/2017/texmf-dist/tex/latex/mathdesign/mdacmr.fd
INPUT /home/yume/texlive/2017/texmf-dist/tex/latex/mathdesign/mdacmr.fd
INPUT /home/yume/texlive/2017/texmf-dist/tex/latex/mathdesign/mdbcmr.fd
INPUT /home/yume/texlive/2017/texmf-dist/tex/latex/mathdesign/mdbcmr.fd
INPUT /home/yume/texlive/2017/texmf-dist/tex/latex/base/ts1cmr.fd
INPUT /home/yume/texlive/2017/texmf-dist/tex/latex/base/ts1cmr.fd
INPUT /home/yume/texlive/2017/texmf-dist/tex/context/base/mkii/supp-pdf.mkii
INPUT /home/yume/texlive/2017/texmf-dist/tex/context/base/mkii/supp-pdf.mkii
INPUT /home/yume/texlive/2017/texmf-dist/tex/latex/oberdiek/epstopdf-base.sty
INPUT /home/yume/texlive/2017/texmf-dist/tex/latex/oberdiek/epstopdf-base.sty
INPUT /home/yume/texlive/2017/texmf-dist/tex/latex/oberdiek/grfext.sty
INPUT /home/yume/texlive/2017/texmf-dist/tex/latex/oberdiek/grfext.sty
INPUT /home/yume/texlive/2017/texmf-dist/tex/latex/latexconfig/epstopdf-sys.cfg
INPUT /home/yume/texlive/2017/texmf-dist/tex/latex/latexconfig/epstopdf-sys.cfg
INPUT /home/yume/texlive/2017/texmf-dist/tex/latex/hyperref/nameref.sty
INPUT /home/yume/texlive/2017/texmf-dist/tex/latex/hyperref/nameref.sty
INPUT /home/yume/texlive/2017/texmf-dist/tex/generic/oberdiek/gettitlestring.sty
INPUT /home/yume/texlive/2017/texmf-dist/tex/generic/oberdiek/gettitlestring.sty
OUTPUT wallcalendar-code.pdf
INPUT /home/yume/texlive/2017/texmf-dist/tex/latex/mathdesign/mdbch/ot1mdbch.fd
INPUT /home/yume/texlive/2017/texmf-dist/tex/latex/mathdesign/mdbch/ot1mdbch.fd
INPUT /home/yume/texlive/2017/texmf-dist/fonts/tfm/public/mathdesign/mdbch/mdbchr7t.tfm
INPUT /home/yume/texlive/2017/texmf-dist/fonts/vf/public/mathdesign/mdbch/mdbchr7t.vf
INPUT /home/yume/texlive/2017/texmf-dist/fonts/tfm/public/mathdesign/mdbch/md-chr7t.tfm
INPUT /home/yume/texlive/2017/texmf-dist/fonts/tfm/public/mathdesign/mdbch/md-chr8y.tfm
INPUT /home/yume/texlive/2017/texmf-dist/tex/latex/microtype/mt-bch.cfg
INPUT /home/yume/texlive/2017/texmf-dist/tex/latex/microtype/mt-bch.cfg
INPUT /home/yume/texlive/2017/texmf-dist/fonts/tfm/public/mathdesign/mdbch/mdbchr7t.tfm
INPUT /home/yume/texlive/2017/texmf-dist/fonts/vf/public/mathdesign/mdbch/mdbchr7t.vf
INPUT /home/yume/texlive/2017/texmf-dist/fonts/tfm/public/mathdesign/mdbch/md-chr7t.tfm
INPUT /home/yume/texlive/2017/texmf-dist/fonts/tfm/public/mathdesign/mdbch/md-chr8y.tfm
INPUT /home/yume/texlive/2017/texmf-dist/fonts/tfm/public/mathdesign/mdbch/mdbchr7t.tfm
INPUT /home/yume/texlive/2017/texmf-dist/fonts/vf/public/mathdesign/mdbch/mdbchr7t.vf
INPUT /home/yume/texlive/2017/texmf-dist/fonts/tfm/public/mathdesign/mdbch/md-chr7t.tfm
INPUT /home/yume/texlive/2017/texmf-dist/fonts/tfm/public/mathdesign/mdbch/md-chr8y.tfm
INPUT /home/yume/texlive/2017/texmf-dist/tex/latex/mathdesign/mdbch/omlmdbch.fd
INPUT /home/yume/texlive/2017/texmf-dist/tex/latex/mathdesign/mdbch/omlmdbch.fd
INPUT /home/yume/texlive/2017/texmf-dist/fonts/tfm/public/mathdesign/mdbch/mdbchri7m.tfm
INPUT /home/yume/texlive/2017/texmf-dist/fonts/vf/public/mathdesign/mdbch/mdbchri7m.vf
INPUT /home/yume/texlive/2017/texmf-dist/fonts/tfm/public/mathdesign/mdbch/md-chri7m.tfm
INPUT /home/yume/texlive/2017/texmf-dist/fonts/tfm/public/mathdesign/mdbch/md-chri8y.tfm
INPUT /home/yume/texlive/2017/texmf-dist/fonts/tfm/public/mathdesign/mdbch/mdbchri7m.tfm
INPUT /home/yume/texlive/2017/texmf-dist/fonts/vf/public/mathdesign/mdbch/mdbchri7m.vf
INPUT /home/yume/texlive/2017/texmf-dist/fonts/tfm/public/mathdesign/mdbch/md-chri7m.tfm
INPUT /home/yume/texlive/2017/texmf-dist/fonts/tfm/public/mathdesign/mdbch/md-chri8y.tfm
INPUT /home/yume/texlive/2017/texmf-dist/fonts/tfm/public/mathdesign/mdbch/mdbchri7m.tfm
INPUT /home/yume/texlive/2017/texmf-dist/fonts/vf/public/mathdesign/mdbch/mdbchri7m.vf
INPUT /home/yume/texlive/2017/texmf-dist/fonts/tfm/public/mathdesign/mdbch/md-chri7m.tfm
INPUT /home/yume/texlive/2017/texmf-dist/fonts/tfm/public/mathdesign/mdbch/md-chri8y.tfm
INPUT /home/yume/texlive/2017/texmf-dist/tex/latex/mathdesign/mdbch/omsmdbch.fd
INPUT /home/yume/texlive/2017/texmf-dist/tex/latex/mathdesign/mdbch/omsmdbch.fd
INPUT /home/yume/texlive/2017/texmf-dist/fonts/tfm/public/mathdesign/mdbch/mdbchr7y.tfm
INPUT /home/yume/texlive/2017/texmf-dist/fonts/vf/public/mathdesign/mdbch/mdbchr7y.vf
INPUT /home/yume/texlive/2017/texmf-dist/fonts/tfm/public/mathdesign/mdbch/md-chr7y.tfm
INPUT /home/yume/texlive/2017/texmf-dist/fonts/tfm/public/mathdesign/mdbch/mdbchr7y.tfm
INPUT /home/yume/texlive/2017/texmf-dist/fonts/vf/public/mathdesign/mdbch/mdbchr7y.vf
INPUT /home/yume/texlive/2017/texmf-dist/fonts/tfm/public/mathdesign/mdbch/md-chr7y.tfm
INPUT /home/yume/texlive/2017/texmf-dist/fonts/tfm/public/mathdesign/mdbch/mdbchr7y.tfm
INPUT /home/yume/texlive/2017/texmf-dist/fonts/vf/public/mathdesign/mdbch/mdbchr7y.vf
INPUT /home/yume/texlive/2017/texmf-dist/fonts/tfm/public/mathdesign/mdbch/md-chr7y.tfm
INPUT /home/yume/texlive/2017/texmf-dist/tex/latex/mathdesign/mdbch/omxmdbch.fd
INPUT /home/yume/texlive/2017/texmf-dist/tex/latex/mathdesign/mdbch/omxmdbch.fd
INPUT /home/yume/texlive/2017/texmf-dist/fonts/tfm/public/mathdesign/mdbch/mdbchr7v.tfm
INPUT /home/yume/texlive/2017/texmf-dist/fonts/vf/public/mathdesign/mdbch/mdbchr7v.vf
INPUT /home/yume/texlive/2017/texmf-dist/fonts/tfm/public/mathdesign/mdbch/md-chr7v.tfm
INPUT /home/yume/texlive/2017/texmf-dist/fonts/tfm/public/mathdesign/mdbch/mdbchr7v.tfm
INPUT /home/yume/texlive/2017/texmf-dist/fonts/vf/public/mathdesign/mdbch/mdbchr7v.vf
INPUT /home/yume/texlive/2017/texmf-dist/fonts/tfm/public/mathdesign/mdbch/md-chr7v.tfm
INPUT /home/yume/texlive/2017/texmf-dist/fonts/tfm/public/mathdesign/mdbch/mdbchr7v.tfm
INPUT /home/yume/texlive/2017/texmf-dist/fonts/vf/public/mathdesign/mdbch/mdbchr7v.vf
INPUT /home/yume/texlive/2017/texmf-dist/fonts/tfm/public/mathdesign/mdbch/md-chr7v.tfm
INPUT /home/yume/texlive/2017/texmf-dist/fonts/tfm/public/mathdesign/mdbch/mdbchr7m.tfm
INPUT /home/yume/texlive/2017/texmf-dist/fonts/vf/public/mathdesign/mdbch/mdbchr7m.vf
INPUT /home/yume/texlive/2017/texmf-dist/fonts/tfm/public/mathdesign/mdbch/md-chr7m.tfm
INPUT /home/yume/texlive/2017/texmf-dist/fonts/tfm/public/mathdesign/mdbch/mdbchr7m.tfm
INPUT /home/yume/texlive/2017/texmf-dist/fonts/vf/public/mathdesign/mdbch/mdbchr7m.vf
INPUT /home/yume/texlive/2017/texmf-dist/fonts/tfm/public/mathdesign/mdbch/md-chr7m.tfm
INPUT /home/yume/texlive/2017/texmf-dist/fonts/tfm/public/mathdesign/mdbch/mdbchr7m.tfm
INPUT /home/yume/texlive/2017/texmf-dist/fonts/vf/public/mathdesign/mdbch/mdbchr7m.vf
INPUT /home/yume/texlive/2017/texmf-dist/fonts/tfm/public/mathdesign/mdbch/md-chr7m.tfm
INPUT /home/yume/texlive/2017/texmf-dist/tex/latex/mathdesign/mdbch/mdamdbch.fd
INPUT /home/yume/texlive/2017/texmf-dist/tex/latex/mathdesign/mdbch/mdamdbch.fd
INPUT /home/yume/texlive/2017/texmf-dist/fonts/tfm/public/mathdesign/mdbch/mdbchrma.tfm
INPUT /home/yume/texlive/2017/texmf-dist/fonts/vf/public/mathdesign/mdbch/mdbchrma.vf
INPUT /home/yume/texlive/2017/texmf-dist/fonts/tfm/public/mathdesign/mdbch/md-chrma.tfm
INPUT /home/yume/texlive/2017/texmf-dist/fonts/tfm/public/mathdesign/mdbch/mdbchrma.tfm
INPUT /home/yume/texlive/2017/texmf-dist/fonts/vf/public/mathdesign/mdbch/mdbchrma.vf
INPUT /home/yume/texlive/2017/texmf-dist/fonts/tfm/public/mathdesign/mdbch/md-chrma.tfm
INPUT /home/yume/texlive/2017/texmf-dist/fonts/tfm/public/mathdesign/mdbch/mdbchrma.tfm
INPUT /home/yume/texlive/2017/texmf-dist/fonts/vf/public/mathdesign/mdbch/mdbchrma.vf
INPUT /home/yume/texlive/2017/texmf-dist/fonts/tfm/public/mathdesign/mdbch/md-chrma.tfm
INPUT /home/yume/texlive/2017/texmf-dist/tex/latex/mathdesign/mdbch/mdbmdbch.fd
INPUT /home/yume/texlive/2017/texmf-dist/tex/latex/mathdesign/mdbch/mdbmdbch.fd
INPUT /home/yume/texlive/2017/texmf-dist/fonts/tfm/public/mathdesign/mdbch/mdbchrmb.tfm
INPUT /home/yume/texlive/2017/texmf-dist/fonts/vf/public/mathdesign/mdbch/mdbchrmb.vf
INPUT /home/yume/texlive/2017/texmf-dist/fonts/tfm/public/mathdesign/mdbch/md-chrmb.tfm
INPUT /home/yume/texlive/2017/texmf-dist/fonts/tfm/public/mathdesign/mdbch/mdbchrmb.tfm
INPUT /home/yume/texlive/2017/texmf-dist/fonts/vf/public/mathdesign/mdbch/mdbchrmb.vf
INPUT /home/yume/texlive/2017/texmf-dist/fonts/tfm/public/mathdesign/mdbch/md-chrmb.tfm
INPUT /home/yume/texlive/2017/texmf-dist/fonts/tfm/public/mathdesign/mdbch/mdbchrmb.tfm
INPUT /home/yume/texlive/2017/texmf-dist/fonts/vf/public/mathdesign/mdbch/mdbchrmb.vf
INPUT /home/yume/texlive/2017/texmf-dist/fonts/tfm/public/mathdesign/mdbch/md-chrmb.tfm
INPUT /home/yume/texlive/2017/texmf-dist/fonts/tfm/public/mathdesign/mdbch/mdbchr7t.tfm
INPUT /home/yume/texlive/2017/texmf-dist/fonts/vf/public/mathdesign/mdbch/mdbchr7t.vf
INPUT /home/yume/texlive/2017/texmf-dist/fonts/tfm/public/mathdesign/mdbch/md-chr7t.tfm
INPUT /home/yume/texlive/2017/texmf-dist/fonts/tfm/public/mathdesign/mdbch/md-chr8y.tfm
INPUT /home/yume/texlive/2017/texmf-dist/fonts/tfm/public/mathdesign/mdbch/mdbchr7t.tfm
INPUT /home/yume/texlive/2017/texmf-dist/fonts/vf/public/mathdesign/mdbch/mdbchr7t.vf
INPUT /home/yume/texlive/2017/texmf-dist/fonts/tfm/public/mathdesign/mdbch/md-chr7t.tfm
INPUT /home/yume/texlive/2017/texmf-dist/fonts/tfm/public/mathdesign/mdbch/md-chr8y.tfm
INPUT /home/yume/texlive/2017/texmf-dist/fonts/tfm/public/mathdesign/mdbch/mdbchr7t.tfm
INPUT /home/yume/texlive/2017/texmf-dist/fonts/vf/public/mathdesign/mdbch/mdbchr7t.vf
INPUT /home/yume/texlive/2017/texmf-dist/fonts/tfm/public/mathdesign/mdbch/md-chr7t.tfm
INPUT /home/yume/texlive/2017/texmf-dist/fonts/tfm/public/mathdesign/mdbch/md-chr8y.tfm
INPUT /home/yume/texlive/2017/texmf-dist/fonts/tfm/public/mathdesign/mdbch/mdbchri7m.tfm
INPUT /home/yume/texlive/2017/texmf-dist/fonts/vf/public/mathdesign/mdbch/mdbchri7m.vf
INPUT /home/yume/texlive/2017/texmf-dist/fonts/tfm/public/mathdesign/mdbch/md-chri7m.tfm
INPUT /home/yume/texlive/2017/texmf-dist/fonts/tfm/public/mathdesign/mdbch/md-chri8y.tfm
INPUT /home/yume/texlive/2017/texmf-dist/fonts/tfm/public/mathdesign/mdbch/mdbchri7m.tfm
INPUT /home/yume/texlive/2017/texmf-dist/fonts/vf/public/mathdesign/mdbch/mdbchri7m.vf
INPUT /home/yume/texlive/2017/texmf-dist/fonts/tfm/public/mathdesign/mdbch/md-chri7m.tfm
INPUT /home/yume/texlive/2017/texmf-dist/fonts/tfm/public/mathdesign/mdbch/md-chri8y.tfm
INPUT /home/yume/texlive/2017/texmf-dist/fonts/tfm/public/mathdesign/mdbch/mdbchri7m.tfm
INPUT /home/yume/texlive/2017/texmf-dist/fonts/vf/public/mathdesign/mdbch/mdbchri7m.vf
INPUT /home/yume/texlive/2017/texmf-dist/fonts/tfm/public/mathdesign/mdbch/md-chri7m.tfm
INPUT /home/yume/texlive/2017/texmf-dist/fonts/tfm/public/mathdesign/mdbch/md-chri8y.tfm
INPUT /home/yume/texlive/2017/texmf-dist/fonts/tfm/public/mathdesign/mdbch/mdbchr7y.tfm
INPUT /home/yume/texlive/2017/texmf-dist/fonts/vf/public/mathdesign/mdbch/mdbchr7y.vf
INPUT /home/yume/texlive/2017/texmf-dist/fonts/tfm/public/mathdesign/mdbch/md-chr7y.tfm
INPUT /home/yume/texlive/2017/texmf-dist/fonts/tfm/public/mathdesign/mdbch/mdbchr7y.tfm
INPUT /home/yume/texlive/2017/texmf-dist/fonts/vf/public/mathdesign/mdbch/mdbchr7y.vf
INPUT /home/yume/texlive/2017/texmf-dist/fonts/tfm/public/mathdesign/mdbch/md-chr7y.tfm
INPUT /home/yume/texlive/2017/texmf-dist/fonts/tfm/public/mathdesign/mdbch/mdbchr7y.tfm
INPUT /home/yume/texlive/2017/texmf-dist/fonts/vf/public/mathdesign/mdbch/mdbchr7y.vf
INPUT /home/yume/texlive/2017/texmf-dist/fonts/tfm/public/mathdesign/mdbch/md-chr7y.tfm
INPUT /home/yume/texlive/2017/texmf-dist/fonts/tfm/public/mathdesign/mdbch/mdbchr7v.tfm
INPUT /home/yume/texlive/2017/texmf-dist/fonts/vf/public/mathdesign/mdbch/mdbchr7v.vf
INPUT /home/yume/texlive/2017/texmf-dist/fonts/tfm/public/mathdesign/mdbch/md-chr7v.tfm
INPUT /home/yume/texlive/2017/texmf-dist/fonts/tfm/public/mathdesign/mdbch/mdbchr7v.tfm
INPUT /home/yume/texlive/2017/texmf-dist/fonts/vf/public/mathdesign/mdbch/mdbchr7v.vf
INPUT /home/yume/texlive/2017/texmf-dist/fonts/tfm/public/mathdesign/mdbch/md-chr7v.tfm
INPUT /home/yume/texlive/2017/texmf-dist/fonts/tfm/public/mathdesign/mdbch/mdbchr7v.tfm
INPUT /home/yume/texlive/2017/texmf-dist/fonts/vf/public/mathdesign/mdbch/mdbchr7v.vf
INPUT /home/yume/texlive/2017/texmf-dist/fonts/tfm/public/mathdesign/mdbch/md-chr7v.tfm
INPUT /home/yume/texlive/2017/texmf-dist/fonts/tfm/public/mathdesign/mdbch/mdbchr7m.tfm
INPUT /home/yume/texlive/2017/texmf-dist/fonts/vf/public/mathdesign/mdbch/mdbchr7m.vf
INPUT /home/yume/texlive/2017/texmf-dist/fonts/tfm/public/mathdesign/mdbch/md-chr7m.tfm
INPUT /home/yume/texlive/2017/texmf-dist/fonts/tfm/public/mathdesign/mdbch/mdbchr7m.tfm
INPUT /home/yume/texlive/2017/texmf-dist/fonts/vf/public/mathdesign/mdbch/mdbchr7m.vf
INPUT /home/yume/texlive/2017/texmf-dist/fonts/tfm/public/mathdesign/mdbch/md-chr7m.tfm
INPUT /home/yume/texlive/2017/texmf-dist/fonts/tfm/public/mathdesign/mdbch/mdbchr7m.tfm
INPUT /home/yume/texlive/2017/texmf-dist/fonts/vf/public/mathdesign/mdbch/mdbchr7m.vf
INPUT /home/yume/texlive/2017/texmf-dist/fonts/tfm/public/mathdesign/mdbch/md-chr7m.tfm
INPUT /home/yume/texlive/2017/texmf-dist/fonts/tfm/public/mathdesign/mdbch/mdbchrma.tfm
INPUT /home/yume/texlive/2017/texmf-dist/fonts/vf/public/mathdesign/mdbch/mdbchrma.vf
INPUT /home/yume/texlive/2017/texmf-dist/fonts/tfm/public/mathdesign/mdbch/md-chrma.tfm
INPUT /home/yume/texlive/2017/texmf-dist/fonts/tfm/public/mathdesign/mdbch/mdbchrma.tfm
INPUT /home/yume/texlive/2017/texmf-dist/fonts/vf/public/mathdesign/mdbch/mdbchrma.vf
INPUT /home/yume/texlive/2017/texmf-dist/fonts/tfm/public/mathdesign/mdbch/md-chrma.tfm
INPUT /home/yume/texlive/2017/texmf-dist/fonts/tfm/public/mathdesign/mdbch/mdbchrma.tfm
INPUT /home/yume/texlive/2017/texmf-dist/fonts/vf/public/mathdesign/mdbch/mdbchrma.vf
INPUT /home/yume/texlive/2017/texmf-dist/fonts/tfm/public/mathdesign/mdbch/md-chrma.tfm
INPUT /home/yume/texlive/2017/texmf-dist/fonts/tfm/public/mathdesign/mdbch/mdbchrmb.tfm
INPUT /home/yume/texlive/2017/texmf-dist/fonts/vf/public/mathdesign/mdbch/mdbchrmb.vf
INPUT /home/yume/texlive/2017/texmf-dist/fonts/tfm/public/mathdesign/mdbch/md-chrmb.tfm
INPUT /home/yume/texlive/2017/texmf-dist/fonts/tfm/public/mathdesign/mdbch/mdbchrmb.tfm
INPUT /home/yume/texlive/2017/texmf-dist/fonts/vf/public/mathdesign/mdbch/mdbchrmb.vf
INPUT /home/yume/texlive/2017/texmf-dist/fonts/tfm/public/mathdesign/mdbch/md-chrmb.tfm
INPUT /home/yume/texlive/2017/texmf-dist/fonts/tfm/public/mathdesign/mdbch/mdbchrmb.tfm
INPUT /home/yume/texlive/2017/texmf-dist/fonts/vf/public/mathdesign/mdbch/mdbchrmb.vf
INPUT /home/yume/texlive/2017/texmf-dist/fonts/tfm/public/mathdesign/mdbch/md-chrmb.tfm
INPUT ./wallcalendar-code.toc
INPUT ./wallcalendar-code.toc
INPUT /home/yume/texlive/2017/texmf-dist/fonts/tfm/public/mathdesign/mdbch/mdbchr7t.tfm
INPUT /home/yume/texlive/2017/texmf-dist/fonts/vf/public/mathdesign/mdbch/mdbchr7t.vf
INPUT /home/yume/texlive/2017/texmf-dist/fonts/tfm/public/mathdesign/mdbch/md-chr7t.tfm
INPUT /home/yume/texlive/2017/texmf-dist/fonts/tfm/public/mathdesign/mdbch/md-chr8y.tfm
INPUT /home/yume/texlive/2017/texmf-dist/fonts/tfm/public/mathdesign/mdbch/mdbchr7t.tfm
INPUT /home/yume/texlive/2017/texmf-dist/fonts/vf/public/mathdesign/mdbch/mdbchr7t.vf
INPUT /home/yume/texlive/2017/texmf-dist/fonts/tfm/public/mathdesign/mdbch/md-chr7t.tfm
INPUT /home/yume/texlive/2017/texmf-dist/fonts/tfm/public/mathdesign/mdbch/md-chr8y.tfm
INPUT /home/yume/texlive/2017/texmf-dist/fonts/tfm/public/mathdesign/mdbch/mdbchr7t.tfm
INPUT /home/yume/texlive/2017/texmf-dist/fonts/vf/public/mathdesign/mdbch/mdbchr7t.vf
INPUT /home/yume/texlive/2017/texmf-dist/fonts/tfm/public/mathdesign/mdbch/md-chr7t.tfm
INPUT /home/yume/texlive/2017/texmf-dist/fonts/tfm/public/mathdesign/mdbch/md-chr8y.tfm
INPUT /home/yume/texlive/2017/texmf-dist/fonts/tfm/public/mathdesign/mdbch/mdbchri7m.tfm
INPUT /home/yume/texlive/2017/texmf-dist/fonts/vf/public/mathdesign/mdbch/mdbchri7m.vf
INPUT /home/yume/texlive/2017/texmf-dist/fonts/tfm/public/mathdesign/mdbch/md-chri7m.tfm
INPUT /home/yume/texlive/2017/texmf-dist/fonts/tfm/public/mathdesign/mdbch/md-chri8y.tfm
INPUT /home/yume/texlive/2017/texmf-dist/fonts/tfm/public/mathdesign/mdbch/mdbchri7m.tfm
INPUT /home/yume/texlive/2017/texmf-dist/fonts/vf/public/mathdesign/mdbch/mdbchri7m.vf
INPUT /home/yume/texlive/2017/texmf-dist/fonts/tfm/public/mathdesign/mdbch/md-chri7m.tfm
INPUT /home/yume/texlive/2017/texmf-dist/fonts/tfm/public/mathdesign/mdbch/md-chri8y.tfm
INPUT /home/yume/texlive/2017/texmf-dist/fonts/tfm/public/mathdesign/mdbch/mdbchri7m.tfm
INPUT /home/yume/texlive/2017/texmf-dist/fonts/vf/public/mathdesign/mdbch/mdbchri7m.vf
INPUT /home/yume/texlive/2017/texmf-dist/fonts/tfm/public/mathdesign/mdbch/md-chri7m.tfm
INPUT /home/yume/texlive/2017/texmf-dist/fonts/tfm/public/mathdesign/mdbch/md-chri8y.tfm
INPUT /home/yume/texlive/2017/texmf-dist/fonts/tfm/public/mathdesign/mdbch/mdbchr7y.tfm
INPUT /home/yume/texlive/2017/texmf-dist/fonts/vf/public/mathdesign/mdbch/mdbchr7y.vf
INPUT /home/yume/texlive/2017/texmf-dist/fonts/tfm/public/mathdesign/mdbch/md-chr7y.tfm
INPUT /home/yume/texlive/2017/texmf-dist/fonts/tfm/public/mathdesign/mdbch/mdbchr7y.tfm
INPUT /home/yume/texlive/2017/texmf-dist/fonts/vf/public/mathdesign/mdbch/mdbchr7y.vf
INPUT /home/yume/texlive/2017/texmf-dist/fonts/tfm/public/mathdesign/mdbch/md-chr7y.tfm
INPUT /home/yume/texlive/2017/texmf-dist/fonts/tfm/public/mathdesign/mdbch/mdbchr7y.tfm
INPUT /home/yume/texlive/2017/texmf-dist/fonts/vf/public/mathdesign/mdbch/mdbchr7y.vf
INPUT /home/yume/texlive/2017/texmf-dist/fonts/tfm/public/mathdesign/mdbch/md-chr7y.tfm
INPUT /home/yume/texlive/2017/texmf-dist/fonts/tfm/public/mathdesign/mdbch/mdbchr7v.tfm
INPUT /home/yume/texlive/2017/texmf-dist/fonts/vf/public/mathdesign/mdbch/mdbchr7v.vf
INPUT /home/yume/texlive/2017/texmf-dist/fonts/tfm/public/mathdesign/mdbch/md-chr7v.tfm
INPUT /home/yume/texlive/2017/texmf-dist/fonts/tfm/public/mathdesign/mdbch/mdbchr7v.tfm
INPUT /home/yume/texlive/2017/texmf-dist/fonts/vf/public/mathdesign/mdbch/mdbchr7v.vf
INPUT /home/yume/texlive/2017/texmf-dist/fonts/tfm/public/mathdesign/mdbch/md-chr7v.tfm
INPUT /home/yume/texlive/2017/texmf-dist/fonts/tfm/public/mathdesign/mdbch/mdbchr7v.tfm
INPUT /home/yume/texlive/2017/texmf-dist/fonts/vf/public/mathdesign/mdbch/mdbchr7v.vf
INPUT /home/yume/texlive/2017/texmf-dist/fonts/tfm/public/mathdesign/mdbch/md-chr7v.tfm
INPUT /home/yume/texlive/2017/texmf-dist/fonts/tfm/public/mathdesign/mdbch/mdbchr7m.tfm
INPUT /home/yume/texlive/2017/texmf-dist/fonts/vf/public/mathdesign/mdbch/mdbchr7m.vf
INPUT /home/yume/texlive/2017/texmf-dist/fonts/tfm/public/mathdesign/mdbch/md-chr7m.tfm
INPUT /home/yume/texlive/2017/texmf-dist/fonts/tfm/public/mathdesign/mdbch/mdbchr7m.tfm
INPUT /home/yume/texlive/2017/texmf-dist/fonts/vf/public/mathdesign/mdbch/mdbchr7m.vf
INPUT /home/yume/texlive/2017/texmf-dist/fonts/tfm/public/mathdesign/mdbch/md-chr7m.tfm
INPUT /home/yume/texlive/2017/texmf-dist/fonts/tfm/public/mathdesign/mdbch/mdbchr7m.tfm
INPUT /home/yume/texlive/2017/texmf-dist/fonts/vf/public/mathdesign/mdbch/mdbchr7m.vf
INPUT /home/yume/texlive/2017/texmf-dist/fonts/tfm/public/mathdesign/mdbch/md-chr7m.tfm
INPUT /home/yume/texlive/2017/texmf-dist/fonts/tfm/public/mathdesign/mdbch/mdbchrma.tfm
INPUT /home/yume/texlive/2017/texmf-dist/fonts/vf/public/mathdesign/mdbch/mdbchrma.vf
INPUT /home/yume/texlive/2017/texmf-dist/fonts/tfm/public/mathdesign/mdbch/md-chrma.tfm
INPUT /home/yume/texlive/2017/texmf-dist/fonts/tfm/public/mathdesign/mdbch/mdbchrma.tfm
INPUT /home/yume/texlive/2017/texmf-dist/fonts/vf/public/mathdesign/mdbch/mdbchrma.vf
INPUT /home/yume/texlive/2017/texmf-dist/fonts/tfm/public/mathdesign/mdbch/md-chrma.tfm
INPUT /home/yume/texlive/2017/texmf-dist/fonts/tfm/public/mathdesign/mdbch/mdbchrma.tfm
INPUT /home/yume/texlive/2017/texmf-dist/fonts/vf/public/mathdesign/mdbch/mdbchrma.vf
INPUT /home/yume/texlive/2017/texmf-dist/fonts/tfm/public/mathdesign/mdbch/md-chrma.tfm
INPUT /home/yume/texlive/2017/texmf-dist/fonts/tfm/public/mathdesign/mdbch/mdbchrmb.tfm
INPUT /home/yume/texlive/2017/texmf-dist/fonts/vf/public/mathdesign/mdbch/mdbchrmb.vf
INPUT /home/yume/texlive/2017/texmf-dist/fonts/tfm/public/mathdesign/mdbch/md-chrmb.tfm
INPUT /home/yume/texlive/2017/texmf-dist/fonts/tfm/public/mathdesign/mdbch/mdbchrmb.tfm
INPUT /home/yume/texlive/2017/texmf-dist/fonts/vf/public/mathdesign/mdbch/mdbchrmb.vf
INPUT /home/yume/texlive/2017/texmf-dist/fonts/tfm/public/mathdesign/mdbch/md-chrmb.tfm
INPUT /home/yume/texlive/2017/texmf-dist/fonts/tfm/public/mathdesign/mdbch/mdbchrmb.tfm
INPUT /home/yume/texlive/2017/texmf-dist/fonts/vf/public/mathdesign/mdbch/mdbchrmb.vf
INPUT /home/yume/texlive/2017/texmf-dist/fonts/tfm/public/mathdesign/mdbch/md-chrmb.tfm
OUTPUT wallcalendar-code.pyg
INPUT ./_minted-wallcalendar-code/default-pyg-prefix.pygstyle
INPUT ./_minted-wallcalendar-code/default-pyg-prefix.pygstyle
INPUT ./_minted-wallcalendar-code/default-pyg-prefix.pygstyle
INPUT ./_minted-wallcalendar-code/default-pyg-prefix.pygstyle
INPUT ./_minted-wallcalendar-code/default.pygstyle
INPUT ./_minted-wallcalendar-code/default.pygstyle
INPUT ./_minted-wallcalendar-code/default.pygstyle
INPUT ./_minted-wallcalendar-code/default.pygstyle
INPUT ./_minted-wallcalendar-code/4370CF835A691F3BBF85CAB364AF7ED343C43E3E67E44C81AF28C8B61108D25C.pygtex
INPUT ./_minted-wallcalendar-code/4370CF835A691F3BBF85CAB364AF7ED343C43E3E67E44C81AF28C8B61108D25C.pygtex
INPUT ./_minted-wallcalendar-code/4370CF835A691F3BBF85CAB364AF7ED343C43E3E67E44C81AF28C8B61108D25C.pygtex
INPUT ./_minted-wallcalendar-code/4370CF835A691F3BBF85CAB364AF7ED343C43E3E67E44C81AF28C8B61108D25C.pygtex
INPUT /home/yume/texlive/2017/texmf-var/luatex-cache/generic/fonts/otl/lmmono9-regular.luc
INPUT /home/yume/texlive/2017/texmf-var/luatex-cache/generic/fonts/otl/lmmono10-italic.luc
OUTPUT wallcalendar-code.pyg
INPUT ./_minted-wallcalendar-code/51EA9D0FE4EC3BCB835ADFA28E9D8EA943C43E3E67E44C81AF28C8B61108D25C.pygtex
INPUT ./_minted-wallcalendar-code/51EA9D0FE4EC3BCB835ADFA28E9D8EA943C43E3E67E44C81AF28C8B61108D25C.pygtex
INPUT ./_minted-wallcalendar-code/51EA9D0FE4EC3BCB835ADFA28E9D8EA943C43E3E67E44C81AF28C8B61108D25C.pygtex
INPUT ./_minted-wallcalendar-code/51EA9D0FE4EC3BCB835ADFA28E9D8EA943C43E3E67E44C81AF28C8B61108D25C.pygtex
INPUT /home/yume/texlive/2017/texmf-var/luatex-cache/generic/fonts/otl/lmmonolt10-bold.luc
OUTPUT wallcalendar-code.pyg
INPUT ./_minted-wallcalendar-code/D74A299E1C80B0FABE737F418D3D788443C43E3E67E44C81AF28C8B61108D25C.pygtex
INPUT ./_minted-wallcalendar-code/D74A299E1C80B0FABE737F418D3D788443C43E3E67E44C81AF28C8B61108D25C.pygtex
INPUT ./_minted-wallcalendar-code/D74A299E1C80B0FABE737F418D3D788443C43E3E67E44C81AF28C8B61108D25C.pygtex
INPUT ./_minted-wallcalendar-code/D74A299E1C80B0FABE737F418D3D788443C43E3E67E44C81AF28C8B61108D25C.pygtex
OUTPUT wallcalendar-code.pyg
INPUT ./_minted-wallcalendar-code/1937A9361D6B964B6AFB29EAFC328DDE43C43E3E67E44C81AF28C8B61108D25C.pygtex
INPUT ./_minted-wallcalendar-code/1937A9361D6B964B6AFB29EAFC328DDE43C43E3E67E44C81AF28C8B61108D25C.pygtex
INPUT ./_minted-wallcalendar-code/1937A9361D6B964B6AFB29EAFC328DDE43C43E3E67E44C81AF28C8B61108D25C.pygtex
INPUT ./_minted-wallcalendar-code/1937A9361D6B964B6AFB29EAFC328DDE43C43E3E67E44C81AF28C8B61108D25C.pygtex
OUTPUT wallcalendar-code.pyg
INPUT ./_minted-wallcalendar-code/0CCC8B6CA129D064C36E9FD59B79C03C43C43E3E67E44C81AF28C8B61108D25C.pygtex
INPUT ./_minted-wallcalendar-code/0CCC8B6CA129D064C36E9FD59B79C03C43C43E3E67E44C81AF28C8B61108D25C.pygtex
INPUT ./_minted-wallcalendar-code/0CCC8B6CA129D064C36E9FD59B79C03C43C43E3E67E44C81AF28C8B61108D25C.pygtex
INPUT ./_minted-wallcalendar-code/0CCC8B6CA129D064C36E9FD59B79C03C43C43E3E67E44C81AF28C8B61108D25C.pygtex
OUTPUT wallcalendar-code.pyg
INPUT ./_minted-wallcalendar-code/5E894CC9D1C6BCFD681CFF379A80DA5543C43E3E67E44C81AF28C8B61108D25C.pygtex
INPUT ./_minted-wallcalendar-code/5E894CC9D1C6BCFD681CFF379A80DA5543C43E3E67E44C81AF28C8B61108D25C.pygtex
INPUT ./_minted-wallcalendar-code/5E894CC9D1C6BCFD681CFF379A80DA5543C43E3E67E44C81AF28C8B61108D25C.pygtex
INPUT ./_minted-wallcalendar-code/5E894CC9D1C6BCFD681CFF379A80DA5543C43E3E67E44C81AF28C8B61108D25C.pygtex
OUTPUT wallcalendar-code.pyg
INPUT ./_minted-wallcalendar-code/2672FBDBB9C494A251B1E94C0B38F8AD43C43E3E67E44C81AF28C8B61108D25C.pygtex
INPUT ./_minted-wallcalendar-code/2672FBDBB9C494A251B1E94C0B38F8AD43C43E3E67E44C81AF28C8B61108D25C.pygtex
INPUT ./_minted-wallcalendar-code/2672FBDBB9C494A251B1E94C0B38F8AD43C43E3E67E44C81AF28C8B61108D25C.pygtex
INPUT ./_minted-wallcalendar-code/2672FBDBB9C494A251B1E94C0B38F8AD43C43E3E67E44C81AF28C8B61108D25C.pygtex
OUTPUT wallcalendar-code.pyg
INPUT ./_minted-wallcalendar-code/09AD78D3F767ADD7015D0F7C1E2E329043C43E3E67E44C81AF28C8B61108D25C.pygtex
INPUT ./_minted-wallcalendar-code/09AD78D3F767ADD7015D0F7C1E2E329043C43E3E67E44C81AF28C8B61108D25C.pygtex
INPUT ./_minted-wallcalendar-code/09AD78D3F767ADD7015D0F7C1E2E329043C43E3E67E44C81AF28C8B61108D25C.pygtex
INPUT ./_minted-wallcalendar-code/09AD78D3F767ADD7015D0F7C1E2E329043C43E3E67E44C81AF28C8B61108D25C.pygtex
OUTPUT wallcalendar-code.pyg
INPUT ./_minted-wallcalendar-code/ECD65CCC2E385029B6F062A27A34C38E43C43E3E67E44C81AF28C8B61108D25C.pygtex
INPUT ./_minted-wallcalendar-code/ECD65CCC2E385029B6F062A27A34C38E43C43E3E67E44C81AF28C8B61108D25C.pygtex
INPUT ./_minted-wallcalendar-code/ECD65CCC2E385029B6F062A27A34C38E43C43E3E67E44C81AF28C8B61108D25C.pygtex
INPUT ./_minted-wallcalendar-code/ECD65CCC2E385029B6F062A27A34C38E43C43E3E67E44C81AF28C8B61108D25C.pygtex
OUTPUT wallcalendar-code.pyg
INPUT ./_minted-wallcalendar-code/379DD89CC25851871F34E010BBB1011A43C43E3E67E44C81AF28C8B61108D25C.pygtex
INPUT ./_minted-wallcalendar-code/379DD89CC25851871F34E010BBB1011A43C43E3E67E44C81AF28C8B61108D25C.pygtex
INPUT ./_minted-wallcalendar-code/379DD89CC25851871F34E010BBB1011A43C43E3E67E44C81AF28C8B61108D25C.pygtex
INPUT ./_minted-wallcalendar-code/379DD89CC25851871F34E010BBB1011A43C43E3E67E44C81AF28C8B61108D25C.pygtex
OUTPUT wallcalendar-code.pyg
INPUT ./_minted-wallcalendar-code/EA45012636BAEFC8155FD6C5CB0F7F8C43C43E3E67E44C81AF28C8B61108D25C.pygtex
INPUT ./_minted-wallcalendar-code/EA45012636BAEFC8155FD6C5CB0F7F8C43C43E3E67E44C81AF28C8B61108D25C.pygtex
INPUT ./_minted-wallcalendar-code/EA45012636BAEFC8155FD6C5CB0F7F8C43C43E3E67E44C81AF28C8B61108D25C.pygtex
INPUT ./_minted-wallcalendar-code/EA45012636BAEFC8155FD6C5CB0F7F8C43C43E3E67E44C81AF28C8B61108D25C.pygtex
OUTPUT wallcalendar-code.pyg
INPUT ./_minted-wallcalendar-code/86A7D3E081CA07C3EBC1EE0341154F2E43C43E3E67E44C81AF28C8B61108D25C.pygtex
INPUT ./_minted-wallcalendar-code/86A7D3E081CA07C3EBC1EE0341154F2E43C43E3E67E44C81AF28C8B61108D25C.pygtex
INPUT ./_minted-wallcalendar-code/86A7D3E081CA07C3EBC1EE0341154F2E43C43E3E67E44C81AF28C8B61108D25C.pygtex
INPUT ./_minted-wallcalendar-code/86A7D3E081CA07C3EBC1EE0341154F2E43C43E3E67E44C81AF28C8B61108D25C.pygtex
OUTPUT wallcalendar-code.pyg
INPUT ./_minted-wallcalendar-code/E9D48774E2D196EC8935C8C411FE7FF143C43E3E67E44C81AF28C8B61108D25C.pygtex
INPUT ./_minted-wallcalendar-code/E9D48774E2D196EC8935C8C411FE7FF143C43E3E67E44C81AF28C8B61108D25C.pygtex
INPUT ./_minted-wallcalendar-code/E9D48774E2D196EC8935C8C411FE7FF143C43E3E67E44C81AF28C8B61108D25C.pygtex
INPUT ./_minted-wallcalendar-code/E9D48774E2D196EC8935C8C411FE7FF143C43E3E67E44C81AF28C8B61108D25C.pygtex
OUTPUT wallcalendar-code.pyg
INPUT ./_minted-wallcalendar-code/AC2D64784236E506BAAF014D827450DD43C43E3E67E44C81AF28C8B61108D25C.pygtex
INPUT ./_minted-wallcalendar-code/AC2D64784236E506BAAF014D827450DD43C43E3E67E44C81AF28C8B61108D25C.pygtex
INPUT ./_minted-wallcalendar-code/AC2D64784236E506BAAF014D827450DD43C43E3E67E44C81AF28C8B61108D25C.pygtex
INPUT ./_minted-wallcalendar-code/AC2D64784236E506BAAF014D827450DD43C43E3E67E44C81AF28C8B61108D25C.pygtex
OUTPUT wallcalendar-code.pyg
INPUT ./_minted-wallcalendar-code/F8C6A5C012529160D87602BD8A3A84F243C43E3E67E44C81AF28C8B61108D25C.pygtex
INPUT ./_minted-wallcalendar-code/F8C6A5C012529160D87602BD8A3A84F243C43E3E67E44C81AF28C8B61108D25C.pygtex
INPUT ./_minted-wallcalendar-code/F8C6A5C012529160D87602BD8A3A84F243C43E3E67E44C81AF28C8B61108D25C.pygtex
INPUT ./_minted-wallcalendar-code/F8C6A5C012529160D87602BD8A3A84F243C43E3E67E44C81AF28C8B61108D25C.pygtex
OUTPUT wallcalendar-code.pyg
INPUT ./_minted-wallcalendar-code/E5A458FEDF52EB2B0A32B7824AB4EB8E43C43E3E67E44C81AF28C8B61108D25C.pygtex
INPUT ./_minted-wallcalendar-code/E5A458FEDF52EB2B0A32B7824AB4EB8E43C43E3E67E44C81AF28C8B61108D25C.pygtex
INPUT ./_minted-wallcalendar-code/E5A458FEDF52EB2B0A32B7824AB4EB8E43C43E3E67E44C81AF28C8B61108D25C.pygtex
INPUT ./_minted-wallcalendar-code/E5A458FEDF52EB2B0A32B7824AB4EB8E43C43E3E67E44C81AF28C8B61108D25C.pygtex
OUTPUT wallcalendar-code.pyg
INPUT ./_minted-wallcalendar-code/033BBD01DF821E53BEF1F76066548A1B43C43E3E67E44C81AF28C8B61108D25C.pygtex
INPUT ./_minted-wallcalendar-code/033BBD01DF821E53BEF1F76066548A1B43C43E3E67E44C81AF28C8B61108D25C.pygtex
INPUT ./_minted-wallcalendar-code/033BBD01DF821E53BEF1F76066548A1B43C43E3E67E44C81AF28C8B61108D25C.pygtex
INPUT ./_minted-wallcalendar-code/033BBD01DF821E53BEF1F76066548A1B43C43E3E67E44C81AF28C8B61108D25C.pygtex
OUTPUT wallcalendar-code.pyg
INPUT ./_minted-wallcalendar-code/DCF96EB9A28745B85E3AB5432A4F2AC043C43E3E67E44C81AF28C8B61108D25C.pygtex
INPUT ./_minted-wallcalendar-code/DCF96EB9A28745B85E3AB5432A4F2AC043C43E3E67E44C81AF28C8B61108D25C.pygtex
INPUT ./_minted-wallcalendar-code/DCF96EB9A28745B85E3AB5432A4F2AC043C43E3E67E44C81AF28C8B61108D25C.pygtex
INPUT ./_minted-wallcalendar-code/DCF96EB9A28745B85E3AB5432A4F2AC043C43E3E67E44C81AF28C8B61108D25C.pygtex
OUTPUT wallcalendar-code.pyg
INPUT ./_minted-wallcalendar-code/9A012B9BE1259AA1EFB4BAE63268100443C43E3E67E44C81AF28C8B61108D25C.pygtex
INPUT ./_minted-wallcalendar-code/9A012B9BE1259AA1EFB4BAE63268100443C43E3E67E44C81AF28C8B61108D25C.pygtex
INPUT ./_minted-wallcalendar-code/9A012B9BE1259AA1EFB4BAE63268100443C43E3E67E44C81AF28C8B61108D25C.pygtex
INPUT ./_minted-wallcalendar-code/9A012B9BE1259AA1EFB4BAE63268100443C43E3E67E44C81AF28C8B61108D25C.pygtex
OUTPUT wallcalendar-code.pyg
INPUT ./_minted-wallcalendar-code/FD1F46CC6C9149CBB3E066952ECDED2D43C43E3E67E44C81AF28C8B61108D25C.pygtex
INPUT ./_minted-wallcalendar-code/FD1F46CC6C9149CBB3E066952ECDED2D43C43E3E67E44C81AF28C8B61108D25C.pygtex
INPUT ./_minted-wallcalendar-code/FD1F46CC6C9149CBB3E066952ECDED2D43C43E3E67E44C81AF28C8B61108D25C.pygtex
INPUT ./_minted-wallcalendar-code/FD1F46CC6C9149CBB3E066952ECDED2D43C43E3E67E44C81AF28C8B61108D25C.pygtex
OUTPUT wallcalendar-code.pyg
INPUT ./_minted-wallcalendar-code/9F580BAA1F31C0E44D11DD51C2460F0943C43E3E67E44C81AF28C8B61108D25C.pygtex
INPUT ./_minted-wallcalendar-code/9F580BAA1F31C0E44D11DD51C2460F0943C43E3E67E44C81AF28C8B61108D25C.pygtex
INPUT ./_minted-wallcalendar-code/9F580BAA1F31C0E44D11DD51C2460F0943C43E3E67E44C81AF28C8B61108D25C.pygtex
INPUT ./_minted-wallcalendar-code/9F580BAA1F31C0E44D11DD51C2460F0943C43E3E67E44C81AF28C8B61108D25C.pygtex
OUTPUT wallcalendar-code.pyg
INPUT ./_minted-wallcalendar-code/CBA1F475B3F7B3D50733EA23375DF1F743C43E3E67E44C81AF28C8B61108D25C.pygtex
INPUT ./_minted-wallcalendar-code/CBA1F475B3F7B3D50733EA23375DF1F743C43E3E67E44C81AF28C8B61108D25C.pygtex
INPUT ./_minted-wallcalendar-code/CBA1F475B3F7B3D50733EA23375DF1F743C43E3E67E44C81AF28C8B61108D25C.pygtex
INPUT ./_minted-wallcalendar-code/CBA1F475B3F7B3D50733EA23375DF1F743C43E3E67E44C81AF28C8B61108D25C.pygtex
OUTPUT wallcalendar-code.pyg
INPUT ./_minted-wallcalendar-code/A78D22BD38A7B8278071084C48B5A7F243C43E3E67E44C81AF28C8B61108D25C.pygtex
INPUT ./_minted-wallcalendar-code/A78D22BD38A7B8278071084C48B5A7F243C43E3E67E44C81AF28C8B61108D25C.pygtex
INPUT ./_minted-wallcalendar-code/A78D22BD38A7B8278071084C48B5A7F243C43E3E67E44C81AF28C8B61108D25C.pygtex
INPUT ./_minted-wallcalendar-code/A78D22BD38A7B8278071084C48B5A7F243C43E3E67E44C81AF28C8B61108D25C.pygtex
OUTPUT wallcalendar-code.pyg
INPUT ./_minted-wallcalendar-code/95532C3B3A0072BBDE308ED35E1E085743C43E3E67E44C81AF28C8B61108D25C.pygtex
INPUT ./_minted-wallcalendar-code/95532C3B3A0072BBDE308ED35E1E085743C43E3E67E44C81AF28C8B61108D25C.pygtex
INPUT ./_minted-wallcalendar-code/95532C3B3A0072BBDE308ED35E1E085743C43E3E67E44C81AF28C8B61108D25C.pygtex
INPUT ./_minted-wallcalendar-code/95532C3B3A0072BBDE308ED35E1E085743C43E3E67E44C81AF28C8B61108D25C.pygtex
OUTPUT wallcalendar-code.pyg
INPUT ./_minted-wallcalendar-code/BF736320BECC8D4A61121695356AF98D43C43E3E67E44C81AF28C8B61108D25C.pygtex
INPUT ./_minted-wallcalendar-code/BF736320BECC8D4A61121695356AF98D43C43E3E67E44C81AF28C8B61108D25C.pygtex
INPUT ./_minted-wallcalendar-code/BF736320BECC8D4A61121695356AF98D43C43E3E67E44C81AF28C8B61108D25C.pygtex
INPUT ./_minted-wallcalendar-code/BF736320BECC8D4A61121695356AF98D43C43E3E67E44C81AF28C8B61108D25C.pygtex
OUTPUT wallcalendar-code.pyg
INPUT ./_minted-wallcalendar-code/2B8FA52DE44D075231C4F02C4F679D2D43C43E3E67E44C81AF28C8B61108D25C.pygtex
INPUT ./_minted-wallcalendar-code/2B8FA52DE44D075231C4F02C4F679D2D43C43E3E67E44C81AF28C8B61108D25C.pygtex
INPUT ./_minted-wallcalendar-code/2B8FA52DE44D075231C4F02C4F679D2D43C43E3E67E44C81AF28C8B61108D25C.pygtex
INPUT ./_minted-wallcalendar-code/2B8FA52DE44D075231C4F02C4F679D2D43C43E3E67E44C81AF28C8B61108D25C.pygtex
OUTPUT wallcalendar-code.pyg
INPUT ./_minted-wallcalendar-code/51469FF43A74F0C0DAA85BCCDC1064A043C43E3E67E44C81AF28C8B61108D25C.pygtex
INPUT ./_minted-wallcalendar-code/51469FF43A74F0C0DAA85BCCDC1064A043C43E3E67E44C81AF28C8B61108D25C.pygtex
INPUT ./_minted-wallcalendar-code/51469FF43A74F0C0DAA85BCCDC1064A043C43E3E67E44C81AF28C8B61108D25C.pygtex
INPUT ./_minted-wallcalendar-code/51469FF43A74F0C0DAA85BCCDC1064A043C43E3E67E44C81AF28C8B61108D25C.pygtex
OUTPUT wallcalendar-code.pyg
INPUT ./_minted-wallcalendar-code/7A2F035FB49711BCD77581500E36A7C843C43E3E67E44C81AF28C8B61108D25C.pygtex
INPUT ./_minted-wallcalendar-code/7A2F035FB49711BCD77581500E36A7C843C43E3E67E44C81AF28C8B61108D25C.pygtex
INPUT ./_minted-wallcalendar-code/7A2F035FB49711BCD77581500E36A7C843C43E3E67E44C81AF28C8B61108D25C.pygtex
INPUT ./_minted-wallcalendar-code/7A2F035FB49711BCD77581500E36A7C843C43E3E67E44C81AF28C8B61108D25C.pygtex
OUTPUT wallcalendar-code.pyg
INPUT ./_minted-wallcalendar-code/669AA15B908BDCC617CD78B674EDA1A043C43E3E67E44C81AF28C8B61108D25C.pygtex
INPUT ./_minted-wallcalendar-code/669AA15B908BDCC617CD78B674EDA1A043C43E3E67E44C81AF28C8B61108D25C.pygtex
INPUT ./_minted-wallcalendar-code/669AA15B908BDCC617CD78B674EDA1A043C43E3E67E44C81AF28C8B61108D25C.pygtex
INPUT ./_minted-wallcalendar-code/669AA15B908BDCC617CD78B674EDA1A043C43E3E67E44C81AF28C8B61108D25C.pygtex
OUTPUT wallcalendar-code.pyg
INPUT ./_minted-wallcalendar-code/B71909C35B142E9FCAFA186C4CB6C46543C43E3E67E44C81AF28C8B61108D25C.pygtex
INPUT ./_minted-wallcalendar-code/B71909C35B142E9FCAFA186C4CB6C46543C43E3E67E44C81AF28C8B61108D25C.pygtex
INPUT ./_minted-wallcalendar-code/B71909C35B142E9FCAFA186C4CB6C46543C43E3E67E44C81AF28C8B61108D25C.pygtex
INPUT ./_minted-wallcalendar-code/B71909C35B142E9FCAFA186C4CB6C46543C43E3E67E44C81AF28C8B61108D25C.pygtex
OUTPUT wallcalendar-code.pyg
INPUT ./_minted-wallcalendar-code/CA9D90ECD412CE9E8AD55CE634599F4B43C43E3E67E44C81AF28C8B61108D25C.pygtex
INPUT ./_minted-wallcalendar-code/CA9D90ECD412CE9E8AD55CE634599F4B43C43E3E67E44C81AF28C8B61108D25C.pygtex
INPUT ./_minted-wallcalendar-code/CA9D90ECD412CE9E8AD55CE634599F4B43C43E3E67E44C81AF28C8B61108D25C.pygtex
INPUT ./_minted-wallcalendar-code/CA9D90ECD412CE9E8AD55CE634599F4B43C43E3E67E44C81AF28C8B61108D25C.pygtex
OUTPUT wallcalendar-code.pyg
INPUT ./_minted-wallcalendar-code/E3F0723B43AD79B6E2B8CF4776C06B6543C43E3E67E44C81AF28C8B61108D25C.pygtex
INPUT ./_minted-wallcalendar-code/E3F0723B43AD79B6E2B8CF4776C06B6543C43E3E67E44C81AF28C8B61108D25C.pygtex
INPUT ./_minted-wallcalendar-code/E3F0723B43AD79B6E2B8CF4776C06B6543C43E3E67E44C81AF28C8B61108D25C.pygtex
INPUT ./_minted-wallcalendar-code/E3F0723B43AD79B6E2B8CF4776C06B6543C43E3E67E44C81AF28C8B61108D25C.pygtex
OUTPUT wallcalendar-code.pyg
INPUT ./_minted-wallcalendar-code/844CBE462BF13CAF71F1DA97B8D3DEF143C43E3E67E44C81AF28C8B61108D25C.pygtex
INPUT ./_minted-wallcalendar-code/844CBE462BF13CAF71F1DA97B8D3DEF143C43E3E67E44C81AF28C8B61108D25C.pygtex
INPUT ./_minted-wallcalendar-code/844CBE462BF13CAF71F1DA97B8D3DEF143C43E3E67E44C81AF28C8B61108D25C.pygtex
INPUT ./_minted-wallcalendar-code/844CBE462BF13CAF71F1DA97B8D3DEF143C43E3E67E44C81AF28C8B61108D25C.pygtex
OUTPUT wallcalendar-code.pyg
INPUT ./_minted-wallcalendar-code/5F4D89201689122D618CEE759CE17D7443C43E3E67E44C81AF28C8B61108D25C.pygtex
INPUT ./_minted-wallcalendar-code/5F4D89201689122D618CEE759CE17D7443C43E3E67E44C81AF28C8B61108D25C.pygtex
INPUT ./_minted-wallcalendar-code/5F4D89201689122D618CEE759CE17D7443C43E3E67E44C81AF28C8B61108D25C.pygtex
INPUT ./_minted-wallcalendar-code/5F4D89201689122D618CEE759CE17D7443C43E3E67E44C81AF28C8B61108D25C.pygtex
OUTPUT wallcalendar-code.pyg
INPUT ./_minted-wallcalendar-code/CA40B33B1781E3BA5CCC5A1E77253D6F43C43E3E67E44C81AF28C8B61108D25C.pygtex
INPUT ./_minted-wallcalendar-code/CA40B33B1781E3BA5CCC5A1E77253D6F43C43E3E67E44C81AF28C8B61108D25C.pygtex
INPUT ./_minted-wallcalendar-code/CA40B33B1781E3BA5CCC5A1E77253D6F43C43E3E67E44C81AF28C8B61108D25C.pygtex
INPUT ./_minted-wallcalendar-code/CA40B33B1781E3BA5CCC5A1E77253D6F43C43E3E67E44C81AF28C8B61108D25C.pygtex
OUTPUT wallcalendar-code.pyg
INPUT ./_minted-wallcalendar-code/90CA41A0AF0C525B7E2B39F926D8FB6843C43E3E67E44C81AF28C8B61108D25C.pygtex
INPUT ./_minted-wallcalendar-code/90CA41A0AF0C525B7E2B39F926D8FB6843C43E3E67E44C81AF28C8B61108D25C.pygtex
INPUT ./_minted-wallcalendar-code/90CA41A0AF0C525B7E2B39F926D8FB6843C43E3E67E44C81AF28C8B61108D25C.pygtex
INPUT ./_minted-wallcalendar-code/90CA41A0AF0C525B7E2B39F926D8FB6843C43E3E67E44C81AF28C8B61108D25C.pygtex
OUTPUT wallcalendar-code.pyg
INPUT ./_minted-wallcalendar-code/EE32C2715E7E58EF630F7C8FC0F4868643C43E3E67E44C81AF28C8B61108D25C.pygtex
INPUT ./_minted-wallcalendar-code/EE32C2715E7E58EF630F7C8FC0F4868643C43E3E67E44C81AF28C8B61108D25C.pygtex
INPUT ./_minted-wallcalendar-code/EE32C2715E7E58EF630F7C8FC0F4868643C43E3E67E44C81AF28C8B61108D25C.pygtex
INPUT ./_minted-wallcalendar-code/EE32C2715E7E58EF630F7C8FC0F4868643C43E3E67E44C81AF28C8B61108D25C.pygtex
OUTPUT wallcalendar-code.pyg
INPUT ./_minted-wallcalendar-code/3CEAED90711AA7777C8A1C13C07934D943C43E3E67E44C81AF28C8B61108D25C.pygtex
INPUT ./_minted-wallcalendar-code/3CEAED90711AA7777C8A1C13C07934D943C43E3E67E44C81AF28C8B61108D25C.pygtex
INPUT ./_minted-wallcalendar-code/3CEAED90711AA7777C8A1C13C07934D943C43E3E67E44C81AF28C8B61108D25C.pygtex
INPUT ./_minted-wallcalendar-code/3CEAED90711AA7777C8A1C13C07934D943C43E3E67E44C81AF28C8B61108D25C.pygtex
OUTPUT wallcalendar-code.pyg
INPUT ./_minted-wallcalendar-code/2FFFE812EB41DFA6019BEA560375B44343C43E3E67E44C81AF28C8B61108D25C.pygtex
INPUT ./_minted-wallcalendar-code/2FFFE812EB41DFA6019BEA560375B44343C43E3E67E44C81AF28C8B61108D25C.pygtex
INPUT ./_minted-wallcalendar-code/2FFFE812EB41DFA6019BEA560375B44343C43E3E67E44C81AF28C8B61108D25C.pygtex
INPUT ./_minted-wallcalendar-code/2FFFE812EB41DFA6019BEA560375B44343C43E3E67E44C81AF28C8B61108D25C.pygtex
OUTPUT wallcalendar-code.pyg
INPUT ./_minted-wallcalendar-code/D952ABF0F4AB98FC3DE904B8ADD9A73C43C43E3E67E44C81AF28C8B61108D25C.pygtex
INPUT ./_minted-wallcalendar-code/D952ABF0F4AB98FC3DE904B8ADD9A73C43C43E3E67E44C81AF28C8B61108D25C.pygtex
INPUT ./_minted-wallcalendar-code/D952ABF0F4AB98FC3DE904B8ADD9A73C43C43E3E67E44C81AF28C8B61108D25C.pygtex
INPUT ./_minted-wallcalendar-code/D952ABF0F4AB98FC3DE904B8ADD9A73C43C43E3E67E44C81AF28C8B61108D25C.pygtex
OUTPUT wallcalendar-code.pyg
INPUT ./_minted-wallcalendar-code/969BA54A1B919C45CF406BB3C125D51043C43E3E67E44C81AF28C8B61108D25C.pygtex
INPUT ./_minted-wallcalendar-code/969BA54A1B919C45CF406BB3C125D51043C43E3E67E44C81AF28C8B61108D25C.pygtex
INPUT ./_minted-wallcalendar-code/969BA54A1B919C45CF406BB3C125D51043C43E3E67E44C81AF28C8B61108D25C.pygtex
INPUT ./_minted-wallcalendar-code/969BA54A1B919C45CF406BB3C125D51043C43E3E67E44C81AF28C8B61108D25C.pygtex
OUTPUT wallcalendar-code.pyg
INPUT ./_minted-wallcalendar-code/1A403559330D34AB149955B0E49EFEA543C43E3E67E44C81AF28C8B61108D25C.pygtex
INPUT ./_minted-wallcalendar-code/1A403559330D34AB149955B0E49EFEA543C43E3E67E44C81AF28C8B61108D25C.pygtex
INPUT ./_minted-wallcalendar-code/1A403559330D34AB149955B0E49EFEA543C43E3E67E44C81AF28C8B61108D25C.pygtex
INPUT ./_minted-wallcalendar-code/1A403559330D34AB149955B0E49EFEA543C43E3E67E44C81AF28C8B61108D25C.pygtex
OUTPUT wallcalendar-code.pyg
INPUT ./_minted-wallcalendar-code/7CFBCC78D9E97011795B1ECB6F9D81BF43C43E3E67E44C81AF28C8B61108D25C.pygtex
INPUT ./_minted-wallcalendar-code/7CFBCC78D9E97011795B1ECB6F9D81BF43C43E3E67E44C81AF28C8B61108D25C.pygtex
INPUT ./_minted-wallcalendar-code/7CFBCC78D9E97011795B1ECB6F9D81BF43C43E3E67E44C81AF28C8B61108D25C.pygtex
INPUT ./_minted-wallcalendar-code/7CFBCC78D9E97011795B1ECB6F9D81BF43C43E3E67E44C81AF28C8B61108D25C.pygtex
OUTPUT wallcalendar-code.pyg
INPUT ./_minted-wallcalendar-code/520CAE24A8DF3B947ECA15F54D5D308343C43E3E67E44C81AF28C8B61108D25C.pygtex
INPUT ./_minted-wallcalendar-code/520CAE24A8DF3B947ECA15F54D5D308343C43E3E67E44C81AF28C8B61108D25C.pygtex
INPUT ./_minted-wallcalendar-code/520CAE24A8DF3B947ECA15F54D5D308343C43E3E67E44C81AF28C8B61108D25C.pygtex
INPUT ./_minted-wallcalendar-code/520CAE24A8DF3B947ECA15F54D5D308343C43E3E67E44C81AF28C8B61108D25C.pygtex
OUTPUT wallcalendar-code.pyg
INPUT ./_minted-wallcalendar-code/42B225A3BF77B8F70D28A4C5B19A4F1943C43E3E67E44C81AF28C8B61108D25C.pygtex
INPUT ./_minted-wallcalendar-code/42B225A3BF77B8F70D28A4C5B19A4F1943C43E3E67E44C81AF28C8B61108D25C.pygtex
INPUT ./_minted-wallcalendar-code/42B225A3BF77B8F70D28A4C5B19A4F1943C43E3E67E44C81AF28C8B61108D25C.pygtex
INPUT ./_minted-wallcalendar-code/42B225A3BF77B8F70D28A4C5B19A4F1943C43E3E67E44C81AF28C8B61108D25C.pygtex
OUTPUT wallcalendar-code.pyg
INPUT ./_minted-wallcalendar-code/D71F3F7B6B80A5B699557F870FC10A6343C43E3E67E44C81AF28C8B61108D25C.pygtex
INPUT ./_minted-wallcalendar-code/D71F3F7B6B80A5B699557F870FC10A6343C43E3E67E44C81AF28C8B61108D25C.pygtex
INPUT ./_minted-wallcalendar-code/D71F3F7B6B80A5B699557F870FC10A6343C43E3E67E44C81AF28C8B61108D25C.pygtex
INPUT ./_minted-wallcalendar-code/D71F3F7B6B80A5B699557F870FC10A6343C43E3E67E44C81AF28C8B61108D25C.pygtex
OUTPUT wallcalendar-code.pyg
INPUT ./_minted-wallcalendar-code/6120E3D3CBF828CA5D9BE5373C7BB14E43C43E3E67E44C81AF28C8B61108D25C.pygtex
INPUT ./_minted-wallcalendar-code/6120E3D3CBF828CA5D9BE5373C7BB14E43C43E3E67E44C81AF28C8B61108D25C.pygtex
INPUT ./_minted-wallcalendar-code/6120E3D3CBF828CA5D9BE5373C7BB14E43C43E3E67E44C81AF28C8B61108D25C.pygtex
INPUT ./_minted-wallcalendar-code/6120E3D3CBF828CA5D9BE5373C7BB14E43C43E3E67E44C81AF28C8B61108D25C.pygtex
OUTPUT wallcalendar-code.pyg
INPUT ./_minted-wallcalendar-code/E2A699C201D5AB8FA5EA292AB85F1DF843C43E3E67E44C81AF28C8B61108D25C.pygtex
INPUT ./_minted-wallcalendar-code/E2A699C201D5AB8FA5EA292AB85F1DF843C43E3E67E44C81AF28C8B61108D25C.pygtex
INPUT ./_minted-wallcalendar-code/E2A699C201D5AB8FA5EA292AB85F1DF843C43E3E67E44C81AF28C8B61108D25C.pygtex
INPUT ./_minted-wallcalendar-code/E2A699C201D5AB8FA5EA292AB85F1DF843C43E3E67E44C81AF28C8B61108D25C.pygtex
OUTPUT wallcalendar-code.pyg
INPUT ./_minted-wallcalendar-code/BF9BDC605EF3480C1157C70B368FAB1643C43E3E67E44C81AF28C8B61108D25C.pygtex
INPUT ./_minted-wallcalendar-code/BF9BDC605EF3480C1157C70B368FAB1643C43E3E67E44C81AF28C8B61108D25C.pygtex
INPUT ./_minted-wallcalendar-code/BF9BDC605EF3480C1157C70B368FAB1643C43E3E67E44C81AF28C8B61108D25C.pygtex
INPUT ./_minted-wallcalendar-code/BF9BDC605EF3480C1157C70B368FAB1643C43E3E67E44C81AF28C8B61108D25C.pygtex
OUTPUT wallcalendar-code.pyg
INPUT ./_minted-wallcalendar-code/383F6801D0D02631F227C89636CB7F0B43C43E3E67E44C81AF28C8B61108D25C.pygtex
INPUT ./_minted-wallcalendar-code/383F6801D0D02631F227C89636CB7F0B43C43E3E67E44C81AF28C8B61108D25C.pygtex
INPUT ./_minted-wallcalendar-code/383F6801D0D02631F227C89636CB7F0B43C43E3E67E44C81AF28C8B61108D25C.pygtex
INPUT ./_minted-wallcalendar-code/383F6801D0D02631F227C89636CB7F0B43C43E3E67E44C81AF28C8B61108D25C.pygtex
OUTPUT wallcalendar-code.pyg
INPUT ./_minted-wallcalendar-code/CD8FB75626D15E77809A21AA2664914643C43E3E67E44C81AF28C8B61108D25C.pygtex
INPUT ./_minted-wallcalendar-code/CD8FB75626D15E77809A21AA2664914643C43E3E67E44C81AF28C8B61108D25C.pygtex
INPUT ./_minted-wallcalendar-code/CD8FB75626D15E77809A21AA2664914643C43E3E67E44C81AF28C8B61108D25C.pygtex
INPUT ./_minted-wallcalendar-code/CD8FB75626D15E77809A21AA2664914643C43E3E67E44C81AF28C8B61108D25C.pygtex
OUTPUT wallcalendar-code.pyg
INPUT ./_minted-wallcalendar-code/976FEA6DF15213DB1789E3947B8632EC43C43E3E67E44C81AF28C8B61108D25C.pygtex
INPUT ./_minted-wallcalendar-code/976FEA6DF15213DB1789E3947B8632EC43C43E3E67E44C81AF28C8B61108D25C.pygtex
INPUT ./_minted-wallcalendar-code/976FEA6DF15213DB1789E3947B8632EC43C43E3E67E44C81AF28C8B61108D25C.pygtex
INPUT ./_minted-wallcalendar-code/976FEA6DF15213DB1789E3947B8632EC43C43E3E67E44C81AF28C8B61108D25C.pygtex
OUTPUT wallcalendar-code.pyg
INPUT ./_minted-wallcalendar-code/5B5D6F67DE99E311EBA0A1C0FF1BD0D643C43E3E67E44C81AF28C8B61108D25C.pygtex
INPUT ./_minted-wallcalendar-code/5B5D6F67DE99E311EBA0A1C0FF1BD0D643C43E3E67E44C81AF28C8B61108D25C.pygtex
INPUT ./_minted-wallcalendar-code/5B5D6F67DE99E311EBA0A1C0FF1BD0D643C43E3E67E44C81AF28C8B61108D25C.pygtex
INPUT ./_minted-wallcalendar-code/5B5D6F67DE99E311EBA0A1C0FF1BD0D643C43E3E67E44C81AF28C8B61108D25C.pygtex
OUTPUT wallcalendar-code.pyg
INPUT ./_minted-wallcalendar-code/2B0F8C8A59BC16AA0256551F14B0891443C43E3E67E44C81AF28C8B61108D25C.pygtex
INPUT ./_minted-wallcalendar-code/2B0F8C8A59BC16AA0256551F14B0891443C43E3E67E44C81AF28C8B61108D25C.pygtex
INPUT ./_minted-wallcalendar-code/2B0F8C8A59BC16AA0256551F14B0891443C43E3E67E44C81AF28C8B61108D25C.pygtex
INPUT ./_minted-wallcalendar-code/2B0F8C8A59BC16AA0256551F14B0891443C43E3E67E44C81AF28C8B61108D25C.pygtex
OUTPUT wallcalendar-code.pyg
INPUT ./_minted-wallcalendar-code/844D88D1C52FF3D999528F065B03F0D343C43E3E67E44C81AF28C8B61108D25C.pygtex
INPUT ./_minted-wallcalendar-code/844D88D1C52FF3D999528F065B03F0D343C43E3E67E44C81AF28C8B61108D25C.pygtex
INPUT ./_minted-wallcalendar-code/844D88D1C52FF3D999528F065B03F0D343C43E3E67E44C81AF28C8B61108D25C.pygtex
INPUT ./_minted-wallcalendar-code/844D88D1C52FF3D999528F065B03F0D343C43E3E67E44C81AF28C8B61108D25C.pygtex
OUTPUT wallcalendar-code.pyg
INPUT ./_minted-wallcalendar-code/C376C9FA4787640DD61E926B00D5104743C43E3E67E44C81AF28C8B61108D25C.pygtex
INPUT ./_minted-wallcalendar-code/C376C9FA4787640DD61E926B00D5104743C43E3E67E44C81AF28C8B61108D25C.pygtex
INPUT ./_minted-wallcalendar-code/C376C9FA4787640DD61E926B00D5104743C43E3E67E44C81AF28C8B61108D25C.pygtex
INPUT ./_minted-wallcalendar-code/C376C9FA4787640DD61E926B00D5104743C43E3E67E44C81AF28C8B61108D25C.pygtex
OUTPUT wallcalendar-code.pyg
INPUT ./_minted-wallcalendar-code/51ACFBE3FC71C4C2692463FAD05CE2F843C43E3E67E44C81AF28C8B61108D25C.pygtex
INPUT ./_minted-wallcalendar-code/51ACFBE3FC71C4C2692463FAD05CE2F843C43E3E67E44C81AF28C8B61108D25C.pygtex
INPUT ./_minted-wallcalendar-code/51ACFBE3FC71C4C2692463FAD05CE2F843C43E3E67E44C81AF28C8B61108D25C.pygtex
INPUT ./_minted-wallcalendar-code/51ACFBE3FC71C4C2692463FAD05CE2F843C43E3E67E44C81AF28C8B61108D25C.pygtex
OUTPUT wallcalendar-code.pyg
INPUT ./_minted-wallcalendar-code/31481FB1D71CFBA463DCBB8A9620A8CE43C43E3E67E44C81AF28C8B61108D25C.pygtex
INPUT ./_minted-wallcalendar-code/31481FB1D71CFBA463DCBB8A9620A8CE43C43E3E67E44C81AF28C8B61108D25C.pygtex
INPUT ./_minted-wallcalendar-code/31481FB1D71CFBA463DCBB8A9620A8CE43C43E3E67E44C81AF28C8B61108D25C.pygtex
INPUT ./_minted-wallcalendar-code/31481FB1D71CFBA463DCBB8A9620A8CE43C43E3E67E44C81AF28C8B61108D25C.pygtex
OUTPUT wallcalendar-code.pyg
INPUT ./_minted-wallcalendar-code/C5D82B350107DCC91ACDBE8C816DD68B43C43E3E67E44C81AF28C8B61108D25C.pygtex
INPUT ./_minted-wallcalendar-code/C5D82B350107DCC91ACDBE8C816DD68B43C43E3E67E44C81AF28C8B61108D25C.pygtex
INPUT ./_minted-wallcalendar-code/C5D82B350107DCC91ACDBE8C816DD68B43C43E3E67E44C81AF28C8B61108D25C.pygtex
INPUT ./_minted-wallcalendar-code/C5D82B350107DCC91ACDBE8C816DD68B43C43E3E67E44C81AF28C8B61108D25C.pygtex
OUTPUT wallcalendar-code.pyg
INPUT ./_minted-wallcalendar-code/750C712D706F8031BCEAC46748DC1E2D43C43E3E67E44C81AF28C8B61108D25C.pygtex
INPUT ./_minted-wallcalendar-code/750C712D706F8031BCEAC46748DC1E2D43C43E3E67E44C81AF28C8B61108D25C.pygtex
INPUT ./_minted-wallcalendar-code/750C712D706F8031BCEAC46748DC1E2D43C43E3E67E44C81AF28C8B61108D25C.pygtex
INPUT ./_minted-wallcalendar-code/750C712D706F8031BCEAC46748DC1E2D43C43E3E67E44C81AF28C8B61108D25C.pygtex
OUTPUT wallcalendar-code.pyg
INPUT ./_minted-wallcalendar-code/CD5B3E5BF633FD733572F3D0CB30E26043C43E3E67E44C81AF28C8B61108D25C.pygtex
INPUT ./_minted-wallcalendar-code/CD5B3E5BF633FD733572F3D0CB30E26043C43E3E67E44C81AF28C8B61108D25C.pygtex
INPUT ./_minted-wallcalendar-code/CD5B3E5BF633FD733572F3D0CB30E26043C43E3E67E44C81AF28C8B61108D25C.pygtex
INPUT ./_minted-wallcalendar-code/CD5B3E5BF633FD733572F3D0CB30E26043C43E3E67E44C81AF28C8B61108D25C.pygtex
OUTPUT wallcalendar-code.pyg
INPUT ./_minted-wallcalendar-code/DD33110A63943720732CF351D860C7DF43C43E3E67E44C81AF28C8B61108D25C.pygtex
INPUT ./_minted-wallcalendar-code/DD33110A63943720732CF351D860C7DF43C43E3E67E44C81AF28C8B61108D25C.pygtex
INPUT ./_minted-wallcalendar-code/DD33110A63943720732CF351D860C7DF43C43E3E67E44C81AF28C8B61108D25C.pygtex
INPUT ./_minted-wallcalendar-code/DD33110A63943720732CF351D860C7DF43C43E3E67E44C81AF28C8B61108D25C.pygtex
OUTPUT wallcalendar-code.pyg
INPUT ./_minted-wallcalendar-code/4BC7FBD3FDCF3D17C3DE267E7C9EFE2343C43E3E67E44C81AF28C8B61108D25C.pygtex
INPUT ./_minted-wallcalendar-code/4BC7FBD3FDCF3D17C3DE267E7C9EFE2343C43E3E67E44C81AF28C8B61108D25C.pygtex
INPUT ./_minted-wallcalendar-code/4BC7FBD3FDCF3D17C3DE267E7C9EFE2343C43E3E67E44C81AF28C8B61108D25C.pygtex
INPUT ./_minted-wallcalendar-code/4BC7FBD3FDCF3D17C3DE267E7C9EFE2343C43E3E67E44C81AF28C8B61108D25C.pygtex
OUTPUT wallcalendar-code.pyg
INPUT ./_minted-wallcalendar-code/FB42E737002CB8C0507CCA6855761CB343C43E3E67E44C81AF28C8B61108D25C.pygtex
INPUT ./_minted-wallcalendar-code/FB42E737002CB8C0507CCA6855761CB343C43E3E67E44C81AF28C8B61108D25C.pygtex
INPUT ./_minted-wallcalendar-code/FB42E737002CB8C0507CCA6855761CB343C43E3E67E44C81AF28C8B61108D25C.pygtex
INPUT ./_minted-wallcalendar-code/FB42E737002CB8C0507CCA6855761CB343C43E3E67E44C81AF28C8B61108D25C.pygtex
OUTPUT wallcalendar-code.pyg
INPUT ./_minted-wallcalendar-code/2861AE1225599268F74201F1C39B8AE943C43E3E67E44C81AF28C8B61108D25C.pygtex
INPUT ./_minted-wallcalendar-code/2861AE1225599268F74201F1C39B8AE943C43E3E67E44C81AF28C8B61108D25C.pygtex
INPUT ./_minted-wallcalendar-code/2861AE1225599268F74201F1C39B8AE943C43E3E67E44C81AF28C8B61108D25C.pygtex
INPUT ./_minted-wallcalendar-code/2861AE1225599268F74201F1C39B8AE943C43E3E67E44C81AF28C8B61108D25C.pygtex
OUTPUT wallcalendar-code.pyg
INPUT ./_minted-wallcalendar-code/7E0D52810181AF5D8047851D50675C5643C43E3E67E44C81AF28C8B61108D25C.pygtex
INPUT ./_minted-wallcalendar-code/7E0D52810181AF5D8047851D50675C5643C43E3E67E44C81AF28C8B61108D25C.pygtex
INPUT ./_minted-wallcalendar-code/7E0D52810181AF5D8047851D50675C5643C43E3E67E44C81AF28C8B61108D25C.pygtex
INPUT ./_minted-wallcalendar-code/7E0D52810181AF5D8047851D50675C5643C43E3E67E44C81AF28C8B61108D25C.pygtex
OUTPUT wallcalendar-code.pyg
INPUT ./_minted-wallcalendar-code/7D8B1E7153256C89540C886D8AE1264243C43E3E67E44C81AF28C8B61108D25C.pygtex
INPUT ./_minted-wallcalendar-code/7D8B1E7153256C89540C886D8AE1264243C43E3E67E44C81AF28C8B61108D25C.pygtex
INPUT ./_minted-wallcalendar-code/7D8B1E7153256C89540C886D8AE1264243C43E3E67E44C81AF28C8B61108D25C.pygtex
INPUT ./_minted-wallcalendar-code/7D8B1E7153256C89540C886D8AE1264243C43E3E67E44C81AF28C8B61108D25C.pygtex
OUTPUT wallcalendar-code.pyg
INPUT ./_minted-wallcalendar-code/A2E37B0FCA28F4CA90CAD045199926C743C43E3E67E44C81AF28C8B61108D25C.pygtex
INPUT ./_minted-wallcalendar-code/A2E37B0FCA28F4CA90CAD045199926C743C43E3E67E44C81AF28C8B61108D25C.pygtex
INPUT ./_minted-wallcalendar-code/A2E37B0FCA28F4CA90CAD045199926C743C43E3E67E44C81AF28C8B61108D25C.pygtex
INPUT ./_minted-wallcalendar-code/A2E37B0FCA28F4CA90CAD045199926C743C43E3E67E44C81AF28C8B61108D25C.pygtex
OUTPUT wallcalendar-code.pyg
INPUT ./_minted-wallcalendar-code/DA2E3F6142F6C771D0E8165DA48F4C1443C43E3E67E44C81AF28C8B61108D25C.pygtex
INPUT ./_minted-wallcalendar-code/DA2E3F6142F6C771D0E8165DA48F4C1443C43E3E67E44C81AF28C8B61108D25C.pygtex
INPUT ./_minted-wallcalendar-code/DA2E3F6142F6C771D0E8165DA48F4C1443C43E3E67E44C81AF28C8B61108D25C.pygtex
INPUT ./_minted-wallcalendar-code/DA2E3F6142F6C771D0E8165DA48F4C1443C43E3E67E44C81AF28C8B61108D25C.pygtex
OUTPUT wallcalendar-code.pyg
INPUT ./_minted-wallcalendar-code/CFEE4A322F46D5312230F0134E15F8D143C43E3E67E44C81AF28C8B61108D25C.pygtex
INPUT ./_minted-wallcalendar-code/CFEE4A322F46D5312230F0134E15F8D143C43E3E67E44C81AF28C8B61108D25C.pygtex
INPUT ./_minted-wallcalendar-code/CFEE4A322F46D5312230F0134E15F8D143C43E3E67E44C81AF28C8B61108D25C.pygtex
INPUT ./_minted-wallcalendar-code/CFEE4A322F46D5312230F0134E15F8D143C43E3E67E44C81AF28C8B61108D25C.pygtex
OUTPUT wallcalendar-code.pyg
INPUT ./_minted-wallcalendar-code/54BADB0513C788DB85CB1B39953178B443C43E3E67E44C81AF28C8B61108D25C.pygtex
INPUT ./_minted-wallcalendar-code/54BADB0513C788DB85CB1B39953178B443C43E3E67E44C81AF28C8B61108D25C.pygtex
INPUT ./_minted-wallcalendar-code/54BADB0513C788DB85CB1B39953178B443C43E3E67E44C81AF28C8B61108D25C.pygtex
INPUT ./_minted-wallcalendar-code/54BADB0513C788DB85CB1B39953178B443C43E3E67E44C81AF28C8B61108D25C.pygtex
OUTPUT wallcalendar-code.pyg
INPUT ./_minted-wallcalendar-code/A4E2FA74544C29B792A4CC5DFB8F751543C43E3E67E44C81AF28C8B61108D25C.pygtex
INPUT ./_minted-wallcalendar-code/A4E2FA74544C29B792A4CC5DFB8F751543C43E3E67E44C81AF28C8B61108D25C.pygtex
INPUT ./_minted-wallcalendar-code/A4E2FA74544C29B792A4CC5DFB8F751543C43E3E67E44C81AF28C8B61108D25C.pygtex
INPUT ./_minted-wallcalendar-code/A4E2FA74544C29B792A4CC5DFB8F751543C43E3E67E44C81AF28C8B61108D25C.pygtex
OUTPUT wallcalendar-code.pyg
INPUT ./_minted-wallcalendar-code/31481FB1D71CFBA463DCBB8A9620A8CE43C43E3E67E44C81AF28C8B61108D25C.pygtex
INPUT ./_minted-wallcalendar-code/31481FB1D71CFBA463DCBB8A9620A8CE43C43E3E67E44C81AF28C8B61108D25C.pygtex
INPUT ./_minted-wallcalendar-code/31481FB1D71CFBA463DCBB8A9620A8CE43C43E3E67E44C81AF28C8B61108D25C.pygtex
INPUT ./_minted-wallcalendar-code/31481FB1D71CFBA463DCBB8A9620A8CE43C43E3E67E44C81AF28C8B61108D25C.pygtex
OUTPUT wallcalendar-code.pyg
INPUT ./_minted-wallcalendar-code/C5D82B350107DCC91ACDBE8C816DD68B43C43E3E67E44C81AF28C8B61108D25C.pygtex
INPUT ./_minted-wallcalendar-code/C5D82B350107DCC91ACDBE8C816DD68B43C43E3E67E44C81AF28C8B61108D25C.pygtex
INPUT ./_minted-wallcalendar-code/C5D82B350107DCC91ACDBE8C816DD68B43C43E3E67E44C81AF28C8B61108D25C.pygtex
INPUT ./_minted-wallcalendar-code/C5D82B350107DCC91ACDBE8C816DD68B43C43E3E67E44C81AF28C8B61108D25C.pygtex
OUTPUT wallcalendar-code.pyg
INPUT ./_minted-wallcalendar-code/606BD6B87E960111CD2BF9681F39965243C43E3E67E44C81AF28C8B61108D25C.pygtex
INPUT ./_minted-wallcalendar-code/606BD6B87E960111CD2BF9681F39965243C43E3E67E44C81AF28C8B61108D25C.pygtex
INPUT ./_minted-wallcalendar-code/606BD6B87E960111CD2BF9681F39965243C43E3E67E44C81AF28C8B61108D25C.pygtex
INPUT ./_minted-wallcalendar-code/606BD6B87E960111CD2BF9681F39965243C43E3E67E44C81AF28C8B61108D25C.pygtex
OUTPUT wallcalendar-code.pyg
INPUT ./_minted-wallcalendar-code/CD5B3E5BF633FD733572F3D0CB30E26043C43E3E67E44C81AF28C8B61108D25C.pygtex
INPUT ./_minted-wallcalendar-code/CD5B3E5BF633FD733572F3D0CB30E26043C43E3E67E44C81AF28C8B61108D25C.pygtex
INPUT ./_minted-wallcalendar-code/CD5B3E5BF633FD733572F3D0CB30E26043C43E3E67E44C81AF28C8B61108D25C.pygtex
INPUT ./_minted-wallcalendar-code/CD5B3E5BF633FD733572F3D0CB30E26043C43E3E67E44C81AF28C8B61108D25C.pygtex
OUTPUT wallcalendar-code.pyg
INPUT ./_minted-wallcalendar-code/D14580909254F48553986863DB545E1343C43E3E67E44C81AF28C8B61108D25C.pygtex
INPUT ./_minted-wallcalendar-code/D14580909254F48553986863DB545E1343C43E3E67E44C81AF28C8B61108D25C.pygtex
INPUT ./_minted-wallcalendar-code/D14580909254F48553986863DB545E1343C43E3E67E44C81AF28C8B61108D25C.pygtex
INPUT ./_minted-wallcalendar-code/D14580909254F48553986863DB545E1343C43E3E67E44C81AF28C8B61108D25C.pygtex
OUTPUT wallcalendar-code.pyg
INPUT ./_minted-wallcalendar-code/4BC7FBD3FDCF3D17C3DE267E7C9EFE2343C43E3E67E44C81AF28C8B61108D25C.pygtex
INPUT ./_minted-wallcalendar-code/4BC7FBD3FDCF3D17C3DE267E7C9EFE2343C43E3E67E44C81AF28C8B61108D25C.pygtex
INPUT ./_minted-wallcalendar-code/4BC7FBD3FDCF3D17C3DE267E7C9EFE2343C43E3E67E44C81AF28C8B61108D25C.pygtex
INPUT ./_minted-wallcalendar-code/4BC7FBD3FDCF3D17C3DE267E7C9EFE2343C43E3E67E44C81AF28C8B61108D25C.pygtex
OUTPUT wallcalendar-code.pyg
INPUT ./_minted-wallcalendar-code/FB42E737002CB8C0507CCA6855761CB343C43E3E67E44C81AF28C8B61108D25C.pygtex
INPUT ./_minted-wallcalendar-code/FB42E737002CB8C0507CCA6855761CB343C43E3E67E44C81AF28C8B61108D25C.pygtex
INPUT ./_minted-wallcalendar-code/FB42E737002CB8C0507CCA6855761CB343C43E3E67E44C81AF28C8B61108D25C.pygtex
INPUT ./_minted-wallcalendar-code/FB42E737002CB8C0507CCA6855761CB343C43E3E67E44C81AF28C8B61108D25C.pygtex
OUTPUT wallcalendar-code.pyg
INPUT ./_minted-wallcalendar-code/2861AE1225599268F74201F1C39B8AE943C43E3E67E44C81AF28C8B61108D25C.pygtex
INPUT ./_minted-wallcalendar-code/2861AE1225599268F74201F1C39B8AE943C43E3E67E44C81AF28C8B61108D25C.pygtex
INPUT ./_minted-wallcalendar-code/2861AE1225599268F74201F1C39B8AE943C43E3E67E44C81AF28C8B61108D25C.pygtex
INPUT ./_minted-wallcalendar-code/2861AE1225599268F74201F1C39B8AE943C43E3E67E44C81AF28C8B61108D25C.pygtex
OUTPUT wallcalendar-code.pyg
INPUT ./_minted-wallcalendar-code/F9AFC411DF5AAE92BF302DE34D2C47A943C43E3E67E44C81AF28C8B61108D25C.pygtex
INPUT ./_minted-wallcalendar-code/F9AFC411DF5AAE92BF302DE34D2C47A943C43E3E67E44C81AF28C8B61108D25C.pygtex
INPUT ./_minted-wallcalendar-code/F9AFC411DF5AAE92BF302DE34D2C47A943C43E3E67E44C81AF28C8B61108D25C.pygtex
INPUT ./_minted-wallcalendar-code/F9AFC411DF5AAE92BF302DE34D2C47A943C43E3E67E44C81AF28C8B61108D25C.pygtex
OUTPUT wallcalendar-code.pyg
INPUT ./_minted-wallcalendar-code/8F5254955AE2D4830630515383BC487943C43E3E67E44C81AF28C8B61108D25C.pygtex
INPUT ./_minted-wallcalendar-code/8F5254955AE2D4830630515383BC487943C43E3E67E44C81AF28C8B61108D25C.pygtex
INPUT ./_minted-wallcalendar-code/8F5254955AE2D4830630515383BC487943C43E3E67E44C81AF28C8B61108D25C.pygtex
INPUT ./_minted-wallcalendar-code/8F5254955AE2D4830630515383BC487943C43E3E67E44C81AF28C8B61108D25C.pygtex
OUTPUT wallcalendar-code.pyg
INPUT ./_minted-wallcalendar-code/059DFC4ED0F176E43AAD50BAAFE2496F43C43E3E67E44C81AF28C8B61108D25C.pygtex
INPUT ./_minted-wallcalendar-code/059DFC4ED0F176E43AAD50BAAFE2496F43C43E3E67E44C81AF28C8B61108D25C.pygtex
INPUT ./_minted-wallcalendar-code/059DFC4ED0F176E43AAD50BAAFE2496F43C43E3E67E44C81AF28C8B61108D25C.pygtex
INPUT ./_minted-wallcalendar-code/059DFC4ED0F176E43AAD50BAAFE2496F43C43E3E67E44C81AF28C8B61108D25C.pygtex
OUTPUT wallcalendar-code.pyg
INPUT ./_minted-wallcalendar-code/DA2E3F6142F6C771D0E8165DA48F4C1443C43E3E67E44C81AF28C8B61108D25C.pygtex
INPUT ./_minted-wallcalendar-code/DA2E3F6142F6C771D0E8165DA48F4C1443C43E3E67E44C81AF28C8B61108D25C.pygtex
INPUT ./_minted-wallcalendar-code/DA2E3F6142F6C771D0E8165DA48F4C1443C43E3E67E44C81AF28C8B61108D25C.pygtex
INPUT ./_minted-wallcalendar-code/DA2E3F6142F6C771D0E8165DA48F4C1443C43E3E67E44C81AF28C8B61108D25C.pygtex
OUTPUT wallcalendar-code.pyg
INPUT ./_minted-wallcalendar-code/F022940264AF9658599C7E1E2532983343C43E3E67E44C81AF28C8B61108D25C.pygtex
INPUT ./_minted-wallcalendar-code/F022940264AF9658599C7E1E2532983343C43E3E67E44C81AF28C8B61108D25C.pygtex
INPUT ./_minted-wallcalendar-code/F022940264AF9658599C7E1E2532983343C43E3E67E44C81AF28C8B61108D25C.pygtex
INPUT ./_minted-wallcalendar-code/F022940264AF9658599C7E1E2532983343C43E3E67E44C81AF28C8B61108D25C.pygtex
OUTPUT wallcalendar-code.pyg
INPUT ./_minted-wallcalendar-code/B1C28C6742025AC1F6EE9C9A8CC791DA43C43E3E67E44C81AF28C8B61108D25C.pygtex
INPUT ./_minted-wallcalendar-code/B1C28C6742025AC1F6EE9C9A8CC791DA43C43E3E67E44C81AF28C8B61108D25C.pygtex
INPUT ./_minted-wallcalendar-code/B1C28C6742025AC1F6EE9C9A8CC791DA43C43E3E67E44C81AF28C8B61108D25C.pygtex
INPUT ./_minted-wallcalendar-code/B1C28C6742025AC1F6EE9C9A8CC791DA43C43E3E67E44C81AF28C8B61108D25C.pygtex
OUTPUT wallcalendar-code.pyg
INPUT ./_minted-wallcalendar-code/20F302AA63B75FCF0DB80B4819F23BB243C43E3E67E44C81AF28C8B61108D25C.pygtex
INPUT ./_minted-wallcalendar-code/20F302AA63B75FCF0DB80B4819F23BB243C43E3E67E44C81AF28C8B61108D25C.pygtex
INPUT ./_minted-wallcalendar-code/20F302AA63B75FCF0DB80B4819F23BB243C43E3E67E44C81AF28C8B61108D25C.pygtex
INPUT ./_minted-wallcalendar-code/20F302AA63B75FCF0DB80B4819F23BB243C43E3E67E44C81AF28C8B61108D25C.pygtex
OUTPUT wallcalendar-code.pyg
INPUT ./_minted-wallcalendar-code/2FFBF4A9DD6C48CBB7F1A1C8B293876143C43E3E67E44C81AF28C8B61108D25C.pygtex
INPUT ./_minted-wallcalendar-code/2FFBF4A9DD6C48CBB7F1A1C8B293876143C43E3E67E44C81AF28C8B61108D25C.pygtex
INPUT ./_minted-wallcalendar-code/2FFBF4A9DD6C48CBB7F1A1C8B293876143C43E3E67E44C81AF28C8B61108D25C.pygtex
INPUT ./_minted-wallcalendar-code/2FFBF4A9DD6C48CBB7F1A1C8B293876143C43E3E67E44C81AF28C8B61108D25C.pygtex
OUTPUT wallcalendar-code.pyg
INPUT ./_minted-wallcalendar-code/92FF7E2AC8A71877AEB439C1283088C943C43E3E67E44C81AF28C8B61108D25C.pygtex
INPUT ./_minted-wallcalendar-code/92FF7E2AC8A71877AEB439C1283088C943C43E3E67E44C81AF28C8B61108D25C.pygtex
INPUT ./_minted-wallcalendar-code/92FF7E2AC8A71877AEB439C1283088C943C43E3E67E44C81AF28C8B61108D25C.pygtex
INPUT ./_minted-wallcalendar-code/92FF7E2AC8A71877AEB439C1283088C943C43E3E67E44C81AF28C8B61108D25C.pygtex
OUTPUT wallcalendar-code.pyg
INPUT ./_minted-wallcalendar-code/D1C7EDB1DD088EB59794BD340AFF010943C43E3E67E44C81AF28C8B61108D25C.pygtex
INPUT ./_minted-wallcalendar-code/D1C7EDB1DD088EB59794BD340AFF010943C43E3E67E44C81AF28C8B61108D25C.pygtex
INPUT ./_minted-wallcalendar-code/D1C7EDB1DD088EB59794BD340AFF010943C43E3E67E44C81AF28C8B61108D25C.pygtex
INPUT ./_minted-wallcalendar-code/D1C7EDB1DD088EB59794BD340AFF010943C43E3E67E44C81AF28C8B61108D25C.pygtex
OUTPUT wallcalendar-code.pyg
INPUT ./_minted-wallcalendar-code/999590BB6BDD1CE5D2CB78B703B5B03543C43E3E67E44C81AF28C8B61108D25C.pygtex
INPUT ./_minted-wallcalendar-code/999590BB6BDD1CE5D2CB78B703B5B03543C43E3E67E44C81AF28C8B61108D25C.pygtex
INPUT ./_minted-wallcalendar-code/999590BB6BDD1CE5D2CB78B703B5B03543C43E3E67E44C81AF28C8B61108D25C.pygtex
INPUT ./_minted-wallcalendar-code/999590BB6BDD1CE5D2CB78B703B5B03543C43E3E67E44C81AF28C8B61108D25C.pygtex
OUTPUT wallcalendar-code.pyg
INPUT ./_minted-wallcalendar-code/948DF7F481173E7D9DF2ACDDC71961F643C43E3E67E44C81AF28C8B61108D25C.pygtex
INPUT ./_minted-wallcalendar-code/948DF7F481173E7D9DF2ACDDC71961F643C43E3E67E44C81AF28C8B61108D25C.pygtex
INPUT ./_minted-wallcalendar-code/948DF7F481173E7D9DF2ACDDC71961F643C43E3E67E44C81AF28C8B61108D25C.pygtex
INPUT ./_minted-wallcalendar-code/948DF7F481173E7D9DF2ACDDC71961F643C43E3E67E44C81AF28C8B61108D25C.pygtex
OUTPUT wallcalendar-code.pyg
INPUT ./_minted-wallcalendar-code/E7A5B4842B2306A61DA53D9F8DB3563D43C43E3E67E44C81AF28C8B61108D25C.pygtex
INPUT ./_minted-wallcalendar-code/E7A5B4842B2306A61DA53D9F8DB3563D43C43E3E67E44C81AF28C8B61108D25C.pygtex
INPUT ./_minted-wallcalendar-code/E7A5B4842B2306A61DA53D9F8DB3563D43C43E3E67E44C81AF28C8B61108D25C.pygtex
INPUT ./_minted-wallcalendar-code/E7A5B4842B2306A61DA53D9F8DB3563D43C43E3E67E44C81AF28C8B61108D25C.pygtex
OUTPUT wallcalendar-code.pyg
INPUT ./_minted-wallcalendar-code/C49AC9E5FF2D3559F3E74784F64F4FC343C43E3E67E44C81AF28C8B61108D25C.pygtex
INPUT ./_minted-wallcalendar-code/C49AC9E5FF2D3559F3E74784F64F4FC343C43E3E67E44C81AF28C8B61108D25C.pygtex
INPUT ./_minted-wallcalendar-code/C49AC9E5FF2D3559F3E74784F64F4FC343C43E3E67E44C81AF28C8B61108D25C.pygtex
INPUT ./_minted-wallcalendar-code/C49AC9E5FF2D3559F3E74784F64F4FC343C43E3E67E44C81AF28C8B61108D25C.pygtex
OUTPUT wallcalendar-code.pyg
INPUT ./_minted-wallcalendar-code/81A4D4A32B22519B0327A0477A5601BB43C43E3E67E44C81AF28C8B61108D25C.pygtex
INPUT ./_minted-wallcalendar-code/81A4D4A32B22519B0327A0477A5601BB43C43E3E67E44C81AF28C8B61108D25C.pygtex
INPUT ./_minted-wallcalendar-code/81A4D4A32B22519B0327A0477A5601BB43C43E3E67E44C81AF28C8B61108D25C.pygtex
INPUT ./_minted-wallcalendar-code/81A4D4A32B22519B0327A0477A5601BB43C43E3E67E44C81AF28C8B61108D25C.pygtex
OUTPUT wallcalendar-code.pyg
INPUT ./_minted-wallcalendar-code/1DB198D4F7116DD69F7A04C4C14A2C1D43C43E3E67E44C81AF28C8B61108D25C.pygtex
INPUT ./_minted-wallcalendar-code/1DB198D4F7116DD69F7A04C4C14A2C1D43C43E3E67E44C81AF28C8B61108D25C.pygtex
INPUT ./_minted-wallcalendar-code/1DB198D4F7116DD69F7A04C4C14A2C1D43C43E3E67E44C81AF28C8B61108D25C.pygtex
INPUT ./_minted-wallcalendar-code/1DB198D4F7116DD69F7A04C4C14A2C1D43C43E3E67E44C81AF28C8B61108D25C.pygtex
OUTPUT wallcalendar-code.pyg
INPUT ./_minted-wallcalendar-code/0563FB1B1C7CB725F0CB598E22A0F9EE43C43E3E67E44C81AF28C8B61108D25C.pygtex
INPUT ./_minted-wallcalendar-code/0563FB1B1C7CB725F0CB598E22A0F9EE43C43E3E67E44C81AF28C8B61108D25C.pygtex
INPUT ./_minted-wallcalendar-code/0563FB1B1C7CB725F0CB598E22A0F9EE43C43E3E67E44C81AF28C8B61108D25C.pygtex
INPUT ./_minted-wallcalendar-code/0563FB1B1C7CB725F0CB598E22A0F9EE43C43E3E67E44C81AF28C8B61108D25C.pygtex
OUTPUT wallcalendar-code.pyg
INPUT ./_minted-wallcalendar-code/6B5B3ADC99ED502A13CB46185013B51043C43E3E67E44C81AF28C8B61108D25C.pygtex
INPUT ./_minted-wallcalendar-code/6B5B3ADC99ED502A13CB46185013B51043C43E3E67E44C81AF28C8B61108D25C.pygtex
INPUT ./_minted-wallcalendar-code/6B5B3ADC99ED502A13CB46185013B51043C43E3E67E44C81AF28C8B61108D25C.pygtex
INPUT ./_minted-wallcalendar-code/6B5B3ADC99ED502A13CB46185013B51043C43E3E67E44C81AF28C8B61108D25C.pygtex
OUTPUT wallcalendar-code.pyg
INPUT ./_minted-wallcalendar-code/AC6A7412F572E2B3C8B4E65D35553D7C43C43E3E67E44C81AF28C8B61108D25C.pygtex
INPUT ./_minted-wallcalendar-code/AC6A7412F572E2B3C8B4E65D35553D7C43C43E3E67E44C81AF28C8B61108D25C.pygtex
INPUT ./_minted-wallcalendar-code/AC6A7412F572E2B3C8B4E65D35553D7C43C43E3E67E44C81AF28C8B61108D25C.pygtex
INPUT ./_minted-wallcalendar-code/AC6A7412F572E2B3C8B4E65D35553D7C43C43E3E67E44C81AF28C8B61108D25C.pygtex
OUTPUT wallcalendar-code.pyg
INPUT ./_minted-wallcalendar-code/6FAD878364DC870D016D3C164ECD0BD243C43E3E67E44C81AF28C8B61108D25C.pygtex
INPUT ./_minted-wallcalendar-code/6FAD878364DC870D016D3C164ECD0BD243C43E3E67E44C81AF28C8B61108D25C.pygtex
INPUT ./_minted-wallcalendar-code/6FAD878364DC870D016D3C164ECD0BD243C43E3E67E44C81AF28C8B61108D25C.pygtex
INPUT ./_minted-wallcalendar-code/6FAD878364DC870D016D3C164ECD0BD243C43E3E67E44C81AF28C8B61108D25C.pygtex
OUTPUT wallcalendar-code.pyg
INPUT ./_minted-wallcalendar-code/E979D14CAF5656D4DCC3101646D9B8A343C43E3E67E44C81AF28C8B61108D25C.pygtex
INPUT ./_minted-wallcalendar-code/E979D14CAF5656D4DCC3101646D9B8A343C43E3E67E44C81AF28C8B61108D25C.pygtex
INPUT ./_minted-wallcalendar-code/E979D14CAF5656D4DCC3101646D9B8A343C43E3E67E44C81AF28C8B61108D25C.pygtex
INPUT ./_minted-wallcalendar-code/E979D14CAF5656D4DCC3101646D9B8A343C43E3E67E44C81AF28C8B61108D25C.pygtex
OUTPUT wallcalendar-code.pyg
INPUT ./_minted-wallcalendar-code/AFD9FB21AF5D630B2207FE2CE5BE2EC143C43E3E67E44C81AF28C8B61108D25C.pygtex
INPUT ./_minted-wallcalendar-code/AFD9FB21AF5D630B2207FE2CE5BE2EC143C43E3E67E44C81AF28C8B61108D25C.pygtex
INPUT ./_minted-wallcalendar-code/AFD9FB21AF5D630B2207FE2CE5BE2EC143C43E3E67E44C81AF28C8B61108D25C.pygtex
INPUT ./_minted-wallcalendar-code/AFD9FB21AF5D630B2207FE2CE5BE2EC143C43E3E67E44C81AF28C8B61108D25C.pygtex
OUTPUT wallcalendar-code.pyg
INPUT ./_minted-wallcalendar-code/9FE91E71AAA73820FF760D419464EC9D43C43E3E67E44C81AF28C8B61108D25C.pygtex
INPUT ./_minted-wallcalendar-code/9FE91E71AAA73820FF760D419464EC9D43C43E3E67E44C81AF28C8B61108D25C.pygtex
INPUT ./_minted-wallcalendar-code/9FE91E71AAA73820FF760D419464EC9D43C43E3E67E44C81AF28C8B61108D25C.pygtex
INPUT ./_minted-wallcalendar-code/9FE91E71AAA73820FF760D419464EC9D43C43E3E67E44C81AF28C8B61108D25C.pygtex
OUTPUT wallcalendar-code.pyg
INPUT ./_minted-wallcalendar-code/3D7CCFC54583085468F7261D866A27F843C43E3E67E44C81AF28C8B61108D25C.pygtex
INPUT ./_minted-wallcalendar-code/3D7CCFC54583085468F7261D866A27F843C43E3E67E44C81AF28C8B61108D25C.pygtex
INPUT ./_minted-wallcalendar-code/3D7CCFC54583085468F7261D866A27F843C43E3E67E44C81AF28C8B61108D25C.pygtex
INPUT ./_minted-wallcalendar-code/3D7CCFC54583085468F7261D866A27F843C43E3E67E44C81AF28C8B61108D25C.pygtex
OUTPUT wallcalendar-code.pyg
INPUT ./_minted-wallcalendar-code/D864525C12085A138D29D9EBF9FE07B643C43E3E67E44C81AF28C8B61108D25C.pygtex
INPUT ./_minted-wallcalendar-code/D864525C12085A138D29D9EBF9FE07B643C43E3E67E44C81AF28C8B61108D25C.pygtex
INPUT ./_minted-wallcalendar-code/D864525C12085A138D29D9EBF9FE07B643C43E3E67E44C81AF28C8B61108D25C.pygtex
INPUT ./_minted-wallcalendar-code/D864525C12085A138D29D9EBF9FE07B643C43E3E67E44C81AF28C8B61108D25C.pygtex
OUTPUT wallcalendar-code.pyg
INPUT ./_minted-wallcalendar-code/2F06DBA698783215D435A40A9050C18A43C43E3E67E44C81AF28C8B61108D25C.pygtex
INPUT ./_minted-wallcalendar-code/2F06DBA698783215D435A40A9050C18A43C43E3E67E44C81AF28C8B61108D25C.pygtex
INPUT ./_minted-wallcalendar-code/2F06DBA698783215D435A40A9050C18A43C43E3E67E44C81AF28C8B61108D25C.pygtex
INPUT ./_minted-wallcalendar-code/2F06DBA698783215D435A40A9050C18A43C43E3E67E44C81AF28C8B61108D25C.pygtex
OUTPUT wallcalendar-code.pyg
INPUT ./_minted-wallcalendar-code/D4C6423B912CA52700C589AA135BA19343C43E3E67E44C81AF28C8B61108D25C.pygtex
INPUT ./_minted-wallcalendar-code/D4C6423B912CA52700C589AA135BA19343C43E3E67E44C81AF28C8B61108D25C.pygtex
INPUT ./_minted-wallcalendar-code/D4C6423B912CA52700C589AA135BA19343C43E3E67E44C81AF28C8B61108D25C.pygtex
INPUT ./_minted-wallcalendar-code/D4C6423B912CA52700C589AA135BA19343C43E3E67E44C81AF28C8B61108D25C.pygtex
OUTPUT wallcalendar-code.pyg
INPUT ./_minted-wallcalendar-code/4297B4AC95CDD41DA3D88186813DF75A43C43E3E67E44C81AF28C8B61108D25C.pygtex
INPUT ./_minted-wallcalendar-code/4297B4AC95CDD41DA3D88186813DF75A43C43E3E67E44C81AF28C8B61108D25C.pygtex
INPUT ./_minted-wallcalendar-code/4297B4AC95CDD41DA3D88186813DF75A43C43E3E67E44C81AF28C8B61108D25C.pygtex
INPUT ./_minted-wallcalendar-code/4297B4AC95CDD41DA3D88186813DF75A43C43E3E67E44C81AF28C8B61108D25C.pygtex
OUTPUT wallcalendar-code.pyg
INPUT ./_minted-wallcalendar-code/F6680E8CE5FDDA244B4F72DF28FB9F1B43C43E3E67E44C81AF28C8B61108D25C.pygtex
INPUT ./_minted-wallcalendar-code/F6680E8CE5FDDA244B4F72DF28FB9F1B43C43E3E67E44C81AF28C8B61108D25C.pygtex
INPUT ./_minted-wallcalendar-code/F6680E8CE5FDDA244B4F72DF28FB9F1B43C43E3E67E44C81AF28C8B61108D25C.pygtex
INPUT ./_minted-wallcalendar-code/F6680E8CE5FDDA244B4F72DF28FB9F1B43C43E3E67E44C81AF28C8B61108D25C.pygtex
OUTPUT wallcalendar-code.toc
INPUT ./wallcalendar-code.aux
INPUT ./wallcalendar-code.pyg
INPUT /home/yume/texlive/2017/texmf-dist/fonts/type1/public/mathdesign/mdbch/md-chr7y.pfb
