StartFontMetrics 2.0
Comment Generated by FontForge 20190801
Comment Creation Date: Thu Oct  3 18:44:57 2019
FontName stickstooMath-Bold
FullName stickstoo Math Bold
FamilyName stickstooMath
Weight Bold
Notice (Copyright (c) 2001-2016 by the STI Pub Companies, consisting of the American Chemical Society, the American Institute of Physics, the American Mathematical Society, the American Physical Society, Else)
Comment vier, Inc., and The Institute of Electrical and Electronic Engineers, Inc.  Portions copyright (c) 1998-2003 by MicroPress, Inc.  Portions copyright (c) 1990 by Elsevier, Inc.  All rights reserved.
Comment Copyright (c) 2018, Michael Sharpe
ItalicAngle 0
IsFixedPitch false
UnderlinePosition -100
UnderlineThickness 50
Version 001.000
EncodingScheme FontSpecific
FontBBox -112 -269 1107 826
StartCharMetrics 241
C 0 ; WX 625 ; N u1D6AA ; B 35 0 604 657 ;
C 1 ; WX 702 ; N u1D6AB ; B 15 0 687 662 ;
C 2 ; WX 766 ; N u1D6AF ; B 44 -14 722 669 ;
C 3 ; WX 746 ; N u1D6B2 ; B 4 0 742 662 ;
C 4 ; WX 622 ; N u1D6B5 ; B 36 0 586 657 ;
C 5 ; WX 836 ; N u1D6B7 ; B 44 0 792 657 ;
C 6 ; WX 611 ; N u1D6BA ; B 33 0 593 657 ;
C 7 ; WX 625 ; N u1D6BC ; B 1 0 635 664 ;
C 8 ; WX 738 ; N u1D6BD ; B 15 0 723 657 ;
C 9 ; WX 830 ; N u1D6BF ; B 10 0 820 657 ;
C 10 ; WX 797 ; N u1D6C0 ; B 15 0 782 670 ;
C 11 ; WX 702 ; N u1D6C1 ; B 15 -5 687 657 ;
C 16 ; WX 583 ; N u1D6C2 ; B 44 -21 582 478 ;
C 17 ; WX 540 ; N u1D6C3 ; B 49 -217 507 716 ;
C 18 ; WX 495 ; N u1D6C4 ; B 6 -214 500 476 ;
C 19 ; WX 489 ; N u1D6C5 ; B 44 -18 453 711 ;
C 20 ; WX 381 ; N u1D6C6 ; B 39 -13 359 481 ;
C 21 ; WX 421 ; N u1D6C7 ; B 32 -227 420 751 ;
C 22 ; WX 531 ; N u1D6C8 ; B 8 -269 480 480 ;
C 23 ; WX 517 ; N u1D6C9 ; B 50 -15 476 712 ;
C 24 ; WX 312 ; N u1D6CA ; B 58 -9 311 473 ;
C 25 ; WX 559 ; N u1D6CB ; B 8 -12 560 478 ;
C 26 ; WX 570 ; N u1D6CC ; B 13 -11 568 706 ;
C 27 ; WX 608 ; N u1D6CD ; B 48 -217 613 472 ;
C 28 ; WX 519 ; N u1D6CE ; B -1 -2 497 479 ;
C 29 ; WX 436 ; N u1D6CF ; B 48 -228 424 775 ;
C 30 ; WX 480 ; N u1D6D0 ; B 36 -13 445 481 ;
C 31 ; WX 586 ; N u1D6D1 ; B 7 -9 566 471 ;
C 32 ; WX 518 ; N u1D6D2 ; B 44 -217 481 481 ;
C 33 ; WX 398 ; N u1D6D3 ; B 30 -227 380 481 ;
C 34 ; WX 578 ; N u1D6D4 ; B 33 -13 558 471 ;
C 35 ; WX 445 ; N u1D6D5 ; B 7 -9 415 471 ;
C 36 ; WX 533 ; N u1D6D6 ; B 5 -13 504 481 ;
C 37 ; WX 603 ; N u1D6D7 ; B 31 -217 574 487 ;
C 38 ; WX 561 ; N u1D6D8 ; B -15 -213 554 477 ;
C 39 ; WX 664 ; N u1D6D9 ; B 5 -217 644 695 ;
C 40 ; WX 659 ; N u1D6DA ; B 30 -11 636 485 ;
C 41 ; WX 495 ; N u1D6DB ; B 40 -13 453 711 ;
C 42 ; WX 380 ; N u1D6DC ; B 33 -12 367 481 ;
C 43 ; WX 544 ; N u1D6DD ; B 8 -10 527 713 ;
C 44 ; WX 601 ; N u1D6DE ; B 8 -13 593 484 ;
C 45 ; WX 580 ; N u1D6DF ; B 37 -220 546 685 ;
C 46 ; WX 453 ; N u1D6E0 ; B 41 -239 434 481 ;
C 47 ; WX 887 ; N u1D6E1 ; B 8 -11 867 471 ;
C 48 ; WX 787 ; N u1D538 ; B 50 0 737 676 ;
C 49 ; WX 729 ; N u1D539 ; B 75 0 669 676 ;
C 50 ; WX 727 ; N uni2102 ; B 45 -19 672 691 ;
C 51 ; WX 748 ; N u1D53B ; B 75 0 703 676 ;
C 52 ; WX 650 ; N u1D53C ; B 75 0 595 676 ;
C 53 ; WX 474 ; N u1D53D ; B 75 0 595 676 ;
C 54 ; WX 751 ; N u1D53E ; B 45 -19 686 691 ;
C 55 ; WX 768 ; N uni210D ; B 75 0 693 676 ;
C 56 ; WX 380 ; N u1D540 ; B 80 0 300 676 ;
C 57 ; WX 618 ; N u1D541 ; B 50 -19 548 676 ;
C 58 ; WX 792 ; N u1D542 ; B 75 0 767 676 ;
C 59 ; WX 662 ; N u1D543 ; B 70 0 607 676 ;
C 60 ; WX 914 ; N u1D544 ; B 75 0 839 676 ;
C 61 ; WX 738 ; N uni2115 ; B 75 0 663 676 ;
C 62 ; WX 787 ; N u1D546 ; B 45 -19 742 691 ;
C 63 ; WX 700 ; N uni2119 ; B 75 0 670 676 ;
C 64 ; WX 797 ; N uni211A ; B 45 -64 747 691 ;
C 65 ; WX 743 ; N u1D400 ; B 1 0 739 662 ;
C 66 ; WX 668 ; N u1D401 ; B 35 0 642 657 ;
C 67 ; WX 675 ; N u1D402 ; B 42 -12 649 669 ;
C 68 ; WX 763 ; N u1D403 ; B 42 0 728 657 ;
C 69 ; WX 672 ; N u1D404 ; B 39 0 636 657 ;
C 70 ; WX 623 ; N u1D405 ; B 39 0 608 657 ;
C 71 ; WX 726 ; N u1D406 ; B 42 -11 702 669 ;
C 72 ; WX 853 ; N u1D407 ; B 39 0 814 657 ;
C 73 ; WX 414 ; N u1D408 ; B 39 0 374 657 ;
C 74 ; WX 482 ; N u1D409 ; B -4 -13 453 657 ;
C 75 ; WX 787 ; N u1D40A ; B 39 0 789 657 ;
C 76 ; WX 637 ; N u1D40B ; B 31 0 628 657 ;
C 77 ; WX 1006 ; N u1D40C ; B 39 0 968 657 ;
C 78 ; WX 810 ; N u1D40D ; B 29 -7 782 657 ;
C 79 ; WX 746 ; N u1D40E ; B 44 -14 702 669 ;
C 80 ; WX 629 ; N u1D40F ; B 29 0 615 657 ;
C 81 ; WX 745 ; N u1D410 ; B 44 -175 706 669 ;
C 82 ; WX 749 ; N u1D411 ; B 39 0 743 657 ;
C 83 ; WX 523 ; N u1D412 ; B 26 -13 493 668 ;
C 84 ; WX 659 ; N u1D413 ; B 15 0 644 657 ;
C 85 ; WX 808 ; N u1D414 ; B 25 -14 784 657 ;
C 86 ; WX 741 ; N u1D415 ; B -7 -5 747 657 ;
C 87 ; WX 1051 ; N u1D416 ; B 8 -8 1050 657 ;
C 88 ; WX 723 ; N u1D417 ; B 9 0 713 657 ;
C 89 ; WX 697 ; N u1D418 ; B -1 0 695 657 ;
C 90 ; WX 626 ; N u1D419 ; B 36 0 598 657 ;
C 97 ; WX 528 ; N u1D41A ; B 29 -11 535 486 ;
C 98 ; WX 566 ; N u1D41B ; B 0 -11 538 706 ;
C 99 ; WX 496 ; N u1D41C ; B 28 -11 476 486 ;
C 100 ; WX 576 ; N u1D41D ; B 28 -10 571 706 ;
C 101 ; WX 503 ; N u1D41E ; B 27 -11 484 485 ;
C 102 ; WX 376 ; N u1D41F ; B 21 0 470 717 ;
C 103 ; WX 531 ; N u1D420 ; B 24 -243 527 482 ;
C 104 ; WX 328 ; N u1D422 ; B 17 0 311 713 ;
C 105 ; WX 284 ; N u1D423 ; B -112 -235 246 713 ;
C 106 ; WX 605 ; N u1D424 ; B 11 0 614 706 ;
C 107 ; WX 327 ; N u1D425 ; B 11 0 310 706 ;
C 108 ; WX 930 ; N u1D426 ; B 17 0 913 485 ;
C 109 ; WX 631 ; N u1D427 ; B 17 0 614 485 ;
C 110 ; WX 540 ; N u1D428 ; B 28 -10 512 485 ;
C 111 ; WX 574 ; N u1D429 ; B 10 -220 549 486 ;
C 112 ; WX 574 ; N u1D42A ; B 30 -220 564 485 ;
C 113 ; WX 430 ; N u1D42B ; B 17 0 440 488 ;
C 114 ; WX 428 ; N u1D42C ; B 31 -12 409 485 ;
C 115 ; WX 369 ; N u1D42D ; B 10 -14 371 615 ;
C 116 ; WX 619 ; N u1D42E ; B 10 -10 607 478 ;
C 117 ; WX 566 ; N u1D42F ; B -6 -7 571 473 ;
C 118 ; WX 877 ; N u1D430 ; B -6 -7 878 473 ;
C 119 ; WX 555 ; N u1D431 ; B 7 0 552 473 ;
C 120 ; WX 569 ; N u1D432 ; B 2 -215 570 473 ;
C 121 ; WX 476 ; N u1D433 ; B 29 0 453 473 ;
C 122 ; WX 328 ; N u1D422.dotless ; B 17 0 311 482 ;
C 123 ; WX 284 ; N u1D423.dotless ; B -112 -235 234 482 ;
C 124 ; WX 632 ; N u1D421 ; B 10 0 615 706 ;
C 125 ; WX 632 ; N uni210F ; B 10 0 615 706 ;
C 126 ; WX 651 ; N u1D4F5 ; B 22 -15 567 716 ;
C 127 ; WX 632 ; N uni210F.var ; B 10 0 615 706 ;
C 128 ; WX 570 ; N uni019B ; B 13 -11 568 706 ;
C 129 ; WX 570 ; N uni019B.var ; B 13 -11 568 706 ;
C 130 ; WX 525 ; N uni019B.ital ; B -9 -12 512 705 ;
C 131 ; WX 525 ; N uni019B.varital ; B -9 -12 517 705 ;
C 132 ; WX 504 ; N uni03F0 ; B 4 -12 521 479 ;
C 133 ; WX 591 ; N u1D4F5.up ; B 42 -15 511 716 ;
C 136 ; WX 222 ; N uni0300 ; B 22 521 204 674 ;
C 137 ; WX 222 ; N uni0301 ; B 18 521 200 674 ;
C 138 ; WX 342 ; N uni0302 ; B 18 521 324 674 ;
C 139 ; WX 384 ; N uni0303 ; B 27 533 357 657 ;
C 140 ; WX 354 ; N uni0304 ; B 32 555 322 630 ;
C 141 ; WX 464 ; N uni0305 ; B 32 555 432 630 ;
C 142 ; WX 357 ; N uni0306 ; B 22 529 335 687 ;
C 143 ; WX 201 ; N uni0307 ; B 20 536 181 692 ;
C 144 ; WX 415 ; N uni0308 ; B 20 551 395 698 ;
C 145 ; WX 262 ; N uni030A ; B 20 528 242 739 ;
C 146 ; WX 346 ; N uni030C ; B 20 521 326 674 ;
C 147 ; WX 876 ; N u1D56C ; B 51 -26 824 718 ;
C 148 ; WX 869 ; N u1D56D ; B 51 -20 813 718 ;
C 149 ; WX 791 ; N u1D56E ; B 55 -20 748 718 ;
C 150 ; WX 912 ; N u1D56F ; B 55 -20 856 718 ;
C 151 ; WX 807 ; N u1D570 ; B 55 -20 748 718 ;
C 152 ; WX 822 ; N u1D571 ; B 55 -210 766 718 ;
C 153 ; WX 853 ; N u1D572 ; B 55 -20 799 718 ;
C 154 ; WX 863 ; N u1D573 ; B 43 -210 814 718 ;
C 155 ; WX 809 ; N u1D574 ; B 55 -26 752 718 ;
C 156 ; WX 822 ; N u1D575 ; B 55 -210 766 718 ;
C 157 ; WX 884 ; N u1D576 ; B 43 -26 833 718 ;
C 158 ; WX 716 ; N u1D577 ; B 52 -26 660 718 ;
C 159 ; WX 1160 ; N u1D578 ; B 51 -26 1107 718 ;
C 160 ; WX 882 ; N u1D579 ; B 51 -26 829 718 ;
C 161 ; WX 931 ; N u1D57A ; B 55 -20 874 718 ;
C 162 ; WX 870 ; N u1D57B ; B 51 -210 814 718 ;
C 163 ; WX 952 ; N u1D57C ; B 55 -61 923 718 ;
C 164 ; WX 905 ; N u1D57D ; B 51 -26 861 718 ;
C 165 ; WX 872 ; N u1D57E ; B 55 -20 821 718 ;
C 166 ; WX 812 ; N u1D57F ; B 55 -26 758 718 ;
C 167 ; WX 880 ; N u1D580 ; B 55 -26 828 718 ;
C 168 ; WX 875 ; N u1D581 ; B 51 -20 819 718 ;
C 169 ; WX 1148 ; N u1D582 ; B 51 -20 1091 718 ;
C 170 ; WX 838 ; N u1D583 ; B 51 -26 793 718 ;
C 171 ; WX 857 ; N u1D584 ; B 51 -210 801 718 ;
C 172 ; WX 773 ; N u1D585 ; B 45 -200 720 718 ;
C 173 ; WX 614 ; N u1D586 ; B 56 -25 558 486 ;
C 174 ; WX 572 ; N u1D587 ; B 46 -25 516 711 ;
C 175 ; WX 475 ; N u1D588 ; B 56 -25 422 486 ;
C 176 ; WX 570 ; N u1D589 ; B 49 -26 514 710 ;
C 177 ; WX 487 ; N u1D58A ; B 56 -25 437 486 ;
C 178 ; WX 379 ; N u1D58B ; B 34 -219 360 717 ;
C 179 ; WX 579 ; N u1D58C ; B 56 -225 518 486 ;
C 180 ; WX 590 ; N u1D58D ; B 46 -225 528 711 ;
C 181 ; WX 439 ; N u1D58E ; B 36 -25 388 713 ;
C 182 ; WX 398 ; N u1D58F ; B 41 -225 345 713 ;
C 183 ; WX 467 ; N u1D590 ; B 49 -25 411 711 ;
C 184 ; WX 443 ; N u1D591 ; B 46 -25 388 711 ;
C 185 ; WX 1007 ; N u1D592 ; B 41 -25 954 486 ;
C 186 ; WX 712 ; N u1D593 ; B 41 -25 659 486 ;
C 187 ; WX 567 ; N u1D594 ; B 46 -25 511 486 ;
C 188 ; WX 655 ; N u1D595 ; B 37 -225 599 607 ;
C 189 ; WX 588 ; N u1D596 ; B 56 -225 534 486 ;
C 190 ; WX 537 ; N u1D597 ; B 41 -25 505 486 ;
C 191 ; WX 570 ; N u1D598 ; B 53 -32 517 658 ;
C 192 ; WX 448 ; N u1D599 ; B 46 -24 387 671 ;
C 193 ; WX 697 ; N u1D59A ; B 36 -25 644 486 ;
C 194 ; WX 587 ; N u1D59B ; B 56 -25 538 607 ;
C 195 ; WX 870 ; N u1D59C ; B 56 -25 814 607 ;
C 196 ; WX 533 ; N u1D59D ; B 51 -214 500 486 ;
C 197 ; WX 610 ; N u1D59E ; B 56 -225 549 607 ;
C 198 ; WX 495 ; N u1D59F ; B 37 -225 447 486 ;
C 199 ; WX 439 ; N u1D58E.dtls ; B 36 -25 388 486 ;
C 200 ; WX 398 ; N u1D58F.dtls ; B 41 -225 345 486 ;
C 201 ; WX 783 ; N uni211D ; B 75 0 758 676 ;
C 202 ; WX 702 ; N u1D54A ; B 45 -19 657 692 ;
C 203 ; WX 556 ; N u1D54B ; B 25 0 645 676 ;
C 204 ; WX 738 ; N u1D54C ; B 70 -19 668 676 ;
C 205 ; WX 627 ; N u1D54D ; B 17 0 704 676 ;
C 206 ; WX 996 ; N u1D54E ; B 17 0 1015 676 ;
C 207 ; WX 794 ; N u1D54F ; B 20 0 769 676 ;
C 208 ; WX 652 ; N u1D550 ; B 23 0 739 676 ;
C 209 ; WX 777 ; N uni2124 ; B 52 0 727 691 ;
C 210 ; WX 623 ; N u1D552 ; B 50 -14 563 473 ;
C 211 ; WX 643 ; N u1D553 ; B 60 -14 593 676 ;
C 212 ; WX 574 ; N u1D554 ; B 50 -14 524 473 ;
C 213 ; WX 643 ; N u1D555 ; B 50 -14 583 676 ;
C 214 ; WX 573 ; N u1D556 ; B 50 -14 523 473 ;
C 215 ; WX 474 ; N u1D557 ; B 25 0 536 676 ;
C 216 ; WX 643 ; N u1D558 ; B 50 -205 583 473 ;
C 217 ; WX 624 ; N u1D559 ; B 60 0 564 676 ;
C 218 ; WX 330 ; N u1D55A ; B 65 0 265 691 ;
C 219 ; WX 371 ; N u1D55B ; B -20 -205 311 691 ;
C 220 ; WX 646 ; N u1D55C ; B 60 0 621 676 ;
C 221 ; WX 325 ; N u1D55D ; B 60 0 265 676 ;
C 222 ; WX 908 ; N u1D55E ; B 60 0 848 473 ;
C 223 ; WX 624 ; N u1D55F ; B 60 0 564 473 ;
C 224 ; WX 598 ; N u1D560 ; B 45 -14 553 473 ;
C 225 ; WX 643 ; N u1D561 ; B 60 -205 593 473 ;
C 226 ; WX 643 ; N u1D562 ; B 50 -205 583 473 ;
C 227 ; WX 339 ; N u1D563 ; B 60 0 445 473 ;
C 228 ; WX 549 ; N u1D564 ; B 52 -14 497 473 ;
C 229 ; WX 446 ; N u1D565 ; B 25 -14 411 676 ;
C 230 ; WX 619 ; N u1D566 ; B 55 -16 559 461 ;
C 231 ; WX 494 ; N u1D567 ; B 6 0 544 461 ;
C 232 ; WX 786 ; N u1D568 ; B 22 0 789 461 ;
C 233 ; WX 660 ; N u1D569 ; B 25 0 635 461 ;
C 234 ; WX 471 ; N u1D56A ; B -9 -205 537 461 ;
C 235 ; WX 513 ; N u1D56B ; B 40 0 473 461 ;
C 236 ; WX 330 ; N u1D55A.dtls ; B 65 0 265 461 ;
C 237 ; WX 371 ; N u1D55B.dtls ; B -20 -205 311 461 ;
C 238 ; WX 540 ; N u1D7D8 ; B 28 -14 512 676 ;
C 239 ; WX 540 ; N u1D7D9 ; B 91 0 355 693 ;
C 240 ; WX 547 ; N u1D7DA ; B 48 0 514 676 ;
C 241 ; WX 540 ; N u1D7DB ; B 49 -14 478 676 ;
C 242 ; WX 540 ; N u1D7DC ; B 20 0 524 676 ;
C 243 ; WX 540 ; N u1D7DD ; B 35 -14 489 662 ;
C 244 ; WX 540 ; N u1D7DE ; B 28 -14 512 676 ;
C 245 ; WX 540 ; N u1D7DF ; B 24 0 511 662 ;
C 246 ; WX 540 ; N u1D7E0 ; B 28 -14 512 676 ;
C 247 ; WX 540 ; N u1D7E1 ; B 28 -12 512 676 ;
C 248 ; WX 612 ; N uni2107 ; B 28 -15 574 692 ;
C 249 ; WX 722 ; N uni212B ; B 6 0 717 826 ;
C 250 ; WX 762 ; N uni2126 ; B 29 0 732 692 ;
C 251 ; WX 762 ; N uni2127 ; B 29 -15 732 678 ;
C 252 ; WX 594 ; N uni01B5 ; B 29 0 568 657 ;
EndCharMetrics
EndFontMetrics
