StartFontMetrics 2.0
Comment Generated by FontForge 20120731
Comment Creation Date: Tue Aug 18 14:36:42 2015
FontName drmittc8
FullName drmittc8
FamilyName drmittc8
Weight Regular
Notice (Generated from MetaFont bitmap by mftrace 1.2.18, http://www.xs4all.nl/~hanwen/mftrace/ )
ItalicAngle 0
IsFixedPitch false
UnderlinePosition -100
UnderlineThickness 50
Version 001.001
EncodingScheme FontSpecific
FontBBox -244 -427 1613 1125
CapHeight 751
XHeight 541
Ascender 541
Descender -1
StartCharMetrics 241
C 0 ; WX 500 ; N grave ; B 316 630 688 839 ;
C 1 ; WX 500 ; N acute ; B 277 652 721 860 ;
C 2 ; WX 500 ; N circumflex ; B 205 499 628 745 ;
C 3 ; WX 500 ; N tilde ; B 159 494 711 749 ;
C 4 ; WX 500 ; N dieresis ; B 256 580 686 750 ;
C 5 ; WX 500 ; N hungarumlaut ; B 324 479 756 762 ;
C 6 ; WX 500 ; N ring ; B 306 487 616 780 ;
C 7 ; WX 500 ; N caron ; B 286 495 708 740 ;
C 8 ; WX 500 ; N breve ; B 261 435 711 762 ;
C 9 ; WX 500 ; N macron ; B 234 608 677 625 ;
C 10 ; WX 250 ; N dotaccent ; B 257 581 437 751 ;
C 11 ; WX 250 ; N cedilla ; B -33 -363 195 0 ;
C 12 ; WX 250 ; N ogonek ; B -156 -427 252 0 ;
C 13 ; WX 250 ; N quotesinglbase ; B -29 -87 267 254 ;
C 14 ; WX 325 ; N guilsinglleft ; B 82 53 453 397 ;
C 15 ; WX 325 ; N guilsinglright ; B 23 53 393 397 ;
C 16 ; WX 437 ; N quotedblleft ; B 203 409 688 750 ;
C 17 ; WX 437 ; N quotedblright ; B 137 411 620 752 ;
C 18 ; WX 437 ; N quotedblbase ; B -56 -170 428 172 ;
C 19 ; WX 450 ; N guillemotleft ; B 80 53 580 397 ;
C 20 ; WX 450 ; N guillemotright ; B 20 53 520 397 ;
C 21 ; WX 750 ; N endash ; B 132 194 768 256 ; L hyphen emdash ;
C 22 ; WX 825 ; N emdash ; B 150 194 1000 257 ;
C 24 ; WX 425 ; N perthousand ; B 85 -1 452 339 ;
C 33 ; WX 375 ; N exclam ; B 125 0 488 755 ; L quoteleft exclamdown ;
C 34 ; WX 437 ; N quotedbl ; B 210 369 614 745 ;
C 35 ; WX 788 ; N numbersign ; B 85 -206 827 583 ;
C 36 ; WX 600 ; N dollar ; B 91 -28 759 778 ;
C 37 ; WX 625 ; N percent ; B 35 -11 836 751 ;
C 38 ; WX 563 ; N ampersand ; B 107 -5 676 756 ;
C 39 ; WX 250 ; N quoteright ; B 137 413 434 753 ; L quoteright quotedblright ;
C 40 ; WX 375 ; N parenleft ; B 90 -255 622 753 ;
C 41 ; WX 375 ; N parenright ; B -83 -255 452 754 ;
C 42 ; WX 450 ; N asterisk ; B 53 -15 547 465 ;
C 43 ; WX 450 ; N plus ; B 80 5 521 446 ;
C 44 ; WX 250 ; N comma ; B -56 -170 240 172 ;
C 45 ; WX 500 ; N hyphen ; B 113 194 537 256 ; L hyphen endash ;
C 46 ; WX 250 ; N period ; B 64 -1 243 171 ;
C 47 ; WX 300 ; N slash ; B 6 -15 544 765 ;
C 48 ; WX 413 ; N zero ; B 102 -6 491 545 ;
C 49 ; WX 368 ; N one ; B 66 -15 416 545 ;
C 50 ; WX 413 ; N two ; B 39 0 516 545 ;
C 51 ; WX 413 ; N three ; B 76 -5 516 545 ;
C 52 ; WX 413 ; N four ; B 98 -15 452 548 ;
C 53 ; WX 413 ; N five ; B 87 0 492 545 ;
C 54 ; WX 413 ; N six ; B 74 -6 457 545 ;
C 55 ; WX 368 ; N seven ; B 90 0 511 545 ;
C 56 ; WX 413 ; N eight ; B 80 -6 485 545 ;
C 57 ; WX 413 ; N nine ; B 136 -5 519 545 ;
C 58 ; WX 250 ; N colon ; B 64 -1 336 446 ;
C 59 ; WX 250 ; N semicolon ; B -56 -170 336 446 ;
C 60 ; WX 450 ; N less ; B 65 -15 608 465 ; L less guillemotleft ;
C 61 ; WX 450 ; N equal ; B 40 131 560 320 ;
C 62 ; WX 450 ; N greater ; B -159 -15 385 465 ; L greater guillemotright ;
C 63 ; WX 525 ; N question ; B 200 0 683 755 ; L quoteleft questiondown ;
C 64 ; WX 750 ; N at ; B 109 0 892 750 ;
C 65 ; WX 825 ; N A ; B 38 -1 797 755 ;
C 66 ; WX 638 ; N B ; B 38 -1 785 751 ;
C 67 ; WX 663 ; N C ; B 137 -26 869 755 ;
C 68 ; WX 700 ; N D ; B 38 -1 811 751 ;
C 69 ; WX 700 ; N E ; B 38 -1 848 751 ;
C 70 ; WX 700 ; N F ; B 38 -1 848 751 ;
C 71 ; WX 825 ; N G ; B 143 -1 937 755 ;
C 72 ; WX 825 ; N H ; B 38 -1 1037 751 ;
C 73 ; WX 425 ; N I ; B 38 -1 642 751 ;
C 74 ; WX 360 ; N J ; B -208 -250 607 751 ;
C 75 ; WX 700 ; N K ; B 38 -1 892 751 ;
C 76 ; WX 700 ; N L ; B 38 -1 745 751 ;
C 77 ; WX 825 ; N M ; B 23 -1 1037 751 ;
C 78 ; WX 700 ; N N ; B 38 -3 912 751 ;
C 79 ; WX 700 ; N O ; B 138 -6 812 755 ;
C 80 ; WX 575 ; N P ; B 38 -1 733 751 ;
C 81 ; WX 825 ; N Q ; B 143 -225 1613 755 ;
C 82 ; WX 700 ; N R ; B 38 -1 758 751 ;
C 83 ; WX 619 ; N S ; B 25 -44 828 776 ;
C 84 ; WX 700 ; N T ; B 173 -1 879 775 ;
C 85 ; WX 700 ; N U ; B 216 -1 912 751 ;
C 86 ; WX 700 ; N V ; B 278 -5 912 751 ;
C 87 ; WX 1112 ; N W ; B 278 -4 1337 751 ;
C 88 ; WX 700 ; N X ; B 38 -1 912 751 ;
C 89 ; WX 700 ; N Y ; B 173 -1 912 751 ;
C 90 ; WX 700 ; N Z ; B 39 0 912 750 ;
C 91 ; WX 500 ; N bracketleft ; B -45 -251 724 788 ;
C 92 ; WX 300 ; N backslash ; B -244 -15 294 765 ;
C 93 ; WX 500 ; N bracketright ; B -45 -251 724 788 ;
C 95 ; WX 825 ; N underscore ; B 143 -301 931 756 ;
C 96 ; WX 250 ; N quoteleft ; B 219 453 515 794 ; L quoteleft quotedblleft ;
C 97 ; WX 575 ; N a ; B 38 -1 547 545 ;
C 98 ; WX 513 ; N b ; B 38 -1 606 541 ;
C 99 ; WX 538 ; N c ; B 111 -8 671 545 ;
C 100 ; WX 513 ; N d ; B 38 -1 583 541 ;
C 101 ; WX 513 ; N e ; B 38 -1 613 541 ;
C 102 ; WX 513 ; N f ; B 38 -1 612 541 ;
C 103 ; WX 575 ; N g ; B 113 -1 636 546 ;
C 104 ; WX 575 ; N h ; B 38 -1 717 541 ;
C 105 ; WX 300 ; N i ; B 38 -1 445 541 ;
C 106 ; WX 285 ; N j ; B -122 -251 436 541 ;
C 107 ; WX 513 ; N k ; B 38 -1 635 541 ;
C 108 ; WX 513 ; N l ; B 38 -1 516 541 ;
C 109 ; WX 638 ; N m ; B 23 -1 780 541 ;
C 110 ; WX 513 ; N n ; B 38 -3 655 541 ;
C 111 ; WX 575 ; N o ; B 111 -5 644 546 ;
C 112 ; WX 513 ; N p ; B 38 -1 617 541 ;
C 113 ; WX 575 ; N q ; B 114 -225 1613 545 ;
C 114 ; WX 575 ; N r ; B 38 -1 575 541 ;
C 115 ; WX 450 ; N s ; B 43 -6 582 544 ;
C 116 ; WX 575 ; N t ; B 174 -1 694 565 ;
C 117 ; WX 513 ; N u ; B 134 -1 655 541 ;
C 118 ; WX 575 ; N v ; B 208 1 717 541 ;
C 119 ; WX 700 ; N w ; B 208 2 842 541 ;
C 120 ; WX 513 ; N x ; B 38 -1 655 541 ;
C 121 ; WX 513 ; N y ; B 143 -1 655 541 ;
C 122 ; WX 575 ; N z ; B 39 0 717 540 ;
C 123 ; WX 450 ; N braceleft ; B 128 -251 668 788 ;
C 124 ; WX 125 ; N bar ; B -39 -266 343 803 ;
C 125 ; WX 450 ; N braceright ; B -39 -252 501 788 ;
C 127 ; WX 375 ; N sfthyphen ; B 102 194 423 256 ;
C 128 ; WX 825 ; N Abreve ; B 38 -1 870 1041 ;
C 129 ; WX 825 ; N Aogonek ; B 38 -427 802 755 ;
C 130 ; WX 663 ; N Cacute ; B 137 -26 869 1111 ;
C 131 ; WX 663 ; N Ccaron ; B 137 -26 869 1041 ;
C 132 ; WX 700 ; N Dcaron ; B 38 -1 811 1041 ;
C 133 ; WX 700 ; N Ecaron ; B 38 -1 848 1041 ;
C 134 ; WX 700 ; N Eogonek ; B 38 -427 848 751 ;
C 135 ; WX 825 ; N Gbreve ; B 143 -1 937 1041 ;
C 136 ; WX 700 ; N Lacute ; B 38 -1 745 1111 ;
C 137 ; WX 700 ; N Lcaron ; B 38 -1 745 796 ;
C 138 ; WX 700 ; N Lslash ; B 38 -1 745 751 ;
C 139 ; WX 700 ; N Nacute ; B 38 -3 912 1111 ;
C 140 ; WX 700 ; N Ncaron ; B 38 -3 912 991 ;
C 141 ; WX 769 ; N Eng ; B 38 -251 1113 755 ;
C 142 ; WX 700 ; N Ohungarumlaut ; B 138 -6 855 1063 ;
C 143 ; WX 700 ; N Racute ; B 38 -1 820 1111 ;
C 144 ; WX 700 ; N Rcaron ; B 38 -1 807 991 ;
C 145 ; WX 619 ; N Sacute ; B 25 -44 828 1111 ;
C 146 ; WX 619 ; N Scaron ; B 25 -44 828 991 ;
C 147 ; WX 619 ; N Scedilla ; B 25 -363 828 776 ;
C 148 ; WX 700 ; N Tcaron ; B 173 -1 879 991 ;
C 149 ; WX 700 ; N Tcedilla ; B 173 -363 879 775 ;
C 150 ; WX 700 ; N Uhungarumlaut ; B 216 -1 971 1063 ;
C 151 ; WX 700 ; N Uring ; B 216 -1 912 1031 ;
C 152 ; WX 700 ; N Ydieresis ; B 173 -1 912 1001 ;
C 153 ; WX 700 ; N Zacute ; B 39 0 912 1111 ;
C 154 ; WX 700 ; N Zcaron ; B 39 0 911 991 ;
C 155 ; WX 700 ; N Zdotaccent ; B 39 0 912 1002 ;
C 157 ; WX 360 ; N Idotaccent ; B 38 -1 642 1002 ;
C 159 ; WX 360 ; N section ; B -1 -277 528 755 ;
C 160 ; WX 575 ; N abreve ; B 38 -1 745 740 ;
C 161 ; WX 575 ; N aogonek ; B 38 -427 635 545 ;
C 162 ; WX 575 ; N cacute ; B 111 -8 758 810 ;
C 163 ; WX 575 ; N ccaron ; B 111 -8 744 740 ;
C 164 ; WX 513 ; N dcaron ; B 38 -1 789 547 ;
C 165 ; WX 513 ; N ecaron ; B 38 -1 714 740 ;
C 166 ; WX 513 ; N eogonek ; B 25 -427 613 541 ;
C 167 ; WX 575 ; N gbreve ; B 113 -1 744 740 ;
C 168 ; WX 513 ; N lacute ; B 38 -1 727 985 ;
C 169 ; WX 513 ; N lcaron ; B 38 -1 597 571 ;
C 170 ; WX 513 ; N lslash ; B 38 -1 516 541 ;
C 171 ; WX 513 ; N nacute ; B 38 -3 727 785 ;
C 172 ; WX 513 ; N ncaron ; B 38 -3 714 740 ;
C 173 ; WX 575 ; N eng ; B 38 -252 726 545 ;
C 174 ; WX 575 ; N ohungarumlaut ; B 112 -6 793 762 ;
C 175 ; WX 575 ; N racute ; B 38 -1 758 810 ;
C 176 ; WX 575 ; N rcaron ; B 38 -1 745 740 ;
C 177 ; WX 450 ; N sacute ; B 43 -6 695 810 ;
C 178 ; WX 450 ; N scaron ; B 43 -6 682 690 ;
C 179 ; WX 450 ; N scedilla ; B 43 -363 582 544 ;
C 180 ; WX 700 ; N tcaron ; B 174 -1 909 572 ;
C 181 ; WX 575 ; N tcedilla ; B 174 -363 694 565 ;
C 182 ; WX 513 ; N uhungarumlaut ; B 134 -1 762 762 ;
C 183 ; WX 513 ; N uring ; B 134 -1 655 831 ;
C 184 ; WX 513 ; N ydieresis ; B 143 -1 692 750 ;
C 185 ; WX 450 ; N zacute ; B 39 0 883 810 ;
C 186 ; WX 450 ; N zcaron ; B 39 0 870 740 ;
C 187 ; WX 450 ; N zdotaccent ; B 39 0 716 701 ;
C 189 ; WX 375 ; N exclamdown ; B -113 -255 249 500 ;
C 190 ; WX 525 ; N questiondown ; B -158 -256 324 500 ;
C 191 ; WX 700 ; N sterling ; B 74 -7 849 755 ;
C 192 ; WX 825 ; N Agrave ; B 38 -1 850 1090 ;
C 193 ; WX 825 ; N Aacute ; B 38 -1 883 1111 ;
C 194 ; WX 825 ; N Acircumflex ; B 38 -1 797 996 ;
C 195 ; WX 825 ; N Atilde ; B 38 -1 873 1000 ;
C 196 ; WX 825 ; N Adieresis ; B 38 -1 848 1001 ;
C 197 ; WX 825 ; N Aring ; B 38 -1 861 1031 ;
C 198 ; WX 788 ; N AE ; B 38 -1 936 750 ;
C 199 ; WX 700 ; N Ccedilla ; B 137 -363 869 755 ;
C 200 ; WX 700 ; N Egrave ; B 38 -1 848 1090 ;
C 201 ; WX 700 ; N Eacute ; B 38 -1 848 1111 ;
C 202 ; WX 700 ; N Ecircumflex ; B 38 -1 848 1121 ;
C 203 ; WX 700 ; N Edieresis ; B 38 -1 848 1001 ;
C 204 ; WX 360 ; N Igrave ; B 38 -1 642 1090 ;
C 205 ; WX 360 ; N Iacute ; B 38 -1 650 1111 ;
C 206 ; WX 360 ; N Icircumflex ; B 38 -1 642 1121 ;
C 207 ; WX 360 ; N Idieresis ; B 38 -1 642 1001 ;
C 208 ; WX 825 ; N Eth ; B 38 -1 811 751 ;
C 209 ; WX 700 ; N Ntilde ; B 38 -3 912 1125 ;
C 210 ; WX 700 ; N Ograve ; B 138 -6 812 1090 ;
C 211 ; WX 700 ; N Oacute ; B 138 -6 820 1111 ;
C 212 ; WX 700 ; N Ocircumflex ; B 138 -6 812 1121 ;
C 213 ; WX 700 ; N Otilde ; B 138 -6 812 1125 ;
C 214 ; WX 700 ; N Odieresis ; B 138 -6 812 1001 ;
C 215 ; WX 788 ; N OE ; B 92 -3 970 752 ;
C 216 ; WX 700 ; N Oslash ; B 45 -6 905 755 ;
C 217 ; WX 700 ; N Ugrave ; B 216 -1 912 1090 ;
C 218 ; WX 700 ; N Uacute ; B 216 -1 912 1111 ;
C 219 ; WX 700 ; N Ucircumflex ; B 216 -1 912 1121 ;
C 220 ; WX 700 ; N Udieresis ; B 216 -1 912 1001 ;
C 221 ; WX 700 ; N Yacute ; B 173 -1 912 1111 ;
C 222 ; WX 563 ; N Thorn ; B 38 -1 668 751 ;
C 224 ; WX 575 ; N agrave ; B 38 -1 725 790 ;
C 225 ; WX 575 ; N aacute ; B 38 -1 758 811 ;
C 226 ; WX 575 ; N acircumflex ; B 38 -1 665 821 ;
C 227 ; WX 575 ; N atilde ; B 38 -1 748 825 ;
C 228 ; WX 575 ; N adieresis ; B 38 -1 723 776 ;
C 229 ; WX 575 ; N aring ; B 38 -1 636 806 ;
C 230 ; WX 663 ; N ae ; B 38 -1 763 540 ;
C 231 ; WX 525 ; N ccedilla ; B 65 -363 671 545 ;
C 232 ; WX 513 ; N egrave ; B 38 -1 694 865 ;
C 233 ; WX 513 ; N eacute ; B 38 -1 727 886 ;
C 234 ; WX 513 ; N ecircumflex ; B 38 -1 634 947 ;
C 235 ; WX 513 ; N edieresis ; B 38 -1 692 776 ;
C 236 ; WX 285 ; N igrave ; B 38 -1 580 865 ;
C 237 ; WX 285 ; N iacute ; B 38 -1 613 886 ;
C 238 ; WX 285 ; N icircumflex ; B 38 -1 520 897 ;
C 239 ; WX 285 ; N idieresis ; B 38 -1 578 776 ;
C 240 ; WX 513 ; N eth ; B 38 -1 583 541 ;
C 241 ; WX 513 ; N ntilde ; B 38 -3 717 799 ;
C 242 ; WX 575 ; N ograve ; B 111 -5 725 865 ;
C 243 ; WX 575 ; N oacute ; B 111 -5 758 886 ;
C 244 ; WX 575 ; N ocircumflex ; B 111 -5 665 897 ;
C 245 ; WX 575 ; N otilde ; B 111 -5 748 901 ;
C 246 ; WX 575 ; N odieresis ; B 111 -5 723 776 ;
C 247 ; WX 663 ; N oe ; B 73 -2 797 542 ;
C 248 ; WX 575 ; N oslash ; B 45 -6 710 546 ;
C 249 ; WX 513 ; N ugrave ; B 134 -1 694 839 ;
C 250 ; WX 513 ; N uacute ; B 134 -1 727 860 ;
C 251 ; WX 513 ; N ucircumflex ; B 134 -1 655 795 ;
C 252 ; WX 513 ; N udieresis ; B 134 -1 692 750 ;
C 253 ; WX 513 ; N yacute ; B 143 -1 727 860 ;
C 254 ; WX 450 ; N thorn ; B 38 -1 516 541 ;
C 255 ; WX 825 ; N germandbls ; B 43 -6 983 544 ;
EndCharMetrics
StartKernData
StartKernPairs 727
KPX A Y -125
KPX A W -125
KPX A V -125
KPX A U -125
KPX A T -125
KPX A Q -63
KPX A O -63
KPX A J -63
KPX A G -63
KPX A C -63
KPX B S 63
KPX B Q 63
KPX B O 63
KPX B G 63
KPX D W -31
KPX D V -31
KPX D Y -31
KPX D X -31
KPX D P 63
KPX D M 63
KPX D H 63
KPX D S 63
KPX D Q 125
KPX D O 63
KPX D G 125
KPX D C 63
KPX F z -63
KPX F y -63
KPX F x -63
KPX F w -63
KPX F v -63
KPX F u -63
KPX F t -63
KPX F s -63
KPX F r -63
KPX F q -63
KPX F p -63
KPX F o -63
KPX F n -63
KPX F m -63
KPX F l -63
KPX F k -63
KPX F i -125
KPX F h -63
KPX F g -63
KPX F f -63
KPX F e -63
KPX F d -63
KPX F c -63
KPX F b -63
KPX F a -63
KPX F A -125
KPX G Y -63
KPX G X -63
KPX G W -63
KPX G V -63
KPX G U -63
KPX G T -63
KPX G R -63
KPX G P -63
KPX G N -63
KPX G M -63
KPX G L -63
KPX G K -63
KPX G J -63
KPX G I -63
KPX G H -63
KPX G F -63
KPX G E -63
KPX G D -63
KPX G B -63
KPX G A -63
KPX K Q -63
KPX K O -63
KPX K G -63
KPX K C -63
KPX O Y -31
KPX O X -31
KPX O W -31
KPX O V -31
KPX O S 63
KPX O Q 63
KPX O O 63
KPX O G 63
KPX O C 63
KPX O A -31
KPX P A -63
KPX Q Y -31
KPX Q X -31
KPX Q W -31
KPX Q V -31
KPX Q S 63
KPX Q Q 63
KPX Q O 63
KPX Q G 63
KPX Q C 63
KPX Q A -31
KPX S A -63
KPX T z -125
KPX T y -125
KPX T x -125
KPX T w -125
KPX T v -125
KPX T u -125
KPX T t -125
KPX T s -125
KPX T r -125
KPX T q -125
KPX T p -125
KPX T o -125
KPX T n -125
KPX T m -125
KPX T l -125
KPX T k -125
KPX T i -125
KPX T g -125
KPX T f -125
KPX T e -125
KPX T d -125
KPX T c -125
KPX T b -125
KPX T a -125
KPX T h -125
KPX T A -63
KPX U A -31
KPX V Q -31
KPX V O -31
KPX V G -31
KPX V C -31
KPX V A -125
KPX W a -188
KPX W Q -31
KPX W O -31
KPX W G -31
KPX W C -31
KPX W A -125
KPX X Q -31
KPX X O -31
KPX X G -31
KPX X C -31
KPX Y Q -31
KPX Y O -31
KPX Y G -31
KPX Y C -31
KPX Y A -125
KPX a r -63
KPX a w -63
KPX a v -125
KPX a y -125
KPX a u -125
KPX a t -125
KPX a q -63
KPX a o -63
KPX a j -63
KPX a g -63
KPX a c -63
KPX b S 63
KPX b Q 63
KPX b o 63
KPX b g 63
KPX c y -63
KPX c w -63
KPX c v -63
KPX d w -31
KPX d v -31
KPX d y -31
KPX d x -31
KPX d p 63
KPX d m 63
KPX d h 63
KPX d s 63
KPX d q 125
KPX d o 63
KPX d g 125
KPX d c 63
KPX f a -125
KPX g y -63
KPX g x -63
KPX g w -63
KPX g v -63
KPX g u -63
KPX g t -63
KPX g r -63
KPX g p -63
KPX g n -63
KPX g m -63
KPX g l -63
KPX g k -63
KPX g j -63
KPX g i -63
KPX g h -63
KPX g f -63
KPX g e -63
KPX g d -63
KPX g b -63
KPX g a -63
KPX h Q -63
KPX h O -63
KPX h G -63
KPX h C -63
KPX o y -31
KPX o x -31
KPX o w -31
KPX o v -31
KPX o s 63
KPX o q 63
KPX o o 63
KPX o g 63
KPX o c 63
KPX o a -31
KPX p A -63
KPX q y -31
KPX q x -31
KPX q w -31
KPX q v -31
KPX q s 63
KPX q q 63
KPX q o 63
KPX q g 63
KPX q c 63
KPX q a -31
KPX r t -63
KPX r n -63
KPX s a -63
KPX t a -125
KPX u a -31
KPX v q -31
KPX v o -31
KPX v g -31
KPX v c -31
KPX v a -125
KPX w q -31
KPX w o -31
KPX w g -31
KPX w c -31
KPX w a -125
KPX x q -31
KPX x o -31
KPX x g -31
KPX x c -31
KPX y q -31
KPX y o -31
KPX y g -31
KPX y c -31
KPX y a -125
KPX Abreve Y -125
KPX Abreve W -125
KPX Abreve V -125
KPX Abreve U -125
KPX Abreve T -125
KPX Abreve Q -63
KPX Abreve O -63
KPX Abreve J -63
KPX Abreve G -63
KPX Abreve C -63
KPX Aogonek Y -125
KPX Aogonek W -125
KPX Aogonek V -125
KPX Aogonek U -125
KPX Aogonek T -125
KPX Aogonek Q -63
KPX Aogonek O -63
KPX Aogonek J -63
KPX Aogonek G -63
KPX Aogonek C -63
KPX Dcaron W -31
KPX Dcaron V -31
KPX Dcaron Y -31
KPX Dcaron X -31
KPX Dcaron P 63
KPX Dcaron M 63
KPX Dcaron H 63
KPX Dcaron S 63
KPX Dcaron Q 125
KPX Dcaron O 63
KPX Dcaron G 125
KPX Dcaron C 63
KPX Gbreve Y -63
KPX Gbreve X -63
KPX Gbreve W -63
KPX Gbreve V -63
KPX Gbreve U -63
KPX Gbreve T -63
KPX Gbreve R -63
KPX Gbreve P -63
KPX Gbreve N -63
KPX Gbreve M -63
KPX Gbreve L -63
KPX Gbreve K -63
KPX Gbreve J -63
KPX Gbreve I -63
KPX Gbreve H -63
KPX Gbreve F -63
KPX Gbreve E -63
KPX Gbreve D -63
KPX Gbreve B -63
KPX Gbreve A -63
KPX Ohungarumlaut Y -31
KPX Ohungarumlaut X -31
KPX Ohungarumlaut W -31
KPX Ohungarumlaut V -31
KPX Ohungarumlaut S 63
KPX Ohungarumlaut Q 63
KPX Ohungarumlaut O 63
KPX Ohungarumlaut G 63
KPX Ohungarumlaut C 63
KPX Ohungarumlaut A -31
KPX Sacute A -63
KPX Scaron A -63
KPX Scedilla A -63
KPX Tcaron z -125
KPX Tcaron y -125
KPX Tcaron x -125
KPX Tcaron w -125
KPX Tcaron v -125
KPX Tcaron u -125
KPX Tcaron t -125
KPX Tcaron s -125
KPX Tcaron r -125
KPX Tcaron q -125
KPX Tcaron p -125
KPX Tcaron o -125
KPX Tcaron n -125
KPX Tcaron m -125
KPX Tcaron l -125
KPX Tcaron k -125
KPX Tcaron i -125
KPX Tcaron g -125
KPX Tcaron f -125
KPX Tcaron e -125
KPX Tcaron d -125
KPX Tcaron c -125
KPX Tcaron b -125
KPX Tcaron a -125
KPX Tcaron h -125
KPX Tcaron A -63
KPX Tcedilla z -125
KPX Tcedilla y -125
KPX Tcedilla x -125
KPX Tcedilla w -125
KPX Tcedilla v -125
KPX Tcedilla u -125
KPX Tcedilla t -125
KPX Tcedilla s -125
KPX Tcedilla r -125
KPX Tcedilla q -125
KPX Tcedilla p -125
KPX Tcedilla o -125
KPX Tcedilla n -125
KPX Tcedilla m -125
KPX Tcedilla l -125
KPX Tcedilla k -125
KPX Tcedilla i -125
KPX Tcedilla g -125
KPX Tcedilla f -125
KPX Tcedilla e -125
KPX Tcedilla d -125
KPX Tcedilla c -125
KPX Tcedilla b -125
KPX Tcedilla a -125
KPX Tcedilla h -125
KPX Tcedilla A -63
KPX Uhungarumlaut A -31
KPX Uring A -31
KPX Ydieresis Q -31
KPX Ydieresis O -31
KPX Ydieresis G -31
KPX Ydieresis C -31
KPX Ydieresis A -125
KPX abreve r -63
KPX abreve w -63
KPX abreve v -125
KPX abreve y -125
KPX abreve u -125
KPX abreve t -125
KPX abreve q -63
KPX abreve o -63
KPX abreve j -63
KPX abreve g -63
KPX abreve c -63
KPX aogonek r -63
KPX aogonek w -63
KPX aogonek v -125
KPX aogonek y -125
KPX aogonek u -125
KPX aogonek t -125
KPX aogonek q -63
KPX aogonek o -63
KPX aogonek j -63
KPX aogonek g -63
KPX aogonek c -63
KPX cacute y -63
KPX cacute w -63
KPX cacute v -63
KPX ccaron y -63
KPX ccaron w -63
KPX ccaron v -63
KPX dcaron w -31
KPX dcaron v -31
KPX dcaron y -31
KPX dcaron x -31
KPX dcaron p 63
KPX dcaron m 63
KPX dcaron h 63
KPX dcaron s 63
KPX dcaron q 125
KPX dcaron o 63
KPX dcaron g 125
KPX dcaron c 63
KPX gbreve y -63
KPX gbreve x -63
KPX gbreve w -63
KPX gbreve v -63
KPX gbreve u -63
KPX gbreve t -63
KPX gbreve r -63
KPX gbreve p -63
KPX gbreve n -63
KPX gbreve m -63
KPX gbreve l -63
KPX gbreve k -63
KPX gbreve j -63
KPX gbreve i -63
KPX gbreve h -63
KPX gbreve f -63
KPX gbreve e -63
KPX gbreve d -63
KPX gbreve b -63
KPX gbreve a -63
KPX ohungarumlaut y -31
KPX ohungarumlaut x -31
KPX ohungarumlaut w -31
KPX ohungarumlaut v -31
KPX ohungarumlaut s 63
KPX ohungarumlaut q 63
KPX ohungarumlaut o 63
KPX ohungarumlaut g 63
KPX ohungarumlaut c 63
KPX ohungarumlaut a -31
KPX racute t -63
KPX racute n -63
KPX sacute a -63
KPX scaron a -63
KPX scedilla a -63
KPX ydieresis q -31
KPX ydieresis o -31
KPX ydieresis g -31
KPX ydieresis c -31
KPX ydieresis a -125
KPX Agrave Y -125
KPX Agrave W -125
KPX Agrave V -125
KPX Agrave U -125
KPX Agrave T -125
KPX Agrave Q -63
KPX Agrave O -63
KPX Agrave J -63
KPX Agrave G -63
KPX Agrave C -63
KPX Aacute Y -125
KPX Aacute W -125
KPX Aacute V -125
KPX Aacute U -125
KPX Aacute T -125
KPX Aacute Q -63
KPX Aacute O -63
KPX Aacute J -63
KPX Aacute G -63
KPX Aacute C -63
KPX Acircumflex Y -125
KPX Acircumflex W -125
KPX Acircumflex V -125
KPX Acircumflex U -125
KPX Acircumflex T -125
KPX Acircumflex Q -63
KPX Acircumflex O -63
KPX Acircumflex J -63
KPX Acircumflex G -63
KPX Acircumflex C -63
KPX Atilde Y -125
KPX Atilde W -125
KPX Atilde V -125
KPX Atilde U -125
KPX Atilde T -125
KPX Atilde Q -63
KPX Atilde O -63
KPX Atilde J -63
KPX Atilde G -63
KPX Atilde C -63
KPX Adieresis Y -125
KPX Adieresis W -125
KPX Adieresis V -125
KPX Adieresis U -125
KPX Adieresis T -125
KPX Adieresis Q -63
KPX Adieresis O -63
KPX Adieresis J -63
KPX Adieresis G -63
KPX Adieresis C -63
KPX Aring Y -125
KPX Aring W -125
KPX Aring V -125
KPX Aring U -125
KPX Aring T -125
KPX Aring Q -63
KPX Aring O -63
KPX Aring J -63
KPX Aring G -63
KPX Aring C -63
KPX Eth W -31
KPX Eth V -31
KPX Eth Y -31
KPX Eth X -31
KPX Eth P 63
KPX Eth M 63
KPX Eth H 63
KPX Eth S 63
KPX Eth Q 125
KPX Eth O 63
KPX Eth G 125
KPX Eth C 63
KPX Ograve Y -31
KPX Ograve X -31
KPX Ograve W -31
KPX Ograve V -31
KPX Ograve S 63
KPX Ograve Q 63
KPX Ograve O 63
KPX Ograve G 63
KPX Ograve C 63
KPX Ograve A -31
KPX Oacute Y -31
KPX Oacute X -31
KPX Oacute W -31
KPX Oacute V -31
KPX Oacute S 63
KPX Oacute Q 63
KPX Oacute O 63
KPX Oacute G 63
KPX Oacute C 63
KPX Oacute A -31
KPX Ocircumflex Y -31
KPX Ocircumflex X -31
KPX Ocircumflex W -31
KPX Ocircumflex V -31
KPX Ocircumflex S 63
KPX Ocircumflex Q 63
KPX Ocircumflex O 63
KPX Ocircumflex G 63
KPX Ocircumflex C 63
KPX Ocircumflex A -31
KPX Otilde Y -31
KPX Otilde X -31
KPX Otilde W -31
KPX Otilde V -31
KPX Otilde S 63
KPX Otilde Q 63
KPX Otilde O 63
KPX Otilde G 63
KPX Otilde C 63
KPX Otilde A -31
KPX Odieresis Y -31
KPX Odieresis X -31
KPX Odieresis W -31
KPX Odieresis V -31
KPX Odieresis S 63
KPX Odieresis Q 63
KPX Odieresis O 63
KPX Odieresis G 63
KPX Odieresis C 63
KPX Odieresis A -31
KPX Ugrave A -31
KPX Uacute A -31
KPX Ucircumflex A -31
KPX Udieresis A -31
KPX Yacute Q -31
KPX Yacute O -31
KPX Yacute G -31
KPX Yacute C -31
KPX Yacute A -125
KPX Thorn W -31
KPX Thorn V -31
KPX Thorn Y -31
KPX Thorn X -31
KPX Thorn P 63
KPX Thorn M 63
KPX Thorn H 63
KPX Thorn S 63
KPX Thorn Q 125
KPX Thorn O 63
KPX Thorn G 125
KPX Thorn C 63
KPX agrave r -63
KPX agrave w -63
KPX agrave v -125
KPX agrave y -125
KPX agrave u -125
KPX agrave t -125
KPX agrave q -63
KPX agrave o -63
KPX agrave j -63
KPX agrave g -63
KPX agrave c -63
KPX aacute r -63
KPX aacute w -63
KPX aacute v -125
KPX aacute y -125
KPX aacute u -125
KPX aacute t -125
KPX aacute q -63
KPX aacute o -63
KPX aacute j -63
KPX aacute g -63
KPX aacute c -63
KPX acircumflex r -63
KPX acircumflex w -63
KPX acircumflex v -125
KPX acircumflex y -125
KPX acircumflex u -125
KPX acircumflex t -125
KPX acircumflex q -63
KPX acircumflex o -63
KPX acircumflex j -63
KPX acircumflex g -63
KPX acircumflex c -63
KPX atilde r -63
KPX atilde w -63
KPX atilde v -125
KPX atilde y -125
KPX atilde u -125
KPX atilde t -125
KPX atilde q -63
KPX atilde o -63
KPX atilde j -63
KPX atilde g -63
KPX atilde c -63
KPX adieresis r -63
KPX adieresis w -63
KPX adieresis v -125
KPX adieresis y -125
KPX adieresis u -125
KPX adieresis t -125
KPX adieresis q -63
KPX adieresis o -63
KPX adieresis j -63
KPX adieresis g -63
KPX adieresis c -63
KPX aring r -63
KPX aring w -63
KPX aring v -125
KPX aring y -125
KPX aring u -125
KPX aring t -125
KPX aring q -63
KPX aring o -63
KPX aring j -63
KPX aring g -63
KPX aring c -63
KPX ccedilla y -63
KPX ccedilla w -63
KPX eth w -31
KPX eth v -31
KPX eth y -31
KPX eth x -31
KPX eth p 63
KPX eth m 63
KPX eth h 63
KPX eth s 63
KPX eth q 125
KPX eth o 63
KPX eth g 125
KPX eth c 63
KPX ograve y -31
KPX ograve x -31
KPX ograve w -31
KPX ograve v -31
KPX ograve s 63
KPX ograve q 63
KPX ograve o 63
KPX ograve g 63
KPX ograve c 63
KPX ograve a -31
KPX oacute y -31
KPX oacute x -31
KPX oacute w -31
KPX oacute v -31
KPX oacute s 63
KPX oacute q 63
KPX oacute o 63
KPX oacute g 63
KPX oacute c 63
KPX oacute a -31
KPX ocircumflex y -31
KPX ocircumflex x -31
KPX ocircumflex w -31
KPX ocircumflex v -31
KPX ocircumflex s 63
KPX ocircumflex q 63
KPX ocircumflex o 63
KPX ocircumflex g 63
KPX ocircumflex c 63
KPX ocircumflex a -31
KPX otilde y -31
KPX otilde x -31
KPX otilde w -31
KPX otilde v -31
KPX otilde s 63
KPX otilde q 63
KPX otilde o 63
KPX otilde g 63
KPX otilde c 63
KPX otilde a -31
KPX odieresis y -31
KPX odieresis x -31
KPX odieresis w -31
KPX odieresis v -31
KPX odieresis s 63
KPX odieresis q 63
KPX odieresis o 63
KPX odieresis g 63
KPX odieresis c 63
KPX odieresis a -31
KPX yacute q -31
KPX yacute o -31
KPX yacute g -31
KPX yacute c -31
KPX yacute a -125
EndKernPairs
EndKernData
EndFontMetrics
