StartFontMetrics 2.0
Comment Generated by FontForge 20120731
Comment Creation Date: Tue Aug 18 15:04:01 2015
FontName drmuibx12
FullName drmuibx12
FamilyName drmuibx12
Weight Regular
Notice (Generated from MetaFont bitmap by mftrace 1.2.18, http://www.xs4all.nl/~hanwen/mftrace/ )
ItalicAngle 0
IsFixedPitch false
UnderlinePosition -100
UnderlineThickness 50
Version 001.001
EncodingScheme FontSpecific
FontBBox -245 -381 2142 1167
CapHeight 834
XHeight 500
Ascender 833
Descender -278
StartCharMetrics 249
C 0 ; WX 444 ; N grave ; B 32 715 414 908 ;
C 1 ; WX 444 ; N acute ; B 32 733 414 927 ;
C 2 ; WX 444 ; N circumflex ; B 22 610 422 820 ;
C 3 ; WX 444 ; N tilde ; B -39 596 422 832 ;
C 4 ; WX 444 ; N dieresis ; B 42 695 402 833 ;
C 5 ; WX 444 ; N hungarumlaut ; B 137 584 454 835 ;
C 6 ; WX 444 ; N ring ; B 88 601 357 869 ;
C 7 ; WX 444 ; N caron ; B 22 598 422 808 ;
C 8 ; WX 444 ; N breve ; B 22 553 422 836 ;
C 9 ; WX 444 ; N macron ; B 14 707 429 721 ;
C 10 ; WX 222 ; N dotaccent ; B 42 696 180 834 ;
C 11 ; WX 222 ; N cedilla ; B 59 -322 236 0 ;
C 12 ; WX 222 ; N ogonek ; B -74 -381 298 0 ;
C 13 ; WX 222 ; N quotesinglbase ; B 8 -50 191 230 ;
C 14 ; WX 264 ; N guilsinglleft ; B 15 52 251 447 ;
C 15 ; WX 264 ; N guilsinglright ; B 13 52 249 448 ;
C 16 ; WX 389 ; N quotedblleft ; B 30 553 382 833 ;
C 17 ; WX 389 ; N quotedblright ; B 8 555 359 835 ;
C 18 ; WX 389 ; N quotedblbase ; B 8 -139 359 141 ;
C 19 ; WX 375 ; N guillemotleft ; B 9 52 369 448 ;
C 20 ; WX 375 ; N guillemotright ; B 6 52 366 448 ;
C 21 ; WX 667 ; N endash ; B 33 229 634 271 ; L hyphen emdash ;
C 22 ; WX 958 ; N emdash ; B 43 229 845 271 ;
C 24 ; WX 353 ; N perthousand ; B 22 -1 331 376 ;
C 25 ; WX 372 ; N dotlessi ; B -12 -7 383 506 ;
C 26 ; WX 372 ; N dotlessj ; B -66 -280 245 508 ;
C 27 ; WX 922 ; N ff ; B 11 -320 869 875 ; L l ffl ; L i ffi ;
C 28 ; WX 647 ; N fi ; B 11 -321 746 876 ;
C 29 ; WX 702 ; N fl ; B 11 -321 744 876 ;
C 30 ; WX 1059 ; N ffi ; B 11 -320 997 875 ;
C 31 ; WX 1059 ; N ffl ; B 11 -320 995 875 ;
C 32 ; WX 724 ; N space ; B -15 -321 713 876 ;
C 33 ; WX 333 ; N exclam ; B 98 1 235 846 ; L quoteleft exclamdown ;
C 34 ; WX 389 ; N quotedbl ; B 19 487 370 820 ;
C 35 ; WX 938 ; N numbersign ; B 59 -270 828 623 ;
C 36 ; WX 683 ; N dollar ; B 21 -47 662 882 ;
C 37 ; WX 764 ; N percent ; B 13 -21 742 834 ;
C 38 ; WX 688 ; N ampersand ; B 18 -18 767 833 ;
C 39 ; WX 222 ; N quoteright ; B 8 561 191 841 ; L quoteright quotedblright ;
C 40 ; WX 333 ; N parenleft ; B 22 -291 331 844 ;
C 41 ; WX 333 ; N parenright ; B 2 -291 311 845 ;
C 42 ; WX 500 ; N asterisk ; B 15 -16 485 517 ;
C 43 ; WX 500 ; N plus ; B 13 13 487 487 ;
C 44 ; WX 222 ; N comma ; B 8 -139 191 141 ;
C 45 ; WX 444 ; N hyphen ; B 22 230 422 271 ; L hyphen endash ;
C 46 ; WX 222 ; N period ; B 41 1 181 139 ;
C 47 ; WX 292 ; N slash ; B 12 -18 280 850 ;
C 48 ; WX 582 ; N zero ; B 21 -13 561 513 ;
C 49 ; WX 342 ; N one ; B -51 0 230 500 ;
C 50 ; WX 642 ; N two ; B 22 -14 622 846 ;
C 51 ; WX 642 ; N three ; B 22 -293 623 567 ;
C 52 ; WX 642 ; N four ; B 22 -279 641 567 ;
C 53 ; WX 642 ; N five ; B 22 -296 622 567 ;
C 54 ; WX 642 ; N six ; B 19 -13 619 846 ;
C 55 ; WX 642 ; N seven ; B 1 -279 620 567 ;
C 56 ; WX 642 ; N eight ; B 22 -13 620 846 ;
C 57 ; WX 663 ; N nine ; B 22 -291 622 567 ;
C 58 ; WX 222 ; N colon ; B 41 1 181 488 ;
C 59 ; WX 222 ; N semicolon ; B 8 -139 191 488 ;
C 60 ; WX 500 ; N less ; B -4 -16 504 518 ; L less guillemotleft ;
C 61 ; WX 500 ; N equal ; B -4 138 505 363 ;
C 62 ; WX 500 ; N greater ; B -4 -16 504 517 ; L greater guillemotright ;
C 63 ; WX 642 ; N question ; B 21 -12 622 834 ; L quoteleft questiondown ;
C 64 ; WX 917 ; N at ; B 13 -1 903 834 ;
C 65 ; WX 958 ; N A ; B 22 -1 936 845 ;
C 66 ; WX 729 ; N B ; B 22 -1 707 834 ;
C 67 ; WX 785 ; N C ; B 22 0 763 846 ;
C 68 ; WX 806 ; N D ; B 22 -1 784 834 ;
C 69 ; WX 806 ; N E ; B 22 -1 783 834 ;
C 70 ; WX 806 ; N F ; B 22 -1 781 834 ;
C 71 ; WX 958 ; N G ; B 22 -280 936 846 ;
C 72 ; WX 958 ; N H ; B 22 -1 936 834 ;
C 73 ; WX 381 ; N I ; B 22 -1 364 834 ;
C 74 ; WX 729 ; N J ; B 20 -277 881 853 ;
C 75 ; WX 806 ; N K ; B 22 -1 784 834 ;
C 76 ; WX 806 ; N L ; B 22 -1 781 834 ;
C 77 ; WX 958 ; N M ; B 7 -1 936 834 ;
C 78 ; WX 806 ; N N ; B 22 -12 784 834 ;
C 79 ; WX 806 ; N O ; B 22 -12 783 846 ;
C 80 ; WX 653 ; N P ; B 22 -1 631 834 ;
C 81 ; WX 958 ; N Q ; B 21 -364 2142 846 ;
C 82 ; WX 806 ; N R ; B 22 -1 773 834 ;
C 83 ; WX 719 ; N S ; B 9 -7 697 840 ;
C 84 ; WX 806 ; N T ; B 22 -1 786 979 ;
C 85 ; WX 806 ; N U ; B 22 1 784 834 ;
C 86 ; WX 806 ; N V ; B 22 -11 784 834 ;
C 87 ; WX 1033 ; N W ; B 22 -11 1024 834 ;
C 88 ; WX 806 ; N X ; B 22 -1 784 834 ;
C 89 ; WX 806 ; N Y ; B 22 -1 784 835 ;
C 90 ; WX 806 ; N Z ; B 21 -185 784 851 ;
C 91 ; WX 444 ; N bracketleft ; B 22 -279 422 854 ;
C 92 ; WX 292 ; N backslash ; B 13 -18 280 851 ;
C 93 ; WX 444 ; N bracketright ; B 22 -279 422 854 ;
C 95 ; WX 958 ; N underscore ; B 22 -335 937 846 ;
C 96 ; WX 222 ; N quoteleft ; B 32 580 215 861 ; L quoteleft quotedblleft ;
C 97 ; WX 757 ; N a ; B 22 -14 746 513 ;
C 98 ; WX 757 ; N b ; B 17 -13 735 841 ;
C 99 ; WX 592 ; N c ; B 23 -12 569 513 ;
C 100 ; WX 757 ; N d ; B 22 -13 740 833 ;
C 101 ; WX 592 ; N e ; B 21 -14 571 513 ;
C 102 ; WX 592 ; N f ; B 11 -321 618 876 ; L t space ; L l fl ; L i fi ; L f ff ;
C 103 ; WX 592 ; N g ; B 21 -277 570 513 ;
C 104 ; WX 702 ; N h ; B 17 -17 683 841 ;
C 105 ; WX 372 ; N i ; B -12 -7 383 786 ;
C 106 ; WX 372 ; N j ; B -66 -280 255 786 ;
C 107 ; WX 757 ; N k ; B 17 -14 711 841 ;
C 108 ; WX 372 ; N l ; B -12 -6 383 839 ;
C 109 ; WX 1233 ; N m ; B 46 -9 1176 513 ;
C 110 ; WX 683 ; N n ; B -47 -8 730 513 ;
C 111 ; WX 592 ; N o ; B 22 -13 569 513 ;
C 112 ; WX 757 ; N p ; B 17 -278 734 513 ;
C 113 ; WX 757 ; N q ; B 22 -281 744 513 ;
C 114 ; WX 757 ; N r ; B 46 0 736 513 ;
C 115 ; WX 592 ; N s ; B 21 -13 571 513 ;
C 116 ; WX 382 ; N t ; B 21 -13 372 742 ;
C 117 ; WX 812 ; N u ; B 12 -12 796 508 ;
C 118 ; WX 592 ; N v ; B 15 -14 592 519 ;
C 119 ; WX 958 ; N w ; B 15 -13 940 519 ;
C 120 ; WX 702 ; N x ; B 42 -3 660 503 ;
C 121 ; WX 702 ; N y ; B 22 -278 680 500 ;
C 122 ; WX 592 ; N z ; B 22 -185 570 519 ;
C 123 ; WX 400 ; N braceleft ; B 21 -280 378 854 ;
C 124 ; WX 111 ; N bar ; B 26 -296 85 872 ;
C 125 ; WX 400 ; N braceright ; B 22 -280 379 854 ;
C 127 ; WX 333 ; N sfthyphen ; B 17 229 317 271 ;
C 128 ; WX 958 ; N Abreve ; B 22 -1 936 1076 ;
C 129 ; WX 958 ; N Aogonek ; B 22 -381 937 845 ;
C 130 ; WX 785 ; N Cacute ; B 22 0 763 1150 ;
C 131 ; WX 785 ; N Ccaron ; B 22 0 763 1076 ;
C 132 ; WX 806 ; N Dcaron ; B 22 -1 784 1076 ;
C 133 ; WX 806 ; N Ecaron ; B 22 -1 783 1076 ;
C 134 ; WX 806 ; N Eogonek ; B 22 -381 783 834 ;
C 135 ; WX 958 ; N Gbreve ; B 22 -1 936 1076 ;
C 136 ; WX 806 ; N Lacute ; B 22 -1 781 1150 ;
C 137 ; WX 806 ; N Lcaron ; B 22 -1 781 862 ;
C 138 ; WX 806 ; N Lslash ; B -9 -1 781 834 ;
C 139 ; WX 806 ; N Nacute ; B 22 -12 784 1150 ;
C 140 ; WX 806 ; N Ncaron ; B 22 -12 784 1031 ;
C 141 ; WX 927 ; N Eng ; B 22 -279 840 846 ;
C 142 ; WX 806 ; N Ohungarumlaut ; B 22 -12 783 1103 ;
C 143 ; WX 806 ; N Racute ; B 22 -1 773 1150 ;
C 144 ; WX 806 ; N Rcaron ; B 22 -1 773 1031 ;
C 145 ; WX 719 ; N Sacute ; B 9 -7 697 1150 ;
C 146 ; WX 719 ; N Scaron ; B 9 -7 697 1031 ;
C 147 ; WX 719 ; N Scedilla ; B 9 -322 697 840 ;
C 148 ; WX 806 ; N Tcaron ; B 22 -1 786 1031 ;
C 149 ; WX 806 ; N Tcedilla ; B 22 -322 786 979 ;
C 150 ; WX 806 ; N Uhungarumlaut ; B 22 1 784 1103 ;
C 151 ; WX 806 ; N Uring ; B 22 1 784 1092 ;
C 152 ; WX 806 ; N Ydieresis ; B 22 -1 784 1056 ;
C 153 ; WX 806 ; N Zacute ; B 21 -185 784 1150 ;
C 154 ; WX 806 ; N Zcaron ; B 21 -185 784 1031 ;
C 155 ; WX 806 ; N Zdotaccent ; B 21 -185 784 1057 ;
C 157 ; WX 390 ; N Idotaccent ; B 22 -1 364 1057 ;
C 159 ; WX 400 ; N section ; B 21 -288 378 846 ;
C 160 ; WX 592 ; N abreve ; B 22 -14 746 853 ;
C 161 ; WX 592 ; N aogonek ; B 22 -381 746 513 ;
C 162 ; WX 592 ; N cacute ; B 23 -12 569 972 ;
C 163 ; WX 592 ; N ccaron ; B 23 -12 569 853 ;
C 164 ; WX 702 ; N dcaron ; B 22 -13 828 861 ;
C 165 ; WX 592 ; N ecaron ; B 21 -14 571 853 ;
C 166 ; WX 592 ; N eogonek ; B 22 -381 571 513 ;
C 167 ; WX 592 ; N gbreve ; B 21 -277 570 853 ;
C 168 ; WX 372 ; N lacute ; B -12 -6 383 1150 ;
C 169 ; WX 372 ; N lcaron ; B -12 -6 498 861 ;
C 170 ; WX 372 ; N lslash ; B -12 -7 383 839 ;
C 171 ; WX 702 ; N nacute ; B -47 -8 730 972 ;
C 172 ; WX 702 ; N ncaron ; B -47 -8 730 853 ;
C 173 ; WX 592 ; N eng ; B 22 -279 550 506 ;
C 174 ; WX 592 ; N ohungarumlaut ; B 22 -13 569 880 ;
C 175 ; WX 592 ; N racute ; B 46 0 736 972 ;
C 176 ; WX 592 ; N rcaron ; B 46 0 736 853 ;
C 177 ; WX 482 ; N sacute ; B 21 -13 571 972 ;
C 178 ; WX 482 ; N scaron ; B 21 -13 571 853 ;
C 179 ; WX 482 ; N scedilla ; B 21 -322 571 513 ;
C 180 ; WX 392 ; N tcaron ; B 21 -13 540 758 ;
C 181 ; WX 382 ; N tcedilla ; B 21 -322 372 742 ;
C 182 ; WX 812 ; N uhungarumlaut ; B 12 -12 796 880 ;
C 183 ; WX 812 ; N uring ; B 12 -12 796 758 ;
C 184 ; WX 702 ; N ydieresis ; B 22 -278 680 878 ;
C 185 ; WX 592 ; N zacute ; B 22 -185 570 972 ;
C 186 ; WX 592 ; N zcaron ; B 22 -185 570 853 ;
C 187 ; WX 592 ; N zdotaccent ; B 22 -185 570 879 ;
C 189 ; WX 333 ; N exclamdown ; B 265 -292 402 554 ;
C 190 ; WX 642 ; N questiondown ; B 20 -279 621 567 ;
C 191 ; WX 806 ; N sterling ; B 15 -6 792 846 ;
C 192 ; WX 958 ; N Agrave ; B 22 -1 936 1131 ;
C 193 ; WX 958 ; N Aacute ; B 22 -1 936 1150 ;
C 194 ; WX 958 ; N Acircumflex ; B 22 -1 936 1043 ;
C 195 ; WX 958 ; N Atilde ; B 22 -1 936 1055 ;
C 196 ; WX 958 ; N Adieresis ; B 22 -1 936 1056 ;
C 197 ; WX 958 ; N Aring ; B 22 -1 936 1092 ;
C 198 ; WX 938 ; N AE ; B 22 -1 915 833 ;
C 199 ; WX 806 ; N Ccedilla ; B 22 -322 763 846 ;
C 200 ; WX 806 ; N Egrave ; B 22 -1 783 1131 ;
C 201 ; WX 806 ; N Eacute ; B 22 -1 783 1150 ;
C 202 ; WX 806 ; N Ecircumflex ; B 22 -1 783 1155 ;
C 203 ; WX 806 ; N Edieresis ; B 22 -1 783 1056 ;
C 204 ; WX 390 ; N Igrave ; B 4 -1 386 1131 ;
C 205 ; WX 390 ; N Iacute ; B 4 -1 386 1150 ;
C 206 ; WX 390 ; N Icircumflex ; B 22 -1 505 1155 ;
C 207 ; WX 390 ; N Idieresis ; B 22 -1 485 1056 ;
C 208 ; WX 958 ; N Eth ; B 22 -1 784 834 ;
C 209 ; WX 806 ; N Ntilde ; B 22 -12 784 1167 ;
C 210 ; WX 806 ; N Ograve ; B 22 -12 783 1131 ;
C 211 ; WX 806 ; N Oacute ; B 22 -12 783 1150 ;
C 212 ; WX 806 ; N Ocircumflex ; B 22 -12 783 1155 ;
C 213 ; WX 806 ; N Otilde ; B 22 -12 783 1167 ;
C 214 ; WX 806 ; N Odieresis ; B 22 -12 783 1056 ;
C 215 ; WX 938 ; N OE ; B 14 -7 924 840 ;
C 216 ; WX 806 ; N Oslash ; B 21 -13 785 846 ;
C 217 ; WX 806 ; N Ugrave ; B 22 1 784 1131 ;
C 218 ; WX 806 ; N Uacute ; B 22 1 784 1150 ;
C 219 ; WX 806 ; N Ucircumflex ; B 22 1 784 1155 ;
C 220 ; WX 806 ; N Udieresis ; B 22 1 784 1056 ;
C 221 ; WX 806 ; N Yacute ; B 22 -1 784 1150 ;
C 222 ; WX 688 ; N Thorn ; B 22 -1 667 834 ;
C 224 ; WX 757 ; N agrave ; B 22 -14 746 798 ;
C 225 ; WX 757 ; N aacute ; B 22 -14 746 817 ;
C 226 ; WX 757 ; N acircumflex ; B 22 -14 746 821 ;
C 227 ; WX 757 ; N atilde ; B 5 -14 746 833 ;
C 228 ; WX 757 ; N adieresis ; B 22 -14 746 723 ;
C 229 ; WX 757 ; N aring ; B 22 -14 746 758 ;
C 230 ; WX 812 ; N ae ; B 22 -13 791 514 ;
C 231 ; WX 592 ; N ccedilla ; B 23 -322 569 513 ;
C 232 ; WX 592 ; N egrave ; B -7 -14 571 798 ;
C 233 ; WX 592 ; N eacute ; B -7 -14 571 817 ;
C 234 ; WX 592 ; N ecircumflex ; B 21 -14 571 821 ;
C 235 ; WX 592 ; N edieresis ; B 21 -14 571 723 ;
C 236 ; WX 372 ; N igrave ; B -117 -7 383 798 ;
C 237 ; WX 372 ; N iacute ; B -117 -7 383 817 ;
C 238 ; WX 372 ; N icircumflex ; B -127 -7 383 821 ;
C 239 ; WX 372 ; N idieresis ; B -107 -7 383 723 ;
C 240 ; WX 592 ; N eth ; B 10 -5 571 833 ;
C 241 ; WX 702 ; N ntilde ; B -47 -8 730 832 ;
C 242 ; WX 592 ; N ograve ; B -7 -13 569 798 ;
C 243 ; WX 592 ; N oacute ; B -7 -13 569 817 ;
C 244 ; WX 592 ; N ocircumflex ; B 22 -13 569 821 ;
C 245 ; WX 592 ; N otilde ; B 22 -13 569 833 ;
C 246 ; WX 592 ; N odieresis ; B 22 -13 569 723 ;
C 247 ; WX 812 ; N oe ; B 22 -8 792 514 ;
C 248 ; WX 592 ; N oslash ; B 22 -13 570 513 ;
C 249 ; WX 812 ; N ugrave ; B 12 -12 796 908 ;
C 250 ; WX 812 ; N uacute ; B 12 -12 796 927 ;
C 251 ; WX 812 ; N ucircumflex ; B 12 -12 796 820 ;
C 252 ; WX 812 ; N udieresis ; B 12 -12 796 833 ;
C 253 ; WX 702 ; N yacute ; B 22 -278 680 927 ;
C 254 ; WX 757 ; N thorn ; B 17 -278 735 841 ;
C 255 ; WX 592 ; N germandbls ; B -245 -302 571 847 ;
EndCharMetrics
StartKernData
StartKernPairs 1657
KPX parenleft z -83
KPX parenleft x -83
KPX parenleft w -83
KPX parenleft v -83
KPX parenleft u -83
KPX parenleft t -83
KPX parenleft s -83
KPX parenleft q -83
KPX parenleft o -83
KPX parenleft n -83
KPX parenleft m -83
KPX parenleft j -83
KPX parenleft i -83
KPX parenleft g -83
KPX parenleft e -83
KPX parenleft d -83
KPX parenleft c -83
KPX parenleft a -83
KPX A y -111
KPX A x -111
KPX A w -83
KPX A v -83
KPX A u -111
KPX A t -111
KPX A s -56
KPX A r -111
KPX A q -56
KPX A p -83
KPX A o -56
KPX A n -28
KPX A m -111
KPX A l -111
KPX A k -111
KPX A j -28
KPX A i -28
KPX A h -111
KPX A g -56
KPX A f -111
KPX A e -56
KPX A d -56
KPX A c -56
KPX A b -111
KPX A a -56
KPX A Z -28
KPX A Y -111
KPX A X -56
KPX A W -111
KPX A V -111
KPX A U -111
KPX A T -111
KPX A S -28
KPX A R -56
KPX A Q -56
KPX A P -56
KPX A O -111
KPX A N -56
KPX A M -56
KPX A L -56
KPX A K -56
KPX A J -56
KPX A I -56
KPX A H -56
KPX A G -111
KPX A F -56
KPX A E -56
KPX A D -56
KPX A C -56
KPX A B -56
KPX A A -56
KPX B u 56
KPX B s 56
KPX B q 56
KPX B o 56
KPX B g 56
KPX B f -28
KPX B e 56
KPX B d 56
KPX B c 56
KPX B a 56
KPX B S 56
KPX B Q 56
KPX B O 56
KPX B G 56
KPX C y -56
KPX C f -28
KPX C Z 6
KPX D x -28
KPX D l -28
KPX D k -28
KPX D h -28
KPX D f -28
KPX D b -28
KPX D Y -28
KPX D X -28
KPX D W -28
KPX D V -28
KPX D G 28
KPX E f -28
KPX F y -56
KPX F x -56
KPX F u -111
KPX F t -56
KPX F s -56
KPX F r -111
KPX F p -56
KPX F o -56
KPX F n -28
KPX F m -111
KPX F g -28
KPX F f -56
KPX F e -28
KPX F d -28
KPX F c -28
KPX F a -56
KPX F A -56
KPX G y -28
KPX G x -28
KPX G u -56
KPX G t -28
KPX G r -28
KPX G p -28
KPX G l -28
KPX G k -56
KPX G h -28
KPX G f -56
KPX G b -56
KPX G J -28
KPX G A -56
KPX H y -28
KPX H x -28
KPX H u -56
KPX H t -56
KPX H s -28
KPX H r -28
KPX H p -56
KPX H o -28
KPX H e -28
KPX H m -28
KPX H f -111
KPX K y -111
KPX K u -28
KPX K t -28
KPX K s -28
KPX K r -28
KPX K p -28
KPX K m -33
KPX K g -28
KPX K f -56
KPX K e -28
KPX K d -28
KPX K c -28
KPX K a -28
KPX M r -28
KPX M m -28
KPX P y -28
KPX P g -28
KPX P A -56
KPX R y -56
KPX R u -56
KPX R r -56
KPX R m -56
KPX R k -56
KPX R h -56
KPX R g -28
KPX R f -56
KPX R b -56
KPX R W -28
KPX R V -28
KPX S z 28
KPX S x 28
KPX S w 28
KPX S v 28
KPX S t 28
KPX S s 28
KPX S q 28
KPX S p 28
KPX S o 28
KPX S n 28
KPX S l 28
KPX S k 28
KPX S j 28
KPX S i 28
KPX S g 28
KPX S e 28
KPX S d 28
KPX S c 28
KPX S b 28
KPX S a 28
KPX T z -111
KPX T y -111
KPX T x -111
KPX T w -111
KPX T v -111
KPX T u -111
KPX T t -28
KPX T s -111
KPX T r -111
KPX T q -111
KPX T p -111
KPX T o -111
KPX T n -111
KPX T m -111
KPX T g -111
KPX T f -56
KPX T e -111
KPX T d -111
KPX T c -111
KPX T a -111
KPX T A -56
KPX U f -28
KPX U A -28
KPX V y -28
KPX V x -28
KPX V q -28
KPX V p -28
KPX V g -28
KPX V f -28
KPX V e -28
KPX V d -28
KPX V c -28
KPX V a -28
KPX V O -28
KPX V A -111
KPX W y -28
KPX W x -28
KPX W q -28
KPX W p -28
KPX W g -28
KPX W f -28
KPX W e -28
KPX W d -28
KPX W c -28
KPX W a -28
KPX W O -28
KPX W A -111
KPX X y -111
KPX X u -28
KPX X t -28
KPX X r -28
KPX X q -28
KPX X p -28
KPX X n -28
KPX X m -28
KPX X g -28
KPX X f -28
KPX X e -28
KPX X d -28
KPX X c -28
KPX X a -28
KPX X O -56
KPX Y z -111
KPX Y y -111
KPX Y x -111
KPX Y w -111
KPX Y v -111
KPX Y u -111
KPX Y t -56
KPX Y s -111
KPX Y r -111
KPX Y q -111
KPX Y p -111
KPX Y o -111
KPX Y n -111
KPX Y m -111
KPX Y g -111
KPX Y f -56
KPX Y e -111
KPX Y d -111
KPX Y c -111
KPX Y a -111
KPX Y O -28
KPX Y A -56
KPX Z x -56
KPX Z u -28
KPX Z t -28
KPX Z s -28
KPX Z r -28
KPX Z q -56
KPX Z o -56
KPX Z m -56
KPX Z e -56
KPX Z d -56
KPX Z c -56
KPX Z a -56
KPX Z A -56
KPX a y -111
KPX a x -111
KPX a w -56
KPX a v -56
KPX a u -111
KPX a t -111
KPX a s -56
KPX a r -111
KPX a q -111
KPX a p -111
KPX a o -56
KPX a n -28
KPX a m -111
KPX a l -111
KPX a k -111
KPX a j -28
KPX a i -56
KPX a h -111
KPX a g -56
KPX a f -111
KPX a e -56
KPX a d -56
KPX a c -56
KPX a b -111
KPX a a -56
KPX b k -111
KPX b q 28
KPX b d 28
KPX b c 28
KPX b e 28
KPX b l -111
KPX b o 28
KPX b h -111
KPX b f -56
KPX b b -111
KPX c l -111
KPX c k -111
KPX c b -111
KPX c h -111
KPX d y -56
KPX d x -56
KPX d u -56
KPX d t -56
KPX d r -56
KPX d p -56
KPX d n -56
KPX d m -56
KPX d l -28
KPX d k -56
KPX d i -56
KPX d h -56
KPX d g -56
KPX d f -56
KPX d b -56
KPX e m -56
KPX e l -111
KPX e k -111
KPX e h -111
KPX e b -111
KPX f e -28
KPX g l -111
KPX g h -111
KPX g k -111
KPX g b -111
KPX h y -56
KPX h x -56
KPX h u -56
KPX h t -56
KPX h r -56
KPX h p -56
KPX h l -111
KPX h k -111
KPX h h -111
KPX h f -56
KPX h b -111
KPX i f -56
KPX k l -111
KPX k k -111
KPX k h -111
KPX k f -56
KPX k b -111
KPX m y -56
KPX m u -56
KPX m r -56
KPX m p -56
KPX m m -56
KPX m l -111
KPX m k -111
KPX m h -111
KPX m f -56
KPX m b -111
KPX n l -111
KPX n m -56
KPX n y -28
KPX n u -28
KPX n p -28
KPX n k -111
KPX n h -111
KPX n f -56
KPX o r -56
KPX o h -111
KPX o f -28
KPX o k -111
KPX o q 28
KPX o d 28
KPX o c 28
KPX o e 28
KPX o o 28
KPX p l -111
KPX p x -28
KPX p k -111
KPX p h -111
KPX p f -28
KPX p b -111
KPX q z -111
KPX q i -56
KPX q x -111
KPX q w -111
KPX q v -111
KPX q u -111
KPX q t -111
KPX q s -111
KPX q r -111
KPX q q -111
KPX q p -111
KPX q o -56
KPX q n -111
KPX q m -111
KPX q l -222
KPX q k -222
KPX q h -222
KPX q e -111
KPX q d -111
KPX q c -111
KPX q b -222
KPX q a -111
KPX r l -111
KPX r k -111
KPX r h -111
KPX r b -111
KPX s l -111
KPX s b -111
KPX s h -111
KPX s k -111
KPX t k -56
KPX t h -56
KPX t b -56
KPX u y -111
KPX u x -56
KPX u v -28
KPX u u -111
KPX u t -83
KPX u r -111
KPX u q -56
KPX u p -111
KPX u o -56
KPX u n -56
KPX u m -111
KPX u l -111
KPX u k -111
KPX u j -28
KPX u i -56
KPX u h -111
KPX u f -111
KPX u d -56
KPX u c -56
KPX u b -111
KPX v e 56
KPX v w 56
KPX v v 56
KPX v s 56
KPX v q 56
KPX v o 56
KPX v l -111
KPX v k -111
KPX v h -111
KPX v d 56
KPX v c 56
KPX v b -111
KPX v a 56
KPX w e 56
KPX w w 56
KPX w v 56
KPX w s 56
KPX w q 56
KPX w o 56
KPX w l -111
KPX w k -111
KPX w h -111
KPX w d 56
KPX w c 56
KPX w b -111
KPX w a 56
KPX x t -56
KPX x l -111
KPX x k -111
KPX x b -111
KPX x h -111
KPX x f -56
KPX y z 28
KPX y w 28
KPX y v 28
KPX y s 28
KPX y r 28
KPX y q 28
KPX y o 28
KPX y m 28
KPX y n 28
KPX y l -111
KPX y k -111
KPX y h -111
KPX y b -111
KPX y g 28
KPX y a 28
KPX z l -111
KPX z k -111
KPX z h -111
KPX z e -28
KPX z d -28
KPX z c -28
KPX z b -111
KPX z a -28
KPX Abreve y -111
KPX Abreve x -111
KPX Abreve w -83
KPX Abreve v -83
KPX Abreve u -111
KPX Abreve t -111
KPX Abreve s -56
KPX Abreve r -111
KPX Abreve q -56
KPX Abreve p -83
KPX Abreve o -56
KPX Abreve n -28
KPX Abreve m -111
KPX Abreve l -111
KPX Abreve k -111
KPX Abreve j -28
KPX Abreve i -28
KPX Abreve h -111
KPX Abreve g -56
KPX Abreve f -111
KPX Abreve e -56
KPX Abreve d -56
KPX Abreve c -56
KPX Abreve b -111
KPX Abreve a -56
KPX Abreve Z -28
KPX Abreve Y -111
KPX Abreve X -56
KPX Abreve W -111
KPX Abreve V -111
KPX Abreve U -111
KPX Abreve T -111
KPX Abreve S -28
KPX Abreve R -56
KPX Abreve Q -56
KPX Abreve P -56
KPX Abreve O -111
KPX Abreve N -56
KPX Abreve M -56
KPX Abreve L -56
KPX Abreve K -56
KPX Abreve J -56
KPX Abreve I -56
KPX Abreve H -56
KPX Abreve G -111
KPX Abreve F -56
KPX Abreve E -56
KPX Abreve D -56
KPX Abreve C -56
KPX Abreve B -56
KPX Abreve A -56
KPX Aogonek y -111
KPX Aogonek x -111
KPX Aogonek w -83
KPX Aogonek v -83
KPX Aogonek u -111
KPX Aogonek t -111
KPX Aogonek s -56
KPX Aogonek r -111
KPX Aogonek q -56
KPX Aogonek p -83
KPX Aogonek o -56
KPX Aogonek n -28
KPX Aogonek m -111
KPX Aogonek l -111
KPX Aogonek k -111
KPX Aogonek j -28
KPX Aogonek i -28
KPX Aogonek h -111
KPX Aogonek g -56
KPX Aogonek f -111
KPX Aogonek e -56
KPX Aogonek d -56
KPX Aogonek c -56
KPX Aogonek b -111
KPX Aogonek a -56
KPX Aogonek Z -28
KPX Aogonek Y -111
KPX Aogonek X -56
KPX Aogonek W -111
KPX Aogonek V -111
KPX Aogonek U -111
KPX Aogonek T -111
KPX Aogonek S -28
KPX Aogonek R -56
KPX Aogonek Q -56
KPX Aogonek P -56
KPX Aogonek O -111
KPX Aogonek N -56
KPX Aogonek M -56
KPX Aogonek L -56
KPX Aogonek K -56
KPX Aogonek J -56
KPX Aogonek I -56
KPX Aogonek H -56
KPX Aogonek G -111
KPX Aogonek F -56
KPX Aogonek E -56
KPX Aogonek D -56
KPX Aogonek C -56
KPX Aogonek B -56
KPX Aogonek A -56
KPX Cacute y -56
KPX Cacute f -28
KPX Cacute Z 6
KPX Ccaron y -56
KPX Ccaron f -28
KPX Ccaron Z 6
KPX Dcaron x -28
KPX Dcaron l -28
KPX Dcaron k -28
KPX Dcaron h -28
KPX Dcaron f -28
KPX Dcaron b -28
KPX Dcaron Y -28
KPX Dcaron X -28
KPX Dcaron W -28
KPX Dcaron V -28
KPX Dcaron G 28
KPX Ecaron f -28
KPX Eogonek f -28
KPX Gbreve y -28
KPX Gbreve x -28
KPX Gbreve u -56
KPX Gbreve t -28
KPX Gbreve r -28
KPX Gbreve p -28
KPX Gbreve l -28
KPX Gbreve k -56
KPX Gbreve h -28
KPX Gbreve f -56
KPX Gbreve b -56
KPX Gbreve J -28
KPX Gbreve A -56
KPX Sacute z 28
KPX Sacute x 28
KPX Sacute w 28
KPX Sacute v 28
KPX Sacute t 28
KPX Sacute s 28
KPX Sacute q 28
KPX Sacute p 28
KPX Sacute o 28
KPX Sacute n 28
KPX Sacute l 28
KPX Sacute k 28
KPX Sacute j 28
KPX Sacute i 28
KPX Sacute g 28
KPX Sacute e 28
KPX Sacute d 28
KPX Sacute c 28
KPX Sacute b 28
KPX Sacute a 28
KPX Scaron z 28
KPX Scaron x 28
KPX Scaron w 28
KPX Scaron v 28
KPX Scaron t 28
KPX Scaron s 28
KPX Scaron q 28
KPX Scaron p 28
KPX Scaron o 28
KPX Scaron n 28
KPX Scaron l 28
KPX Scaron k 28
KPX Scaron j 28
KPX Scaron i 28
KPX Scaron g 28
KPX Scaron e 28
KPX Scaron d 28
KPX Scaron c 28
KPX Scaron b 28
KPX Scaron a 28
KPX Scedilla z 28
KPX Scedilla x 28
KPX Scedilla w 28
KPX Scedilla v 28
KPX Scedilla t 28
KPX Scedilla s 28
KPX Scedilla q 28
KPX Scedilla p 28
KPX Scedilla o 28
KPX Scedilla n 28
KPX Scedilla l 28
KPX Scedilla k 28
KPX Scedilla j 28
KPX Scedilla i 28
KPX Scedilla g 28
KPX Scedilla e 28
KPX Scedilla d 28
KPX Scedilla c 28
KPX Scedilla b 28
KPX Scedilla a 28
KPX Tcaron z -111
KPX Tcaron y -111
KPX Tcaron x -111
KPX Tcaron w -111
KPX Tcaron v -111
KPX Tcaron u -111
KPX Tcaron t -28
KPX Tcaron s -111
KPX Tcaron r -111
KPX Tcaron q -111
KPX Tcaron p -111
KPX Tcaron o -111
KPX Tcaron n -111
KPX Tcaron m -111
KPX Tcaron g -111
KPX Tcaron f -56
KPX Tcaron e -111
KPX Tcaron d -111
KPX Tcaron c -111
KPX Tcaron a -111
KPX Tcaron A -56
KPX Tcedilla z -111
KPX Tcedilla y -111
KPX Tcedilla x -111
KPX Tcedilla w -111
KPX Tcedilla v -111
KPX Tcedilla u -111
KPX Tcedilla t -28
KPX Tcedilla s -111
KPX Tcedilla r -111
KPX Tcedilla q -111
KPX Tcedilla p -111
KPX Tcedilla o -111
KPX Tcedilla n -111
KPX Tcedilla m -111
KPX Tcedilla g -111
KPX Tcedilla f -56
KPX Tcedilla e -111
KPX Tcedilla d -111
KPX Tcedilla c -111
KPX Tcedilla a -111
KPX Tcedilla A -56
KPX Uhungarumlaut f -28
KPX Uhungarumlaut A -28
KPX Uring f -28
KPX Uring A -28
KPX Ydieresis z -111
KPX Ydieresis y -111
KPX Ydieresis x -111
KPX Ydieresis w -111
KPX Ydieresis v -111
KPX Ydieresis u -111
KPX Ydieresis t -56
KPX Ydieresis s -111
KPX Ydieresis r -111
KPX Ydieresis q -111
KPX Ydieresis p -111
KPX Ydieresis o -111
KPX Ydieresis n -111
KPX Ydieresis m -111
KPX Ydieresis g -111
KPX Ydieresis f -56
KPX Ydieresis e -111
KPX Ydieresis d -111
KPX Ydieresis c -111
KPX Ydieresis a -111
KPX Ydieresis O -28
KPX Ydieresis A -56
KPX Zacute x -56
KPX Zacute u -28
KPX Zacute t -28
KPX Zacute s -28
KPX Zacute r -28
KPX Zacute q -56
KPX Zacute o -56
KPX Zacute m -56
KPX Zacute e -56
KPX Zacute d -56
KPX Zacute c -56
KPX Zacute a -56
KPX Zacute A -56
KPX Zcaron x -56
KPX Zcaron u -28
KPX Zcaron t -28
KPX Zcaron s -28
KPX Zcaron r -28
KPX Zcaron q -56
KPX Zcaron o -56
KPX Zcaron m -56
KPX Zcaron e -56
KPX Zcaron d -56
KPX Zcaron c -56
KPX Zcaron a -56
KPX Zcaron A -56
KPX Zdotaccent x -56
KPX Zdotaccent u -28
KPX Zdotaccent t -28
KPX Zdotaccent s -28
KPX Zdotaccent r -28
KPX Zdotaccent q -56
KPX Zdotaccent o -56
KPX Zdotaccent m -56
KPX Zdotaccent e -56
KPX Zdotaccent d -56
KPX Zdotaccent c -56
KPX Zdotaccent a -56
KPX Zdotaccent A -56
KPX abreve y -111
KPX abreve x -111
KPX abreve w -56
KPX abreve v -56
KPX abreve u -111
KPX abreve t -111
KPX abreve s -56
KPX abreve r -111
KPX abreve q -111
KPX abreve p -111
KPX abreve o -56
KPX abreve n -28
KPX abreve m -111
KPX abreve l -111
KPX abreve k -111
KPX abreve j -28
KPX abreve i -56
KPX abreve h -111
KPX abreve g -56
KPX abreve f -111
KPX abreve e -56
KPX abreve d -56
KPX abreve c -56
KPX abreve b -111
KPX abreve a -56
KPX aogonek y -111
KPX aogonek x -111
KPX aogonek w -56
KPX aogonek v -56
KPX aogonek u -111
KPX aogonek t -111
KPX aogonek s -56
KPX aogonek r -111
KPX aogonek q -111
KPX aogonek p -111
KPX aogonek o -56
KPX aogonek n -28
KPX aogonek m -111
KPX aogonek l -111
KPX aogonek k -111
KPX aogonek j -28
KPX aogonek i -56
KPX aogonek h -111
KPX aogonek g -56
KPX aogonek f -111
KPX aogonek e -56
KPX aogonek d -56
KPX aogonek c -56
KPX aogonek b -111
KPX aogonek a -56
KPX cacute l -111
KPX cacute k -111
KPX cacute b -111
KPX cacute h -111
KPX ccaron l -111
KPX ccaron k -111
KPX ccaron b -111
KPX ccaron h -111
KPX dcaron y -56
KPX dcaron x -56
KPX dcaron u -56
KPX dcaron t -56
KPX dcaron r -56
KPX dcaron p -56
KPX dcaron n -56
KPX dcaron m -56
KPX dcaron l -28
KPX dcaron k -56
KPX dcaron i -56
KPX dcaron h -56
KPX dcaron g -56
KPX dcaron f -56
KPX dcaron b -56
KPX ecaron m -56
KPX ecaron l -111
KPX ecaron k -111
KPX ecaron h -111
KPX ecaron b -111
KPX eogonek m -56
KPX eogonek l -111
KPX eogonek k -111
KPX eogonek h -111
KPX eogonek b -111
KPX gbreve l -111
KPX gbreve h -111
KPX gbreve k -111
KPX gbreve b -111
KPX nacute l -111
KPX nacute m -56
KPX nacute y -28
KPX nacute u -28
KPX nacute p -28
KPX nacute k -111
KPX nacute h -111
KPX nacute f -56
KPX ncaron l -111
KPX ncaron m -56
KPX ncaron y -28
KPX ncaron u -28
KPX ncaron p -28
KPX ncaron k -111
KPX ncaron h -111
KPX ncaron f -56
KPX eng l -111
KPX eng m -56
KPX eng y -28
KPX eng u -28
KPX eng p -28
KPX eng k -111
KPX eng h -111
KPX eng f -56
KPX uhungarumlaut y -111
KPX uhungarumlaut x -56
KPX uhungarumlaut v -28
KPX uhungarumlaut u -111
KPX uhungarumlaut t -83
KPX uhungarumlaut r -111
KPX uhungarumlaut q -56
KPX uhungarumlaut p -111
KPX uhungarumlaut o -56
KPX uhungarumlaut n -56
KPX uhungarumlaut m -111
KPX uhungarumlaut l -111
KPX uhungarumlaut k -111
KPX uhungarumlaut j -28
KPX uhungarumlaut i -56
KPX uhungarumlaut h -111
KPX uhungarumlaut f -111
KPX uhungarumlaut d -56
KPX uhungarumlaut c -56
KPX uhungarumlaut b -111
KPX uring y -111
KPX uring x -56
KPX uring v -28
KPX uring u -111
KPX uring t -83
KPX uring r -111
KPX uring q -56
KPX uring p -111
KPX uring o -56
KPX uring n -56
KPX uring m -111
KPX uring l -111
KPX uring k -111
KPX uring j -28
KPX uring i -56
KPX uring h -111
KPX uring f -111
KPX uring d -56
KPX uring c -56
KPX uring b -111
KPX ydieresis z 28
KPX ydieresis w 28
KPX ydieresis v 28
KPX ydieresis s 28
KPX ydieresis r 28
KPX ydieresis q 28
KPX ydieresis o 28
KPX ydieresis m 28
KPX ydieresis n 28
KPX ydieresis l -111
KPX ydieresis k -111
KPX ydieresis h -111
KPX ydieresis b -111
KPX ydieresis g 28
KPX ydieresis a 28
KPX zacute l -111
KPX zacute k -111
KPX zacute h -111
KPX zacute e -28
KPX zacute d -28
KPX zacute c -28
KPX zacute b -111
KPX zacute a -28
KPX zcaron l -111
KPX zcaron k -111
KPX zcaron h -111
KPX zcaron e -28
KPX zcaron d -28
KPX zcaron c -28
KPX zcaron b -111
KPX zcaron a -28
KPX zdotaccent l -111
KPX zdotaccent k -111
KPX zdotaccent h -111
KPX zdotaccent e -28
KPX zdotaccent d -28
KPX zdotaccent c -28
KPX zdotaccent b -111
KPX zdotaccent a -28
KPX Agrave y -111
KPX Agrave x -111
KPX Agrave w -83
KPX Agrave v -83
KPX Agrave u -111
KPX Agrave t -111
KPX Agrave s -56
KPX Agrave r -111
KPX Agrave q -56
KPX Agrave p -83
KPX Agrave o -56
KPX Agrave n -28
KPX Agrave m -111
KPX Agrave l -111
KPX Agrave k -111
KPX Agrave j -28
KPX Agrave i -28
KPX Agrave h -111
KPX Agrave g -56
KPX Agrave f -111
KPX Agrave e -56
KPX Agrave d -56
KPX Agrave c -56
KPX Agrave b -111
KPX Agrave a -56
KPX Agrave Z -28
KPX Agrave Y -111
KPX Agrave X -56
KPX Agrave W -111
KPX Agrave V -111
KPX Agrave U -111
KPX Agrave T -111
KPX Agrave S -28
KPX Agrave R -56
KPX Agrave Q -56
KPX Agrave P -56
KPX Agrave O -111
KPX Agrave N -56
KPX Agrave M -56
KPX Agrave L -56
KPX Agrave K -56
KPX Agrave J -56
KPX Agrave I -56
KPX Agrave H -56
KPX Agrave G -111
KPX Agrave F -56
KPX Agrave E -56
KPX Agrave D -56
KPX Agrave C -56
KPX Agrave B -56
KPX Agrave A -56
KPX Aacute y -111
KPX Aacute x -111
KPX Aacute w -83
KPX Aacute v -83
KPX Aacute u -111
KPX Aacute t -111
KPX Aacute s -56
KPX Aacute r -111
KPX Aacute q -56
KPX Aacute p -83
KPX Aacute o -56
KPX Aacute n -28
KPX Aacute m -111
KPX Aacute l -111
KPX Aacute k -111
KPX Aacute j -28
KPX Aacute i -28
KPX Aacute h -111
KPX Aacute g -56
KPX Aacute f -111
KPX Aacute e -56
KPX Aacute d -56
KPX Aacute c -56
KPX Aacute b -111
KPX Aacute a -56
KPX Aacute Z -28
KPX Aacute Y -111
KPX Aacute X -56
KPX Aacute W -111
KPX Aacute V -111
KPX Aacute U -111
KPX Aacute T -111
KPX Aacute S -28
KPX Aacute R -56
KPX Aacute Q -56
KPX Aacute P -56
KPX Aacute O -111
KPX Aacute N -56
KPX Aacute M -56
KPX Aacute L -56
KPX Aacute K -56
KPX Aacute J -56
KPX Aacute I -56
KPX Aacute H -56
KPX Aacute G -111
KPX Aacute F -56
KPX Aacute E -56
KPX Aacute D -56
KPX Aacute C -56
KPX Aacute B -56
KPX Aacute A -56
KPX Acircumflex y -111
KPX Acircumflex x -111
KPX Acircumflex w -83
KPX Acircumflex v -83
KPX Acircumflex u -111
KPX Acircumflex t -111
KPX Acircumflex s -56
KPX Acircumflex r -111
KPX Acircumflex q -56
KPX Acircumflex p -83
KPX Acircumflex o -56
KPX Acircumflex n -28
KPX Acircumflex m -111
KPX Acircumflex l -111
KPX Acircumflex k -111
KPX Acircumflex j -28
KPX Acircumflex i -28
KPX Acircumflex h -111
KPX Acircumflex g -56
KPX Acircumflex f -111
KPX Acircumflex e -56
KPX Acircumflex d -56
KPX Acircumflex c -56
KPX Acircumflex b -111
KPX Acircumflex a -56
KPX Acircumflex Z -28
KPX Acircumflex Y -111
KPX Acircumflex X -56
KPX Acircumflex W -111
KPX Acircumflex V -111
KPX Acircumflex U -111
KPX Acircumflex T -111
KPX Acircumflex S -28
KPX Acircumflex R -56
KPX Acircumflex Q -56
KPX Acircumflex P -56
KPX Acircumflex O -111
KPX Acircumflex N -56
KPX Acircumflex M -56
KPX Acircumflex L -56
KPX Acircumflex K -56
KPX Acircumflex J -56
KPX Acircumflex I -56
KPX Acircumflex H -56
KPX Acircumflex G -111
KPX Acircumflex F -56
KPX Acircumflex E -56
KPX Acircumflex D -56
KPX Acircumflex C -56
KPX Acircumflex B -56
KPX Acircumflex A -56
KPX Atilde y -111
KPX Atilde x -111
KPX Atilde w -83
KPX Atilde v -83
KPX Atilde u -111
KPX Atilde t -111
KPX Atilde s -56
KPX Atilde r -111
KPX Atilde q -56
KPX Atilde p -83
KPX Atilde o -56
KPX Atilde n -28
KPX Atilde m -111
KPX Atilde l -111
KPX Atilde k -111
KPX Atilde j -28
KPX Atilde i -28
KPX Atilde h -111
KPX Atilde g -56
KPX Atilde f -111
KPX Atilde e -56
KPX Atilde d -56
KPX Atilde c -56
KPX Atilde b -111
KPX Atilde a -56
KPX Atilde Z -28
KPX Atilde Y -111
KPX Atilde X -56
KPX Atilde W -111
KPX Atilde V -111
KPX Atilde U -111
KPX Atilde T -111
KPX Atilde S -28
KPX Atilde R -56
KPX Atilde Q -56
KPX Atilde P -56
KPX Atilde O -111
KPX Atilde N -56
KPX Atilde M -56
KPX Atilde L -56
KPX Atilde K -56
KPX Atilde J -56
KPX Atilde I -56
KPX Atilde H -56
KPX Atilde G -111
KPX Atilde F -56
KPX Atilde E -56
KPX Atilde D -56
KPX Atilde C -56
KPX Atilde B -56
KPX Atilde A -56
KPX Adieresis y -111
KPX Adieresis x -111
KPX Adieresis w -83
KPX Adieresis v -83
KPX Adieresis u -111
KPX Adieresis t -111
KPX Adieresis s -56
KPX Adieresis r -111
KPX Adieresis q -56
KPX Adieresis p -83
KPX Adieresis o -56
KPX Adieresis n -28
KPX Adieresis m -111
KPX Adieresis l -111
KPX Adieresis k -111
KPX Adieresis j -28
KPX Adieresis i -28
KPX Adieresis h -111
KPX Adieresis g -56
KPX Adieresis f -111
KPX Adieresis e -56
KPX Adieresis d -56
KPX Adieresis c -56
KPX Adieresis b -111
KPX Adieresis a -56
KPX Adieresis Z -28
KPX Adieresis Y -111
KPX Adieresis X -56
KPX Adieresis W -111
KPX Adieresis V -111
KPX Adieresis U -111
KPX Adieresis T -111
KPX Adieresis S -28
KPX Adieresis R -56
KPX Adieresis Q -56
KPX Adieresis P -56
KPX Adieresis O -111
KPX Adieresis N -56
KPX Adieresis M -56
KPX Adieresis L -56
KPX Adieresis K -56
KPX Adieresis J -56
KPX Adieresis I -56
KPX Adieresis H -56
KPX Adieresis G -111
KPX Adieresis F -56
KPX Adieresis E -56
KPX Adieresis D -56
KPX Adieresis C -56
KPX Adieresis B -56
KPX Adieresis A -56
KPX Aring y -111
KPX Aring x -111
KPX Aring w -83
KPX Aring v -83
KPX Aring u -111
KPX Aring t -111
KPX Aring s -56
KPX Aring r -111
KPX Aring q -56
KPX Aring p -83
KPX Aring o -56
KPX Aring n -28
KPX Aring m -111
KPX Aring l -111
KPX Aring k -111
KPX Aring j -28
KPX Aring i -28
KPX Aring h -111
KPX Aring g -56
KPX Aring f -111
KPX Aring e -56
KPX Aring d -56
KPX Aring c -56
KPX Aring b -111
KPX Aring a -56
KPX Aring Z -28
KPX Aring Y -111
KPX Aring X -56
KPX Aring W -111
KPX Aring V -111
KPX Aring U -111
KPX Aring T -111
KPX Aring S -28
KPX Aring R -56
KPX Aring Q -56
KPX Aring P -56
KPX Aring O -111
KPX Aring N -56
KPX Aring M -56
KPX Aring L -56
KPX Aring K -56
KPX Aring J -56
KPX Aring I -56
KPX Aring H -56
KPX Aring G -111
KPX Aring F -56
KPX Aring E -56
KPX Aring D -56
KPX Aring C -56
KPX Aring B -56
KPX Aring A -56
KPX AE f -28
KPX Ccedilla y -56
KPX Ccedilla f -28
KPX Ccedilla Z 6
KPX Egrave f -28
KPX Eacute f -28
KPX Ecircumflex f -28
KPX Edieresis f -28
KPX Eth x -28
KPX Eth l -28
KPX Eth k -28
KPX Eth h -28
KPX Eth f -28
KPX Eth b -28
KPX Eth Y -28
KPX Eth X -28
KPX Eth W -28
KPX Eth V -28
KPX Eth G 28
KPX OE f -28
KPX Ugrave f -28
KPX Ugrave A -28
KPX Uacute f -28
KPX Uacute A -28
KPX Ucircumflex f -28
KPX Ucircumflex A -28
KPX Udieresis f -28
KPX Udieresis A -28
KPX Yacute z -111
KPX Yacute y -111
KPX Yacute x -111
KPX Yacute w -111
KPX Yacute v -111
KPX Yacute u -111
KPX Yacute t -56
KPX Yacute s -111
KPX Yacute r -111
KPX Yacute q -111
KPX Yacute p -111
KPX Yacute o -111
KPX Yacute n -111
KPX Yacute m -111
KPX Yacute g -111
KPX Yacute f -56
KPX Yacute e -111
KPX Yacute d -111
KPX Yacute c -111
KPX Yacute a -111
KPX Yacute O -28
KPX Yacute A -56
KPX Thorn x -28
KPX Thorn l -28
KPX Thorn k -28
KPX Thorn h -28
KPX Thorn f -28
KPX Thorn b -28
KPX Thorn Y -28
KPX Thorn X -28
KPX Thorn W -28
KPX Thorn V -28
KPX Thorn G 28
KPX agrave y -111
KPX agrave x -111
KPX agrave w -56
KPX agrave v -56
KPX agrave u -111
KPX agrave t -111
KPX agrave s -56
KPX agrave r -111
KPX agrave q -111
KPX agrave p -111
KPX agrave o -56
KPX agrave n -28
KPX agrave m -111
KPX agrave l -111
KPX agrave k -111
KPX agrave j -28
KPX agrave i -56
KPX agrave h -111
KPX agrave g -56
KPX agrave f -111
KPX agrave e -56
KPX agrave d -56
KPX agrave c -56
KPX agrave b -111
KPX agrave a -56
KPX aacute y -111
KPX aacute x -111
KPX aacute w -56
KPX aacute v -56
KPX aacute u -111
KPX aacute t -111
KPX aacute s -56
KPX aacute r -111
KPX aacute q -111
KPX aacute p -111
KPX aacute o -56
KPX aacute n -28
KPX aacute m -111
KPX aacute l -111
KPX aacute k -111
KPX aacute j -28
KPX aacute i -56
KPX aacute h -111
KPX aacute g -56
KPX aacute f -111
KPX aacute e -56
KPX aacute d -56
KPX aacute c -56
KPX aacute b -111
KPX aacute a -56
KPX acircumflex y -111
KPX acircumflex x -111
KPX acircumflex w -56
KPX acircumflex v -56
KPX acircumflex u -111
KPX acircumflex t -111
KPX acircumflex s -56
KPX acircumflex r -111
KPX acircumflex q -111
KPX acircumflex p -111
KPX acircumflex o -56
KPX acircumflex n -28
KPX acircumflex m -111
KPX acircumflex l -111
KPX acircumflex k -111
KPX acircumflex j -28
KPX acircumflex i -56
KPX acircumflex h -111
KPX acircumflex g -56
KPX acircumflex f -111
KPX acircumflex e -56
KPX acircumflex d -56
KPX acircumflex c -56
KPX acircumflex b -111
KPX acircumflex a -56
KPX atilde y -111
KPX atilde x -111
KPX atilde w -56
KPX atilde v -56
KPX atilde u -111
KPX atilde t -111
KPX atilde s -56
KPX atilde r -111
KPX atilde q -111
KPX atilde p -111
KPX atilde o -56
KPX atilde n -28
KPX atilde m -111
KPX atilde l -111
KPX atilde k -111
KPX atilde j -28
KPX atilde i -56
KPX atilde h -111
KPX atilde g -56
KPX atilde f -111
KPX atilde e -56
KPX atilde d -56
KPX atilde c -56
KPX atilde b -111
KPX atilde a -56
KPX adieresis y -111
KPX adieresis x -111
KPX adieresis w -56
KPX adieresis v -56
KPX adieresis u -111
KPX adieresis t -111
KPX adieresis s -56
KPX adieresis r -111
KPX adieresis q -111
KPX adieresis p -111
KPX adieresis o -56
KPX adieresis n -28
KPX adieresis m -111
KPX adieresis l -111
KPX adieresis k -111
KPX adieresis j -28
KPX adieresis i -56
KPX adieresis h -111
KPX adieresis g -56
KPX adieresis f -111
KPX adieresis e -56
KPX adieresis d -56
KPX adieresis c -56
KPX adieresis b -111
KPX adieresis a -56
KPX aring y -111
KPX aring x -111
KPX aring w -56
KPX aring v -56
KPX aring u -111
KPX aring t -111
KPX aring s -56
KPX aring r -111
KPX aring q -111
KPX aring p -111
KPX aring o -56
KPX aring n -28
KPX aring m -111
KPX aring l -111
KPX aring k -111
KPX aring j -28
KPX aring i -56
KPX aring h -111
KPX aring g -56
KPX aring f -111
KPX aring e -56
KPX aring d -56
KPX aring c -56
KPX aring b -111
KPX aring a -56
KPX ae m -56
KPX ae l -111
KPX ae k -111
KPX ae h -111
KPX ae b -111
KPX ccedilla l -111
KPX ccedilla k -111
KPX ccedilla b -111
KPX ccedilla h -111
KPX egrave m -56
KPX egrave l -111
KPX egrave k -111
KPX egrave h -111
KPX egrave b -111
KPX eacute m -56
KPX eacute l -111
KPX eacute k -111
KPX eacute h -111
KPX eacute b -111
KPX ecircumflex m -56
KPX ecircumflex l -111
KPX ecircumflex k -111
KPX ecircumflex h -111
KPX ecircumflex b -111
KPX edieresis m -56
KPX edieresis l -111
KPX edieresis k -111
KPX edieresis h -111
KPX edieresis b -111
KPX ntilde l -111
KPX ntilde m -56
KPX ntilde y -28
KPX ntilde u -28
KPX ntilde p -28
KPX ntilde k -111
KPX ntilde h -111
KPX ntilde f -56
KPX ugrave y -111
KPX ugrave x -56
KPX ugrave v -28
KPX ugrave u -111
KPX ugrave t -83
KPX ugrave r -111
KPX ugrave q -56
KPX ugrave p -111
KPX ugrave o -56
KPX ugrave n -56
KPX ugrave m -111
KPX ugrave l -111
KPX ugrave k -111
KPX ugrave j -28
KPX ugrave i -56
KPX ugrave h -111
KPX ugrave f -111
KPX ugrave d -56
KPX ugrave c -56
KPX ugrave b -111
KPX uacute y -111
KPX uacute x -56
KPX uacute v -28
KPX uacute u -111
KPX uacute t -83
KPX uacute r -111
KPX uacute q -56
KPX uacute p -111
KPX uacute o -56
KPX uacute n -56
KPX uacute m -111
KPX uacute l -111
KPX uacute k -111
KPX uacute j -28
KPX uacute i -56
KPX uacute h -111
KPX uacute f -111
KPX uacute d -56
KPX uacute c -56
KPX uacute b -111
KPX ucircumflex y -111
KPX ucircumflex x -56
KPX ucircumflex v -28
KPX ucircumflex u -111
KPX ucircumflex t -83
KPX ucircumflex r -111
KPX ucircumflex q -56
KPX ucircumflex p -111
KPX ucircumflex o -56
KPX ucircumflex n -56
KPX ucircumflex m -111
KPX ucircumflex l -111
KPX ucircumflex k -111
KPX ucircumflex j -28
KPX ucircumflex i -56
KPX ucircumflex h -111
KPX ucircumflex f -111
KPX ucircumflex d -56
KPX ucircumflex c -56
KPX ucircumflex b -111
KPX udieresis y -111
KPX udieresis x -56
KPX udieresis v -28
KPX udieresis u -111
KPX udieresis t -83
KPX udieresis r -111
KPX udieresis q -56
KPX udieresis p -111
KPX udieresis o -56
KPX udieresis n -56
KPX udieresis m -111
KPX udieresis l -111
KPX udieresis k -111
KPX udieresis j -28
KPX udieresis i -56
KPX udieresis h -111
KPX udieresis f -111
KPX udieresis d -56
KPX udieresis c -56
KPX udieresis b -111
KPX yacute z 28
KPX yacute w 28
KPX yacute v 28
KPX yacute s 28
KPX yacute r 28
KPX yacute q 28
KPX yacute o 28
KPX yacute m 28
KPX yacute n 28
KPX yacute l -111
KPX yacute k -111
KPX yacute h -111
KPX yacute b -111
KPX yacute g 28
KPX yacute a 28
KPX thorn k -111
KPX thorn q 28
KPX thorn d 28
KPX thorn c 28
KPX thorn e 28
KPX thorn l -111
KPX thorn o 28
KPX thorn h -111
KPX thorn f -56
KPX thorn b -111
EndKernPairs
EndKernData
EndFontMetrics
