StartFontMetrics 2.0
Comment Generated by FontForge 20200314
Comment Creation Date: Sun May 31 17:25:11 2020
FontName NCXMathMI
FullName NCX Math Italic
FamilyName NCXMath
Weight Regular
Notice (Derived from TeXGyreScola)
Comment Copyright (c) 2019--2020, Michael Sharpe, LPPL
ItalicAngle -11
IsFixedPitch false
UnderlinePosition -100
UnderlineThickness 50
Version 001.000
EncodingScheme FontSpecific
FontBBox -351 -251 973 900
StartCharMetrics 97
C 0 ; WX 400 ; N degree ; B 50 380 350 686 ;
C 2 ; WX 611 ; N uni01B5 ; B 24 0 575 722 ;
C 3 ; WX 333 ; N uni0300 ; B 17 524 242 695 ;
C 4 ; WX 333 ; N uni0301 ; B 91 524 316 695 ;
C 5 ; WX 333 ; N uni0302 ; B 10 527 323 693 ;
C 6 ; WX 333 ; N uni0303 ; B 1 557 332 663 ;
C 7 ; WX 333 ; N uni0304 ; B 10 583 323 637 ;
C 8 ; WX 333 ; N uni0306 ; B 25 532 308 689 ;
C 9 ; WX 333 ; N uni0307 ; B 117 560 217 660 ;
C 10 ; WX 333 ; N uni0308 ; B 17 560 316 660 ;
C 11 ; WX 333 ; N uni030A ; B 67 511 266 710 ;
C 12 ; WX 333 ; N uni030C ; B 10 527 323 693 ;
C 14 ; WX 454 ; N uni20DB ; B 17 560 437 660 ;
C 15 ; WX 614 ; N uni20DC ; B 17 560 597 660 ;
C 17 ; WX 611 ; N uni210E ; B 0 -15 555 737 ;
C 18 ; WX 443 ; N lscript ; B 87 -15 549 737 ;
C 19 ; WX 768 ; N uni2126 ; B 55 0 855 737 ;
C 20 ; WX 768 ; N uni2127 ; B 4 0 804 737 ;
C 21 ; WX 722 ; N uni212B ; B -8 0 731 900 ;
C 22 ; WX 704 ; N u1D434 ; B -82 0 668 737 ;
C 23 ; WX 722 ; N u1D435 ; B -31 0 668 722 ;
C 24 ; WX 722 ; N u1D436 ; B 40 -15 713 737 ;
C 25 ; WX 778 ; N u1D437 ; B -38 0 735 722 ;
C 26 ; WX 722 ; N u1D438 ; B -37 0 701 722 ;
C 27 ; WX 667 ; N u1D439 ; B -34 0 698 722 ;
C 28 ; WX 778 ; N u1D43A ; B 39 -15 763 737 ;
C 29 ; WX 833 ; N u1D43B ; B -38 0 867 722 ;
C 30 ; WX 407 ; N u1D43C ; B -33 0 431 722 ;
C 31 ; WX 611 ; N u1D43D ; B -13 -15 646 722 ;
C 32 ; WX 741 ; N u1D43E ; B -40 0 814 722 ;
C 33 ; WX 667 ; N u1D43F ; B -37 0 630 722 ;
C 34 ; WX 944 ; N u1D440 ; B -26 0 973 722 ;
C 35 ; WX 815 ; N u1D441 ; B -48 -14 859 722 ;
C 36 ; WX 778 ; N u1D442 ; B 40 -15 735 737 ;
C 37 ; WX 667 ; N u1D443 ; B -33 0 663 722 ;
C 38 ; WX 778 ; N u1D444 ; B 40 -188 735 737 ;
C 39 ; WX 741 ; N u1D445 ; B -41 -15 691 722 ;
C 40 ; WX 667 ; N u1D446 ; B 0 -15 632 737 ;
C 41 ; WX 685 ; N u1D447 ; B 40 0 726 722 ;
C 42 ; WX 815 ; N u1D448 ; B 93 -15 860 722 ;
C 43 ; WX 704 ; N u1D449 ; B 36 -15 772 722 ;
C 44 ; WX 926 ; N u1D44A ; B 53 -15 973 722 ;
C 45 ; WX 704 ; N u1D44B ; B -73 0 770 722 ;
C 46 ; WX 685 ; N u1D44C ; B 32 0 758 722 ;
C 47 ; WX 667 ; N u1D44D ; B -25 0 667 722 ;
C 48 ; WX 574 ; N u1D44E ; B 1 -15 523 470 ;
C 49 ; WX 556 ; N u1D44F ; B 32 -15 488 737 ;
C 50 ; WX 444 ; N u1D450 ; B 5 -15 401 470 ;
C 51 ; WX 611 ; N u1D451 ; B 3 -15 586 737 ;
C 52 ; WX 444 ; N u1D452 ; B -6 -15 391 470 ;
C 53 ; WX 333 ; N u1D453 ; B -68 -202 470 736 ;
C 54 ; WX 537 ; N u1D454 ; B -79 -202 523 505 ;
C 55 ; WX 333 ; N u1D456 ; B 27 -14 285 729 ;
C 56 ; WX 315 ; N u1D457 ; B -166 -202 325 729 ;
C 57 ; WX 556 ; N u1D458 ; B -5 -15 492 737 ;
C 58 ; WX 333 ; N u1D459 ; B 16 -15 294 737 ;
C 59 ; WX 889 ; N u1D45A ; B 15 -15 837 470 ;
C 60 ; WX 611 ; N u1D45B ; B 14 -15 562 470 ;
C 61 ; WX 500 ; N u1D45C ; B 5 -15 450 470 ;
C 62 ; WX 574 ; N u1D45D ; B -101 -202 506 470 ;
C 63 ; WX 556 ; N u1D45E ; B 0 -202 499 470 ;
C 64 ; WX 444 ; N u1D45F ; B 9 0 433 470 ;
C 65 ; WX 444 ; N u1D460 ; B -1 -15 392 470 ;
C 66 ; WX 352 ; N u1D461 ; B 25 -15 329 621 ;
C 67 ; WX 611 ; N u1D462 ; B 41 -15 556 470 ;
C 68 ; WX 519 ; N u1D463 ; B 34 -16 445 470 ;
C 69 ; WX 778 ; N u1D464 ; B 32 -15 708 470 ;
C 70 ; WX 500 ; N u1D465 ; B -33 -15 471 470 ;
C 71 ; WX 500 ; N u1D466 ; B -79 -202 454 470 ;
C 72 ; WX 463 ; N u1D467 ; B -33 -15 417 470 ;
C 109 ; WX 504 ; N u1D715 ; B 27 -10 476 753 ;
C 117 ; WX 611 ; N uni210F ; B 0 -15 555 737 ;
C 118 ; WX 611 ; N uni210F.alt ; B 0 -15 555 737 ;
C 121 ; WX 333 ; N u1D6A4 ; B 27 -14 282 470 ;
C 122 ; WX 315 ; N u1D6A5 ; B -166 -202 279 470 ;
C 125 ; WX 552 ; N zero.oldstyle ; B 40 -15 512 482 ;
C 126 ; WX 476 ; N one.oldstyle ; B 40 0 436 466 ;
C 127 ; WX 550 ; N two.oldstyle ; B 40 0 510 482 ;
C 128 ; WX 536 ; N three.oldstyle ; B 40 -237 496 482 ;
C 129 ; WX 579 ; N four.oldstyle ; B 40 -175 539 529 ;
C 130 ; WX 537 ; N five.oldstyle ; B 40 -237 497 482 ;
C 131 ; WX 554 ; N six.oldstyle ; B 40 -15 514 704 ;
C 132 ; WX 529 ; N seven.oldstyle ; B 40 -251 489 467 ;
C 133 ; WX 552 ; N eight.oldstyle ; B 40 -15 512 704 ;
C 134 ; WX 554 ; N nine.oldstyle ; B 40 -237 514 482 ;
C 136 ; WX 556 ; N zero ; B 42 -15 514 704 ;
C 137 ; WX 556 ; N one ; B 100 0 496 704 ;
C 138 ; WX 556 ; N two ; B 35 0 505 704 ;
C 139 ; WX 556 ; N three ; B 42 -15 498 704 ;
C 140 ; WX 556 ; N four ; B 28 0 527 704 ;
C 141 ; WX 556 ; N five ; B 45 -15 502 704 ;
C 142 ; WX 556 ; N six ; B 42 -15 516 704 ;
C 143 ; WX 556 ; N seven ; B 59 -14 508 704 ;
C 144 ; WX 556 ; N eight ; B 41 -15 513 704 ;
C 145 ; WX 556 ; N nine ; B 39 -15 513 704 ;
C 147 ; WX 278 ; N period ; B 74 -14 199 111 ;
C 148 ; WX 278 ; N comma ; B 64 -183 218 108 ;
EndCharMetrics
EndFontMetrics
