StartFontMetrics 2.0
Comment Generated by pfaedit
Comment Creation Date: Sat May  7 02:04:11 2005
FontName CMRomanCyrillic-BoldSC
FullName Computer Modern Roman Cyrillic Bold Small Caps
FamilyName CM Roman Cyrillic
Weight Bold
Notice (Converted by Alexej Kryukov from METAFONT sources. )
Comment 
Comment This font is subject to the GNU General Public License as published by the Free Software Foundation; either version 2 of the License, or (at your option) any later version.
Comment 
Comment This font is distributed in the hope that it will be useful, but WITHOUT ANY WARRANTY; without even the implied warranty of MERCHANTABILITY or FITNESS FOR A PARTICULAR PURPOSE.  See the GNU General Pu
Comment blic License for more details.
ItalicAngle 0
IsFixedPitch false
UnderlinePosition -100
UnderlineThickness 50
Version 001.001
EncodingScheme AdobeCyrillicEncoding
FontBBox -9 -308 1396 932
CapHeight 687
XHeight 518
Ascender 518
Descender 1
StartCharMetrics 236
C 0 ; WX 360 ; N .notdef ; B 0 0 0 0 ;
C 1 ; WX 1014 ; N afii10146 ; B 77 0 932 751 ;
C 2 ; WX 930 ; N afii10147 ; B 81 -10 848 698 ;
C 3 ; WX 1014 ; N afii10148 ; B 41 -7 981 699 ;
C 4 ; WX 1266 ; N uni046A ; B 34 1 1232 688 ;
C 11 ; WX 494 ; N angleleft ; B 37 -250 437 752 ;
C 12 ; WX 494 ; N angleright ; B 56 -250 470 753 ;
C 17 ; WX 762 ; N afii10194 ; B 54 0 707 556 ;
C 18 ; WX 689 ; N afii10195 ; B 55 -7 633 526 ;
C 19 ; WX 762 ; N afii10196 ; B 27 -3 736 525 ;
C 20 ; WX 956 ; N uni046B ; B 19 1 936 519 ;
C 24 ; WX 465 ; N cyrflex ; B 87 487 377 626 ;
C 25 ; WX 465 ; N dblgrave ; B 13 466 355 606 ;
C 26 ; WX 465 ; N cyrbreve ; B 84 510 380 677 ;
C 32 ; WX 360 ; N space ; B 0 0 0 0 ;
C 33 ; WX 392 ; N exclam ; B 117 0 275 707 ;
C 34 ; WX 628 ; N quotedbl ; B 149 359 478 712 ;
C 35 ; WX 1028 ; N numbersign ; B 81 -193 946 696 ;
C 36 ; WX 628 ; N dollar ; B 80 -55 547 751 ;
C 37 ; WX 1028 ; N percent ; B 81 -56 947 751 ;
C 38 ; WX 961 ; N ampersand ; B 63 -11 886 707 ;
C 39 ; WX 319 ; N quotesingle ; B 95 359 223 712 ;
C 40 ; WX 494 ; N parenleft ; B 128 -251 413 752 ;
C 41 ; WX 494 ; N parenright ; B 80 -250 365 752 ;
C 42 ; WX 628 ; N asterisk ; B 91 307 536 751 ;
C 43 ; WX 961 ; N plus ; B 81 -150 879 651 ;
C 44 ; WX 361 ; N comma ; B 102 -193 272 158 ;
C 45 ; WX 428 ; N hyphen ; B 27 175 347 272 ;
C 46 ; WX 361 ; N period ; B 102 0 258 158 ;
C 47 ; WX 628 ; N slash ; B 81 -249 546 751 ;
C 48 ; WX 575 ; N zero ; B 45 -10 530 457 ;
C 49 ; WX 575 ; N one ; B 85 1 494 453 ;
C 50 ; WX 575 ; N two ; B 51 1 518 457 ;
C 51 ; WX 575 ; N three ; B 48 -205 526 456 ;
C 52 ; WX 575 ; N four ; B 32 -193 542 458 ;
C 53 ; WX 575 ; N five ; B 56 -205 517 456 ;
C 54 ; WX 575 ; N six ; B 48 -10 527 656 ;
C 55 ; WX 575 ; N seven ; B 64 -205 559 477 ;
C 56 ; WX 575 ; N eight ; B 47 -10 527 657 ;
C 57 ; WX 575 ; N nine ; B 47 -205 526 456 ;
C 58 ; WX 361 ; N colon ; B 102 0 258 446 ;
C 59 ; WX 361 ; N semicolon ; B 102 -193 272 446 ;
C 60 ; WX 961 ; N less ; B 113 -74 847 575 ;
C 61 ; WX 961 ; N equal ; B 81 119 879 382 ;
C 62 ; WX 961 ; N greater ; B 113 -74 847 575 ;
C 63 ; WX 594 ; N question ; B 79 0 514 702 ;
C 64 ; WX 961 ; N at ; B 81 -6 880 701 ;
C 65 ; WX 933 ; N A ; B 57 1 875 699 ;
C 66 ; WX 880 ; N B ; B 59 0 798 689 ;
C 67 ; WX 894 ; N C ; B 81 -10 813 699 ;
C 68 ; WX 947 ; N D ; B 58 0 866 687 ;
C 69 ; WX 816 ; N E ; B 58 1 768 681 ;
C 70 ; WX 783 ; N F ; B 58 1 718 681 ;
C 71 ; WX 971 ; N G ; B 81 -11 896 699 ;
C 72 ; WX 964 ; N H ; B 58 1 905 687 ;
C 73 ; WX 475 ; N I ; B 52 1 422 687 ;
C 74 ; WX 647 ; N J ; B 43 -11 561 687 ;
C 75 ; WX 966 ; N K ; B 58 1 901 687 ;
C 76 ; WX 750 ; N L ; B 58 1 685 687 ;
C 77 ; WX 1164 ; N M ; B 62 1 1101 688 ;
C 78 ; WX 964 ; N N ; B 58 1 905 687 ; L o afii61352 ;
C 79 ; WX 930 ; N O ; B 81 -10 848 698 ;
C 80 ; WX 847 ; N P ; B 58 1 766 688 ;
C 81 ; WX 930 ; N Q ; B 80 -194 855 698 ;
C 82 ; WX 923 ; N R ; B 58 -10 906 688 ;
C 83 ; WX 694 ; N S ; B 79 -11 613 699 ;
C 84 ; WX 864 ; N T ; B 57 1 806 676 ; L M trademark ;
C 85 ; WX 948 ; N U ; B 58 -10 889 687 ;
C 86 ; WX 933 ; N V ; B 41 -8 891 687 ;
C 87 ; WX 1266 ; N W ; B 39 -8 1226 687 ;
C 88 ; WX 933 ; N X ; B 50 1 883 687 ;
C 89 ; WX 933 ; N Y ; B 35 1 897 687 ;
C 90 ; WX 761 ; N Z ; B 81 1 686 687 ;
C 91 ; WX 361 ; N bracketleft ; B 125 -249 320 751 ;
C 92 ; WX 628 ; N backslash ; B 81 -248 546 751 ;
C 93 ; WX 361 ; N bracketright ; B 40 -249 235 751 ;
C 94 ; WX 761 ; N asciicircum ; B 153 461 607 631 ;
C 95 ; WX 961 ; N underscore ; B 114 -308 846 -245 ;
C 96 ; WX 465 ; N grave ; B 89 466 280 606 ;
C 97 ; WX 702 ; N a ; B 39 1 662 524 ;
C 98 ; WX 660 ; N b ; B 46 0 605 519 ;
C 99 ; WX 669 ; N c ; B 54 -7 614 525 ;
C 100 ; WX 711 ; N d ; B 46 0 655 519 ;
C 101 ; WX 604 ; N e ; B 46 1 574 512 ;
C 102 ; WX 579 ; N f ; B 46 1 536 512 ;
C 103 ; WX 728 ; N g ; B 55 -8 676 525 ;
C 104 ; WX 733 ; N h ; B 46 1 686 518 ;
C 105 ; WX 360 ; N i ; B 42 1 317 518 ;
C 106 ; WX 482 ; N j ; B 28 -7 416 518 ;
C 107 ; WX 727 ; N k ; B 46 1 684 518 ;
C 108 ; WX 553 ; N l ; B 46 1 510 518 ;
C 109 ; WX 885 ; N m ; B 48 0 836 518 ;
C 110 ; WX 733 ; N n ; B 46 1 686 518 ;
C 111 ; WX 689 ; N o ; B 55 -7 633 526 ;
C 112 ; WX 635 ; N p ; B 47 1 580 519 ;
C 113 ; WX 689 ; N q ; B 55 -143 638 526 ;
C 114 ; WX 699 ; N r ; B 47 -7 691 519 ;
C 115 ; WX 516 ; N s ; B 54 -7 460 526 ;
C 116 ; WX 638 ; N t ; B 37 1 600 507 ;
C 117 ; WX 717 ; N u ; B 46 -7 670 518 ;
C 118 ; WX 702 ; N v ; B 27 -3 674 518 ;
C 119 ; WX 956 ; N w ; B 26 -5 929 518 ;
C 120 ; WX 702 ; N x ; B 37 1 665 518 ;
C 121 ; WX 702 ; N y ; B 25 1 677 518 ;
C 122 ; WX 567 ; N z ; B 54 0 516 519 ;
C 123 ; WX 628 ; N braceleft ; B 95 -250 532 752 ;
C 124 ; WX 361 ; N bar ; B 149 -250 212 751 ;
C 125 ; WX 628 ; N braceright ; B 95 -250 531 752 ;
C 126 ; WX 761 ; N asciitilde ; B 114 586 646 695 ;
C 128 ; WX 1030 ; N afii10051 ; B 57 -10 978 687 ;
C 129 ; WX 750 ; N afii10052 ; B 58 1 685 852 ;
C 130 ; WX 361 ; N quotesinglbase ; B 102 -193 272 158 ;
C 131 ; WX 553 ; N afii10100 ; B 46 1 510 680 ;
C 132 ; WX 450 ; N quotedblbase ; B 8 -193 458 158 ;
C 133 ; WX 1339 ; N ellipsis ; B 102 0 1236 158 ;
C 134 ; WX 511 ; N dagger ; B 64 -205 446 702 ;
C 135 ; WX 511 ; N daggerdbl ; B 64 -199 446 701 ;
C 136 ; WX 828 ; N Euro ; B 14 1 737 751 ;
C 137 ; WX 1341 ; N perthousand ; B 63 -56 1276 752 ;
C 138 ; WX 1315 ; N afii10058 ; B 46 -11 1233 687 ;
C 139 ; WX 561 ; N guilsinglleft ; B 147 0 413 473 ;
C 140 ; WX 1315 ; N afii10059 ; B 58 0 1233 687 ;
C 141 ; WX 966 ; N afii10061 ; B 58 1 901 852 ;
C 142 ; WX 944 ; N afii10060 ; B 58 1 908 687 ;
C 143 ; WX 966 ; N afii10145 ; B 58 -193 907 687 ;
C 144 ; WX 765 ; N afii10099 ; B 37 -7 749 518 ;
C 145 ; WX 361 ; N quoteleft ; B 84 344 259 695 ;
C 146 ; WX 361 ; N quoteright ; B 101 345 276 696 ;
C 147 ; WX 450 ; N quotedblleft ; B -9 344 441 695 ;
C 148 ; WX 450 ; N quotedblright ; B 8 345 458 696 ;
C 149 ; WX 575 ; N bullet ; B 64 26 509 475 ;
C 150 ; WX 628 ; N endash ; B 14 257 613 293 ;
C 151 ; WX 1022 ; N emdash ; B 45 257 976 293 ;
C 153 ; WX 766 ; N trademark ; B 0 364 726 762 ;
C 154 ; WX 988 ; N afii10106 ; B 29 -7 933 518 ;
C 155 ; WX 561 ; N guilsinglright ; B 147 1 413 473 ;
C 156 ; WX 988 ; N afii10107 ; B 46 -1 933 518 ;
C 157 ; WX 727 ; N afii10109 ; B 46 1 684 680 ;
C 158 ; WX 707 ; N afii10108 ; B 37 1 690 518 ;
C 159 ; WX 727 ; N afii10193 ; B 46 -193 680 518 ;
C 160 ; WX 360 ; N nonbreakingspace ; B 0 0 0 0 ;
C 161 ; WX 933 ; N afii10062 ; B 48 -11 892 932 ;
C 162 ; WX 702 ; N afii10110 ; B 35 -6 674 726 ;
C 163 ; WX 647 ; N afii10057 ; B 43 -11 561 687 ;
C 164 ; WX 807 ; N currency ; B 76 -40 731 613 ;
C 165 ; WX 766 ; N afii10050 ; B 58 1 701 881 ;
C 166 ; WX 192 ; N brokenbar ; B 64 -250 127 751 ;
C 167 ; WX 575 ; N section ; B 96 -200 478 702 ;
C 168 ; WX 816 ; N afii10023 ; B 58 1 768 896 ;
C 169 ; WX 1277 ; N copyright ; B 63 -261 1214 762 ;
C 170 ; WX 894 ; N afii10053 ; B 81 -11 812 699 ;
C 171 ; WX 694 ; N guillemotleft ; B 147 0 579 446 ;
C 172 ; WX 766 ; N logicalnot ; B 63 61 702 373 ;
C 173 ; WX 428 ; N softhyphen ; B 27 175 347 272 ;
C 174 ; WX 1277 ; N registered ; B 63 -261 1214 762 ;
C 175 ; WX 475 ; N afii10056 ; B 43 1 431 896 ;
C 176 ; WX 383 ; N degree ; B 63 431 320 688 ;
C 177 ; WX 894 ; N plusminus ; B 64 -38 829 730 ;
C 178 ; WX 475 ; N afii10055 ; B 52 1 422 687 ;
C 179 ; WX 360 ; N afii10103 ; B 42 1 317 518 ;
C 180 ; WX 566 ; N afii10098 ; B 46 1 523 712 ;
C 181 ; WX 639 ; N mu ; B 45 -193 615 451 ;
C 182 ; WX 703 ; N paragraph ; B 63 -194 670 696 ;
C 183 ; WX 275 ; N periodcentered ; B 59 158 215 316 ;
C 184 ; WX 604 ; N afii10071 ; B 46 1 574 726 ;
C 185 ; WX 1123 ; N afii61352 ; B 23 -6 1063 694 ;
C 186 ; WX 669 ; N afii10101 ; B 55 -6 613 526 ;
C 187 ; WX 694 ; N guillemotright ; B 114 1 546 446 ;
C 188 ; WX 482 ; N afii10105 ; B 28 -7 416 518 ;
C 189 ; WX 694 ; N afii10054 ; B 79 -11 613 699 ;
C 190 ; WX 516 ; N afii10102 ; B 54 -7 460 526 ;
C 191 ; WX 360 ; N afii10104 ; B 26 1 333 726 ;
C 192 ; WX 933 ; N afii10017 ; B 57 1 875 699 ;
C 193 ; WX 880 ; N afii10018 ; B 59 0 798 687 ;
C 194 ; WX 880 ; N afii10019 ; B 59 0 798 689 ;
C 195 ; WX 750 ; N afii10020 ; B 58 1 685 687 ;
C 196 ; WX 966 ; N afii10021 ; B 16 -193 949 687 ;
C 197 ; WX 816 ; N afii10022 ; B 58 1 768 687 ;
C 198 ; WX 1458 ; N afii10024 ; B 64 1 1392 687 ;
C 199 ; WX 761 ; N afii10025 ; B 73 -10 697 699 ;
C 200 ; WX 966 ; N afii10026 ; B 58 1 907 687 ;
C 201 ; WX 966 ; N afii10027 ; B 58 1 907 931 ;
C 202 ; WX 966 ; N afii10028 ; B 58 1 901 687 ;
C 203 ; WX 966 ; N afii10029 ; B 46 -11 907 687 ;
C 204 ; WX 1164 ; N afii10030 ; B 62 1 1101 688 ;
C 205 ; WX 966 ; N afii10031 ; B 58 1 907 687 ;
C 206 ; WX 930 ; N afii10032 ; B 81 -10 848 698 ;
C 207 ; WX 966 ; N afii10033 ; B 58 1 907 687 ;
C 208 ; WX 847 ; N afii10034 ; B 58 1 766 688 ;
C 209 ; WX 894 ; N afii10035 ; B 81 -10 813 699 ;
C 210 ; WX 864 ; N afii10036 ; B 57 1 805 687 ;
C 211 ; WX 933 ; N afii10037 ; B 48 -11 892 687 ;
C 212 ; WX 1028 ; N afii10038 ; B 81 1 947 687 ;
C 213 ; WX 933 ; N afii10039 ; B 50 1 883 687 ;
C 214 ; WX 966 ; N afii10040 ; B 58 -193 949 687 ;
C 215 ; WX 966 ; N afii10041 ; B 58 1 907 687 ;
C 216 ; WX 1414 ; N afii10042 ; B 58 1 1354 687 ;
C 217 ; WX 1414 ; N afii10043 ; B 58 -193 1396 687 ;
C 218 ; WX 1079 ; N afii10044 ; B 57 0 997 687 ;
C 219 ; WX 1200 ; N afii10045 ; B 59 0 1131 687 ;
C 220 ; WX 880 ; N afii10046 ; B 59 0 798 687 ;
C 221 ; WX 894 ; N afii10047 ; B 80 -11 813 699 ;
C 222 ; WX 1354 ; N afii10048 ; B 58 -11 1272 698 ;
C 223 ; WX 966 ; N afii10049 ; B 64 1 907 688 ;
C 224 ; WX 702 ; N afii10065 ; B 39 1 662 524 ;
C 225 ; WX 660 ; N afii10066 ; B 46 0 605 518 ;
C 226 ; WX 660 ; N afii10067 ; B 46 0 605 519 ;
C 227 ; WX 553 ; N afii10068 ; B 46 1 510 518 ;
C 228 ; WX 727 ; N afii10069 ; B 18 -193 708 518 ;
C 229 ; WX 604 ; N afii10070 ; B 46 1 574 518 ;
C 230 ; WX 1095 ; N afii10072 ; B 42 1 1053 518 ;
C 231 ; WX 567 ; N afii10073 ; B 50 -6 525 526 ;
C 232 ; WX 727 ; N afii10074 ; B 46 1 680 518 ;
C 233 ; WX 727 ; N afii10075 ; B 46 1 680 727 ;
C 234 ; WX 727 ; N afii10076 ; B 46 1 684 518 ;
C 235 ; WX 727 ; N afii10077 ; B 29 -7 680 518 ;
C 236 ; WX 885 ; N afii10078 ; B 48 0 836 518 ;
C 237 ; WX 727 ; N afii10079 ; B 46 1 680 518 ;
C 238 ; WX 689 ; N afii10080 ; B 55 -7 633 526 ;
C 239 ; WX 727 ; N afii10081 ; B 46 1 680 518 ;
C 240 ; WX 635 ; N afii10082 ; B 47 1 580 519 ;
C 241 ; WX 669 ; N afii10083 ; B 54 -7 614 525 ;
C 242 ; WX 638 ; N afii10084 ; B 37 1 600 518 ;
C 243 ; WX 702 ; N afii10085 ; B 35 -6 674 518 ;
C 244 ; WX 770 ; N afii10086 ; B 55 1 715 518 ;
C 245 ; WX 702 ; N afii10087 ; B 37 1 665 518 ;
C 246 ; WX 727 ; N afii10088 ; B 46 -193 708 518 ;
C 247 ; WX 727 ; N afii10089 ; B 46 1 680 518 ;
C 248 ; WX 1076 ; N afii10090 ; B 47 1 1028 518 ;
C 249 ; WX 1076 ; N afii10091 ; B 47 -193 1057 518 ;
C 250 ; WX 806 ; N afii10092 ; B 37 0 751 518 ;
C 251 ; WX 905 ; N afii10093 ; B 46 0 855 518 ;
C 252 ; WX 660 ; N afii10094 ; B 46 0 605 518 ;
C 253 ; WX 669 ; N afii10095 ; B 55 -6 614 526 ;
C 254 ; WX 1017 ; N afii10096 ; B 47 -7 961 525 ;
C 255 ; WX 727 ; N afii10097 ; B 42 1 680 519 ;
EndCharMetrics
StartKernData
StartKernPairs 928
KPX afii10146 afii10196 -133
KPX afii10146 afii10110 -100
KPX afii10146 afii10085 -100
KPX afii10146 afii10108 -100
KPX afii10146 afii10099 -100
KPX afii10146 afii10194 -100
KPX afii10146 afii10092 -100
KPX afii10146 afii10084 -100
KPX afii10146 afii10089 -33
KPX afii10146 afii10101 -33
KPX afii10146 afii10083 -33
KPX afii10146 afii10086 -33
KPX afii10146 afii10080 -33
KPX afii10146 afii10148 -133
KPX afii10146 afii10062 -100
KPX afii10146 afii10037 -100
KPX afii10146 afii10041 -100
KPX afii10146 afii10146 -100
KPX afii10146 afii10060 -100
KPX afii10146 afii10051 -100
KPX afii10146 afii10044 -100
KPX afii10146 afii10036 -100
KPX afii10146 afii10053 -33
KPX afii10146 afii10035 -33
KPX afii10146 afii10038 -33
KPX afii10146 afii10032 -33
KPX afii10146 afii10039 -33
KPX afii10146 afii10024 -33
KPX afii10148 colon -100
KPX afii10148 semicolon -100
KPX afii10148 comma -100
KPX afii10148 period -100
KPX afii10148 afii10101 -33
KPX afii10148 afii10083 -33
KPX afii10148 afii10086 -33
KPX afii10148 afii10080 -33
KPX afii10148 uni046B -133
KPX afii10148 afii10097 -133
KPX afii10148 afii10065 -133
KPX afii10148 afii10053 -33
KPX afii10148 afii10035 -33
KPX afii10148 afii10038 -33
KPX afii10148 afii10032 -33
KPX afii10148 uni046A -133
KPX afii10148 afii10049 -133
KPX afii10148 afii10017 -133
KPX uni046A afii10196 -133
KPX uni046A afii10110 -100
KPX uni046A afii10085 -100
KPX uni046A afii10108 -100
KPX uni046A afii10099 -100
KPX uni046A afii10194 -100
KPX uni046A afii10092 -100
KPX uni046A afii10084 -100
KPX uni046A afii10089 -33
KPX uni046A afii10101 -33
KPX uni046A afii10083 -33
KPX uni046A afii10086 -33
KPX uni046A afii10080 -33
KPX uni046A afii10148 -133
KPX uni046A afii10062 -100
KPX uni046A afii10037 -100
KPX uni046A afii10041 -100
KPX uni046A afii10146 -100
KPX uni046A afii10060 -100
KPX uni046A afii10051 -100
KPX uni046A afii10044 -100
KPX uni046A afii10036 -100
KPX uni046A afii10053 -33
KPX uni046A afii10035 -33
KPX uni046A afii10038 -33
KPX uni046A afii10032 -33
KPX afii10194 afii10196 -102
KPX afii10194 afii10110 -76
KPX afii10194 afii10085 -76
KPX afii10194 afii10089 -25
KPX afii10194 afii10108 -25
KPX afii10194 afii10099 -25
KPX afii10194 afii10194 -25
KPX afii10194 afii10092 -25
KPX afii10194 afii10084 -25
KPX afii10194 afii10101 -25
KPX afii10194 afii10083 -25
KPX afii10194 afii10086 -25
KPX afii10194 afii10080 -25
KPX afii10196 afii10101 -25
KPX afii10196 afii10083 -25
KPX afii10196 afii10086 -25
KPX afii10196 afii10080 -25
KPX afii10196 afii10106 -76
KPX afii10196 afii10077 -76
KPX afii10196 afii10069 -76
KPX afii10196 uni046B -102
KPX afii10196 afii10097 -102
KPX afii10196 afii10065 -102
KPX uni046B afii10196 -102
KPX uni046B afii10110 -76
KPX uni046B afii10085 -76
KPX uni046B afii10089 -25
KPX uni046B afii10108 -25
KPX uni046B afii10099 -25
KPX uni046B afii10194 -25
KPX uni046B afii10092 -25
KPX uni046B afii10084 -25
KPX uni046B afii10101 -25
KPX uni046B afii10083 -25
KPX uni046B afii10086 -25
KPX uni046B afii10080 -25
KPX A w -133
KPX A W -133
KPX A v -133
KPX A V -133
KPX A y -100
KPX A Y -100
KPX A t -100
KPX A T -100
KPX A q -33
KPX A U -33
KPX A u -33
KPX A g -33
KPX A O -33
KPX A o -33
KPX A Q -33
KPX A G -33
KPX A C -33
KPX A c -33
KPX D Y -33
KPX D y -33
KPX D V -33
KPX D v -33
KPX D A -33
KPX D a -33
KPX D W -33
KPX D w -33
KPX D X -33
KPX D x -33
KPX F q -33
KPX F g -33
KPX F Q -33
KPX F G -33
KPX F C -33
KPX F c -33
KPX F O -33
KPX F o -33
KPX F A -133
KPX F a -133
KPX I I 33
KPX K q -33
KPX K g -33
KPX K Q -33
KPX K G -33
KPX K C -33
KPX K c -33
KPX K O -33
KPX K o -33
KPX L w -133
KPX L W -133
KPX L v -133
KPX L V -133
KPX L y -100
KPX L Y -100
KPX L t -100
KPX L T -100
KPX O Y -33
KPX O y -33
KPX O V -33
KPX O v -33
KPX O A -33
KPX O a -33
KPX O W -33
KPX O w -33
KPX O X -33
KPX O x -33
KPX P A -100
KPX P a -100
KPX R w -133
KPX R W -133
KPX R v -133
KPX R V -133
KPX R y -100
KPX R Y -100
KPX R t -100
KPX R T -100
KPX R q -33
KPX R U -33
KPX R u -33
KPX R g -33
KPX R O -33
KPX R o -33
KPX R Q -33
KPX R G -33
KPX R C -33
KPX R c -33
KPX T A -100
KPX T a -100
KPX V q -33
KPX V g -33
KPX V Q -33
KPX V G -33
KPX V C -33
KPX V c -33
KPX V O -33
KPX V o -33
KPX V A -133
KPX V a -133
KPX W q -33
KPX W g -33
KPX W Q -33
KPX W G -33
KPX W C -33
KPX W c -33
KPX W O -33
KPX W o -33
KPX W A -133
KPX W a -133
KPX X q -33
KPX X g -33
KPX X Q -33
KPX X G -33
KPX X C -33
KPX X c -33
KPX X O -33
KPX X o -33
KPX Y A -100
KPX Y a -100
KPX a w -133
KPX a v -133
KPX a y -100
KPX a t -100
KPX a quoteright -100
KPX a q -33
KPX a u -33
KPX a g -33
KPX a o -33
KPX a c -33
KPX d y -33
KPX d v -33
KPX d a -33
KPX d w -33
KPX d x -33
KPX f q -33
KPX f g -33
KPX f c -33
KPX f o -33
KPX f a -133
KPX i i 33
KPX k q -33
KPX k g -33
KPX k c -33
KPX k o -33
KPX l w -133
KPX l v -133
KPX l y -100
KPX l t -100
KPX l quoteright -100
KPX o y -33
KPX o v -33
KPX o a -33
KPX o w -33
KPX o x -33
KPX p a -100
KPX r w -133
KPX r v -133
KPX r y -100
KPX r t -100
KPX r quoteright -100
KPX r q -33
KPX r u -33
KPX r g -33
KPX r o -33
KPX r c -33
KPX t a -100
KPX v q -33
KPX v g -33
KPX v c -33
KPX v o -33
KPX v a -133
KPX w q -33
KPX w g -33
KPX w c -33
KPX w o -33
KPX w a -133
KPX x q -33
KPX x g -33
KPX x c -33
KPX x o -33
KPX y a -100
KPX afii10051 afii10196 -133
KPX afii10051 afii10110 -100
KPX afii10051 afii10085 -100
KPX afii10051 afii10108 -100
KPX afii10051 afii10099 -100
KPX afii10051 afii10194 -100
KPX afii10051 afii10092 -100
KPX afii10051 afii10084 -100
KPX afii10051 afii10089 -33
KPX afii10051 afii10101 -33
KPX afii10051 afii10083 -33
KPX afii10051 afii10086 -33
KPX afii10051 afii10080 -33
KPX afii10051 afii10148 -133
KPX afii10051 afii10062 -100
KPX afii10051 afii10037 -100
KPX afii10051 afii10041 -100
KPX afii10051 afii10146 -100
KPX afii10051 afii10060 -100
KPX afii10051 afii10051 -100
KPX afii10051 afii10044 -100
KPX afii10051 afii10036 -100
KPX afii10051 afii10053 -33
KPX afii10051 afii10035 -33
KPX afii10051 afii10038 -33
KPX afii10051 afii10032 -33
KPX afii10051 afii10039 -33
KPX afii10051 afii10024 -33
KPX quotesinglbase Q -33
KPX quotesinglbase G -33
KPX quotesinglbase C -33
KPX quotesinglbase O -33
KPX quotesinglbase Y -100
KPX quotesinglbase W -100
KPX quotesinglbase V -133
KPX quotesinglbase w -33
KPX quotesinglbase v -67
KPX quotesinglbase y -67
KPX quotesinglbase quotedblbase 133
KPX quotedblbase Q -33
KPX quotedblbase G -33
KPX quotedblbase C -33
KPX quotedblbase O -33
KPX quotedblbase Y -100
KPX quotedblbase W -100
KPX quotedblbase V -133
KPX quotedblbase w -33
KPX quotedblbase v -67
KPX quotedblbase y -67
KPX quotedblbase quotesinglbase 133
KPX quotedblbase afii10196 -100
KPX quotedblbase afii10110 67
KPX quotedblbase afii10085 67
KPX quotedblbase afii10069 100
KPX quotedblbase afii10053 -33
KPX quotedblbase afii10035 -33
KPX quotedblbase afii10038 -33
KPX quotedblbase afii10032 -33
KPX quotedblbase afii10062 -100
KPX quotedblbase afii10037 -100
KPX quotedblbase afii10148 -133
KPX quotedblbase afii10021 100
KPX quotedblbase uni046B 67
KPX quotedblbase afii10060 -33
KPX quotedblbase uni046A -100
KPX quotedblbase quotedblbase 133
KPX quotedblbase comma 133
KPX afii10058 afii10196 -133
KPX afii10058 afii10110 -100
KPX afii10058 afii10085 -100
KPX afii10058 afii10108 -100
KPX afii10058 afii10099 -100
KPX afii10058 afii10194 -100
KPX afii10058 afii10092 -100
KPX afii10058 afii10084 -100
KPX afii10058 afii10089 -33
KPX afii10058 afii10101 -33
KPX afii10058 afii10083 -33
KPX afii10058 afii10086 -33
KPX afii10058 afii10080 -33
KPX afii10058 afii10148 -133
KPX afii10058 afii10062 -100
KPX afii10058 afii10037 -100
KPX afii10058 afii10041 -100
KPX afii10058 afii10146 -100
KPX afii10058 afii10060 -100
KPX afii10058 afii10051 -100
KPX afii10058 afii10044 -100
KPX afii10058 afii10036 -100
KPX afii10058 afii10053 -33
KPX afii10058 afii10035 -33
KPX afii10058 afii10038 -33
KPX afii10058 afii10032 -33
KPX afii10058 afii10039 -33
KPX afii10058 afii10024 -33
KPX afii10059 afii10196 -133
KPX afii10059 afii10110 -100
KPX afii10059 afii10085 -100
KPX afii10059 afii10108 -100
KPX afii10059 afii10099 -100
KPX afii10059 afii10194 -100
KPX afii10059 afii10092 -100
KPX afii10059 afii10084 -100
KPX afii10059 afii10089 -33
KPX afii10059 afii10101 -33
KPX afii10059 afii10083 -33
KPX afii10059 afii10086 -33
KPX afii10059 afii10080 -33
KPX afii10059 afii10148 -133
KPX afii10059 afii10062 -100
KPX afii10059 afii10037 -100
KPX afii10059 afii10041 -100
KPX afii10059 afii10146 -100
KPX afii10059 afii10060 -100
KPX afii10059 afii10051 -100
KPX afii10059 afii10044 -100
KPX afii10059 afii10036 -100
KPX afii10059 afii10053 -33
KPX afii10059 afii10035 -33
KPX afii10059 afii10038 -33
KPX afii10059 afii10032 -33
KPX afii10059 afii10039 -33
KPX afii10059 afii10024 -33
KPX afii10099 afii10196 -102
KPX afii10099 afii10110 -76
KPX afii10099 afii10085 -76
KPX afii10099 afii10089 -25
KPX afii10099 afii10108 -25
KPX afii10099 afii10099 -25
KPX afii10099 afii10194 -25
KPX afii10099 afii10092 -25
KPX afii10099 afii10084 -25
KPX afii10099 afii10101 -25
KPX afii10099 afii10083 -25
KPX afii10099 afii10086 -25
KPX afii10099 afii10080 -25
KPX quoteleft exclam 133
KPX quoteleft question 133
KPX quoteleft quotedblleft 133
KPX quoteright exclam 133
KPX quoteright question 133
KPX quoteright quotedblright 133
KPX quotedblleft quotedblleft 133
KPX quotedblleft quoteleft 133
KPX quotedblright quotedblright 133
KPX quotedblright quoteright 133
KPX afii10106 afii10196 -102
KPX afii10106 afii10110 -76
KPX afii10106 afii10085 -76
KPX afii10106 afii10089 -25
KPX afii10106 afii10108 -25
KPX afii10106 afii10099 -25
KPX afii10106 afii10194 -25
KPX afii10106 afii10092 -25
KPX afii10106 afii10084 -25
KPX afii10106 afii10101 -25
KPX afii10106 afii10083 -25
KPX afii10106 afii10086 -25
KPX afii10106 afii10080 -25
KPX afii10107 afii10196 -102
KPX afii10107 afii10110 -76
KPX afii10107 afii10085 -76
KPX afii10107 afii10089 -25
KPX afii10107 afii10108 -25
KPX afii10107 afii10099 -25
KPX afii10107 afii10194 -25
KPX afii10107 afii10092 -25
KPX afii10107 afii10084 -25
KPX afii10107 afii10101 -25
KPX afii10107 afii10083 -25
KPX afii10107 afii10086 -25
KPX afii10107 afii10080 -25
KPX afii10062 colon -100
KPX afii10062 semicolon -100
KPX afii10062 comma -100
KPX afii10062 period -100
KPX afii10062 afii10101 -33
KPX afii10062 afii10083 -33
KPX afii10062 afii10086 -33
KPX afii10062 afii10080 -33
KPX afii10062 uni046B -133
KPX afii10062 afii10097 -133
KPX afii10062 afii10065 -133
KPX afii10062 afii10053 -33
KPX afii10062 afii10035 -33
KPX afii10062 afii10038 -33
KPX afii10062 afii10032 -33
KPX afii10062 afii10058 -67
KPX afii10062 afii10029 -67
KPX afii10062 afii10021 -67
KPX afii10062 uni046A -100
KPX afii10062 afii10049 -100
KPX afii10062 afii10017 -100
KPX afii10110 afii10101 -25
KPX afii10110 afii10083 -25
KPX afii10110 afii10086 -25
KPX afii10110 afii10080 -25
KPX afii10110 uni046B -76
KPX afii10110 afii10097 -76
KPX afii10110 afii10106 -76
KPX afii10110 afii10077 -76
KPX afii10110 afii10069 -76
KPX afii10110 afii10065 -76
KPX afii10050 colon -100
KPX afii10050 semicolon -100
KPX afii10050 comma -100
KPX afii10050 period -100
KPX afii10050 uni046B -100
KPX afii10050 afii10097 -100
KPX afii10050 afii10196 -100
KPX afii10050 afii10110 -100
KPX afii10050 afii10085 -100
KPX afii10050 afii10087 -100
KPX afii10050 afii10072 -100
KPX afii10050 afii10106 -100
KPX afii10050 afii10077 -100
KPX afii10050 afii10069 -100
KPX afii10050 afii10065 -100
KPX afii10050 afii10058 -33
KPX afii10050 afii10029 -33
KPX afii10050 afii10053 -33
KPX afii10050 afii10035 -33
KPX afii10050 afii10038 -33
KPX afii10050 afii10032 -33
KPX afii10050 uni046A -100
KPX afii10050 afii10049 -100
KPX afii10050 afii10021 -100
KPX afii10050 afii10017 -100
KPX afii10056 afii10056 33
KPX afii10056 afii10055 33
KPX afii10055 afii10056 33
KPX afii10055 afii10055 33
KPX afii10103 afii10104 25
KPX afii10103 afii10103 25
KPX afii10098 uni046B -25
KPX afii10098 afii10097 -25
KPX afii10098 afii10106 -25
KPX afii10098 afii10077 -25
KPX afii10098 afii10069 -25
KPX afii10098 afii10065 -25
KPX guillemotright comma -100
KPX guillemotright period -100
KPX afii10104 afii10104 25
KPX afii10104 afii10103 25
KPX afii10017 afii10196 -133
KPX afii10017 afii10110 -100
KPX afii10017 afii10085 -100
KPX afii10017 afii10108 -100
KPX afii10017 afii10099 -100
KPX afii10017 afii10194 -100
KPX afii10017 afii10092 -100
KPX afii10017 afii10084 -100
KPX afii10017 afii10089 -33
KPX afii10017 afii10101 -33
KPX afii10017 afii10083 -33
KPX afii10017 afii10086 -33
KPX afii10017 afii10080 -33
KPX afii10017 afii10148 -133
KPX afii10017 afii10062 -100
KPX afii10017 afii10037 -100
KPX afii10017 afii10041 -100
KPX afii10017 afii10146 -100
KPX afii10017 afii10060 -100
KPX afii10017 afii10051 -100
KPX afii10017 afii10044 -100
KPX afii10017 afii10036 -100
KPX afii10017 afii10053 -33
KPX afii10017 afii10035 -33
KPX afii10017 afii10038 -33
KPX afii10017 afii10032 -33
KPX afii10020 colon -100
KPX afii10020 semicolon -100
KPX afii10020 comma -100
KPX afii10020 period -100
KPX afii10020 uni046B -100
KPX afii10020 afii10097 -100
KPX afii10020 afii10196 -100
KPX afii10020 afii10110 -100
KPX afii10020 afii10085 -100
KPX afii10020 afii10087 -100
KPX afii10020 afii10072 -100
KPX afii10020 afii10106 -100
KPX afii10020 afii10077 -100
KPX afii10020 afii10069 -100
KPX afii10020 afii10065 -100
KPX afii10020 afii10058 -33
KPX afii10020 afii10029 -33
KPX afii10020 uni046A -100
KPX afii10020 afii10049 -100
KPX afii10020 afii10021 -100
KPX afii10020 afii10017 -100
KPX afii10024 afii10101 -33
KPX afii10024 afii10083 -33
KPX afii10024 afii10086 -33
KPX afii10024 afii10080 -33
KPX afii10024 afii10053 -33
KPX afii10024 afii10035 -33
KPX afii10024 afii10038 -33
KPX afii10024 afii10032 -33
KPX afii10028 afii10101 -33
KPX afii10028 afii10083 -33
KPX afii10028 afii10086 -33
KPX afii10028 afii10080 -33
KPX afii10028 afii10053 -33
KPX afii10028 afii10035 -33
KPX afii10028 afii10038 -33
KPX afii10028 afii10032 -33
KPX afii10032 uni046B -33
KPX afii10032 afii10097 -33
KPX afii10032 afii10196 -33
KPX afii10032 afii10110 -33
KPX afii10032 afii10085 -33
KPX afii10032 afii10087 -33
KPX afii10032 afii10072 -33
KPX afii10032 afii10106 -33
KPX afii10032 afii10077 -33
KPX afii10032 afii10069 -33
KPX afii10032 afii10065 -33
KPX afii10032 uni046A -33
KPX afii10032 afii10049 -33
KPX afii10032 afii10148 -33
KPX afii10032 afii10062 -33
KPX afii10032 afii10037 -33
KPX afii10032 afii10039 -33
KPX afii10032 afii10024 -33
KPX afii10032 afii10021 -33
KPX afii10032 afii10017 -33
KPX afii10034 colon -100
KPX afii10034 semicolon -100
KPX afii10034 comma -100
KPX afii10034 period -100
KPX afii10034 uni046B -100
KPX afii10034 afii10097 -100
KPX afii10034 afii10069 -100
KPX afii10034 afii10065 -100
KPX afii10034 uni046A -100
KPX afii10034 afii10049 -100
KPX afii10034 afii10058 -100
KPX afii10034 afii10029 -100
KPX afii10034 afii10021 -100
KPX afii10034 afii10017 -100
KPX afii10036 colon -100
KPX afii10036 semicolon -100
KPX afii10036 comma -100
KPX afii10036 period -100
KPX afii10036 uni046B -100
KPX afii10036 afii10097 -100
KPX afii10036 afii10196 -100
KPX afii10036 afii10110 -100
KPX afii10036 afii10085 -100
KPX afii10036 afii10087 -100
KPX afii10036 afii10072 -100
KPX afii10036 afii10106 -100
KPX afii10036 afii10077 -100
KPX afii10036 afii10069 -100
KPX afii10036 afii10065 -100
KPX afii10036 afii10058 -33
KPX afii10036 afii10029 -33
KPX afii10036 uni046A -100
KPX afii10036 afii10049 -100
KPX afii10036 afii10021 -100
KPX afii10036 afii10017 -100
KPX afii10037 colon -100
KPX afii10037 semicolon -100
KPX afii10037 comma -100
KPX afii10037 period -100
KPX afii10037 afii10101 -33
KPX afii10037 afii10083 -33
KPX afii10037 afii10086 -33
KPX afii10037 afii10080 -33
KPX afii10037 uni046B -133
KPX afii10037 afii10097 -133
KPX afii10037 afii10065 -133
KPX afii10037 afii10053 -33
KPX afii10037 afii10035 -33
KPX afii10037 afii10038 -33
KPX afii10037 afii10032 -33
KPX afii10037 afii10058 -67
KPX afii10037 afii10029 -67
KPX afii10037 afii10021 -67
KPX afii10037 uni046A -100
KPX afii10037 afii10049 -100
KPX afii10037 afii10017 -100
KPX afii10038 uni046B -33
KPX afii10038 afii10097 -33
KPX afii10038 afii10196 -33
KPX afii10038 afii10110 -33
KPX afii10038 afii10085 -33
KPX afii10038 afii10087 -33
KPX afii10038 afii10072 -33
KPX afii10038 afii10106 -33
KPX afii10038 afii10077 -33
KPX afii10038 afii10069 -33
KPX afii10038 afii10065 -33
KPX afii10038 uni046A -33
KPX afii10038 afii10049 -33
KPX afii10038 afii10148 -33
KPX afii10038 afii10062 -33
KPX afii10038 afii10037 -33
KPX afii10038 afii10039 -33
KPX afii10038 afii10024 -33
KPX afii10038 afii10021 -33
KPX afii10038 afii10017 -33
KPX afii10039 afii10101 -33
KPX afii10039 afii10083 -33
KPX afii10039 afii10086 -33
KPX afii10039 afii10080 -33
KPX afii10039 afii10053 -33
KPX afii10039 afii10035 -33
KPX afii10039 afii10038 -33
KPX afii10039 afii10032 -33
KPX afii10044 afii10196 -133
KPX afii10044 afii10110 -100
KPX afii10044 afii10085 -100
KPX afii10044 afii10108 -100
KPX afii10044 afii10099 -100
KPX afii10044 afii10194 -100
KPX afii10044 afii10092 -100
KPX afii10044 afii10084 -100
KPX afii10044 afii10089 -33
KPX afii10044 afii10101 -33
KPX afii10044 afii10083 -33
KPX afii10044 afii10086 -33
KPX afii10044 afii10080 -33
KPX afii10044 afii10148 -133
KPX afii10044 afii10062 -100
KPX afii10044 afii10037 -100
KPX afii10044 afii10041 -100
KPX afii10044 afii10146 -100
KPX afii10044 afii10060 -100
KPX afii10044 afii10051 -100
KPX afii10044 afii10044 -100
KPX afii10044 afii10036 -100
KPX afii10044 afii10053 -33
KPX afii10044 afii10035 -33
KPX afii10044 afii10038 -33
KPX afii10044 afii10032 -33
KPX afii10044 afii10039 -33
KPX afii10044 afii10024 -33
KPX afii10046 afii10196 -133
KPX afii10046 afii10110 -100
KPX afii10046 afii10085 -100
KPX afii10046 afii10108 -100
KPX afii10046 afii10099 -100
KPX afii10046 afii10194 -100
KPX afii10046 afii10092 -100
KPX afii10046 afii10084 -100
KPX afii10046 afii10089 -33
KPX afii10046 afii10101 -33
KPX afii10046 afii10083 -33
KPX afii10046 afii10086 -33
KPX afii10046 afii10080 -33
KPX afii10046 afii10148 -133
KPX afii10046 afii10062 -100
KPX afii10046 afii10037 -100
KPX afii10046 afii10041 -100
KPX afii10046 afii10146 -100
KPX afii10046 afii10060 -100
KPX afii10046 afii10051 -100
KPX afii10046 afii10044 -100
KPX afii10046 afii10036 -100
KPX afii10046 afii10053 -33
KPX afii10046 afii10035 -33
KPX afii10046 afii10038 -33
KPX afii10046 afii10032 -33
KPX afii10046 afii10039 -33
KPX afii10046 afii10024 -33
KPX afii10047 uni046B -33
KPX afii10047 afii10097 -33
KPX afii10047 afii10196 -33
KPX afii10047 afii10110 -33
KPX afii10047 afii10085 -33
KPX afii10047 afii10087 -33
KPX afii10047 afii10072 -33
KPX afii10047 afii10106 -33
KPX afii10047 afii10077 -33
KPX afii10047 afii10069 -33
KPX afii10047 afii10065 -33
KPX afii10047 uni046A -33
KPX afii10047 afii10049 -33
KPX afii10047 afii10148 -33
KPX afii10047 afii10062 -33
KPX afii10047 afii10037 -33
KPX afii10047 afii10039 -33
KPX afii10047 afii10024 -33
KPX afii10047 afii10021 -33
KPX afii10047 afii10017 -33
KPX afii10048 uni046B -33
KPX afii10048 afii10097 -33
KPX afii10048 afii10196 -33
KPX afii10048 afii10110 -33
KPX afii10048 afii10085 -33
KPX afii10048 afii10087 -33
KPX afii10048 afii10072 -33
KPX afii10048 afii10106 -33
KPX afii10048 afii10077 -33
KPX afii10048 afii10069 -33
KPX afii10048 afii10065 -33
KPX afii10048 uni046A -33
KPX afii10048 afii10049 -33
KPX afii10048 afii10148 -33
KPX afii10048 afii10062 -33
KPX afii10048 afii10037 -33
KPX afii10048 afii10039 -33
KPX afii10048 afii10024 -33
KPX afii10048 afii10021 -33
KPX afii10048 afii10017 -33
KPX afii10065 afii10196 -102
KPX afii10065 afii10110 -76
KPX afii10065 afii10085 -76
KPX afii10065 afii10089 -25
KPX afii10065 afii10108 -25
KPX afii10065 afii10099 -25
KPX afii10065 afii10194 -25
KPX afii10065 afii10092 -25
KPX afii10065 afii10084 -25
KPX afii10065 afii10101 -25
KPX afii10065 afii10083 -25
KPX afii10065 afii10086 -25
KPX afii10065 afii10080 -25
KPX afii10066 uni046B -25
KPX afii10066 afii10097 -25
KPX afii10066 afii10196 -25
KPX afii10066 afii10110 -25
KPX afii10066 afii10085 -25
KPX afii10066 afii10087 -25
KPX afii10066 afii10072 -25
KPX afii10066 afii10106 -25
KPX afii10066 afii10077 -25
KPX afii10066 afii10069 -25
KPX afii10066 afii10065 -25
KPX afii10068 uni046B -25
KPX afii10068 afii10097 -25
KPX afii10068 afii10106 -25
KPX afii10068 afii10077 -25
KPX afii10068 afii10069 -25
KPX afii10068 afii10065 -25
KPX afii10072 afii10101 -25
KPX afii10072 afii10083 -25
KPX afii10072 afii10086 -25
KPX afii10072 afii10080 -25
KPX afii10076 afii10101 -25
KPX afii10076 afii10083 -25
KPX afii10076 afii10086 -25
KPX afii10076 afii10080 -25
KPX afii10080 uni046B -25
KPX afii10080 afii10097 -25
KPX afii10080 afii10196 -25
KPX afii10080 afii10110 -25
KPX afii10080 afii10085 -25
KPX afii10080 afii10087 -25
KPX afii10080 afii10072 -25
KPX afii10080 afii10106 -25
KPX afii10080 afii10077 -25
KPX afii10080 afii10069 -25
KPX afii10080 afii10065 -25
KPX afii10082 uni046B -25
KPX afii10082 afii10097 -25
KPX afii10082 afii10106 -25
KPX afii10082 afii10077 -25
KPX afii10082 afii10069 -25
KPX afii10082 afii10065 -25
KPX afii10084 uni046B -25
KPX afii10084 afii10097 -25
KPX afii10084 afii10106 -25
KPX afii10084 afii10077 -25
KPX afii10084 afii10069 -25
KPX afii10084 afii10065 -25
KPX afii10085 afii10101 -25
KPX afii10085 afii10083 -25
KPX afii10085 afii10086 -25
KPX afii10085 afii10080 -25
KPX afii10085 uni046B -76
KPX afii10085 afii10097 -76
KPX afii10085 afii10106 -76
KPX afii10085 afii10077 -76
KPX afii10085 afii10069 -76
KPX afii10085 afii10065 -76
KPX afii10086 uni046B -25
KPX afii10086 afii10097 -25
KPX afii10086 afii10196 -25
KPX afii10086 afii10110 -25
KPX afii10086 afii10085 -25
KPX afii10086 afii10087 -25
KPX afii10086 afii10072 -25
KPX afii10086 afii10106 -25
KPX afii10086 afii10077 -25
KPX afii10086 afii10069 -25
KPX afii10086 afii10065 -25
KPX afii10087 afii10101 -25
KPX afii10087 afii10083 -25
KPX afii10087 afii10086 -25
KPX afii10087 afii10080 -25
KPX afii10092 afii10196 -102
KPX afii10092 afii10110 -76
KPX afii10092 afii10085 -76
KPX afii10092 afii10089 -25
KPX afii10092 afii10108 -25
KPX afii10092 afii10099 -25
KPX afii10092 afii10194 -25
KPX afii10092 afii10092 -25
KPX afii10092 afii10084 -25
KPX afii10092 afii10101 -25
KPX afii10092 afii10083 -25
KPX afii10092 afii10086 -25
KPX afii10092 afii10080 -25
KPX afii10094 afii10196 -102
KPX afii10094 afii10110 -76
KPX afii10094 afii10085 -76
KPX afii10094 afii10089 -25
KPX afii10094 afii10108 -25
KPX afii10094 afii10099 -25
KPX afii10094 afii10194 -25
KPX afii10094 afii10092 -25
KPX afii10094 afii10084 -25
KPX afii10094 afii10101 -25
KPX afii10094 afii10083 -25
KPX afii10094 afii10086 -25
KPX afii10094 afii10080 -25
KPX afii10095 uni046B -25
KPX afii10095 afii10097 -25
KPX afii10095 afii10196 -25
KPX afii10095 afii10110 -25
KPX afii10095 afii10085 -25
KPX afii10095 afii10087 -25
KPX afii10095 afii10072 -25
KPX afii10095 afii10106 -25
KPX afii10095 afii10077 -25
KPX afii10095 afii10069 -25
KPX afii10095 afii10065 -25
KPX afii10096 uni046B -25
KPX afii10096 afii10097 -25
KPX afii10096 afii10196 -25
KPX afii10096 afii10110 -25
KPX afii10096 afii10085 -25
KPX afii10096 afii10087 -25
KPX afii10096 afii10072 -25
KPX afii10096 afii10106 -25
KPX afii10096 afii10077 -25
KPX afii10096 afii10069 -25
KPX afii10096 afii10065 -25
EndKernPairs
EndKernData
EndFontMetrics
