StartFontMetrics 2.0
Comment Generated by pfaedit
Comment Creation Date: Sat May  7 02:07:14 2005
FontName CMRomanAsian-BoldItalicOsF
FullName Computer Modern Roman Asian Cyrillic Bold Italic Old Style Figures
FamilyName CM Roman Asian
Weight Bold
Notice (Converted by Alexej Kryukov from METAFONT sources. )
Comment 
Comment This font is subject to the GNU General Public License as published by the Free Software Foundation; either version 2 of the License, or (at your option) any later version.
Comment 
Comment This font is distributed in the hope that it will be useful, but WITHOUT ANY WARRANTY; without even the implied warranty of MERCHANTABILITY or FITNESS FOR A PARTICULAR PURPOSE.  See the GNU General Pu
Comment blic License for more details.
ItalicAngle -14
IsFixedPitch false
UnderlinePosition -100
UnderlineThickness 50
Version 001.001
EncodingScheme ParatypeCyrillicAsianEncoding
FontBBox -30 -308 1433 931
CapHeight 687
XHeight 456
Ascender 694
Descender -193
StartCharMetrics 226
C 0 ; WX 355 ; N .notdef ; B 0 0 0 0 ;
C 1 ; WX 1066 ; N uni04A4 ; B 64 0 1176 688 ;
C 17 ; WX 814 ; N uni04A5 ; B 77 -11 864 456 ;
C 32 ; WX 355 ; N space ; B 0 0 0 0 ;
C 33 ; WX 386 ; N exclam ; B 137 0 431 718 ;
C 34 ; WX 591 ; N quotedbl ; B 278 341 608 708 ;
C 35 ; WX 944 ; N numbersign ; B 124 -193 944 695 ;
C 36 ; WX 591 ; N dollar ; B 129 -55 639 752 ;
C 37 ; WX 944 ; N percent ; B 171 -56 946 752 ;
C 38 ; WX 885 ; N ampersand ; B 140 -21 895 717 ;
C 39 ; WX 355 ; N quotesingle ; B 249 341 400 708 ;
C 40 ; WX 473 ; N parenleft ; B 169 -251 567 752 ;
C 41 ; WX 473 ; N parenright ; B 31 -250 429 751 ;
C 42 ; WX 591 ; N asterisk ; B 207 306 648 752 ;
C 43 ; WX 885 ; N plus ; B 152 -103 857 604 ;
C 44 ; WX 355 ; N comma ; B 87 -193 276 148 ;
C 45 ; WX 414 ; N hyphen ; B 91 175 387 271 ;
C 46 ; WX 355 ; N period ; B 120 0 272 148 ;
C 47 ; WX 591 ; N slash ; B 32 -249 684 751 ;
C 48 ; WX 591 ; N zero ; B 112 -22 589 468 ;
C 49 ; WX 591 ; N one ; B 124 0 494 458 ;
C 50 ; WX 591 ; N two ; B 89 -22 588 467 ;
C 51 ; WX 591 ; N three ; B 57 -215 580 467 ;
C 52 ; WX 591 ; N four ; B 53 -194 546 467 ;
C 53 ; WX 591 ; N five ; B 69 -215 579 467 ;
C 54 ; WX 591 ; N six ; B 132 -21 629 668 ;
C 55 ; WX 591 ; N seven ; B 91 -215 657 468 ;
C 56 ; WX 591 ; N eight ; B 108 -22 620 669 ;
C 57 ; WX 591 ; N nine ; B 74 -216 573 468 ;
C 58 ; WX 355 ; N colon ; B 120 0 346 446 ;
C 59 ; WX 355 ; N semicolon ; B 87 -193 346 446 ;
C 60 ; WX 885 ; N less ; B 181 -74 905 575 ;
C 61 ; WX 885 ; N equal ; B 124 119 885 382 ;
C 62 ; WX 885 ; N greater ; B 105 -74 828 574 ;
C 63 ; WX 591 ; N question ; B 213 0 615 717 ;
C 64 ; WX 885 ; N at ; B 163 -10 895 706 ;
C 65 ; WX 865 ; N A ; B 72 0 805 706 ;
C 66 ; WX 816 ; N B ; B 64 0 830 688 ;
C 67 ; WX 826 ; N C ; B 162 -21 909 710 ;
C 68 ; WX 875 ; N D ; B 64 0 884 688 ;
C 69 ; WX 756 ; N E ; B 64 0 803 682 ;
C 70 ; WX 727 ; N F ; B 64 0 789 682 ;
C 71 ; WX 895 ; N G ; B 162 -21 909 710 ;
C 72 ; WX 896 ; N H ; B 64 1 1003 688 ;
C 73 ; WX 472 ; N I ; B 59 1 585 687 ;
C 74 ; WX 610 ; N J ; B 71 -21 690 687 ;
C 75 ; WX 895 ; N K ; B 64 0 972 688 ;
C 76 ; WX 698 ; N L ; B 64 0 687 687 ;
C 77 ; WX 1073 ; N M ; B 64 1 1180 688 ;
C 78 ; WX 896 ; N N ; B 64 1 1004 688 ; L o afii61352 ;
C 79 ; WX 855 ; N O ; B 159 -22 866 710 ;
C 80 ; WX 787 ; N P ; B 64 1 827 688 ;
C 81 ; WX 855 ; N Q ; B 159 -193 865 710 ;
C 82 ; WX 859 ; N R ; B 64 -22 850 688 ;
C 83 ; WX 650 ; N S ; B 88 -22 705 709 ;
C 84 ; WX 796 ; N T ; B 181 0 872 677 ;
C 85 ; WX 881 ; N U ; B 217 -21 988 688 ;
C 86 ; WX 865 ; N V ; B 218 -12 978 688 ;
C 87 ; WX 1160 ; N W ; B 217 -12 1274 688 ;
C 88 ; WX 865 ; N X ; B 66 0 926 688 ;
C 89 ; WX 865 ; N Y ; B 212 0 984 688 ;
C 90 ; WX 709 ; N Z ; B 94 1 787 688 ;
C 91 ; WX 356 ; N bracketleft ; B 68 -250 485 752 ;
C 92 ; WX 591 ; N backslash ; B 273 -249 443 751 ;
C 93 ; WX 356 ; N bracketright ; B -4 -250 413 752 ;
C 94 ; WX 709 ; N asciicircum ; B 263 455 692 633 ;
C 95 ; WX 885 ; N underscore ; B 50 -308 697 -245 ;
C 96 ; WX 591 ; N grave ; B 294 515 486 677 ;
C 97 ; WX 591 ; N a ; B 104 -12 624 457 ;
C 98 ; WX 532 ; N b ; B 111 -10 539 695 ;
C 99 ; WX 532 ; N c ; B 106 -11 537 457 ;
C 100 ; WX 591 ; N d ; B 104 -11 635 695 ;
C 101 ; WX 532 ; N e ; B 109 -11 537 457 ;
C 102 ; WX 400 ; N f ; B -19 -205 539 707 ;
C 103 ; WX 532 ; N g ; B 58 -204 563 456 ;
C 104 ; WX 591 ; N h ; B 74 -10 625 695 ;
C 105 ; WX 355 ; N i ; B 77 -11 389 695 ;
C 106 ; WX 355 ; N j ; B -30 -204 412 695 ;
C 107 ; WX 532 ; N k ; B 75 -11 566 695 ;
C 108 ; WX 297 ; N l ; B 91 -10 341 695 ;
C 109 ; WX 944 ; N m ; B 78 -11 978 457 ;
C 110 ; WX 650 ; N n ; B 78 -11 684 457 ;
C 111 ; WX 591 ; N o ; B 105 -11 597 456 ;
C 112 ; WX 591 ; N p ; B 25 -193 598 457 ;
C 113 ; WX 532 ; N q ; B 104 -194 575 457 ;
C 114 ; WX 502 ; N r ; B 77 -10 563 458 ;
C 115 ; WX 487 ; N s ; B 84 -11 487 456 ;
C 116 ; WX 385 ; N t ; B 91 -11 420 648 ;
C 117 ; WX 620 ; N u ; B 76 -11 654 457 ;
C 118 ; WX 532 ; N v ; B 77 -11 556 458 ;
C 119 ; WX 768 ; N w ; B 77 -11 791 458 ;
C 120 ; WX 560 ; N x ; B 67 -11 604 457 ;
C 121 ; WX 562 ; N y ; B 77 -205 596 457 ;
C 122 ; WX 490 ; N z ; B 63 -11 540 457 ;
C 123 ; WX 591 ; N braceleft ; B 162 -251 674 753 ;
C 124 ; WX 355 ; N bar ; B 92 -250 389 751 ;
C 125 ; WX 591 ; N braceright ; B 42 -250 554 751 ;
C 126 ; WX 709 ; N asciitilde ; B 267 576 759 696 ;
C 128 ; WX 1357 ; N uni0496 ; B 79 -194 1433 688 ;
C 129 ; WX 698 ; N uni0492 ; B 64 0 762 688 ;
C 130 ; WX 865 ; N uni04EE ; B 220 -21 979 855 ;
C 131 ; WX 488 ; N uni0493 ; B 97 -10 503 457 ;
C 132 ; WX 444 ; N quotedblbase ; B 5 -193 450 149 ;
C 133 ; WX 1313 ; N ellipsis ; B 120 0 1230 148 ;
C 134 ; WX 895 ; N uni04B6 ; B 224 -193 1002 688 ;
C 135 ; WX 865 ; N uni04AE ; B 212 0 984 688 ;
C 136 ; WX 865 ; N uni04B2 ; B 66 -194 927 688 ;
C 137 ; WX 723 ; N uni04AF ; B 77 -194 788 457 ;
C 138 ; WX 1057 ; N uni04A0 ; B 185 1 1134 688 ;
C 139 ; WX 895 ; N uni04E2 ; B 64 0 1002 855 ;
C 140 ; WX 895 ; N uni04A2 ; B 64 -193 1002 688 ;
C 141 ; WX 933 ; N uni049A ; B 64 -194 1010 688 ;
C 142 ; WX 895 ; N uni04BA ; B 64 0 843 688 ;
C 143 ; WX 895 ; N uni04B8 ; B 224 0 1002 688 ;
C 144 ; WX 1209 ; N uni0497 ; B 84 -204 1243 457 ;
C 145 ; WX 355 ; N quoteleft ; B 201 353 393 695 ;
C 146 ; WX 355 ; N quoteright ; B 224 354 414 695 ;
C 147 ; WX 444 ; N quotedblleft ; B 119 353 564 695 ;
C 148 ; WX 444 ; N quotedblright ; B 142 354 585 695 ;
C 149 ; WX 591 ; N bullet ; B 145 44 571 459 ;
C 150 ; WX 591 ; N endash ; B 99 256 628 294 ;
C 151 ; WX 976 ; N emdash ; B 145 256 968 294 ;
C 152 ; WX 625 ; N uni04B3 ; B 67 -204 663 457 ;
C 153 ; WX 626 ; N uni04B7 ; B 77 -204 672 457 ;
C 154 ; WX 755 ; N uni04A1 ; B 128 -11 789 456 ;
C 155 ; WX 650 ; N uni04E3 ; B 76 -11 684 613 ;
C 156 ; WX 656 ; N uni04A3 ; B 77 -204 702 456 ;
C 157 ; WX 597 ; N uni049B ; B 77 -204 643 457 ;
C 158 ; WX 591 ; N uni04BB ; B 74 -10 625 695 ;
C 159 ; WX 620 ; N uni04B9 ; B 77 -11 653 457 ;
C 160 ; WX 355 ; N nonbreakingspace ; B 0 0 0 0 ;
C 161 ; WX 865 ; N afii10062 ; B 220 -21 979 931 ;
C 162 ; WX 591 ; N afii10110 ; B 76 -205 625 689 ;
C 163 ; WX 610 ; N afii10057 ; B 71 -21 690 687 ;
C 164 ; WX 855 ; N uni04E8 ; B 159 -22 866 710 ;
C 165 ; WX 709 ; N uni0498 ; B 124 -216 739 711 ;
C 166 ; WX 865 ; N uni04B0 ; B 212 0 984 688 ;
C 167 ; WX 549 ; N section ; B 96 -205 578 707 ;
C 168 ; WX 756 ; N afii10023 ; B 64 0 805 896 ;
C 169 ; WX 1239 ; N copyright ; B 133 -272 1231 774 ;
C 170 ; WX 796 ; N uni04D8 ; B 124 -22 820 710 ;
C 171 ; WX 650 ; N guillemotleft ; B 200 0 628 446 ;
C 172 ; WX 768 ; N logicalnot ; B 175 61 763 373 ;
C 173 ; WX 591 ; N uni04EF ; B 76 -205 635 613 ;
C 174 ; WX 1239 ; N registered ; B 133 -272 1231 774 ;
C 175 ; WX 983 ; N uni049C ; B 64 0 1060 688 ;
C 176 ; WX 414 ; N degree ; B 229 452 471 688 ;
C 177 ; WX 723 ; N uni04B1 ; B 78 -194 788 457 ;
C 178 ; WX 472 ; N afii10055 ; B 59 1 585 687 ;
C 179 ; WX 355 ; N afii10103 ; B 77 -11 389 695 ;
C 180 ; WX 532 ; N uni0499 ; B 46 -216 530 456 ;
C 181 ; WX 591 ; N uni04E9 ; B 105 -11 597 456 ;
C 182 ; WX 709 ; N paragraph ; B 198 -194 815 696 ;
C 183 ; WX 307 ; N periodcentered ; B 137 163 288 311 ;
C 184 ; WX 511 ; N afii10071 ; B 105 -11 577 687 ;
C 185 ; WX 1043 ; N afii61352 ; B 59 -11 1067 699 ;
C 186 ; WX 511 ; N afii10846 ; B 84 -11 540 456 ;
C 187 ; WX 650 ; N guillemotright ; B 133 0 561 446 ;
C 188 ; WX 355 ; N afii10105 ; B -30 -204 412 695 ;
C 189 ; WX 826 ; N uni04AA ; B 162 -216 909 710 ;
C 190 ; WX 511 ; N uni04AB ; B 84 -215 516 456 ;
C 191 ; WX 650 ; N uni049D ; B 77 -11 684 457 ;
C 192 ; WX 865 ; N afii10017 ; B 72 0 805 706 ;
C 193 ; WX 816 ; N afii10018 ; B 64 0 806 688 ;
C 194 ; WX 816 ; N afii10019 ; B 64 0 830 688 ;
C 195 ; WX 698 ; N afii10020 ; B 64 1 762 688 ;
C 196 ; WX 895 ; N afii10021 ; B -23 -194 1003 688 ;
C 197 ; WX 756 ; N afii10022 ; B 64 0 805 687 ;
C 198 ; WX 1318 ; N afii10024 ; B 80 0 1395 688 ;
C 199 ; WX 709 ; N afii10025 ; B 123 -21 739 709 ;
C 200 ; WX 895 ; N afii10026 ; B 64 0 1002 687 ;
C 201 ; WX 895 ; N afii10027 ; B 64 0 1002 931 ;
C 202 ; WX 895 ; N afii10028 ; B 64 0 972 688 ;
C 203 ; WX 895 ; N afii10029 ; B 83 -21 1003 688 ;
C 204 ; WX 1073 ; N afii10030 ; B 64 1 1180 688 ;
C 205 ; WX 895 ; N afii10031 ; B 64 0 1002 688 ;
C 206 ; WX 855 ; N afii10032 ; B 159 -22 866 710 ;
C 207 ; WX 895 ; N afii10033 ; B 64 1 1002 688 ;
C 208 ; WX 787 ; N afii10034 ; B 64 1 827 688 ;
C 209 ; WX 826 ; N afii10035 ; B 162 -21 909 710 ;
C 210 ; WX 796 ; N afii10036 ; B 181 0 875 688 ;
C 211 ; WX 865 ; N afii10037 ; B 220 -21 979 688 ;
C 212 ; WX 944 ; N afii10038 ; B 171 1 953 688 ;
C 213 ; WX 865 ; N afii10039 ; B 66 0 926 688 ;
C 214 ; WX 895 ; N afii10040 ; B 65 -194 1002 688 ;
C 215 ; WX 895 ; N afii10041 ; B 224 0 1002 688 ;
C 216 ; WX 1293 ; N afii10042 ; B 65 1 1401 688 ;
C 217 ; WX 1293 ; N afii10043 ; B 64 -194 1401 688 ;
C 218 ; WX 988 ; N afii10044 ; B 185 0 955 688 ;
C 219 ; WX 1101 ; N afii10045 ; B 64 0 1202 688 ;
C 220 ; WX 816 ; N afii10046 ; B 64 0 783 688 ;
C 221 ; WX 826 ; N afii10047 ; B 134 -22 835 710 ;
C 222 ; WX 1237 ; N afii10048 ; B 65 -22 1248 709 ;
C 223 ; WX 895 ; N afii10049 ; B 80 0 1002 688 ;
C 224 ; WX 570 ; N afii10065 ; B 83 -12 603 457 ;
C 225 ; WX 550 ; N afii10066 ; B 84 -10 652 696 ;
C 226 ; WX 570 ; N afii10067 ; B 89 -10 572 456 ;
C 227 ; WX 488 ; N afii10068 ; B 98 -10 501 456 ;
C 228 ; WX 550 ; N afii10069 ; B 99 -10 601 707 ;
C 229 ; WX 511 ; N afii10070 ; B 88 -11 516 457 ;
C 230 ; WX 1209 ; N afii10072 ; B 84 -11 1214 457 ;
C 231 ; WX 532 ; N afii10073 ; B 72 -10 530 456 ;
C 232 ; WX 650 ; N afii10074 ; B 76 -11 684 457 ;
C 233 ; WX 650 ; N afii10075 ; B 76 -11 684 690 ;
C 234 ; WX 591 ; N afii10076 ; B 77 -11 625 457 ;
C 235 ; WX 620 ; N afii10077 ; B 67 -11 654 456 ;
C 236 ; WX 856 ; N afii10078 ; B 67 -11 890 446 ;
C 237 ; WX 650 ; N afii10079 ; B 77 -11 684 456 ;
C 238 ; WX 550 ; N afii10080 ; B 84 -11 576 457 ;
C 239 ; WX 650 ; N afii10081 ; B 78 -11 684 457 ;
C 240 ; WX 585 ; N afii10082 ; B 25 -194 612 457 ;
C 241 ; WX 511 ; N afii10083 ; B 85 -11 516 457 ;
C 242 ; WX 944 ; N afii10084 ; B 78 -11 978 457 ;
C 243 ; WX 591 ; N afii10085 ; B 76 -205 625 457 ;
C 244 ; WX 785 ; N afii10086 ; B 84 -205 812 707 ;
C 245 ; WX 649 ; N afii10087 ; B 82 -11 678 457 ;
C 246 ; WX 656 ; N afii10088 ; B 77 -204 702 456 ;
C 247 ; WX 620 ; N afii10089 ; B 77 -11 654 457 ;
C 248 ; WX 944 ; N afii10090 ; B 77 -11 977 457 ;
C 249 ; WX 950 ; N afii10091 ; B 77 -204 996 457 ;
C 250 ; WX 562 ; N afii10092 ; B 86 -11 571 458 ;
C 251 ; WX 768 ; N afii10093 ; B 77 -11 803 456 ;
C 252 ; WX 591 ; N afii10094 ; B 77 -10 601 457 ;
C 253 ; WX 511 ; N afii10095 ; B 69 -11 537 457 ;
C 254 ; WX 835 ; N afii10096 ; B 77 -11 861 456 ;
C 255 ; WX 620 ; N afii10097 ; B 68 -11 654 446 ;
EndCharMetrics
StartKernData
StartKernPairs 873
KPX uni04A4 colon -88
KPX uni04A4 semicolon -88
KPX uni04A4 comma -88
KPX uni04A4 period -88
KPX uni04A4 afii10078 -88
KPX uni04A4 afii10077 -88
KPX uni04A4 uni04A1 -88
KPX uni04A4 afii10092 -88
KPX uni04A4 uni04B1 -88
KPX uni04A4 uni04AF -88
KPX uni04A4 afii10110 -88
KPX uni04A4 afii10085 -88
KPX uni04A4 afii10093 -88
KPX uni04A4 afii10094 -88
KPX uni04A4 afii10091 -88
KPX uni04A4 afii10090 -88
KPX uni04A4 afii10088 -88
KPX uni04A4 afii10075 -88
KPX uni04A4 afii10074 -88
KPX uni04A4 afii10086 -88
KPX uni04A4 uni04AB -88
KPX uni04A4 afii10083 -88
KPX uni04A4 afii10071 -88
KPX uni04A4 afii10070 -88
KPX uni04A4 uni04E9 -88
KPX uni04A4 afii10080 -88
KPX uni04A4 afii10065 -88
KPX uni04A4 afii10029 -29
KPX uni04A4 afii10049 -88
KPX uni04A4 afii10021 -88
KPX uni04A4 afii10017 -88
KPX A q -59
KPX A g -59
KPX A c -59
KPX A d -59
KPX A o -59
KPX A a -59
KPX A e -59
KPX A W -118
KPX A V -118
KPX A Y -88
KPX A T -88
KPX A U -29
KPX A O -29
KPX A Q -29
KPX A G -29
KPX A C -29
KPX A w -29
KPX A v -29
KPX A k -29
KPX A b -29
KPX A h -29
KPX A i -29
KPX A t -29
KPX A m -29
KPX A u -29
KPX A r -29
KPX A l -29
KPX A n -29
KPX A y -29
KPX D Y -29
KPX D V -29
KPX D A -29
KPX D W -29
KPX D X -29
KPX F Q -29
KPX F G -29
KPX F C -29
KPX F O -29
KPX F A -118
KPX F a -88
KPX F v -88
KPX F n -88
KPX F r -88
KPX F u -88
KPX F e -88
KPX F o -88
KPX K Q -29
KPX K G -29
KPX K C -29
KPX K O -29
KPX K w -29
KPX K v -29
KPX L q -59
KPX L g -59
KPX L c -59
KPX L d -59
KPX L o -59
KPX L a -59
KPX L e -59
KPX L W -118
KPX L V -118
KPX L Y -88
KPX L T -88
KPX O Y -29
KPX O V -29
KPX O A -29
KPX O W -29
KPX O X -29
KPX P A -88
KPX R q -59
KPX R g -59
KPX R c -59
KPX R d -59
KPX R o -59
KPX R a -59
KPX R e -59
KPX R W -118
KPX R V -118
KPX R Y -88
KPX R T -88
KPX R U -29
KPX R O -29
KPX R Q -29
KPX R G -29
KPX R C -29
KPX R w -29
KPX R v -29
KPX R k -29
KPX R b -29
KPX R h -29
KPX R i -29
KPX R t -29
KPX R m -29
KPX R u -29
KPX R r -29
KPX R l -29
KPX R n -29
KPX T A -88
KPX T u -88
KPX T a -88
KPX T r -88
KPX T o -88
KPX T e -88
KPX T y -88
KPX V Q -29
KPX V G -29
KPX V C -29
KPX V O -29
KPX V A -118
KPX V a -88
KPX V v -88
KPX V n -88
KPX V r -88
KPX V u -88
KPX V e -88
KPX V o -88
KPX W Q -29
KPX W G -29
KPX W C -29
KPX W O -29
KPX W A -118
KPX W a -88
KPX W v -88
KPX W n -88
KPX W r -88
KPX W u -88
KPX W e -88
KPX W o -88
KPX X Q -29
KPX X G -29
KPX X C -29
KPX X O -29
KPX Y A -88
KPX Y u -88
KPX Y a -88
KPX Y r -88
KPX Y o -88
KPX Y e -88
KPX b q -59
KPX b g -59
KPX b c -59
KPX b d -59
KPX b o -59
KPX b a -59
KPX b e -59
KPX c q -59
KPX c g -59
KPX c c -59
KPX c d -59
KPX c o -59
KPX c a -59
KPX c e -59
KPX d l 59
KPX e q -59
KPX e g -59
KPX e c -59
KPX e d -59
KPX e o -59
KPX e a -59
KPX e e -59
KPX f bracketright 107
KPX f parenright 107
KPX f exclam 107
KPX f question 107
KPX f quotedblright 107
KPX f quotedblleft 107
KPX f quoteleft 107
KPX f quoteright 107
KPX l l 59
KPX n quoteright -118
KPX o q -59
KPX o g -59
KPX o c -59
KPX o d -59
KPX o o -59
KPX o a -59
KPX o e -59
KPX p q -59
KPX p g -59
KPX p c -59
KPX p d -59
KPX p o -59
KPX p a -59
KPX p e -59
KPX r q -59
KPX r g -59
KPX r c -59
KPX r d -59
KPX r o -59
KPX r a -59
KPX r e -59
KPX w l 59
KPX uni0496 uni04B9 -29
KPX uni0496 uni04B7 -29
KPX uni0496 afii10089 -29
KPX uni0496 uni04AA -29
KPX uni0496 afii10035 -29
KPX uni0496 uni04E8 -29
KPX uni0496 afii10038 -29
KPX uni0496 afii10032 -29
KPX uni0492 colon -88
KPX uni0492 semicolon -88
KPX uni0492 comma -88
KPX uni0492 period -88
KPX uni0492 afii10078 -88
KPX uni0492 afii10077 -88
KPX uni0492 uni04A1 -88
KPX uni0492 afii10092 -88
KPX uni0492 uni04B1 -88
KPX uni0492 uni04AF -88
KPX uni0492 afii10110 -88
KPX uni0492 afii10085 -88
KPX uni0492 afii10093 -88
KPX uni0492 afii10094 -88
KPX uni0492 afii10091 -88
KPX uni0492 afii10090 -88
KPX uni0492 afii10088 -88
KPX uni0492 afii10075 -88
KPX uni0492 afii10074 -88
KPX uni0492 afii10086 -88
KPX uni0492 uni04AB -88
KPX uni0492 afii10083 -88
KPX uni0492 afii10071 -88
KPX uni0492 afii10070 -88
KPX uni0492 uni04E9 -88
KPX uni0492 afii10080 -88
KPX uni0492 afii10065 -88
KPX uni0492 afii10029 -29
KPX uni0492 afii10049 -88
KPX uni0492 afii10021 -88
KPX uni0492 afii10017 -88
KPX quotedblbase Q -29
KPX quotedblbase G -29
KPX quotedblbase C -29
KPX quotedblbase O -29
KPX quotedblbase Y -88
KPX quotedblbase W -118
KPX quotedblbase V -118
KPX quotedblbase T -88
KPX quotedblbase w -88
KPX quotedblbase v -88
KPX quotedblbase uni04B1 -88
KPX quotedblbase uni04AF -88
KPX quotedblbase uni04AA -29
KPX quotedblbase afii10035 -29
KPX quotedblbase uni04E8 -29
KPX quotedblbase afii10038 -29
KPX quotedblbase afii10032 -29
KPX quotedblbase afii10062 -88
KPX quotedblbase afii10037 -88
KPX quotedblbase uni04B0 -88
KPX quotedblbase uni04AE -88
KPX quotedblbase afii10021 88
KPX quotedblbase uni04B9 -88
KPX quotedblbase uni04B8 -118
KPX quotedblbase quotedblbase 118
KPX quotedblbase comma 118
KPX uni04AE colon -88
KPX uni04AE semicolon -88
KPX uni04AE comma -88
KPX uni04AE period -88
KPX uni04AE afii10078 -118
KPX uni04AE afii10077 -118
KPX uni04AE uni04A1 -118
KPX uni04AE afii10092 -118
KPX uni04AE uni04B1 -118
KPX uni04AE uni04AF -118
KPX uni04AE afii10110 -118
KPX uni04AE afii10085 -118
KPX uni04AE afii10093 -118
KPX uni04AE afii10094 -118
KPX uni04AE afii10091 -118
KPX uni04AE afii10090 -118
KPX uni04AE afii10088 -118
KPX uni04AE afii10075 -118
KPX uni04AE afii10074 -118
KPX uni04AE afii10071 -88
KPX uni04AE afii10070 -88
KPX uni04AE uni04E9 -88
KPX uni04AE afii10080 -88
KPX uni04AE afii10065 -88
KPX uni04AE afii10029 -59
KPX uni04AE afii10049 -88
KPX uni04AE afii10021 -88
KPX uni04AE afii10017 -88
KPX uni04B2 uni04B9 -29
KPX uni04B2 uni04B7 -29
KPX uni04B2 afii10089 -29
KPX uni04B2 uni04AA -29
KPX uni04B2 afii10035 -29
KPX uni04B2 uni04E8 -29
KPX uni04B2 afii10038 -29
KPX uni04B2 afii10032 -29
KPX uni04AF afii10078 -88
KPX uni04AF afii10077 -88
KPX uni04A0 uni04B9 -29
KPX uni04A0 uni04B7 -29
KPX uni04A0 afii10089 -29
KPX uni04A0 uni04AA -29
KPX uni04A0 afii10035 -29
KPX uni04A0 uni04E8 -29
KPX uni04A0 afii10038 -29
KPX uni04A0 afii10032 -29
KPX uni049A uni04B9 -29
KPX uni049A uni04B7 -29
KPX uni049A afii10089 -29
KPX uni049A uni04AA -29
KPX uni049A afii10035 -29
KPX uni049A uni04E8 -29
KPX uni049A afii10038 -29
KPX uni049A afii10032 -29
KPX uni04BA afii10110 -29
KPX uni04BA afii10085 -29
KPX uni04BA afii10093 -29
KPX uni04BA afii10094 -29
KPX uni04BA afii10091 -29
KPX uni04BA afii10090 -29
KPX uni04BA afii10088 -29
KPX uni04BA afii10075 -29
KPX uni04BA afii10074 -29
KPX uni04BA afii10103 -29
KPX uni04BA afii10096 -29
KPX uni04BA afii10084 -29
KPX uni04BA afii10081 -29
KPX uni04BA uni04A5 -29
KPX uni04BA uni04A3 -29
KPX uni04BA afii10079 -29
KPX uni04BA uni049D -29
KPX uni04BA uni049B -29
KPX uni04BA afii10076 -29
KPX uni04BA uni04B1 -29
KPX uni04BA uni04AF -29
KPX uni04BA uni04A1 -29
KPX uni04BA afii10092 -29
KPX uni04BA afii10062 -88
KPX uni04BA afii10037 -88
KPX uni04BA uni04B0 -88
KPX uni04BA uni04AE -88
KPX uni04BA uni04B8 -88
KPX uni04BA uni04B6 -88
KPX uni04BA afii10041 -88
KPX uni04BA uni04A0 -88
KPX uni04BA afii10044 -88
KPX uni04BA afii10036 -88
KPX uni04BA uni04AA -29
KPX uni04BA afii10035 -29
KPX uni04BA uni04E8 -29
KPX uni04BA afii10038 -29
KPX uni04BA afii10032 -29
KPX uni04BA uni04B2 -29
KPX uni04BA afii10039 -29
KPX uni04BA uni0496 -29
KPX uni04BA afii10024 -29
KPX quoteleft exclam 118
KPX quoteleft question 118
KPX quoteleft quotedblleft 118
KPX quoteright exclam 118
KPX quoteright question 118
KPX quoteright quotedblright 118
KPX quotedblleft quotedblleft 118
KPX quotedblleft quoteleft 118
KPX quotedblright quotedblright 118
KPX quotedblright quoteright 118
KPX afii10062 colon -88
KPX afii10062 semicolon -88
KPX afii10062 comma -88
KPX afii10062 period -88
KPX afii10062 afii10078 -118
KPX afii10062 afii10077 -118
KPX afii10062 uni04A1 -118
KPX afii10062 afii10092 -118
KPX afii10062 uni04B1 -118
KPX afii10062 uni04AF -118
KPX afii10062 afii10110 -118
KPX afii10062 afii10085 -118
KPX afii10062 afii10093 -118
KPX afii10062 afii10094 -118
KPX afii10062 afii10091 -118
KPX afii10062 afii10090 -118
KPX afii10062 afii10088 -118
KPX afii10062 afii10075 -118
KPX afii10062 afii10074 -118
KPX afii10062 uni04AB -88
KPX afii10062 afii10083 -88
KPX afii10062 afii10071 -88
KPX afii10062 afii10070 -88
KPX afii10062 uni04E9 -88
KPX afii10062 afii10080 -88
KPX afii10062 afii10065 -88
KPX afii10062 uni04AA -29
KPX afii10062 afii10035 -29
KPX afii10062 uni04E8 -29
KPX afii10062 afii10038 -29
KPX afii10062 afii10032 -29
KPX afii10062 afii10029 -59
KPX afii10062 afii10021 -59
KPX afii10062 afii10049 -88
KPX afii10062 afii10017 -88
KPX uni04E8 afii10049 -29
KPX uni04E8 afii10062 -29
KPX uni04E8 afii10037 -29
KPX uni04E8 uni04B0 -29
KPX uni04E8 uni04AE -29
KPX uni04E8 uni04B2 -29
KPX uni04E8 afii10039 -29
KPX uni04E8 uni0496 -29
KPX uni04E8 afii10024 -29
KPX uni04E8 afii10021 -29
KPX uni04E8 afii10017 -29
KPX uni04B0 colon -88
KPX uni04B0 semicolon -88
KPX uni04B0 comma -88
KPX uni04B0 period -88
KPX uni04B0 afii10078 -118
KPX uni04B0 afii10077 -118
KPX uni04B0 uni04A1 -118
KPX uni04B0 afii10092 -118
KPX uni04B0 uni04B1 -118
KPX uni04B0 uni04AF -118
KPX uni04B0 afii10110 -118
KPX uni04B0 afii10085 -118
KPX uni04B0 afii10093 -118
KPX uni04B0 afii10094 -118
KPX uni04B0 afii10091 -118
KPX uni04B0 afii10090 -118
KPX uni04B0 afii10088 -118
KPX uni04B0 afii10075 -118
KPX uni04B0 afii10074 -118
KPX uni04B0 afii10071 -88
KPX uni04B0 afii10070 -88
KPX uni04B0 uni04E9 -88
KPX uni04B0 afii10080 -88
KPX uni04B0 afii10065 -88
KPX uni04B0 afii10029 -59
KPX uni04B0 afii10049 -88
KPX uni04B0 afii10021 -88
KPX uni04B0 afii10017 -88
KPX uni04D8 afii10049 -29
KPX uni04D8 afii10062 -29
KPX uni04D8 afii10037 -29
KPX uni04D8 uni04B0 -29
KPX uni04D8 uni04AE -29
KPX uni04D8 uni04B2 -29
KPX uni04D8 afii10039 -29
KPX uni04D8 uni0496 -29
KPX uni04D8 afii10024 -29
KPX uni04D8 afii10021 -29
KPX uni04D8 afii10017 -29
KPX uni049C uni04B9 -29
KPX uni049C uni04B7 -29
KPX uni049C afii10089 -29
KPX uni049C uni04AA -29
KPX uni049C afii10035 -29
KPX uni049C uni04E8 -29
KPX uni049C afii10038 -29
KPX uni049C afii10032 -29
KPX uni04B1 afii10078 -88
KPX uni04B1 afii10077 -88
KPX afii10055 afii10055 29
KPX uni04E9 afii10078 -29
KPX uni04E9 afii10077 -29
KPX uni04E9 afii10065 -59
KPX uni04E9 afii10086 -59
KPX afii10071 afii10078 -29
KPX afii10071 afii10077 -29
KPX afii10071 afii10065 -59
KPX afii10071 afii10086 -59
KPX afii10846 afii10078 -29
KPX afii10846 afii10077 -29
KPX afii10846 afii10065 -59
KPX afii10846 afii10086 -59
KPX guillemotright comma -88
KPX guillemotright period -88
KPX afii10017 afii10110 -29
KPX afii10017 afii10085 -29
KPX afii10017 afii10093 -29
KPX afii10017 afii10094 -29
KPX afii10017 afii10091 -29
KPX afii10017 afii10090 -29
KPX afii10017 afii10088 -29
KPX afii10017 afii10075 -29
KPX afii10017 afii10074 -29
KPX afii10017 afii10103 -29
KPX afii10017 afii10096 -29
KPX afii10017 afii10084 -29
KPX afii10017 afii10081 -29
KPX afii10017 uni04A5 -29
KPX afii10017 uni04A3 -29
KPX afii10017 afii10079 -29
KPX afii10017 uni049D -29
KPX afii10017 uni049B -29
KPX afii10017 afii10076 -29
KPX afii10017 uni04B1 -29
KPX afii10017 uni04AF -29
KPX afii10017 uni04A1 -29
KPX afii10017 afii10092 -29
KPX afii10017 afii10062 -88
KPX afii10017 afii10037 -88
KPX afii10017 uni04B0 -88
KPX afii10017 uni04AE -88
KPX afii10017 uni04B8 -88
KPX afii10017 uni04B6 -88
KPX afii10017 afii10041 -88
KPX afii10017 uni04A0 -88
KPX afii10017 afii10044 -88
KPX afii10017 afii10036 -88
KPX afii10017 uni04AA -29
KPX afii10017 afii10035 -29
KPX afii10017 uni04E8 -29
KPX afii10017 afii10038 -29
KPX afii10017 afii10032 -29
KPX afii10020 colon -88
KPX afii10020 semicolon -88
KPX afii10020 comma -88
KPX afii10020 period -88
KPX afii10020 afii10078 -88
KPX afii10020 afii10077 -88
KPX afii10020 uni04A1 -88
KPX afii10020 afii10092 -88
KPX afii10020 uni04B1 -88
KPX afii10020 uni04AF -88
KPX afii10020 afii10110 -88
KPX afii10020 afii10085 -88
KPX afii10020 afii10093 -88
KPX afii10020 afii10094 -88
KPX afii10020 afii10091 -88
KPX afii10020 afii10090 -88
KPX afii10020 afii10088 -88
KPX afii10020 afii10075 -88
KPX afii10020 afii10074 -88
KPX afii10020 afii10086 -88
KPX afii10020 uni04AB -88
KPX afii10020 afii10083 -88
KPX afii10020 afii10071 -88
KPX afii10020 afii10070 -88
KPX afii10020 uni04E9 -88
KPX afii10020 afii10080 -88
KPX afii10020 afii10065 -88
KPX afii10020 afii10029 -29
KPX afii10020 afii10049 -88
KPX afii10020 afii10021 -88
KPX afii10020 afii10017 -88
KPX afii10024 uni04B9 -29
KPX afii10024 uni04B7 -29
KPX afii10024 afii10089 -29
KPX afii10024 uni04AA -29
KPX afii10024 afii10035 -29
KPX afii10024 uni04E8 -29
KPX afii10024 afii10038 -29
KPX afii10024 afii10032 -29
KPX afii10028 uni04B9 -29
KPX afii10028 uni04B7 -29
KPX afii10028 afii10089 -29
KPX afii10028 uni04AA -29
KPX afii10028 afii10035 -29
KPX afii10028 uni04E8 -29
KPX afii10028 afii10038 -29
KPX afii10028 afii10032 -29
KPX afii10032 afii10049 -29
KPX afii10032 afii10062 -29
KPX afii10032 afii10037 -29
KPX afii10032 uni04B0 -29
KPX afii10032 uni04AE -29
KPX afii10032 uni04B2 -29
KPX afii10032 afii10039 -29
KPX afii10032 uni0496 -29
KPX afii10032 afii10024 -29
KPX afii10032 afii10021 -29
KPX afii10032 afii10017 -29
KPX afii10034 colon -88
KPX afii10034 semicolon -88
KPX afii10034 comma -88
KPX afii10034 period -88
KPX afii10034 afii10077 -88
KPX afii10034 afii10069 -88
KPX afii10034 afii10071 -29
KPX afii10034 afii10070 -29
KPX afii10034 uni04E9 -29
KPX afii10034 afii10080 -29
KPX afii10034 afii10065 -29
KPX afii10034 afii10049 -88
KPX afii10034 afii10029 -88
KPX afii10034 afii10021 -88
KPX afii10034 afii10017 -88
KPX afii10036 colon -88
KPX afii10036 semicolon -88
KPX afii10036 comma -88
KPX afii10036 period -88
KPX afii10036 afii10078 -88
KPX afii10036 afii10077 -88
KPX afii10036 uni04A1 -88
KPX afii10036 afii10092 -88
KPX afii10036 uni04B1 -88
KPX afii10036 uni04AF -88
KPX afii10036 afii10110 -88
KPX afii10036 afii10085 -88
KPX afii10036 afii10093 -88
KPX afii10036 afii10094 -88
KPX afii10036 afii10091 -88
KPX afii10036 afii10090 -88
KPX afii10036 afii10088 -88
KPX afii10036 afii10075 -88
KPX afii10036 afii10074 -88
KPX afii10036 afii10086 -88
KPX afii10036 uni04AB -88
KPX afii10036 afii10083 -88
KPX afii10036 afii10071 -88
KPX afii10036 afii10070 -88
KPX afii10036 uni04E9 -88
KPX afii10036 afii10080 -88
KPX afii10036 afii10065 -88
KPX afii10036 afii10029 -29
KPX afii10036 afii10049 -88
KPX afii10036 afii10021 -88
KPX afii10036 afii10017 -88
KPX afii10037 colon -88
KPX afii10037 semicolon -88
KPX afii10037 comma -88
KPX afii10037 period -88
KPX afii10037 afii10078 -118
KPX afii10037 afii10077 -118
KPX afii10037 uni04A1 -118
KPX afii10037 afii10092 -118
KPX afii10037 uni04B1 -118
KPX afii10037 uni04AF -118
KPX afii10037 afii10110 -118
KPX afii10037 afii10085 -118
KPX afii10037 afii10093 -118
KPX afii10037 afii10094 -118
KPX afii10037 afii10091 -118
KPX afii10037 afii10090 -118
KPX afii10037 afii10088 -118
KPX afii10037 afii10075 -118
KPX afii10037 afii10074 -118
KPX afii10037 uni04AB -88
KPX afii10037 afii10083 -88
KPX afii10037 afii10071 -88
KPX afii10037 afii10070 -88
KPX afii10037 uni04E9 -88
KPX afii10037 afii10080 -88
KPX afii10037 afii10065 -88
KPX afii10037 uni04AA -29
KPX afii10037 afii10035 -29
KPX afii10037 uni04E8 -29
KPX afii10037 afii10038 -29
KPX afii10037 afii10032 -29
KPX afii10037 afii10029 -59
KPX afii10037 afii10021 -59
KPX afii10037 afii10049 -88
KPX afii10037 afii10017 -88
KPX afii10038 afii10049 -29
KPX afii10038 afii10062 -29
KPX afii10038 afii10037 -29
KPX afii10038 uni04B0 -29
KPX afii10038 uni04AE -29
KPX afii10038 uni04B2 -29
KPX afii10038 afii10039 -29
KPX afii10038 uni0496 -29
KPX afii10038 afii10024 -29
KPX afii10038 afii10021 -29
KPX afii10038 afii10017 -29
KPX afii10039 uni04B9 -29
KPX afii10039 uni04B7 -29
KPX afii10039 afii10089 -29
KPX afii10039 uni04AA -29
KPX afii10039 afii10035 -29
KPX afii10039 uni04E8 -29
KPX afii10039 afii10038 -29
KPX afii10039 afii10032 -29
KPX afii10044 afii10110 -29
KPX afii10044 afii10085 -29
KPX afii10044 afii10093 -29
KPX afii10044 afii10094 -29
KPX afii10044 afii10091 -29
KPX afii10044 afii10090 -29
KPX afii10044 afii10088 -29
KPX afii10044 afii10075 -29
KPX afii10044 afii10074 -29
KPX afii10044 afii10103 -29
KPX afii10044 afii10096 -29
KPX afii10044 afii10084 -29
KPX afii10044 afii10081 -29
KPX afii10044 uni04A5 -29
KPX afii10044 uni04A3 -29
KPX afii10044 afii10079 -29
KPX afii10044 uni049D -29
KPX afii10044 uni049B -29
KPX afii10044 afii10076 -29
KPX afii10044 uni04B1 -29
KPX afii10044 uni04AF -29
KPX afii10044 uni04A1 -29
KPX afii10044 afii10092 -29
KPX afii10044 afii10062 -88
KPX afii10044 afii10037 -88
KPX afii10044 uni04B0 -88
KPX afii10044 uni04AE -88
KPX afii10044 uni04B8 -88
KPX afii10044 uni04B6 -88
KPX afii10044 afii10041 -88
KPX afii10044 uni04A0 -88
KPX afii10044 afii10044 -88
KPX afii10044 afii10036 -88
KPX afii10044 uni04AA -29
KPX afii10044 afii10035 -29
KPX afii10044 uni04E8 -29
KPX afii10044 afii10038 -29
KPX afii10044 afii10032 -29
KPX afii10044 uni04B2 -29
KPX afii10044 afii10039 -29
KPX afii10044 uni0496 -29
KPX afii10044 afii10024 -29
KPX afii10046 afii10110 -29
KPX afii10046 afii10085 -29
KPX afii10046 afii10093 -29
KPX afii10046 afii10094 -29
KPX afii10046 afii10091 -29
KPX afii10046 afii10090 -29
KPX afii10046 afii10088 -29
KPX afii10046 afii10075 -29
KPX afii10046 afii10074 -29
KPX afii10046 afii10103 -29
KPX afii10046 afii10096 -29
KPX afii10046 afii10084 -29
KPX afii10046 afii10081 -29
KPX afii10046 uni04A5 -29
KPX afii10046 uni04A3 -29
KPX afii10046 afii10079 -29
KPX afii10046 uni049D -29
KPX afii10046 uni049B -29
KPX afii10046 afii10076 -29
KPX afii10046 uni04B1 -29
KPX afii10046 uni04AF -29
KPX afii10046 uni04A1 -29
KPX afii10046 afii10092 -29
KPX afii10046 afii10062 -88
KPX afii10046 afii10037 -88
KPX afii10046 uni04B0 -88
KPX afii10046 uni04AE -88
KPX afii10046 uni04B8 -88
KPX afii10046 uni04B6 -88
KPX afii10046 afii10041 -88
KPX afii10046 uni04A0 -88
KPX afii10046 afii10044 -88
KPX afii10046 afii10036 -88
KPX afii10046 uni04AA -29
KPX afii10046 afii10035 -29
KPX afii10046 uni04E8 -29
KPX afii10046 afii10038 -29
KPX afii10046 afii10032 -29
KPX afii10046 uni04B2 -29
KPX afii10046 afii10039 -29
KPX afii10046 uni0496 -29
KPX afii10046 afii10024 -29
KPX afii10047 afii10049 -29
KPX afii10047 afii10062 -29
KPX afii10047 afii10037 -29
KPX afii10047 uni04B0 -29
KPX afii10047 uni04AE -29
KPX afii10047 uni04B2 -29
KPX afii10047 afii10039 -29
KPX afii10047 uni0496 -29
KPX afii10047 afii10024 -29
KPX afii10047 afii10021 -29
KPX afii10047 afii10017 -29
KPX afii10048 afii10049 -29
KPX afii10048 afii10062 -29
KPX afii10048 afii10037 -29
KPX afii10048 uni04B0 -29
KPX afii10048 uni04AE -29
KPX afii10048 uni04B2 -29
KPX afii10048 afii10039 -29
KPX afii10048 uni0496 -29
KPX afii10048 afii10024 -29
KPX afii10048 afii10021 -29
KPX afii10048 afii10017 -29
KPX afii10066 afii10078 -29
KPX afii10066 afii10077 -29
KPX afii10066 afii10065 -59
KPX afii10066 afii10086 -59
KPX afii10070 afii10078 -29
KPX afii10070 afii10077 -29
KPX afii10070 afii10065 -59
KPX afii10070 afii10086 -59
KPX afii10077 uni04B9 -88
KPX afii10077 uni04B7 -88
KPX afii10077 afii10089 -88
KPX afii10077 uni04A1 -29
KPX afii10077 afii10092 -29
KPX afii10077 uni04B1 -29
KPX afii10077 uni04AF -29
KPX afii10077 afii10078 -29
KPX afii10077 afii10077 -29
KPX afii10080 afii10078 -29
KPX afii10080 afii10077 -29
KPX afii10080 afii10065 -59
KPX afii10080 afii10086 -59
KPX afii10082 afii10078 -29
KPX afii10082 afii10077 -29
KPX afii10082 afii10065 -59
KPX afii10082 afii10086 -59
KPX afii10083 afii10078 -29
KPX afii10083 afii10077 -29
KPX afii10083 afii10065 -59
KPX afii10083 afii10086 -59
KPX afii10086 afii10078 -29
KPX afii10086 afii10077 -29
KPX afii10086 afii10065 -59
KPX afii10086 afii10086 -59
KPX afii10092 uni04AB -29
KPX afii10092 afii10086 -29
KPX afii10092 uni04E9 -29
KPX afii10092 afii10080 -29
KPX afii10092 uni04B9 -88
KPX afii10092 uni04B7 -88
KPX afii10092 afii10089 -88
KPX afii10092 uni04A1 -29
KPX afii10092 afii10092 -29
KPX afii10092 uni04B1 -29
KPX afii10092 uni04AF -29
KPX afii10092 afii10078 -29
KPX afii10092 afii10077 -29
KPX afii10094 uni04AB -29
KPX afii10094 afii10086 -29
KPX afii10094 uni04E9 -29
KPX afii10094 afii10080 -29
KPX afii10094 uni04B9 -88
KPX afii10094 uni04B7 -88
KPX afii10094 afii10089 -88
KPX afii10094 uni04A1 -29
KPX afii10094 afii10092 -29
KPX afii10094 uni04B1 -29
KPX afii10094 uni04AF -29
KPX afii10094 afii10078 -29
KPX afii10094 afii10077 -29
KPX afii10095 afii10078 -29
KPX afii10095 afii10077 -29
KPX afii10095 afii10065 -59
KPX afii10095 afii10086 -59
KPX afii10096 afii10078 -29
KPX afii10096 afii10077 -29
KPX afii10096 afii10065 -59
KPX afii10096 afii10086 -59
EndKernPairs
EndKernData
EndFontMetrics
