StartFontMetrics 2.0
Comment Generated by pfaedit
Comment Creation Date: Sat May  7 01:58:10 2005
FontName CMRoman-BoldSC
FullName Computer Modern Roman Bold Small Caps
FamilyName CM Roman
Weight Bold
Notice (Converted by Alexej Kryukov from METAFONT sources. )
Comment 
Comment This font is subject to the GNU General Public License as published by the Free Software Foundation; either version 2 of the License, or (at your option) any later version.
Comment 
Comment This font is distributed in the hope that it will be useful, but WITHOUT ANY WARRANTY; without even the implied warranty of MERCHANTABILITY or FITNESS FOR A PARTICULAR PURPOSE.  See the GNU General Pu
Comment blic License for more details.
ItalicAngle 0
IsFixedPitch false
UnderlinePosition -100
UnderlineThickness 50
Version 001.001
EncodingScheme FontSpecific
FontBBox -9 -308 1618 904
CapHeight 687
XHeight 518
Ascender 518
Descender 1
StartCharMetrics 239
C 0 ; WX 360 ; N .notdef ; B 0 0 0 0 ;
C 32 ; WX 360 ; N space ; B 0 0 0 0 ;
C 33 ; WX 392 ; N exclam ; B 117 0 275 707 ;
C 34 ; WX 628 ; N quotedbl ; B 149 359 478 712 ;
C 35 ; WX 1028 ; N numbersign ; B 81 -194 946 696 ;
C 36 ; WX 628 ; N dollar ; B 80 -55 547 751 ;
C 37 ; WX 1028 ; N percent ; B 81 -56 947 751 ;
C 38 ; WX 961 ; N ampersand ; B 63 -11 886 707 ;
C 39 ; WX 361 ; N quoteright ; B 101 345 276 696 ;
C 40 ; WX 494 ; N parenleft ; B 128 -251 413 752 ;
C 41 ; WX 494 ; N parenright ; B 80 -250 365 752 ;
C 42 ; WX 628 ; N asterisk ; B 91 307 536 751 ;
C 43 ; WX 961 ; N plus ; B 81 -150 879 651 ;
C 44 ; WX 361 ; N comma ; B 102 -193 272 158 ;
C 45 ; WX 428 ; N hyphen ; B 27 175 347 272 ;
C 46 ; WX 361 ; N period ; B 102 0 258 158 ;
C 47 ; WX 628 ; N slash ; B 81 -249 546 751 ;
C 48 ; WX 575 ; N zero ; B 45 -10 530 457 ;
C 49 ; WX 575 ; N one ; B 85 1 494 453 ;
C 50 ; WX 575 ; N two ; B 51 1 518 457 ;
C 51 ; WX 575 ; N three ; B 48 -205 526 456 ;
C 52 ; WX 575 ; N four ; B 32 -193 542 458 ;
C 53 ; WX 575 ; N five ; B 56 -205 517 456 ;
C 54 ; WX 575 ; N six ; B 48 -10 527 656 ;
C 55 ; WX 575 ; N seven ; B 64 -205 559 477 ;
C 56 ; WX 575 ; N eight ; B 47 -10 527 657 ;
C 57 ; WX 575 ; N nine ; B 47 -205 526 456 ;
C 58 ; WX 361 ; N colon ; B 102 0 258 446 ;
C 59 ; WX 361 ; N semicolon ; B 102 -193 272 446 ;
C 60 ; WX 961 ; N less ; B 113 -73 846 574 ;
C 61 ; WX 961 ; N equal ; B 81 120 879 381 ;
C 62 ; WX 961 ; N greater ; B 114 -73 847 574 ;
C 63 ; WX 594 ; N question ; B 79 0 514 702 ;
C 64 ; WX 961 ; N at ; B 81 -6 880 701 ;
C 65 ; WX 933 ; N A ; B 57 1 875 699 ;
C 66 ; WX 880 ; N B ; B 59 0 798 689 ;
C 67 ; WX 894 ; N C ; B 81 -10 813 699 ;
C 68 ; WX 947 ; N D ; B 58 0 866 687 ;
C 69 ; WX 816 ; N E ; B 58 1 768 681 ;
C 70 ; WX 783 ; N F ; B 58 1 718 681 ;
C 71 ; WX 971 ; N G ; B 81 -11 896 699 ;
C 72 ; WX 964 ; N H ; B 58 1 905 687 ;
C 73 ; WX 475 ; N I ; B 52 1 422 687 ;
C 74 ; WX 647 ; N J ; B 43 -11 561 687 ;
C 75 ; WX 966 ; N K ; B 58 1 901 687 ;
C 76 ; WX 750 ; N L ; B 58 1 685 687 ;
C 77 ; WX 1164 ; N M ; B 62 1 1101 688 ;
C 78 ; WX 964 ; N N ; B 58 1 905 687 ;
C 79 ; WX 930 ; N O ; B 81 -10 848 698 ;
C 80 ; WX 847 ; N P ; B 58 1 766 688 ;
C 81 ; WX 930 ; N Q ; B 80 -194 855 698 ;
C 82 ; WX 923 ; N R ; B 58 -10 906 688 ;
C 83 ; WX 694 ; N S ; B 79 -11 613 699 ;
C 84 ; WX 864 ; N T ; B 57 1 806 676 ; L M trademark ;
C 85 ; WX 948 ; N U ; B 58 -10 889 687 ;
C 86 ; WX 933 ; N V ; B 41 -8 891 687 ;
C 87 ; WX 1266 ; N W ; B 39 -8 1226 687 ;
C 88 ; WX 933 ; N X ; B 50 1 883 687 ;
C 89 ; WX 933 ; N Y ; B 35 1 897 687 ;
C 90 ; WX 761 ; N Z ; B 81 1 686 687 ;
C 91 ; WX 361 ; N bracketleft ; B 125 -249 320 751 ;
C 92 ; WX 628 ; N backslash ; B 81 -248 546 751 ;
C 93 ; WX 361 ; N bracketright ; B 40 -249 235 751 ;
C 94 ; WX 761 ; N asciicircum ; B 153 461 607 631 ;
C 95 ; WX 961 ; N underscore ; B 114 -308 846 -245 ;
C 96 ; WX 361 ; N quoteleft ; B 84 344 259 695 ;
C 97 ; WX 702 ; N a ; B 39 1 662 524 ;
C 98 ; WX 660 ; N b ; B 46 0 605 519 ;
C 99 ; WX 669 ; N c ; B 54 -7 614 525 ;
C 100 ; WX 711 ; N d ; B 46 0 655 519 ;
C 101 ; WX 604 ; N e ; B 46 1 574 512 ;
C 102 ; WX 579 ; N f ; B 46 1 536 512 ; L l fl ; L i fi ;
C 103 ; WX 728 ; N g ; B 55 -8 676 525 ;
C 104 ; WX 733 ; N h ; B 46 1 686 518 ;
C 105 ; WX 360 ; N i ; B 42 1 317 518 ;
C 106 ; WX 482 ; N j ; B 28 -7 416 518 ;
C 107 ; WX 727 ; N k ; B 46 1 684 518 ;
C 108 ; WX 553 ; N l ; B 46 1 510 518 ;
C 109 ; WX 885 ; N m ; B 48 0 836 518 ;
C 110 ; WX 733 ; N n ; B 46 1 686 518 ;
C 111 ; WX 689 ; N o ; B 55 -7 633 526 ;
C 112 ; WX 635 ; N p ; B 47 1 580 519 ;
C 113 ; WX 689 ; N q ; B 55 -143 638 526 ;
C 114 ; WX 699 ; N r ; B 47 -7 691 519 ;
C 115 ; WX 516 ; N s ; B 54 -7 460 526 ;
C 116 ; WX 638 ; N t ; B 37 1 600 507 ;
C 117 ; WX 717 ; N u ; B 46 -7 670 518 ;
C 118 ; WX 702 ; N v ; B 27 -3 674 518 ;
C 119 ; WX 956 ; N w ; B 26 -5 929 518 ;
C 120 ; WX 702 ; N x ; B 37 1 665 518 ;
C 121 ; WX 702 ; N y ; B 25 1 677 518 ;
C 122 ; WX 567 ; N z ; B 54 0 516 519 ;
C 123 ; WX 628 ; N braceleft ; B 95 -250 532 752 ;
C 124 ; WX 361 ; N bar ; B 149 -250 212 751 ;
C 125 ; WX 628 ; N braceright ; B 95 -250 531 752 ;
C 126 ; WX 761 ; N asciitilde ; B 114 586 646 695 ;
C 161 ; WX 392 ; N exclamdown ; B 117 -204 275 501 ;
C 162 ; WX 575 ; N cent ; B 38 -96 542 545 ;
C 163 ; WX 794 ; N sterling ; B 79 -5 746 705 ;
C 164 ; WX 575 ; N fraction ; B 63 -250 510 751 ;
C 165 ; WX 869 ; N yen ; B 19 1 849 687 ;
C 166 ; WX 351 ; N florin ; B 42 1 438 702 ;
C 167 ; WX 575 ; N section ; B 96 -200 478 702 ;
C 168 ; WX 773 ; N currency ; B 52 -48 721 621 ;
C 169 ; WX 319 ; N quotesingle ; B 95 359 223 712 ;
C 170 ; WX 450 ; N quotedblleft ; B -9 344 441 695 ;
C 171 ; WX 694 ; N guillemotleft ; B 147 1 613 473 ;
C 172 ; WX 561 ; N guilsinglleft ; B 147 0 413 473 ;
C 173 ; WX 561 ; N guilsinglright ; B 147 1 413 473 ;
C 174 ; WX 897 ; N fi ; B 47 1 871 512 ;
C 175 ; WX 1107 ; N fl ; B 47 1 1064 512 ;
C 177 ; WX 628 ; N endash ; B 14 257 613 293 ;
C 178 ; WX 511 ; N dagger ; B 64 -205 446 702 ;
C 179 ; WX 511 ; N daggerdbl ; B 64 -199 446 701 ;
C 180 ; WX 275 ; N periodcentered ; B 59 158 215 316 ;
C 182 ; WX 703 ; N paragraph ; B 63 -194 670 696 ;
C 183 ; WX 575 ; N bullet ; B 64 26 509 475 ;
C 184 ; WX 361 ; N quotesinglbase ; B 102 -193 272 158 ;
C 185 ; WX 450 ; N quotedblbase ; B 8 -193 458 158 ;
C 186 ; WX 450 ; N quotedblright ; B 8 345 458 696 ;
C 187 ; WX 694 ; N guillemotright ; B 80 1 546 473 ;
C 188 ; WX 1339 ; N ellipsis ; B 102 0 1236 158 ;
C 189 ; WX 1341 ; N perthousand ; B 63 -56 1276 752 ;
C 191 ; WX 594 ; N questiondown ; B 80 -200 513 501 ;
C 193 ; WX 465 ; N grave ; B 42 577 278 716 ;
C 194 ; WX 465 ; N acute ; B 186 577 422 716 ;
C 195 ; WX 465 ; N circumflex ; B 104 582 360 740 ;
C 196 ; WX 465 ; N tilde ; B 55 637 409 739 ;
C 197 ; WX 553 ; N macron ; B 87 640 465 692 ;
C 198 ; WX 553 ; N breve ; B 112 592 440 779 ;
C 199 ; WX 262 ; N dotaccent ; B 78 607 208 735 ;
C 200 ; WX 465 ; N dieresis ; B 79 608 385 738 ;
C 202 ; WX 717 ; N ring ; B 258 561 458 742 ;
C 203 ; WX 415 ; N cedilla ; B 83 -194 332 1 ;
C 205 ; WX 465 ; N hungarumlaut ; B 110 576 497 716 ;
C 206 ; WX 262 ; N ogonek ; B -5 -195 213 29 ;
C 207 ; WX 465 ; N caron ; B 103 576 361 675 ;
C 208 ; WX 1255 ; N emdash ; B 28 257 1226 293 ;
C 225 ; WX 1114 ; N AE ; B 57 1 1066 687 ;
C 227 ; WX 511 ; N ordfeminine ; B 31 278 494 761 ;
C 232 ; WX 750 ; N Lslash ; B 58 1 685 687 ;
C 233 ; WX 961 ; N Oslash ; B 80 -60 879 748 ;
C 234 ; WX 1247 ; N OE ; B 99 -11 1199 698 ;
C 235 ; WX 511 ; N ordmasculine ; B 32 278 479 760 ;
C 241 ; WX 838 ; N ae ; B 40 1 808 518 ;
C 245 ; WX 360 ; N dotlessi ; B 42 1 317 518 ;
C 248 ; WX 553 ; N lslash ; B 46 1 510 518 ;
C 249 ; WX 719 ; N oslash ; B 54 -59 664 577 ;
C 250 ; WX 939 ; N oe ; B 72 -7 909 526 ;
C 251 ; WX 916 ; N germandbls ; B 50 -7 852 523 ;
C -1 ; WX 894 ; N minus ; B 64 232 829 270 ;
C -1 ; WX 980 ; N Eng ; B 58 -10 899 708 ;
C -1 ; WX 736 ; N eng ; B 46 -7 681 530 ;
C -1 ; WX 482 ; N dotlessj ; B 28 -7 416 518 ;
C -1 ; WX 1132 ; N ff ; B 46 1 1089 512 ;
C -1 ; WX 1451 ; N ffi ; B 47 1 1424 512 ;
C -1 ; WX 1661 ; N ffl ; B 47 1 1618 512 ;
C -1 ; WX 494 ; N perthousandzero ; B 79 -55 414 348 ;
C -1 ; WX 828 ; N Euro ; B 14 1 737 751 ;
C -1 ; WX 694 ; N Scaron ; B 79 -11 613 904 ;
C -1 ; WX 761 ; N Zcaron ; B 81 1 686 904 ;
C -1 ; WX 766 ; N trademark ; B 0 364 726 762 ;
C -1 ; WX 516 ; N scaron ; B 54 -7 460 637 ;
C -1 ; WX 567 ; N zcaron ; B 54 0 516 637 ;
C -1 ; WX 933 ; N Ydieresis ; B 35 1 897 896 ;
C -1 ; WX 360 ; N nonbreakingspace ; B 0 0 0 0 ;
C -1 ; WX 192 ; N brokenbar ; B 64 -250 127 751 ;
C -1 ; WX 1277 ; N copyright ; B 63 -261 1214 762 ;
C -1 ; WX 766 ; N logicalnot ; B 63 61 702 373 ;
C -1 ; WX 428 ; N softhyphen ; B 27 175 347 272 ;
C -1 ; WX 1277 ; N registered ; B 63 -261 1214 762 ;
C -1 ; WX 383 ; N degree ; B 63 431 320 688 ;
C -1 ; WX 894 ; N plusminus ; B 64 -38 829 730 ;
C -1 ; WX 511 ; N twosuperior ; B 56 348 454 763 ;
C -1 ; WX 511 ; N threesuperior ; B 47 341 462 762 ;
C -1 ; WX 639 ; N mu ; B 45 -193 615 451 ;
C -1 ; WX 511 ; N onesuperior ; B 80 348 430 763 ;
C -1 ; WX 511 ; N onequarter ; B 1 -193 508 762 ;
C -1 ; WX 511 ; N onehalf ; B 1 -193 508 762 ;
C -1 ; WX 511 ; N threequarters ; B 1 -193 508 763 ;
C -1 ; WX 933 ; N Agrave ; B 57 1 875 875 ;
C -1 ; WX 933 ; N Aacute ; B 57 1 875 876 ;
C -1 ; WX 933 ; N Acircumflex ; B 57 1 875 899 ;
C -1 ; WX 933 ; N Atilde ; B 57 1 875 896 ;
C -1 ; WX 933 ; N Adieresis ; B 57 1 875 896 ;
C -1 ; WX 933 ; N Aring ; B 57 1 875 903 ;
C -1 ; WX 894 ; N Ccedilla ; B 81 -198 813 699 ;
C -1 ; WX 816 ; N Egrave ; B 58 1 768 876 ;
C -1 ; WX 816 ; N Eacute ; B 58 1 768 876 ;
C -1 ; WX 816 ; N Ecircumflex ; B 58 1 768 899 ;
C -1 ; WX 816 ; N Edieresis ; B 58 1 768 896 ;
C -1 ; WX 475 ; N Igrave ; B 52 1 422 875 ;
C -1 ; WX 475 ; N Iacute ; B 52 1 422 876 ;
C -1 ; WX 475 ; N Icircumflex ; B 52 1 422 899 ;
C -1 ; WX 475 ; N Idieresis ; B 42 1 432 895 ;
C -1 ; WX 947 ; N Eth ; B 58 0 866 687 ;
C -1 ; WX 964 ; N Ntilde ; B 58 1 905 896 ;
C -1 ; WX 930 ; N Ograve ; B 81 -10 848 876 ;
C -1 ; WX 930 ; N Oacute ; B 81 -10 848 876 ;
C -1 ; WX 930 ; N Ocircumflex ; B 81 -10 848 899 ;
C -1 ; WX 930 ; N Otilde ; B 81 -10 848 896 ;
C -1 ; WX 930 ; N Odieresis ; B 81 -10 848 895 ;
C -1 ; WX 894 ; N multiply ; B 166 -30 727 531 ;
C -1 ; WX 948 ; N Ugrave ; B 58 -10 889 876 ;
C -1 ; WX 948 ; N Uacute ; B 58 -10 889 876 ;
C -1 ; WX 948 ; N Ucircumflex ; B 58 -10 889 899 ;
C -1 ; WX 948 ; N Udieresis ; B 58 -10 889 895 ;
C -1 ; WX 933 ; N Yacute ; B 35 1 897 876 ;
C -1 ; WX 780 ; N Thorn ; B 59 1 698 687 ;
C -1 ; WX 702 ; N agrave ; B 39 1 662 705 ;
C -1 ; WX 702 ; N aacute ; B 39 1 662 705 ;
C -1 ; WX 702 ; N acircumflex ; B 39 1 662 727 ;
C -1 ; WX 702 ; N atilde ; B 39 1 662 727 ;
C -1 ; WX 702 ; N adieresis ; B 39 1 662 726 ;
C -1 ; WX 702 ; N aring ; B 39 1 662 730 ;
C -1 ; WX 669 ; N ccedilla ; B 55 -194 614 525 ;
C -1 ; WX 604 ; N egrave ; B 46 1 574 705 ;
C -1 ; WX 604 ; N eacute ; B 46 1 574 705 ;
C -1 ; WX 604 ; N ecircumflex ; B 46 1 574 727 ;
C -1 ; WX 604 ; N edieresis ; B 46 1 574 726 ;
C -1 ; WX 360 ; N igrave ; B 15 1 317 705 ;
C -1 ; WX 360 ; N iacute ; B 42 1 332 705 ;
C -1 ; WX 360 ; N icircumflex ; B 42 1 317 728 ;
C -1 ; WX 360 ; N idieresis ; B 26 1 333 726 ;
C -1 ; WX 711 ; N eth ; B 45 0 655 519 ;
C -1 ; WX 733 ; N ntilde ; B 46 1 686 727 ;
C -1 ; WX 689 ; N ograve ; B 55 -7 633 705 ;
C -1 ; WX 689 ; N oacute ; B 55 -7 633 705 ;
C -1 ; WX 689 ; N ocircumflex ; B 55 -7 633 727 ;
C -1 ; WX 689 ; N otilde ; B 55 -7 633 727 ;
C -1 ; WX 689 ; N odieresis ; B 55 -7 633 726 ;
C -1 ; WX 894 ; N divide ; B 64 -88 829 589 ;
C -1 ; WX 717 ; N ugrave ; B 46 -7 670 705 ;
C -1 ; WX 717 ; N uacute ; B 46 -7 670 705 ;
C -1 ; WX 717 ; N ucircumflex ; B 46 -7 670 728 ;
C -1 ; WX 717 ; N udieresis ; B 46 -7 670 727 ;
C -1 ; WX 702 ; N yacute ; B 25 1 677 705 ;
C -1 ; WX 584 ; N thorn ; B 46 1 528 518 ;
C -1 ; WX 702 ; N ydieresis ; B 25 1 677 726 ;
EndCharMetrics
StartKernData
StartKernPairs 1481
KPX quoteright exclam 133
KPX quoteright question 133
KPX quoteright quotedblright 133
KPX A OE -33
KPX A oslash -33
KPX A w -133
KPX A W -133
KPX A v -133
KPX A V -133
KPX A yacute -100
KPX A ydieresis -100
KPX A y -100
KPX A Yacute -100
KPX A Ydieresis -100
KPX A Y -100
KPX A t -100
KPX A T -100
KPX A q -33
KPX A Udieresis -33
KPX A Ucircumflex -33
KPX A Uacute -33
KPX A Ugrave -33
KPX A U -33
KPX A udieresis -33
KPX A ucircumflex -33
KPX A uacute -33
KPX A ugrave -33
KPX A u -33
KPX A g -33
KPX A Oslash -33
KPX A Odieresis -33
KPX A Otilde -33
KPX A Ocircumflex -33
KPX A Oacute -33
KPX A Ograve -33
KPX A O -33
KPX A oe -33
KPX A odieresis -33
KPX A otilde -33
KPX A ocircumflex -33
KPX A oacute -33
KPX A ograve -33
KPX A o -33
KPX A Q -33
KPX A Ccedilla -33
KPX A G -33
KPX A C -33
KPX A ccedilla -33
KPX A c -33
KPX D Ydieresis -33
KPX D Yacute -33
KPX D Y -33
KPX D ydieresis -33
KPX D yacute -33
KPX D y -33
KPX D V -33
KPX D v -33
KPX D Aring -33
KPX D Adieresis -33
KPX D Atilde -33
KPX D Acircumflex -33
KPX D Aacute -33
KPX D Agrave -33
KPX D A -33
KPX D ae -33
KPX D aring -33
KPX D adieresis -33
KPX D atilde -33
KPX D acircumflex -33
KPX D aacute -33
KPX D agrave -33
KPX D a -33
KPX D W -33
KPX D w -33
KPX D X -33
KPX D x -33
KPX F OE -33
KPX F oslash -33
KPX F q -33
KPX F g -33
KPX F Q -33
KPX F Ccedilla -33
KPX F G -33
KPX F C -33
KPX F ccedilla -33
KPX F c -33
KPX F Oslash -33
KPX F Odieresis -33
KPX F Otilde -33
KPX F Ocircumflex -33
KPX F Oacute -33
KPX F Ograve -33
KPX F O -33
KPX F oe -33
KPX F odieresis -33
KPX F otilde -33
KPX F ocircumflex -33
KPX F oacute -33
KPX F ograve -33
KPX F o -33
KPX F Aring -133
KPX F Adieresis -133
KPX F Atilde -133
KPX F Acircumflex -133
KPX F Aacute -133
KPX F Agrave -133
KPX F A -133
KPX F ae -133
KPX F aring -133
KPX F adieresis -133
KPX F atilde -133
KPX F acircumflex -133
KPX F aacute -133
KPX F agrave -133
KPX F a -133
KPX I Icircumflex 33
KPX I Iacute 33
KPX I Igrave 33
KPX I I 33
KPX K OE -33
KPX K oslash -33
KPX K q -33
KPX K g -33
KPX K Q -33
KPX K Ccedilla -33
KPX K G -33
KPX K C -33
KPX K ccedilla -33
KPX K c -33
KPX K Oslash -33
KPX K Odieresis -33
KPX K Otilde -33
KPX K Ocircumflex -33
KPX K Oacute -33
KPX K Ograve -33
KPX K O -33
KPX K oe -33
KPX K odieresis -33
KPX K otilde -33
KPX K ocircumflex -33
KPX K oacute -33
KPX K ograve -33
KPX K o -33
KPX L w -133
KPX L W -133
KPX L v -133
KPX L V -133
KPX L yacute -100
KPX L ydieresis -100
KPX L y -100
KPX L Yacute -100
KPX L Ydieresis -100
KPX L Y -100
KPX L t -100
KPX L T -100
KPX O Ydieresis -33
KPX O Yacute -33
KPX O Y -33
KPX O ydieresis -33
KPX O yacute -33
KPX O y -33
KPX O V -33
KPX O v -33
KPX O Aring -33
KPX O Adieresis -33
KPX O Atilde -33
KPX O Acircumflex -33
KPX O Aacute -33
KPX O Agrave -33
KPX O A -33
KPX O ae -33
KPX O aring -33
KPX O adieresis -33
KPX O atilde -33
KPX O acircumflex -33
KPX O aacute -33
KPX O agrave -33
KPX O a -33
KPX O W -33
KPX O w -33
KPX O X -33
KPX O x -33
KPX P aring -100
KPX P adieresis -100
KPX P atilde -100
KPX P acircumflex -100
KPX P aacute -100
KPX P agrave -100
KPX P Aring -100
KPX P Adieresis -100
KPX P Atilde -100
KPX P Acircumflex -100
KPX P Aacute -100
KPX P Agrave -100
KPX P A -100
KPX P a -100
KPX R OE -33
KPX R oslash -33
KPX R w -133
KPX R W -133
KPX R v -133
KPX R V -133
KPX R yacute -100
KPX R ydieresis -100
KPX R y -100
KPX R Yacute -100
KPX R Ydieresis -100
KPX R Y -100
KPX R t -100
KPX R T -100
KPX R q -33
KPX R Udieresis -33
KPX R Ucircumflex -33
KPX R Uacute -33
KPX R Ugrave -33
KPX R U -33
KPX R udieresis -33
KPX R ucircumflex -33
KPX R uacute -33
KPX R ugrave -33
KPX R u -33
KPX R g -33
KPX R Oslash -33
KPX R Odieresis -33
KPX R Otilde -33
KPX R Ocircumflex -33
KPX R Oacute -33
KPX R Ograve -33
KPX R O -33
KPX R oe -33
KPX R odieresis -33
KPX R otilde -33
KPX R ocircumflex -33
KPX R oacute -33
KPX R ograve -33
KPX R o -33
KPX R Q -33
KPX R Ccedilla -33
KPX R G -33
KPX R C -33
KPX R ccedilla -33
KPX R c -33
KPX T aring -100
KPX T adieresis -100
KPX T atilde -100
KPX T acircumflex -100
KPX T aacute -100
KPX T agrave -100
KPX T Aring -100
KPX T Adieresis -100
KPX T Atilde -100
KPX T Acircumflex -100
KPX T Aacute -100
KPX T Agrave -100
KPX T A -100
KPX T a -100
KPX V OE -33
KPX V oslash -33
KPX V q -33
KPX V g -33
KPX V Q -33
KPX V Ccedilla -33
KPX V G -33
KPX V C -33
KPX V ccedilla -33
KPX V c -33
KPX V Oslash -33
KPX V Odieresis -33
KPX V Otilde -33
KPX V Ocircumflex -33
KPX V Oacute -33
KPX V Ograve -33
KPX V O -33
KPX V oe -33
KPX V odieresis -33
KPX V otilde -33
KPX V ocircumflex -33
KPX V oacute -33
KPX V ograve -33
KPX V o -33
KPX V Aring -133
KPX V Adieresis -133
KPX V Atilde -133
KPX V Acircumflex -133
KPX V Aacute -133
KPX V Agrave -133
KPX V A -133
KPX V ae -133
KPX V aring -133
KPX V adieresis -133
KPX V atilde -133
KPX V acircumflex -133
KPX V aacute -133
KPX V agrave -133
KPX V a -133
KPX W OE -33
KPX W oslash -33
KPX W q -33
KPX W g -33
KPX W Q -33
KPX W Ccedilla -33
KPX W G -33
KPX W C -33
KPX W ccedilla -33
KPX W c -33
KPX W Oslash -33
KPX W Odieresis -33
KPX W Otilde -33
KPX W Ocircumflex -33
KPX W Oacute -33
KPX W Ograve -33
KPX W O -33
KPX W oe -33
KPX W odieresis -33
KPX W otilde -33
KPX W ocircumflex -33
KPX W oacute -33
KPX W ograve -33
KPX W o -33
KPX W Aring -133
KPX W Adieresis -133
KPX W Atilde -133
KPX W Acircumflex -133
KPX W Aacute -133
KPX W Agrave -133
KPX W A -133
KPX W ae -133
KPX W aring -133
KPX W adieresis -133
KPX W atilde -133
KPX W acircumflex -133
KPX W aacute -133
KPX W agrave -133
KPX W a -133
KPX X OE -33
KPX X oslash -33
KPX X q -33
KPX X g -33
KPX X Q -33
KPX X Ccedilla -33
KPX X G -33
KPX X C -33
KPX X ccedilla -33
KPX X c -33
KPX X Oslash -33
KPX X Odieresis -33
KPX X Otilde -33
KPX X Ocircumflex -33
KPX X Oacute -33
KPX X Ograve -33
KPX X O -33
KPX X oe -33
KPX X odieresis -33
KPX X otilde -33
KPX X ocircumflex -33
KPX X oacute -33
KPX X ograve -33
KPX X o -33
KPX Y aring -100
KPX Y adieresis -100
KPX Y atilde -100
KPX Y acircumflex -100
KPX Y aacute -100
KPX Y agrave -100
KPX Y Aring -100
KPX Y Adieresis -100
KPX Y Atilde -100
KPX Y Acircumflex -100
KPX Y Aacute -100
KPX Y Agrave -100
KPX Y A -100
KPX Y a -100
KPX quoteleft exclam 133
KPX quoteleft question 133
KPX quoteleft quotedblleft 133
KPX a oslash -33
KPX a w -133
KPX a v -133
KPX a yacute -33
KPX a ydieresis -33
KPX a y -100
KPX a t -100
KPX a quoteright -100
KPX a q -33
KPX a udieresis -33
KPX a ucircumflex -33
KPX a uacute -33
KPX a ugrave -33
KPX a u -33
KPX a g -33
KPX a oe -33
KPX a odieresis -33
KPX a otilde -33
KPX a ocircumflex -33
KPX a oacute -33
KPX a ograve -33
KPX a o -33
KPX a ccedilla -33
KPX a c -33
KPX d yacute -33
KPX d ydieresis -33
KPX d y -33
KPX d v -33
KPX d ae -33
KPX d aring -33
KPX d adieresis -33
KPX d atilde -33
KPX d acircumflex -33
KPX d aacute -33
KPX d agrave -33
KPX d a -33
KPX d w -33
KPX d x -33
KPX f oslash -33
KPX f q -33
KPX f g -33
KPX f ccedilla -33
KPX f c -33
KPX f oe -33
KPX f odieresis -33
KPX f otilde -33
KPX f ocircumflex -33
KPX f oacute -33
KPX f ograve -33
KPX f o -33
KPX f ae -133
KPX f aring -133
KPX f adieresis -133
KPX f atilde -133
KPX f acircumflex -133
KPX f aacute -133
KPX f agrave -133
KPX f a -133
KPX i idieresis 33
KPX i icircumflex 33
KPX i iacute 33
KPX i igrave 33
KPX i dotlessi 33
KPX i i 33
KPX k oslash -33
KPX k q -33
KPX k g -33
KPX k ccedilla -33
KPX k c -33
KPX k oe -33
KPX k odieresis -33
KPX k otilde -33
KPX k ocircumflex -33
KPX k oacute -33
KPX k ograve -33
KPX k o -33
KPX l w -133
KPX l v -133
KPX l yacute -33
KPX l ydieresis -33
KPX l y -100
KPX l t -100
KPX l quoteright -100
KPX o yacute -33
KPX o ydieresis -33
KPX o y -33
KPX o v -33
KPX o ae -33
KPX o aring -33
KPX o adieresis -33
KPX o atilde -33
KPX o acircumflex -33
KPX o aacute -33
KPX o agrave -33
KPX o a -33
KPX o w -33
KPX o x -33
KPX p ae -100
KPX p aring -100
KPX p adieresis -100
KPX p atilde -100
KPX p acircumflex -100
KPX p aacute -100
KPX p agrave -100
KPX p a -100
KPX r oslash -33
KPX r w -133
KPX r v -133
KPX r yacute -33
KPX r ydieresis -33
KPX r y -100
KPX r t -100
KPX r quoteright -100
KPX r q -33
KPX r udieresis -33
KPX r ucircumflex -33
KPX r uacute -33
KPX r ugrave -33
KPX r u -33
KPX r g -33
KPX r oe -33
KPX r odieresis -33
KPX r otilde -33
KPX r ocircumflex -33
KPX r oacute -33
KPX r ograve -33
KPX r o -33
KPX r ccedilla -33
KPX r c -33
KPX t ae -100
KPX t aring -100
KPX t adieresis -100
KPX t atilde -100
KPX t acircumflex -100
KPX t aacute -100
KPX t agrave -100
KPX t a -100
KPX v oslash -33
KPX v q -33
KPX v g -33
KPX v ccedilla -33
KPX v c -33
KPX v oe -33
KPX v odieresis -33
KPX v otilde -33
KPX v ocircumflex -33
KPX v oacute -33
KPX v ograve -33
KPX v o -33
KPX v ae -133
KPX v aring -133
KPX v adieresis -133
KPX v atilde -133
KPX v acircumflex -133
KPX v aacute -133
KPX v agrave -133
KPX v a -133
KPX w oslash -33
KPX w q -33
KPX w g -33
KPX w ccedilla -33
KPX w c -33
KPX w oe -33
KPX w odieresis -33
KPX w otilde -33
KPX w ocircumflex -33
KPX w oacute -33
KPX w ograve -33
KPX w o -33
KPX w ae -133
KPX w aring -133
KPX w adieresis -133
KPX w atilde -133
KPX w acircumflex -133
KPX w aacute -133
KPX w agrave -133
KPX w a -133
KPX x oslash -33
KPX x q -33
KPX x g -33
KPX x ccedilla -33
KPX x c -33
KPX x oe -33
KPX x odieresis -33
KPX x otilde -33
KPX x ocircumflex -33
KPX x oacute -33
KPX x ograve -33
KPX x o -33
KPX y ae -100
KPX y aring -100
KPX y adieresis -100
KPX y atilde -100
KPX y acircumflex -100
KPX y aacute -100
KPX y agrave -100
KPX y a -100
KPX quotedblleft quotedblleft 133
KPX quotedblleft quoteleft 133
KPX fi idieresis 33
KPX fi icircumflex 33
KPX fi iacute 33
KPX fi igrave 33
KPX fi dotlessi 33
KPX fi i 33
KPX fl w -133
KPX fl v -133
KPX fl yacute -33
KPX fl ydieresis -33
KPX fl y -100
KPX fl t -100
KPX fl quoteright -100
KPX quotesinglbase OE -33
KPX quotesinglbase Q -33
KPX quotesinglbase Ccedilla -33
KPX quotesinglbase G -33
KPX quotesinglbase C -33
KPX quotesinglbase Oslash -33
KPX quotesinglbase Odieresis -33
KPX quotesinglbase Otilde -33
KPX quotesinglbase Ocircumflex -33
KPX quotesinglbase Oacute -33
KPX quotesinglbase Ograve -33
KPX quotesinglbase O -33
KPX quotesinglbase Yacute -100
KPX quotesinglbase Ydieresis -100
KPX quotesinglbase Y -100
KPX quotesinglbase W -100
KPX quotesinglbase V -133
KPX quotesinglbase w -33
KPX quotesinglbase v -67
KPX quotesinglbase yacute -67
KPX quotesinglbase ydieresis -67
KPX quotesinglbase y -67
KPX quotesinglbase quotedblbase 133
KPX quotedblbase OE -33
KPX quotedblbase Q -33
KPX quotedblbase Ccedilla -33
KPX quotedblbase G -33
KPX quotedblbase C -33
KPX quotedblbase Oslash -33
KPX quotedblbase Odieresis -33
KPX quotedblbase Otilde -33
KPX quotedblbase Ocircumflex -33
KPX quotedblbase Oacute -33
KPX quotedblbase Ograve -33
KPX quotedblbase O -33
KPX quotedblbase Yacute -100
KPX quotedblbase Ydieresis -100
KPX quotedblbase Y -100
KPX quotedblbase W -100
KPX quotedblbase V -133
KPX quotedblbase w -33
KPX quotedblbase v -67
KPX quotedblbase yacute -67
KPX quotedblbase ydieresis -67
KPX quotedblbase y -67
KPX quotedblbase quotedblbase 133
KPX quotedblbase comma 133
KPX quotedblbase quotesinglbase 133
KPX quotedblright quotedblright 133
KPX quotedblright quoteright 133
KPX guillemotright comma -100
KPX guillemotright period -100
KPX Lslash w -133
KPX Lslash W -133
KPX Lslash v -133
KPX Lslash V -133
KPX Lslash yacute -100
KPX Lslash ydieresis -100
KPX Lslash y -100
KPX Lslash Yacute -100
KPX Lslash Ydieresis -100
KPX Lslash Y -100
KPX Lslash t -100
KPX Lslash T -100
KPX Oslash Ydieresis -33
KPX Oslash Yacute -33
KPX Oslash Y -33
KPX Oslash ydieresis -33
KPX Oslash yacute -33
KPX Oslash y -33
KPX Oslash V -33
KPX Oslash v -33
KPX Oslash Aring -33
KPX Oslash Adieresis -33
KPX Oslash Atilde -33
KPX Oslash Acircumflex -33
KPX Oslash Aacute -33
KPX Oslash Agrave -33
KPX Oslash A -33
KPX Oslash ae -33
KPX Oslash aring -33
KPX Oslash adieresis -33
KPX Oslash atilde -33
KPX Oslash acircumflex -33
KPX Oslash aacute -33
KPX Oslash agrave -33
KPX Oslash a -33
KPX Oslash W -33
KPX Oslash w -33
KPX Oslash X -33
KPX Oslash x -33
KPX ae oslash -33
KPX ae w -133
KPX ae v -133
KPX ae yacute -33
KPX ae ydieresis -33
KPX ae y -100
KPX ae t -100
KPX ae quoteright -100
KPX ae q -33
KPX ae udieresis -33
KPX ae ucircumflex -33
KPX ae uacute -33
KPX ae ugrave -33
KPX ae u -33
KPX ae g -33
KPX ae oe -33
KPX ae odieresis -33
KPX ae otilde -33
KPX ae ocircumflex -33
KPX ae oacute -33
KPX ae ograve -33
KPX ae o -33
KPX ae ccedilla -33
KPX ae c -33
KPX dotlessi idieresis 33
KPX dotlessi icircumflex 33
KPX dotlessi iacute 33
KPX dotlessi igrave 33
KPX dotlessi dotlessi 33
KPX dotlessi i 33
KPX lslash w -133
KPX lslash v -133
KPX lslash yacute -33
KPX lslash ydieresis -33
KPX lslash y -100
KPX lslash t -100
KPX lslash quoteright -100
KPX oslash yacute -33
KPX oslash ydieresis -33
KPX oslash y -33
KPX oslash v -33
KPX oslash ae -33
KPX oslash aring -33
KPX oslash adieresis -33
KPX oslash atilde -33
KPX oslash acircumflex -33
KPX oslash aacute -33
KPX oslash agrave -33
KPX oslash a -33
KPX oslash w -33
KPX oslash x -33
KPX oe yacute -33
KPX oe ydieresis -33
KPX oe y -33
KPX oe v -33
KPX oe ae -33
KPX oe aring -33
KPX oe adieresis -33
KPX oe atilde -33
KPX oe acircumflex -33
KPX oe aacute -33
KPX oe agrave -33
KPX oe a -33
KPX oe w -33
KPX oe x -33
KPX ff oslash -33
KPX ff q -33
KPX ff g -33
KPX ff ccedilla -33
KPX ff c -33
KPX ff oe -33
KPX ff odieresis -33
KPX ff otilde -33
KPX ff ocircumflex -33
KPX ff oacute -33
KPX ff ograve -33
KPX ff o -33
KPX ff ae -133
KPX ff aring -133
KPX ff adieresis -133
KPX ff atilde -133
KPX ff acircumflex -133
KPX ff aacute -133
KPX ff agrave -133
KPX ff a -133
KPX ffi idieresis 33
KPX ffi icircumflex 33
KPX ffi iacute 33
KPX ffi igrave 33
KPX ffi dotlessi 33
KPX ffi i 33
KPX ffl w -133
KPX ffl v -133
KPX ffl yacute -33
KPX ffl ydieresis -33
KPX ffl y -100
KPX ffl t -100
KPX ffl quoteright -100
KPX Ydieresis aring -100
KPX Ydieresis adieresis -100
KPX Ydieresis atilde -100
KPX Ydieresis acircumflex -100
KPX Ydieresis aacute -100
KPX Ydieresis agrave -100
KPX Ydieresis Aring -100
KPX Ydieresis Adieresis -100
KPX Ydieresis Atilde -100
KPX Ydieresis Acircumflex -100
KPX Ydieresis Aacute -100
KPX Ydieresis Agrave -100
KPX Ydieresis A -100
KPX Ydieresis a -100
KPX Agrave OE -33
KPX Agrave oslash -33
KPX Agrave w -133
KPX Agrave W -133
KPX Agrave v -133
KPX Agrave V -133
KPX Agrave yacute -100
KPX Agrave ydieresis -100
KPX Agrave y -100
KPX Agrave Yacute -100
KPX Agrave Ydieresis -100
KPX Agrave Y -100
KPX Agrave t -100
KPX Agrave T -100
KPX Agrave q -33
KPX Agrave Udieresis -33
KPX Agrave Ucircumflex -33
KPX Agrave Uacute -33
KPX Agrave Ugrave -33
KPX Agrave U -33
KPX Agrave udieresis -33
KPX Agrave ucircumflex -33
KPX Agrave uacute -33
KPX Agrave ugrave -33
KPX Agrave u -33
KPX Agrave g -33
KPX Agrave Oslash -33
KPX Agrave Odieresis -33
KPX Agrave Otilde -33
KPX Agrave Ocircumflex -33
KPX Agrave Oacute -33
KPX Agrave Ograve -33
KPX Agrave O -33
KPX Agrave oe -33
KPX Agrave odieresis -33
KPX Agrave otilde -33
KPX Agrave ocircumflex -33
KPX Agrave oacute -33
KPX Agrave ograve -33
KPX Agrave o -33
KPX Agrave Q -33
KPX Agrave Ccedilla -33
KPX Agrave G -33
KPX Agrave C -33
KPX Agrave ccedilla -33
KPX Agrave c -33
KPX Aacute OE -33
KPX Aacute oslash -33
KPX Aacute w -133
KPX Aacute W -133
KPX Aacute v -133
KPX Aacute V -133
KPX Aacute yacute -100
KPX Aacute ydieresis -100
KPX Aacute y -100
KPX Aacute Yacute -100
KPX Aacute Ydieresis -100
KPX Aacute Y -100
KPX Aacute t -100
KPX Aacute T -100
KPX Aacute q -33
KPX Aacute Udieresis -33
KPX Aacute Ucircumflex -33
KPX Aacute Uacute -33
KPX Aacute Ugrave -33
KPX Aacute U -33
KPX Aacute udieresis -33
KPX Aacute ucircumflex -33
KPX Aacute uacute -33
KPX Aacute ugrave -33
KPX Aacute u -33
KPX Aacute g -33
KPX Aacute Oslash -33
KPX Aacute Odieresis -33
KPX Aacute Otilde -33
KPX Aacute Ocircumflex -33
KPX Aacute Oacute -33
KPX Aacute Ograve -33
KPX Aacute O -33
KPX Aacute oe -33
KPX Aacute odieresis -33
KPX Aacute otilde -33
KPX Aacute ocircumflex -33
KPX Aacute oacute -33
KPX Aacute ograve -33
KPX Aacute o -33
KPX Aacute Q -33
KPX Aacute Ccedilla -33
KPX Aacute G -33
KPX Aacute C -33
KPX Aacute ccedilla -33
KPX Aacute c -33
KPX Acircumflex OE -33
KPX Acircumflex oslash -33
KPX Acircumflex w -133
KPX Acircumflex W -133
KPX Acircumflex v -133
KPX Acircumflex V -133
KPX Acircumflex yacute -100
KPX Acircumflex ydieresis -100
KPX Acircumflex y -100
KPX Acircumflex Yacute -100
KPX Acircumflex Ydieresis -100
KPX Acircumflex Y -100
KPX Acircumflex t -100
KPX Acircumflex T -100
KPX Acircumflex q -33
KPX Acircumflex Udieresis -33
KPX Acircumflex Ucircumflex -33
KPX Acircumflex Uacute -33
KPX Acircumflex Ugrave -33
KPX Acircumflex U -33
KPX Acircumflex udieresis -33
KPX Acircumflex ucircumflex -33
KPX Acircumflex uacute -33
KPX Acircumflex ugrave -33
KPX Acircumflex u -33
KPX Acircumflex g -33
KPX Acircumflex Oslash -33
KPX Acircumflex Odieresis -33
KPX Acircumflex Otilde -33
KPX Acircumflex Ocircumflex -33
KPX Acircumflex Oacute -33
KPX Acircumflex Ograve -33
KPX Acircumflex O -33
KPX Acircumflex oe -33
KPX Acircumflex odieresis -33
KPX Acircumflex otilde -33
KPX Acircumflex ocircumflex -33
KPX Acircumflex oacute -33
KPX Acircumflex ograve -33
KPX Acircumflex o -33
KPX Acircumflex Q -33
KPX Acircumflex Ccedilla -33
KPX Acircumflex G -33
KPX Acircumflex C -33
KPX Acircumflex ccedilla -33
KPX Acircumflex c -33
KPX Atilde OE -33
KPX Atilde oslash -33
KPX Atilde w -133
KPX Atilde W -133
KPX Atilde v -133
KPX Atilde V -133
KPX Atilde yacute -100
KPX Atilde ydieresis -100
KPX Atilde y -100
KPX Atilde Yacute -100
KPX Atilde Ydieresis -100
KPX Atilde Y -100
KPX Atilde t -100
KPX Atilde T -100
KPX Atilde q -33
KPX Atilde Udieresis -33
KPX Atilde Ucircumflex -33
KPX Atilde Uacute -33
KPX Atilde Ugrave -33
KPX Atilde U -33
KPX Atilde udieresis -33
KPX Atilde ucircumflex -33
KPX Atilde uacute -33
KPX Atilde ugrave -33
KPX Atilde u -33
KPX Atilde g -33
KPX Atilde Oslash -33
KPX Atilde Odieresis -33
KPX Atilde Otilde -33
KPX Atilde Ocircumflex -33
KPX Atilde Oacute -33
KPX Atilde Ograve -33
KPX Atilde O -33
KPX Atilde oe -33
KPX Atilde odieresis -33
KPX Atilde otilde -33
KPX Atilde ocircumflex -33
KPX Atilde oacute -33
KPX Atilde ograve -33
KPX Atilde o -33
KPX Atilde Q -33
KPX Atilde Ccedilla -33
KPX Atilde G -33
KPX Atilde C -33
KPX Atilde ccedilla -33
KPX Atilde c -33
KPX Adieresis OE -33
KPX Adieresis oslash -33
KPX Adieresis w -133
KPX Adieresis W -133
KPX Adieresis v -133
KPX Adieresis V -133
KPX Adieresis yacute -100
KPX Adieresis ydieresis -100
KPX Adieresis y -100
KPX Adieresis Yacute -100
KPX Adieresis Ydieresis -100
KPX Adieresis Y -100
KPX Adieresis t -100
KPX Adieresis T -100
KPX Adieresis q -33
KPX Adieresis Udieresis -33
KPX Adieresis Ucircumflex -33
KPX Adieresis Uacute -33
KPX Adieresis Ugrave -33
KPX Adieresis U -33
KPX Adieresis udieresis -33
KPX Adieresis ucircumflex -33
KPX Adieresis uacute -33
KPX Adieresis ugrave -33
KPX Adieresis u -33
KPX Adieresis g -33
KPX Adieresis Oslash -33
KPX Adieresis Odieresis -33
KPX Adieresis Otilde -33
KPX Adieresis Ocircumflex -33
KPX Adieresis Oacute -33
KPX Adieresis Ograve -33
KPX Adieresis O -33
KPX Adieresis oe -33
KPX Adieresis odieresis -33
KPX Adieresis otilde -33
KPX Adieresis ocircumflex -33
KPX Adieresis oacute -33
KPX Adieresis ograve -33
KPX Adieresis o -33
KPX Adieresis Q -33
KPX Adieresis Ccedilla -33
KPX Adieresis G -33
KPX Adieresis C -33
KPX Adieresis ccedilla -33
KPX Adieresis c -33
KPX Aring OE -33
KPX Aring oslash -33
KPX Aring w -133
KPX Aring W -133
KPX Aring v -133
KPX Aring V -133
KPX Aring yacute -100
KPX Aring ydieresis -100
KPX Aring y -100
KPX Aring Yacute -100
KPX Aring Ydieresis -100
KPX Aring Y -100
KPX Aring t -100
KPX Aring T -100
KPX Aring q -33
KPX Aring Udieresis -33
KPX Aring Ucircumflex -33
KPX Aring Uacute -33
KPX Aring Ugrave -33
KPX Aring U -33
KPX Aring udieresis -33
KPX Aring ucircumflex -33
KPX Aring uacute -33
KPX Aring ugrave -33
KPX Aring u -33
KPX Aring g -33
KPX Aring Oslash -33
KPX Aring Odieresis -33
KPX Aring Otilde -33
KPX Aring Ocircumflex -33
KPX Aring Oacute -33
KPX Aring Ograve -33
KPX Aring O -33
KPX Aring oe -33
KPX Aring odieresis -33
KPX Aring otilde -33
KPX Aring ocircumflex -33
KPX Aring oacute -33
KPX Aring ograve -33
KPX Aring o -33
KPX Aring Q -33
KPX Aring Ccedilla -33
KPX Aring G -33
KPX Aring C -33
KPX Aring ccedilla -33
KPX Aring c -33
KPX Igrave Icircumflex 33
KPX Igrave Iacute 33
KPX Igrave Igrave 33
KPX Igrave I 33
KPX Iacute Icircumflex 33
KPX Iacute Iacute 33
KPX Iacute Igrave 33
KPX Iacute I 33
KPX Icircumflex Icircumflex 33
KPX Icircumflex Iacute 33
KPX Icircumflex Igrave 33
KPX Icircumflex I 33
KPX Ograve Ydieresis -33
KPX Ograve Yacute -33
KPX Ograve Y -33
KPX Ograve ydieresis -33
KPX Ograve yacute -33
KPX Ograve y -33
KPX Ograve V -33
KPX Ograve v -33
KPX Ograve Aring -33
KPX Ograve Adieresis -33
KPX Ograve Atilde -33
KPX Ograve Acircumflex -33
KPX Ograve Aacute -33
KPX Ograve Agrave -33
KPX Ograve A -33
KPX Ograve ae -33
KPX Ograve aring -33
KPX Ograve adieresis -33
KPX Ograve atilde -33
KPX Ograve acircumflex -33
KPX Ograve aacute -33
KPX Ograve agrave -33
KPX Ograve a -33
KPX Ograve W -33
KPX Ograve w -33
KPX Ograve X -33
KPX Ograve x -33
KPX Oacute Ydieresis -33
KPX Oacute Yacute -33
KPX Oacute Y -33
KPX Oacute ydieresis -33
KPX Oacute yacute -33
KPX Oacute y -33
KPX Oacute V -33
KPX Oacute v -33
KPX Oacute Aring -33
KPX Oacute Adieresis -33
KPX Oacute Atilde -33
KPX Oacute Acircumflex -33
KPX Oacute Aacute -33
KPX Oacute Agrave -33
KPX Oacute A -33
KPX Oacute ae -33
KPX Oacute aring -33
KPX Oacute adieresis -33
KPX Oacute atilde -33
KPX Oacute acircumflex -33
KPX Oacute aacute -33
KPX Oacute agrave -33
KPX Oacute a -33
KPX Oacute W -33
KPX Oacute w -33
KPX Oacute X -33
KPX Oacute x -33
KPX Ocircumflex Ydieresis -33
KPX Ocircumflex Yacute -33
KPX Ocircumflex Y -33
KPX Ocircumflex ydieresis -33
KPX Ocircumflex yacute -33
KPX Ocircumflex y -33
KPX Ocircumflex V -33
KPX Ocircumflex v -33
KPX Ocircumflex Aring -33
KPX Ocircumflex Adieresis -33
KPX Ocircumflex Atilde -33
KPX Ocircumflex Acircumflex -33
KPX Ocircumflex Aacute -33
KPX Ocircumflex Agrave -33
KPX Ocircumflex A -33
KPX Ocircumflex ae -33
KPX Ocircumflex aring -33
KPX Ocircumflex adieresis -33
KPX Ocircumflex atilde -33
KPX Ocircumflex acircumflex -33
KPX Ocircumflex aacute -33
KPX Ocircumflex agrave -33
KPX Ocircumflex a -33
KPX Ocircumflex W -33
KPX Ocircumflex w -33
KPX Ocircumflex X -33
KPX Ocircumflex x -33
KPX Otilde Ydieresis -33
KPX Otilde Yacute -33
KPX Otilde Y -33
KPX Otilde ydieresis -33
KPX Otilde yacute -33
KPX Otilde y -33
KPX Otilde V -33
KPX Otilde v -33
KPX Otilde Aring -33
KPX Otilde Adieresis -33
KPX Otilde Atilde -33
KPX Otilde Acircumflex -33
KPX Otilde Aacute -33
KPX Otilde Agrave -33
KPX Otilde A -33
KPX Otilde ae -33
KPX Otilde aring -33
KPX Otilde adieresis -33
KPX Otilde atilde -33
KPX Otilde acircumflex -33
KPX Otilde aacute -33
KPX Otilde agrave -33
KPX Otilde a -33
KPX Otilde W -33
KPX Otilde w -33
KPX Otilde X -33
KPX Otilde x -33
KPX Odieresis Ydieresis -33
KPX Odieresis Yacute -33
KPX Odieresis Y -33
KPX Odieresis ydieresis -33
KPX Odieresis yacute -33
KPX Odieresis y -33
KPX Odieresis V -33
KPX Odieresis v -33
KPX Odieresis Aring -33
KPX Odieresis Adieresis -33
KPX Odieresis Atilde -33
KPX Odieresis Acircumflex -33
KPX Odieresis Aacute -33
KPX Odieresis Agrave -33
KPX Odieresis A -33
KPX Odieresis ae -33
KPX Odieresis aring -33
KPX Odieresis adieresis -33
KPX Odieresis atilde -33
KPX Odieresis acircumflex -33
KPX Odieresis aacute -33
KPX Odieresis agrave -33
KPX Odieresis a -33
KPX Odieresis W -33
KPX Odieresis w -33
KPX Odieresis X -33
KPX Odieresis x -33
KPX Yacute aring -100
KPX Yacute adieresis -100
KPX Yacute atilde -100
KPX Yacute acircumflex -100
KPX Yacute aacute -100
KPX Yacute agrave -100
KPX Yacute Aring -100
KPX Yacute Adieresis -100
KPX Yacute Atilde -100
KPX Yacute Acircumflex -100
KPX Yacute Aacute -100
KPX Yacute Agrave -100
KPX Yacute A -100
KPX Yacute a -100
KPX agrave oslash -33
KPX agrave w -133
KPX agrave v -133
KPX agrave yacute -33
KPX agrave ydieresis -33
KPX agrave y -100
KPX agrave t -100
KPX agrave quoteright -100
KPX agrave q -33
KPX agrave udieresis -33
KPX agrave ucircumflex -33
KPX agrave uacute -33
KPX agrave ugrave -33
KPX agrave u -33
KPX agrave g -33
KPX agrave oe -33
KPX agrave odieresis -33
KPX agrave otilde -33
KPX agrave ocircumflex -33
KPX agrave oacute -33
KPX agrave ograve -33
KPX agrave o -33
KPX agrave ccedilla -33
KPX agrave c -33
KPX aacute oslash -33
KPX aacute w -133
KPX aacute v -133
KPX aacute yacute -33
KPX aacute ydieresis -33
KPX aacute y -100
KPX aacute t -100
KPX aacute quoteright -100
KPX aacute q -33
KPX aacute udieresis -33
KPX aacute ucircumflex -33
KPX aacute uacute -33
KPX aacute ugrave -33
KPX aacute u -33
KPX aacute g -33
KPX aacute oe -33
KPX aacute odieresis -33
KPX aacute otilde -33
KPX aacute ocircumflex -33
KPX aacute oacute -33
KPX aacute ograve -33
KPX aacute o -33
KPX aacute ccedilla -33
KPX aacute c -33
KPX acircumflex oslash -33
KPX acircumflex w -133
KPX acircumflex v -133
KPX acircumflex yacute -33
KPX acircumflex ydieresis -33
KPX acircumflex y -100
KPX acircumflex t -100
KPX acircumflex quoteright -100
KPX acircumflex q -33
KPX acircumflex udieresis -33
KPX acircumflex ucircumflex -33
KPX acircumflex uacute -33
KPX acircumflex ugrave -33
KPX acircumflex u -33
KPX acircumflex g -33
KPX acircumflex oe -33
KPX acircumflex odieresis -33
KPX acircumflex otilde -33
KPX acircumflex ocircumflex -33
KPX acircumflex oacute -33
KPX acircumflex ograve -33
KPX acircumflex o -33
KPX acircumflex ccedilla -33
KPX acircumflex c -33
KPX atilde oslash -33
KPX atilde w -133
KPX atilde v -133
KPX atilde yacute -33
KPX atilde ydieresis -33
KPX atilde y -100
KPX atilde t -100
KPX atilde quoteright -100
KPX atilde q -33
KPX atilde udieresis -33
KPX atilde ucircumflex -33
KPX atilde uacute -33
KPX atilde ugrave -33
KPX atilde u -33
KPX atilde g -33
KPX atilde oe -33
KPX atilde odieresis -33
KPX atilde otilde -33
KPX atilde ocircumflex -33
KPX atilde oacute -33
KPX atilde ograve -33
KPX atilde o -33
KPX atilde ccedilla -33
KPX atilde c -33
KPX adieresis oslash -33
KPX adieresis w -133
KPX adieresis v -133
KPX adieresis yacute -33
KPX adieresis ydieresis -33
KPX adieresis y -100
KPX adieresis t -100
KPX adieresis quoteright -100
KPX adieresis q -33
KPX adieresis udieresis -33
KPX adieresis ucircumflex -33
KPX adieresis uacute -33
KPX adieresis ugrave -33
KPX adieresis u -33
KPX adieresis g -33
KPX adieresis oe -33
KPX adieresis odieresis -33
KPX adieresis otilde -33
KPX adieresis ocircumflex -33
KPX adieresis oacute -33
KPX adieresis ograve -33
KPX adieresis o -33
KPX adieresis ccedilla -33
KPX adieresis c -33
KPX aring oslash -33
KPX aring w -133
KPX aring v -133
KPX aring yacute -33
KPX aring ydieresis -33
KPX aring y -100
KPX aring t -100
KPX aring quoteright -100
KPX aring q -33
KPX aring udieresis -33
KPX aring ucircumflex -33
KPX aring uacute -33
KPX aring ugrave -33
KPX aring u -33
KPX aring g -33
KPX aring oe -33
KPX aring odieresis -33
KPX aring otilde -33
KPX aring ocircumflex -33
KPX aring oacute -33
KPX aring ograve -33
KPX aring o -33
KPX aring ccedilla -33
KPX aring c -33
KPX igrave idieresis 33
KPX igrave icircumflex 33
KPX igrave iacute 33
KPX igrave igrave 33
KPX igrave dotlessi 33
KPX igrave i 33
KPX iacute idieresis 33
KPX iacute icircumflex 33
KPX iacute iacute 33
KPX iacute igrave 33
KPX iacute dotlessi 33
KPX iacute i 33
KPX icircumflex idieresis 33
KPX icircumflex icircumflex 33
KPX icircumflex iacute 33
KPX icircumflex igrave 33
KPX icircumflex dotlessi 33
KPX icircumflex i 33
KPX idieresis idieresis 33
KPX idieresis icircumflex 33
KPX idieresis iacute 33
KPX idieresis igrave 33
KPX idieresis dotlessi 33
KPX idieresis i 33
KPX ograve yacute -33
KPX ograve ydieresis -33
KPX ograve y -33
KPX ograve v -33
KPX ograve ae -33
KPX ograve aring -33
KPX ograve adieresis -33
KPX ograve atilde -33
KPX ograve acircumflex -33
KPX ograve aacute -33
KPX ograve agrave -33
KPX ograve a -33
KPX ograve w -33
KPX ograve x -33
KPX oacute yacute -33
KPX oacute ydieresis -33
KPX oacute y -33
KPX oacute v -33
KPX oacute ae -33
KPX oacute aring -33
KPX oacute adieresis -33
KPX oacute atilde -33
KPX oacute acircumflex -33
KPX oacute aacute -33
KPX oacute agrave -33
KPX oacute a -33
KPX oacute w -33
KPX oacute x -33
KPX ocircumflex yacute -33
KPX ocircumflex ydieresis -33
KPX ocircumflex y -33
KPX ocircumflex v -33
KPX ocircumflex ae -33
KPX ocircumflex aring -33
KPX ocircumflex adieresis -33
KPX ocircumflex atilde -33
KPX ocircumflex acircumflex -33
KPX ocircumflex aacute -33
KPX ocircumflex agrave -33
KPX ocircumflex a -33
KPX ocircumflex w -33
KPX ocircumflex x -33
KPX otilde yacute -33
KPX otilde ydieresis -33
KPX otilde y -33
KPX otilde v -33
KPX otilde ae -33
KPX otilde aring -33
KPX otilde adieresis -33
KPX otilde atilde -33
KPX otilde acircumflex -33
KPX otilde aacute -33
KPX otilde agrave -33
KPX otilde a -33
KPX otilde w -33
KPX otilde x -33
KPX odieresis yacute -33
KPX odieresis ydieresis -33
KPX odieresis y -33
KPX odieresis v -33
KPX odieresis ae -33
KPX odieresis aring -33
KPX odieresis adieresis -33
KPX odieresis atilde -33
KPX odieresis acircumflex -33
KPX odieresis aacute -33
KPX odieresis agrave -33
KPX odieresis a -33
KPX odieresis w -33
KPX odieresis x -33
KPX yacute ae -100
KPX yacute aring -100
KPX yacute adieresis -100
KPX yacute atilde -100
KPX yacute acircumflex -100
KPX yacute aacute -100
KPX yacute agrave -100
KPX yacute a -100
KPX ydieresis ae -100
KPX ydieresis aring -100
KPX ydieresis adieresis -100
KPX ydieresis atilde -100
KPX ydieresis acircumflex -100
KPX ydieresis aacute -100
KPX ydieresis agrave -100
KPX ydieresis a -100
EndKernPairs
EndKernData
EndFontMetrics
