StartFontMetrics 2.0
Comment Generated by pfaedit
Comment Creation Date: Sat May  7 02:06:31 2005
FontName CMRomanAsian-ItalicOsF
FullName Computer Modern Roman Asian Cyrillic Italic Old Style Figures
FamilyName CM Roman Asian
Weight Regular
Notice (Converted by Alexej Kryukov from METAFONT sources. )
Comment 
Comment This font is subject to the GNU General Public License as published by the Free Software Foundation; either version 2 of the License, or (at your option) any later version.
Comment 
Comment This font is distributed in the hope that it will be useful, but WITHOUT ANY WARRANTY; without even the implied warranty of MERCHANTABILITY or FITNESS FOR A PARTICULAR PURPOSE.  See the GNU General Pu
Comment blic License for more details.
ItalicAngle -14
IsFixedPitch false
UnderlinePosition -100
UnderlineThickness 50
Version 001.001
EncodingScheme ParatypeCyrillicAsianEncoding
FontBBox -36 -272 1257 893
CapHeight 684
XHeight 442
Ascender 695
Descender -193
StartCharMetrics 226
C 0 ; WX 307 ; N .notdef ; B 0 0 0 0 ;
C 1 ; WX 934 ; N uni04A4 ; B 61 0 1052 685 ;
C 17 ; WX 677 ; N uni04A5 ; B 83 -10 736 442 ;
C 32 ; WX 307 ; N space ; B 0 0 0 0 ;
C 33 ; WX 307 ; N exclam ; B 112 0 375 717 ;
C 34 ; WX 511 ; N quotedbl ; B 254 336 541 707 ;
C 35 ; WX 818 ; N numbersign ; B 115 -193 828 695 ;
C 36 ; WX 511 ; N dollar ; B 115 -55 572 752 ;
C 37 ; WX 818 ; N percent ; B 145 -56 847 751 ;
C 38 ; WX 766 ; N ampersand ; B 127 -21 803 718 ;
C 39 ; WX 307 ; N quotesingle ; B 229 336 362 706 ;
C 40 ; WX 409 ; N parenleft ; B 152 -249 517 751 ;
C 41 ; WX 409 ; N parenright ; B 17 -250 382 751 ;
C 42 ; WX 511 ; N asterisk ; B 195 320 584 752 ;
C 43 ; WX 766 ; N plus ; B 140 -56 751 558 ;
C 44 ; WX 307 ; N comma ; B 73 -193 224 107 ;
C 45 ; WX 358 ; N hyphen ; B 86 187 339 245 ;
C 46 ; WX 307 ; N period ; B 113 1 221 107 ;
C 47 ; WX 511 ; N slash ; B 17 -249 619 751 ;
C 48 ; WX 511 ; N zero ; B 101 -22 517 454 ;
C 49 ; WX 511 ; N one ; B 117 0 416 454 ;
C 50 ; WX 511 ; N two ; B 84 -22 513 454 ;
C 51 ; WX 511 ; N three ; B 44 -216 511 453 ;
C 52 ; WX 511 ; N four ; B 44 -193 474 454 ;
C 53 ; WX 511 ; N five ; B 58 -216 514 453 ;
C 54 ; WX 511 ; N six ; B 119 -22 568 667 ;
C 55 ; WX 511 ; N seven ; B 96 -216 572 454 ;
C 56 ; WX 511 ; N eight ; B 97 -22 553 668 ;
C 57 ; WX 511 ; N nine ; B 55 -216 501 454 ;
C 58 ; WX 307 ; N colon ; B 113 1 302 431 ;
C 59 ; WX 307 ; N semicolon ; B 73 -193 302 431 ;
C 60 ; WX 766 ; N less ; B 165 -30 793 532 ;
C 61 ; WX 766 ; N equal ; B 116 142 776 360 ;
C 62 ; WX 766 ; N greater ; B 98 -30 726 532 ;
C 63 ; WX 511 ; N question ; B 193 0 550 717 ;
C 64 ; WX 766 ; N at ; B 150 -10 789 706 ;
C 65 ; WX 743 ; N A ; B 58 0 692 717 ;
C 66 ; WX 704 ; N B ; B 64 0 735 685 ;
C 67 ; WX 715 ; N C ; B 149 -21 812 707 ;
C 68 ; WX 755 ; N D ; B 63 0 776 685 ;
C 69 ; WX 678 ; N E ; B 62 0 743 682 ;
C 70 ; WX 653 ; N F ; B 61 0 731 682 ;
C 71 ; WX 773 ; N G ; B 149 -21 812 707 ;
C 72 ; WX 743 ; N H ; B 62 1 852 684 ;
C 73 ; WX 385 ; N I ; B 56 0 499 685 ;
C 74 ; WX 525 ; N J ; B 92 -22 622 684 ;
C 75 ; WX 769 ; N K ; B 61 0 859 685 ;
C 76 ; WX 627 ; N L ; B 61 0 625 685 ;
C 77 ; WX 896 ; N M ; B 66 0 1001 685 ;
C 78 ; WX 743 ; N N ; B 62 1 853 685 ; L o afii61352 ;
C 79 ; WX 766 ; N O ; B 148 -22 788 706 ;
C 80 ; WX 678 ; N P ; B 62 1 731 685 ;
C 81 ; WX 766 ; N Q ; B 148 -194 788 707 ;
C 82 ; WX 729 ; N R ; B 63 -21 723 685 ;
C 83 ; WX 562 ; N S ; B 74 -21 632 706 ;
C 84 ; WX 715 ; N T ; B 175 0 806 679 ;
C 85 ; WX 743 ; N U ; B 201 -22 852 685 ;
C 86 ; WX 743 ; N V ; B 209 -21 868 685 ;
C 87 ; WX 999 ; N W ; B 208 -21 1125 685 ;
C 88 ; WX 743 ; N X ; B 50 0 825 685 ;
C 89 ; WX 743 ; N Y ; B 202 1 875 685 ;
C 90 ; WX 613 ; N Z ; B 79 0 704 685 ;
C 91 ; WX 307 ; N bracketleft ; B 62 -250 446 752 ;
C 92 ; WX 511 ; N backslash ; B 262 -249 374 751 ;
C 93 ; WX 307 ; N bracketright ; B -14 -250 370 752 ;
C 94 ; WX 613 ; N asciicircum ; B 246 460 605 629 ;
C 95 ; WX 766 ; N underscore ; B 50 -233 610 -191 ;
C 96 ; WX 511 ; N grave ; B 273 498 423 653 ;
C 97 ; WX 511 ; N a ; B 108 -12 535 443 ;
C 98 ; WX 460 ; N b ; B 115 -10 460 695 ;
C 99 ; WX 460 ; N c ; B 110 -10 470 443 ;
C 100 ; WX 511 ; N d ; B 108 -12 560 695 ;
C 101 ; WX 460 ; N e ; B 114 -11 468 443 ;
C 102 ; WX 307 ; N f ; B -25 -205 452 706 ;
C 103 ; WX 460 ; N g ; B 52 -205 487 443 ;
C 104 ; WX 511 ; N h ; B 76 -11 536 695 ;
C 105 ; WX 307 ; N i ; B 83 -11 332 657 ;
C 106 ; WX 307 ; N j ; B -36 -205 358 657 ;
C 107 ; WX 460 ; N k ; B 75 -10 502 695 ;
C 108 ; WX 255 ; N l ; B 93 -11 305 695 ;
C 109 ; WX 818 ; N m ; B 84 -11 843 443 ;
C 110 ; WX 562 ; N n ; B 83 -11 587 442 ;
C 111 ; WX 511 ; N o ; B 110 -11 509 443 ;
C 112 ; WX 511 ; N p ; B 14 -194 511 443 ;
C 113 ; WX 460 ; N q ; B 108 -194 496 443 ;
C 114 ; WX 422 ; N r ; B 84 -10 490 443 ;
C 115 ; WX 409 ; N s ; B 75 -10 419 442 ;
C 116 ; WX 332 ; N t ; B 90 -11 373 627 ;
C 117 ; WX 537 ; N u ; B 83 -11 562 442 ;
C 118 ; WX 460 ; N v ; B 83 -11 492 443 ;
C 119 ; WX 664 ; N w ; B 84 -11 696 443 ;
C 120 ; WX 464 ; N x ; B 53 -11 519 443 ;
C 121 ; WX 485 ; N y ; B 84 -204 516 442 ;
C 122 ; WX 409 ; N z ; B 62 -11 465 443 ;
C 123 ; WX 511 ; N braceleft ; B 154 -250 604 752 ;
C 124 ; WX 307 ; N bar ; B 77 -249 357 751 ;
C 125 ; WX 511 ; N braceright ; B 32 -250 482 752 ;
C 126 ; WX 613 ; N asciitilde ; B 248 568 674 669 ;
C 128 ; WX 1167 ; N uni0496 ; B 67 -194 1257 684 ;
C 129 ; WX 627 ; N uni0492 ; B 62 1 706 684 ;
C 130 ; WX 743 ; N uni04EE ; B 171 -21 868 844 ;
C 131 ; WX 422 ; N uni0493 ; B 100 -11 438 442 ;
C 132 ; WX 361 ; N quotedblbase ; B 1 -192 351 107 ;
C 133 ; WX 1135 ; N ellipsis ; B 113 1 1049 107 ;
C 134 ; WX 769 ; N uni04B6 ; B 224 -193 879 685 ;
C 135 ; WX 743 ; N uni04AE ; B 202 1 875 685 ;
C 136 ; WX 743 ; N uni04B2 ; B 50 -194 825 685 ;
C 137 ; WX 615 ; N uni04AF ; B 83 -194 687 442 ;
C 138 ; WX 934 ; N uni04A0 ; B 176 0 1024 685 ;
C 139 ; WX 769 ; N uni04E2 ; B 61 0 878 844 ;
C 140 ; WX 769 ; N uni04A2 ; B 61 -194 878 684 ;
C 141 ; WX 783 ; N uni049A ; B 61 -193 875 685 ;
C 142 ; WX 769 ; N uni04BA ; B 61 0 715 684 ;
C 143 ; WX 769 ; N uni04B8 ; B 224 0 878 685 ;
C 144 ; WX 1048 ; N uni0497 ; B 71 -204 1059 443 ;
C 145 ; WX 307 ; N quoteleft ; B 208 395 360 695 ;
C 146 ; WX 307 ; N quoteright ; B 220 395 372 695 ;
C 147 ; WX 361 ; N quotedblleft ; B 135 395 485 694 ;
C 148 ; WX 361 ; N quotedblright ; B 148 396 498 695 ;
C 149 ; WX 511 ; N bullet ; B 135 71 500 431 ;
C 150 ; WX 511 ; N endash ; B 92 255 552 279 ;
C 151 ; WX 843 ; N emdash ; B 131 255 845 279 ;
C 152 ; WX 520 ; N uni04B3 ; B 53 -204 569 443 ;
C 153 ; WX 542 ; N uni04B7 ; B 83 -204 550 442 ;
C 154 ; WX 626 ; N uni04A1 ; B 115 -10 668 442 ;
C 155 ; WX 562 ; N uni04E3 ; B 83 -11 591 591 ;
C 156 ; WX 567 ; N uni04A3 ; B 83 -204 575 442 ;
C 157 ; WX 516 ; N uni049B ; B 83 -204 553 443 ;
C 158 ; WX 511 ; N uni04BB ; B 76 -11 536 695 ;
C 159 ; WX 537 ; N uni04B9 ; B 83 -10 562 442 ;
C 160 ; WX 307 ; N nonbreakingspace ; B 0 0 0 0 ;
C 161 ; WX 743 ; N afii10062 ; B 171 -21 868 892 ;
C 162 ; WX 511 ; N afii10110 ; B 83 -205 540 640 ;
C 163 ; WX 525 ; N afii10057 ; B 92 -22 622 684 ;
C 164 ; WX 766 ; N uni04E8 ; B 148 -22 788 706 ;
C 165 ; WX 613 ; N uni0498 ; B 110 -216 659 707 ;
C 166 ; WX 743 ; N uni04B0 ; B 202 0 875 685 ;
C 167 ; WX 460 ; N section ; B 78 -205 507 707 ;
C 168 ; WX 678 ; N afii10023 ; B 61 0 743 892 ;
C 169 ; WX 1073 ; N copyright ; B 122 -272 1078 773 ;
C 170 ; WX 673 ; N uni04D8 ; B 115 -22 708 706 ;
C 171 ; WX 562 ; N guillemotleft ; B 182 0 558 432 ;
C 172 ; WX 664 ; N logicalnot ; B 161 91 671 358 ;
C 173 ; WX 511 ; N uni04EF ; B 83 -205 566 591 ;
C 174 ; WX 1073 ; N registered ; B 122 -272 1078 773 ;
C 175 ; WX 845 ; N uni049C ; B 62 0 936 685 ;
C 176 ; WX 358 ; N degree ; B 220 479 429 685 ;
C 177 ; WX 615 ; N uni04B1 ; B 83 -194 687 442 ;
C 178 ; WX 385 ; N afii10055 ; B 56 0 499 685 ;
C 179 ; WX 307 ; N afii10103 ; B 83 -11 332 657 ;
C 180 ; WX 460 ; N uni0499 ; B 45 -216 457 444 ;
C 181 ; WX 511 ; N uni04E9 ; B 110 -11 509 443 ;
C 182 ; WX 613 ; N paragraph ; B 186 -194 730 696 ;
C 183 ; WX 307 ; N periodcentered ; B 160 190 269 296 ;
C 184 ; WX 442 ; N afii10071 ; B 106 -11 508 660 ;
C 185 ; WX 856 ; N afii61352 ; B 46 -11 897 696 ;
C 186 ; WX 442 ; N afii10846 ; B 83 -11 463 443 ;
C 187 ; WX 562 ; N guillemotright ; B 112 1 487 432 ;
C 188 ; WX 307 ; N afii10105 ; B -36 -205 358 657 ;
C 189 ; WX 715 ; N uni04AA ; B 150 -215 812 706 ;
C 190 ; WX 442 ; N uni04AB ; B 78 -216 452 443 ;
C 191 ; WX 562 ; N uni049D ; B 83 -11 604 443 ;
C 192 ; WX 743 ; N afii10017 ; B 58 0 692 717 ;
C 193 ; WX 704 ; N afii10018 ; B 64 0 719 685 ;
C 194 ; WX 704 ; N afii10019 ; B 64 0 735 685 ;
C 195 ; WX 627 ; N afii10020 ; B 62 0 706 684 ;
C 196 ; WX 769 ; N afii10021 ; B -22 -194 878 685 ;
C 197 ; WX 678 ; N afii10022 ; B 61 0 743 685 ;
C 198 ; WX 1152 ; N afii10024 ; B 67 0 1241 685 ;
C 199 ; WX 613 ; N afii10025 ; B 110 -21 659 707 ;
C 200 ; WX 769 ; N afii10026 ; B 61 0 878 685 ;
C 201 ; WX 769 ; N afii10027 ; B 61 0 878 893 ;
C 202 ; WX 769 ; N afii10028 ; B 61 0 859 685 ;
C 203 ; WX 769 ; N afii10029 ; B 70 -21 878 685 ;
C 204 ; WX 896 ; N afii10030 ; B 66 0 1001 685 ;
C 205 ; WX 769 ; N afii10031 ; B 61 0 878 684 ;
C 206 ; WX 766 ; N afii10032 ; B 148 -22 788 706 ;
C 207 ; WX 769 ; N afii10033 ; B 62 0 878 685 ;
C 208 ; WX 678 ; N afii10034 ; B 62 1 731 685 ;
C 209 ; WX 715 ; N afii10035 ; B 149 -21 812 707 ;
C 210 ; WX 715 ; N afii10036 ; B 176 0 807 685 ;
C 211 ; WX 743 ; N afii10037 ; B 171 -21 868 685 ;
C 212 ; WX 818 ; N afii10038 ; B 157 0 839 685 ;
C 213 ; WX 743 ; N afii10039 ; B 50 0 825 685 ;
C 214 ; WX 769 ; N afii10040 ; B 61 -194 878 685 ;
C 215 ; WX 769 ; N afii10041 ; B 224 0 878 685 ;
C 216 ; WX 1088 ; N afii10042 ; B 61 0 1198 685 ;
C 217 ; WX 1088 ; N afii10043 ; B 61 -193 1199 685 ;
C 218 ; WX 869 ; N afii10044 ; B 176 0 846 685 ;
C 219 ; WX 948 ; N afii10045 ; B 64 0 1049 685 ;
C 220 ; WX 704 ; N afii10046 ; B 64 0 681 684 ;
C 221 ; WX 715 ; N afii10047 ; B 121 -22 735 707 ;
C 222 ; WX 1087 ; N afii10048 ; B 61 -21 1109 707 ;
C 223 ; WX 769 ; N afii10049 ; B 67 0 878 685 ;
C 224 ; WX 493 ; N afii10065 ; B 90 -12 517 443 ;
C 225 ; WX 475 ; N afii10066 ; B 90 -10 587 696 ;
C 226 ; WX 493 ; N afii10067 ; B 99 -11 496 443 ;
C 227 ; WX 422 ; N afii10068 ; B 101 -11 429 443 ;
C 228 ; WX 475 ; N afii10069 ; B 90 -10 532 707 ;
C 229 ; WX 442 ; N afii10070 ; B 96 -11 450 443 ;
C 230 ; WX 1048 ; N afii10072 ; B 71 -11 1058 443 ;
C 231 ; WX 460 ; N afii10073 ; B 65 -11 457 444 ;
C 232 ; WX 562 ; N afii10074 ; B 83 -11 587 442 ;
C 233 ; WX 562 ; N afii10075 ; B 83 -11 587 639 ;
C 234 ; WX 511 ; N afii10076 ; B 83 -10 553 443 ;
C 235 ; WX 537 ; N afii10077 ; B 55 -10 562 443 ;
C 236 ; WX 741 ; N afii10078 ; B 56 -11 766 432 ;
C 237 ; WX 562 ; N afii10079 ; B 83 -10 587 442 ;
C 238 ; WX 475 ; N afii10080 ; B 92 -11 491 443 ;
C 239 ; WX 562 ; N afii10081 ; B 83 -11 587 442 ;
C 240 ; WX 506 ; N afii10082 ; B 14 -194 523 443 ;
C 241 ; WX 442 ; N afii10083 ; B 92 -10 452 443 ;
C 242 ; WX 818 ; N afii10084 ; B 84 -11 843 443 ;
C 243 ; WX 511 ; N afii10085 ; B 83 -205 540 443 ;
C 244 ; WX 680 ; N afii10086 ; B 91 -204 698 707 ;
C 245 ; WX 540 ; N afii10087 ; B 66 -11 582 443 ;
C 246 ; WX 567 ; N afii10088 ; B 83 -204 575 443 ;
C 247 ; WX 537 ; N afii10089 ; B 83 -10 562 442 ;
C 248 ; WX 818 ; N afii10090 ; B 83 -11 843 443 ;
C 249 ; WX 823 ; N afii10091 ; B 83 -204 831 442 ;
C 250 ; WX 485 ; N afii10092 ; B 91 -10 488 440 ;
C 251 ; WX 664 ; N afii10093 ; B 83 -12 690 443 ;
C 252 ; WX 511 ; N afii10094 ; B 83 -11 514 443 ;
C 253 ; WX 442 ; N afii10095 ; B 57 -10 459 443 ;
C 254 ; WX 723 ; N afii10096 ; B 83 -11 739 442 ;
C 255 ; WX 537 ; N afii10097 ; B 56 -10 562 432 ;
EndCharMetrics
StartKernData
StartKernPairs 873
KPX uni04A4 colon -77
KPX uni04A4 semicolon -77
KPX uni04A4 comma -77
KPX uni04A4 period -77
KPX uni04A4 afii10078 -77
KPX uni04A4 afii10077 -77
KPX uni04A4 uni04A1 -77
KPX uni04A4 afii10092 -77
KPX uni04A4 uni04B1 -77
KPX uni04A4 uni04AF -77
KPX uni04A4 afii10110 -77
KPX uni04A4 afii10085 -77
KPX uni04A4 afii10093 -77
KPX uni04A4 afii10094 -77
KPX uni04A4 afii10091 -77
KPX uni04A4 afii10090 -77
KPX uni04A4 afii10088 -77
KPX uni04A4 afii10075 -77
KPX uni04A4 afii10074 -77
KPX uni04A4 afii10086 -77
KPX uni04A4 uni04AB -77
KPX uni04A4 afii10083 -77
KPX uni04A4 afii10071 -77
KPX uni04A4 afii10070 -77
KPX uni04A4 uni04E9 -77
KPX uni04A4 afii10080 -77
KPX uni04A4 afii10065 -77
KPX uni04A4 afii10029 -26
KPX uni04A4 afii10049 -77
KPX uni04A4 afii10021 -77
KPX uni04A4 afii10017 -77
KPX A q -51
KPX A g -51
KPX A c -51
KPX A d -51
KPX A o -51
KPX A a -51
KPX A e -51
KPX A W -102
KPX A V -102
KPX A Y -77
KPX A T -77
KPX A U -26
KPX A O -26
KPX A Q -26
KPX A G -26
KPX A C -26
KPX A w -26
KPX A v -26
KPX A k -26
KPX A b -26
KPX A h -26
KPX A i -26
KPX A t -26
KPX A m -26
KPX A u -26
KPX A r -26
KPX A l -26
KPX A n -26
KPX A y -26
KPX D Y -26
KPX D V -26
KPX D A -26
KPX D W -26
KPX D X -26
KPX F Q -26
KPX F G -26
KPX F C -26
KPX F O -26
KPX F A -102
KPX F a -77
KPX F v -77
KPX F n -77
KPX F r -77
KPX F u -77
KPX F e -77
KPX F o -77
KPX K Q -26
KPX K G -26
KPX K C -26
KPX K O -26
KPX K w -26
KPX K v -26
KPX L q -51
KPX L g -51
KPX L c -51
KPX L d -51
KPX L o -51
KPX L a -51
KPX L e -51
KPX L W -102
KPX L V -102
KPX L Y -77
KPX L T -77
KPX O Y -26
KPX O V -26
KPX O A -26
KPX O W -26
KPX O X -26
KPX P A -77
KPX R q -51
KPX R g -51
KPX R c -51
KPX R d -51
KPX R o -51
KPX R a -51
KPX R e -51
KPX R W -102
KPX R V -102
KPX R Y -77
KPX R T -77
KPX R U -26
KPX R O -26
KPX R Q -26
KPX R G -26
KPX R C -26
KPX R w -26
KPX R v -26
KPX R k -26
KPX R b -26
KPX R h -26
KPX R i -26
KPX R t -26
KPX R m -26
KPX R u -26
KPX R r -26
KPX R l -26
KPX R n -26
KPX T A -77
KPX T u -77
KPX T a -77
KPX T r -77
KPX T o -77
KPX T e -77
KPX T y -77
KPX V Q -26
KPX V G -26
KPX V C -26
KPX V O -26
KPX V A -102
KPX V a -77
KPX V v -77
KPX V n -77
KPX V r -77
KPX V u -77
KPX V e -77
KPX V o -77
KPX W Q -26
KPX W G -26
KPX W C -26
KPX W O -26
KPX W A -102
KPX W a -77
KPX W v -77
KPX W n -77
KPX W r -77
KPX W u -77
KPX W e -77
KPX W o -77
KPX X Q -26
KPX X G -26
KPX X C -26
KPX X O -26
KPX Y A -77
KPX Y u -77
KPX Y a -77
KPX Y r -77
KPX Y o -77
KPX Y e -77
KPX b q -51
KPX b g -51
KPX b c -51
KPX b d -51
KPX b o -51
KPX b a -51
KPX b e -51
KPX c q -51
KPX c g -51
KPX c c -51
KPX c d -51
KPX c o -51
KPX c a -51
KPX c e -51
KPX d l 51
KPX e q -51
KPX e g -51
KPX e c -51
KPX e d -51
KPX e o -51
KPX e a -51
KPX e e -51
KPX f bracketright 104
KPX f parenright 104
KPX f exclam 104
KPX f question 104
KPX f quotedblright 104
KPX f quotedblleft 104
KPX f quoteleft 104
KPX f quoteright 104
KPX l l 51
KPX n quoteright -102
KPX o q -51
KPX o g -51
KPX o c -51
KPX o d -51
KPX o o -51
KPX o a -51
KPX o e -51
KPX p q -51
KPX p g -51
KPX p c -51
KPX p d -51
KPX p o -51
KPX p a -51
KPX p e -51
KPX r q -51
KPX r g -51
KPX r c -51
KPX r d -51
KPX r o -51
KPX r a -51
KPX r e -51
KPX w l 51
KPX uni0496 uni04B9 -26
KPX uni0496 uni04B7 -26
KPX uni0496 afii10089 -26
KPX uni0496 uni04AA -26
KPX uni0496 afii10035 -26
KPX uni0496 uni04E8 -26
KPX uni0496 afii10038 -26
KPX uni0496 afii10032 -26
KPX uni0492 colon -77
KPX uni0492 semicolon -77
KPX uni0492 comma -77
KPX uni0492 period -77
KPX uni0492 afii10078 -77
KPX uni0492 afii10077 -77
KPX uni0492 uni04A1 -77
KPX uni0492 afii10092 -77
KPX uni0492 uni04B1 -77
KPX uni0492 uni04AF -77
KPX uni0492 afii10110 -77
KPX uni0492 afii10085 -77
KPX uni0492 afii10093 -77
KPX uni0492 afii10094 -77
KPX uni0492 afii10091 -77
KPX uni0492 afii10090 -77
KPX uni0492 afii10088 -77
KPX uni0492 afii10075 -77
KPX uni0492 afii10074 -77
KPX uni0492 afii10086 -77
KPX uni0492 uni04AB -77
KPX uni0492 afii10083 -77
KPX uni0492 afii10071 -77
KPX uni0492 afii10070 -77
KPX uni0492 uni04E9 -77
KPX uni0492 afii10080 -77
KPX uni0492 afii10065 -77
KPX uni0492 afii10029 -26
KPX uni0492 afii10049 -77
KPX uni0492 afii10021 -77
KPX uni0492 afii10017 -77
KPX quotedblbase Q -26
KPX quotedblbase G -26
KPX quotedblbase C -26
KPX quotedblbase O -26
KPX quotedblbase Y -77
KPX quotedblbase W -102
KPX quotedblbase V -102
KPX quotedblbase T -77
KPX quotedblbase w -77
KPX quotedblbase v -77
KPX quotedblbase uni04B1 -77
KPX quotedblbase uni04AF -77
KPX quotedblbase uni04AA -26
KPX quotedblbase afii10035 -26
KPX quotedblbase uni04E8 -26
KPX quotedblbase afii10038 -26
KPX quotedblbase afii10032 -26
KPX quotedblbase afii10062 -77
KPX quotedblbase afii10037 -77
KPX quotedblbase uni04B0 -77
KPX quotedblbase uni04AE -77
KPX quotedblbase afii10021 77
KPX quotedblbase uni04B9 -77
KPX quotedblbase uni04B8 -102
KPX quotedblbase quotedblbase 102
KPX quotedblbase comma 102
KPX uni04AE colon -77
KPX uni04AE semicolon -77
KPX uni04AE comma -77
KPX uni04AE period -77
KPX uni04AE afii10078 -102
KPX uni04AE afii10077 -102
KPX uni04AE uni04A1 -102
KPX uni04AE afii10092 -102
KPX uni04AE uni04B1 -102
KPX uni04AE uni04AF -102
KPX uni04AE afii10110 -102
KPX uni04AE afii10085 -102
KPX uni04AE afii10093 -102
KPX uni04AE afii10094 -102
KPX uni04AE afii10091 -102
KPX uni04AE afii10090 -102
KPX uni04AE afii10088 -102
KPX uni04AE afii10075 -102
KPX uni04AE afii10074 -102
KPX uni04AE afii10071 -77
KPX uni04AE afii10070 -77
KPX uni04AE uni04E9 -77
KPX uni04AE afii10080 -77
KPX uni04AE afii10065 -77
KPX uni04AE afii10029 -51
KPX uni04AE afii10049 -77
KPX uni04AE afii10021 -77
KPX uni04AE afii10017 -77
KPX uni04B2 uni04B9 -26
KPX uni04B2 uni04B7 -26
KPX uni04B2 afii10089 -26
KPX uni04B2 uni04AA -26
KPX uni04B2 afii10035 -26
KPX uni04B2 uni04E8 -26
KPX uni04B2 afii10038 -26
KPX uni04B2 afii10032 -26
KPX uni04AF afii10078 -77
KPX uni04AF afii10077 -77
KPX uni04A0 uni04B9 -26
KPX uni04A0 uni04B7 -26
KPX uni04A0 afii10089 -26
KPX uni04A0 uni04AA -26
KPX uni04A0 afii10035 -26
KPX uni04A0 uni04E8 -26
KPX uni04A0 afii10038 -26
KPX uni04A0 afii10032 -26
KPX uni049A uni04B9 -26
KPX uni049A uni04B7 -26
KPX uni049A afii10089 -26
KPX uni049A uni04AA -26
KPX uni049A afii10035 -26
KPX uni049A uni04E8 -26
KPX uni049A afii10038 -26
KPX uni049A afii10032 -26
KPX uni04BA afii10110 -26
KPX uni04BA afii10085 -26
KPX uni04BA afii10093 -26
KPX uni04BA afii10094 -26
KPX uni04BA afii10091 -26
KPX uni04BA afii10090 -26
KPX uni04BA afii10088 -26
KPX uni04BA afii10075 -26
KPX uni04BA afii10074 -26
KPX uni04BA afii10103 -26
KPX uni04BA afii10096 -26
KPX uni04BA afii10084 -26
KPX uni04BA afii10081 -26
KPX uni04BA uni04A5 -26
KPX uni04BA uni04A3 -26
KPX uni04BA afii10079 -26
KPX uni04BA uni049D -26
KPX uni04BA uni049B -26
KPX uni04BA afii10076 -26
KPX uni04BA uni04B1 -26
KPX uni04BA uni04AF -26
KPX uni04BA uni04A1 -26
KPX uni04BA afii10092 -26
KPX uni04BA afii10062 -77
KPX uni04BA afii10037 -77
KPX uni04BA uni04B0 -77
KPX uni04BA uni04AE -77
KPX uni04BA uni04B8 -77
KPX uni04BA uni04B6 -77
KPX uni04BA afii10041 -77
KPX uni04BA uni04A0 -77
KPX uni04BA afii10044 -77
KPX uni04BA afii10036 -77
KPX uni04BA uni04AA -26
KPX uni04BA afii10035 -26
KPX uni04BA uni04E8 -26
KPX uni04BA afii10038 -26
KPX uni04BA afii10032 -26
KPX uni04BA uni04B2 -26
KPX uni04BA afii10039 -26
KPX uni04BA uni0496 -26
KPX uni04BA afii10024 -26
KPX quoteleft exclam 102
KPX quoteleft question 102
KPX quoteleft quotedblleft 102
KPX quoteright exclam 102
KPX quoteright question 102
KPX quoteright quotedblright 102
KPX quotedblleft quotedblleft 102
KPX quotedblleft quoteleft 102
KPX quotedblright quotedblright 102
KPX quotedblright quoteright 102
KPX afii10062 colon -77
KPX afii10062 semicolon -77
KPX afii10062 comma -77
KPX afii10062 period -77
KPX afii10062 afii10078 -102
KPX afii10062 afii10077 -102
KPX afii10062 uni04A1 -102
KPX afii10062 afii10092 -102
KPX afii10062 uni04B1 -102
KPX afii10062 uni04AF -102
KPX afii10062 afii10110 -102
KPX afii10062 afii10085 -102
KPX afii10062 afii10093 -102
KPX afii10062 afii10094 -102
KPX afii10062 afii10091 -102
KPX afii10062 afii10090 -102
KPX afii10062 afii10088 -102
KPX afii10062 afii10075 -102
KPX afii10062 afii10074 -102
KPX afii10062 uni04AB -77
KPX afii10062 afii10083 -77
KPX afii10062 afii10071 -77
KPX afii10062 afii10070 -77
KPX afii10062 uni04E9 -77
KPX afii10062 afii10080 -77
KPX afii10062 afii10065 -77
KPX afii10062 uni04AA -26
KPX afii10062 afii10035 -26
KPX afii10062 uni04E8 -26
KPX afii10062 afii10038 -26
KPX afii10062 afii10032 -26
KPX afii10062 afii10029 -51
KPX afii10062 afii10021 -51
KPX afii10062 afii10049 -77
KPX afii10062 afii10017 -77
KPX uni04E8 afii10049 -26
KPX uni04E8 afii10062 -26
KPX uni04E8 afii10037 -26
KPX uni04E8 uni04B0 -26
KPX uni04E8 uni04AE -26
KPX uni04E8 uni04B2 -26
KPX uni04E8 afii10039 -26
KPX uni04E8 uni0496 -26
KPX uni04E8 afii10024 -26
KPX uni04E8 afii10021 -26
KPX uni04E8 afii10017 -26
KPX uni04B0 colon -77
KPX uni04B0 semicolon -77
KPX uni04B0 comma -77
KPX uni04B0 period -77
KPX uni04B0 afii10078 -102
KPX uni04B0 afii10077 -102
KPX uni04B0 uni04A1 -102
KPX uni04B0 afii10092 -102
KPX uni04B0 uni04B1 -102
KPX uni04B0 uni04AF -102
KPX uni04B0 afii10110 -102
KPX uni04B0 afii10085 -102
KPX uni04B0 afii10093 -102
KPX uni04B0 afii10094 -102
KPX uni04B0 afii10091 -102
KPX uni04B0 afii10090 -102
KPX uni04B0 afii10088 -102
KPX uni04B0 afii10075 -102
KPX uni04B0 afii10074 -102
KPX uni04B0 afii10071 -77
KPX uni04B0 afii10070 -77
KPX uni04B0 uni04E9 -77
KPX uni04B0 afii10080 -77
KPX uni04B0 afii10065 -77
KPX uni04B0 afii10029 -51
KPX uni04B0 afii10049 -77
KPX uni04B0 afii10021 -77
KPX uni04B0 afii10017 -77
KPX uni04D8 afii10049 -26
KPX uni04D8 afii10062 -26
KPX uni04D8 afii10037 -26
KPX uni04D8 uni04B0 -26
KPX uni04D8 uni04AE -26
KPX uni04D8 uni04B2 -26
KPX uni04D8 afii10039 -26
KPX uni04D8 uni0496 -26
KPX uni04D8 afii10024 -26
KPX uni04D8 afii10021 -26
KPX uni04D8 afii10017 -26
KPX uni049C uni04B9 -26
KPX uni049C uni04B7 -26
KPX uni049C afii10089 -26
KPX uni049C uni04AA -26
KPX uni049C afii10035 -26
KPX uni049C uni04E8 -26
KPX uni049C afii10038 -26
KPX uni049C afii10032 -26
KPX uni04B1 afii10078 -77
KPX uni04B1 afii10077 -77
KPX afii10055 afii10055 26
KPX uni04E9 afii10078 -26
KPX uni04E9 afii10077 -26
KPX uni04E9 afii10065 -51
KPX uni04E9 afii10086 -51
KPX afii10071 afii10078 -26
KPX afii10071 afii10077 -26
KPX afii10071 afii10065 -51
KPX afii10071 afii10086 -51
KPX afii10846 afii10078 -26
KPX afii10846 afii10077 -26
KPX afii10846 afii10065 -51
KPX afii10846 afii10086 -51
KPX guillemotright comma -77
KPX guillemotright period -77
KPX afii10017 afii10110 -26
KPX afii10017 afii10085 -26
KPX afii10017 afii10093 -26
KPX afii10017 afii10094 -26
KPX afii10017 afii10091 -26
KPX afii10017 afii10090 -26
KPX afii10017 afii10088 -26
KPX afii10017 afii10075 -26
KPX afii10017 afii10074 -26
KPX afii10017 afii10103 -26
KPX afii10017 afii10096 -26
KPX afii10017 afii10084 -26
KPX afii10017 afii10081 -26
KPX afii10017 uni04A5 -26
KPX afii10017 uni04A3 -26
KPX afii10017 afii10079 -26
KPX afii10017 uni049D -26
KPX afii10017 uni049B -26
KPX afii10017 afii10076 -26
KPX afii10017 uni04B1 -26
KPX afii10017 uni04AF -26
KPX afii10017 uni04A1 -26
KPX afii10017 afii10092 -26
KPX afii10017 afii10062 -77
KPX afii10017 afii10037 -77
KPX afii10017 uni04B0 -77
KPX afii10017 uni04AE -77
KPX afii10017 uni04B8 -77
KPX afii10017 uni04B6 -77
KPX afii10017 afii10041 -77
KPX afii10017 uni04A0 -77
KPX afii10017 afii10044 -77
KPX afii10017 afii10036 -77
KPX afii10017 uni04AA -26
KPX afii10017 afii10035 -26
KPX afii10017 uni04E8 -26
KPX afii10017 afii10038 -26
KPX afii10017 afii10032 -26
KPX afii10020 colon -77
KPX afii10020 semicolon -77
KPX afii10020 comma -77
KPX afii10020 period -77
KPX afii10020 afii10078 -77
KPX afii10020 afii10077 -77
KPX afii10020 uni04A1 -77
KPX afii10020 afii10092 -77
KPX afii10020 uni04B1 -77
KPX afii10020 uni04AF -77
KPX afii10020 afii10110 -77
KPX afii10020 afii10085 -77
KPX afii10020 afii10093 -77
KPX afii10020 afii10094 -77
KPX afii10020 afii10091 -77
KPX afii10020 afii10090 -77
KPX afii10020 afii10088 -77
KPX afii10020 afii10075 -77
KPX afii10020 afii10074 -77
KPX afii10020 afii10086 -77
KPX afii10020 uni04AB -77
KPX afii10020 afii10083 -77
KPX afii10020 afii10071 -77
KPX afii10020 afii10070 -77
KPX afii10020 uni04E9 -77
KPX afii10020 afii10080 -77
KPX afii10020 afii10065 -77
KPX afii10020 afii10029 -26
KPX afii10020 afii10049 -77
KPX afii10020 afii10021 -77
KPX afii10020 afii10017 -77
KPX afii10024 uni04B9 -26
KPX afii10024 uni04B7 -26
KPX afii10024 afii10089 -26
KPX afii10024 uni04AA -26
KPX afii10024 afii10035 -26
KPX afii10024 uni04E8 -26
KPX afii10024 afii10038 -26
KPX afii10024 afii10032 -26
KPX afii10028 uni04B9 -26
KPX afii10028 uni04B7 -26
KPX afii10028 afii10089 -26
KPX afii10028 uni04AA -26
KPX afii10028 afii10035 -26
KPX afii10028 uni04E8 -26
KPX afii10028 afii10038 -26
KPX afii10028 afii10032 -26
KPX afii10032 afii10049 -26
KPX afii10032 afii10062 -26
KPX afii10032 afii10037 -26
KPX afii10032 uni04B0 -26
KPX afii10032 uni04AE -26
KPX afii10032 uni04B2 -26
KPX afii10032 afii10039 -26
KPX afii10032 uni0496 -26
KPX afii10032 afii10024 -26
KPX afii10032 afii10021 -26
KPX afii10032 afii10017 -26
KPX afii10034 colon -77
KPX afii10034 semicolon -77
KPX afii10034 comma -77
KPX afii10034 period -77
KPX afii10034 afii10077 -77
KPX afii10034 afii10069 -77
KPX afii10034 afii10071 -26
KPX afii10034 afii10070 -26
KPX afii10034 uni04E9 -26
KPX afii10034 afii10080 -26
KPX afii10034 afii10065 -26
KPX afii10034 afii10049 -77
KPX afii10034 afii10029 -77
KPX afii10034 afii10021 -77
KPX afii10034 afii10017 -77
KPX afii10036 colon -77
KPX afii10036 semicolon -77
KPX afii10036 comma -77
KPX afii10036 period -77
KPX afii10036 afii10078 -77
KPX afii10036 afii10077 -77
KPX afii10036 uni04A1 -77
KPX afii10036 afii10092 -77
KPX afii10036 uni04B1 -77
KPX afii10036 uni04AF -77
KPX afii10036 afii10110 -77
KPX afii10036 afii10085 -77
KPX afii10036 afii10093 -77
KPX afii10036 afii10094 -77
KPX afii10036 afii10091 -77
KPX afii10036 afii10090 -77
KPX afii10036 afii10088 -77
KPX afii10036 afii10075 -77
KPX afii10036 afii10074 -77
KPX afii10036 afii10086 -77
KPX afii10036 uni04AB -77
KPX afii10036 afii10083 -77
KPX afii10036 afii10071 -77
KPX afii10036 afii10070 -77
KPX afii10036 uni04E9 -77
KPX afii10036 afii10080 -77
KPX afii10036 afii10065 -77
KPX afii10036 afii10029 -26
KPX afii10036 afii10049 -77
KPX afii10036 afii10021 -77
KPX afii10036 afii10017 -77
KPX afii10037 colon -77
KPX afii10037 semicolon -77
KPX afii10037 comma -77
KPX afii10037 period -77
KPX afii10037 afii10078 -102
KPX afii10037 afii10077 -102
KPX afii10037 uni04A1 -102
KPX afii10037 afii10092 -102
KPX afii10037 uni04B1 -102
KPX afii10037 uni04AF -102
KPX afii10037 afii10110 -102
KPX afii10037 afii10085 -102
KPX afii10037 afii10093 -102
KPX afii10037 afii10094 -102
KPX afii10037 afii10091 -102
KPX afii10037 afii10090 -102
KPX afii10037 afii10088 -102
KPX afii10037 afii10075 -102
KPX afii10037 afii10074 -102
KPX afii10037 uni04AB -77
KPX afii10037 afii10083 -77
KPX afii10037 afii10071 -77
KPX afii10037 afii10070 -77
KPX afii10037 uni04E9 -77
KPX afii10037 afii10080 -77
KPX afii10037 afii10065 -77
KPX afii10037 uni04AA -26
KPX afii10037 afii10035 -26
KPX afii10037 uni04E8 -26
KPX afii10037 afii10038 -26
KPX afii10037 afii10032 -26
KPX afii10037 afii10029 -51
KPX afii10037 afii10021 -51
KPX afii10037 afii10049 -77
KPX afii10037 afii10017 -77
KPX afii10038 afii10049 -26
KPX afii10038 afii10062 -26
KPX afii10038 afii10037 -26
KPX afii10038 uni04B0 -26
KPX afii10038 uni04AE -26
KPX afii10038 uni04B2 -26
KPX afii10038 afii10039 -26
KPX afii10038 uni0496 -26
KPX afii10038 afii10024 -26
KPX afii10038 afii10021 -26
KPX afii10038 afii10017 -26
KPX afii10039 uni04B9 -26
KPX afii10039 uni04B7 -26
KPX afii10039 afii10089 -26
KPX afii10039 uni04AA -26
KPX afii10039 afii10035 -26
KPX afii10039 uni04E8 -26
KPX afii10039 afii10038 -26
KPX afii10039 afii10032 -26
KPX afii10044 afii10110 -26
KPX afii10044 afii10085 -26
KPX afii10044 afii10093 -26
KPX afii10044 afii10094 -26
KPX afii10044 afii10091 -26
KPX afii10044 afii10090 -26
KPX afii10044 afii10088 -26
KPX afii10044 afii10075 -26
KPX afii10044 afii10074 -26
KPX afii10044 afii10103 -26
KPX afii10044 afii10096 -26
KPX afii10044 afii10084 -26
KPX afii10044 afii10081 -26
KPX afii10044 uni04A5 -26
KPX afii10044 uni04A3 -26
KPX afii10044 afii10079 -26
KPX afii10044 uni049D -26
KPX afii10044 uni049B -26
KPX afii10044 afii10076 -26
KPX afii10044 uni04B1 -26
KPX afii10044 uni04AF -26
KPX afii10044 uni04A1 -26
KPX afii10044 afii10092 -26
KPX afii10044 afii10062 -77
KPX afii10044 afii10037 -77
KPX afii10044 uni04B0 -77
KPX afii10044 uni04AE -77
KPX afii10044 uni04B8 -77
KPX afii10044 uni04B6 -77
KPX afii10044 afii10041 -77
KPX afii10044 uni04A0 -77
KPX afii10044 afii10044 -77
KPX afii10044 afii10036 -77
KPX afii10044 uni04AA -26
KPX afii10044 afii10035 -26
KPX afii10044 uni04E8 -26
KPX afii10044 afii10038 -26
KPX afii10044 afii10032 -26
KPX afii10044 uni04B2 -26
KPX afii10044 afii10039 -26
KPX afii10044 uni0496 -26
KPX afii10044 afii10024 -26
KPX afii10046 afii10110 -26
KPX afii10046 afii10085 -26
KPX afii10046 afii10093 -26
KPX afii10046 afii10094 -26
KPX afii10046 afii10091 -26
KPX afii10046 afii10090 -26
KPX afii10046 afii10088 -26
KPX afii10046 afii10075 -26
KPX afii10046 afii10074 -26
KPX afii10046 afii10103 -26
KPX afii10046 afii10096 -26
KPX afii10046 afii10084 -26
KPX afii10046 afii10081 -26
KPX afii10046 uni04A5 -26
KPX afii10046 uni04A3 -26
KPX afii10046 afii10079 -26
KPX afii10046 uni049D -26
KPX afii10046 uni049B -26
KPX afii10046 afii10076 -26
KPX afii10046 uni04B1 -26
KPX afii10046 uni04AF -26
KPX afii10046 uni04A1 -26
KPX afii10046 afii10092 -26
KPX afii10046 afii10062 -77
KPX afii10046 afii10037 -77
KPX afii10046 uni04B0 -77
KPX afii10046 uni04AE -77
KPX afii10046 uni04B8 -77
KPX afii10046 uni04B6 -77
KPX afii10046 afii10041 -77
KPX afii10046 uni04A0 -77
KPX afii10046 afii10044 -77
KPX afii10046 afii10036 -77
KPX afii10046 uni04AA -26
KPX afii10046 afii10035 -26
KPX afii10046 uni04E8 -26
KPX afii10046 afii10038 -26
KPX afii10046 afii10032 -26
KPX afii10046 uni04B2 -26
KPX afii10046 afii10039 -26
KPX afii10046 uni0496 -26
KPX afii10046 afii10024 -26
KPX afii10047 afii10049 -26
KPX afii10047 afii10062 -26
KPX afii10047 afii10037 -26
KPX afii10047 uni04B0 -26
KPX afii10047 uni04AE -26
KPX afii10047 uni04B2 -26
KPX afii10047 afii10039 -26
KPX afii10047 uni0496 -26
KPX afii10047 afii10024 -26
KPX afii10047 afii10021 -26
KPX afii10047 afii10017 -26
KPX afii10048 afii10049 -26
KPX afii10048 afii10062 -26
KPX afii10048 afii10037 -26
KPX afii10048 uni04B0 -26
KPX afii10048 uni04AE -26
KPX afii10048 uni04B2 -26
KPX afii10048 afii10039 -26
KPX afii10048 uni0496 -26
KPX afii10048 afii10024 -26
KPX afii10048 afii10021 -26
KPX afii10048 afii10017 -26
KPX afii10066 afii10078 -26
KPX afii10066 afii10077 -26
KPX afii10066 afii10065 -51
KPX afii10066 afii10086 -51
KPX afii10070 afii10078 -26
KPX afii10070 afii10077 -26
KPX afii10070 afii10065 -51
KPX afii10070 afii10086 -51
KPX afii10077 uni04B9 -77
KPX afii10077 uni04B7 -77
KPX afii10077 afii10089 -77
KPX afii10077 uni04A1 -26
KPX afii10077 afii10092 -26
KPX afii10077 uni04B1 -26
KPX afii10077 uni04AF -26
KPX afii10077 afii10078 -26
KPX afii10077 afii10077 -26
KPX afii10080 afii10078 -26
KPX afii10080 afii10077 -26
KPX afii10080 afii10065 -51
KPX afii10080 afii10086 -51
KPX afii10082 afii10078 -26
KPX afii10082 afii10077 -26
KPX afii10082 afii10065 -51
KPX afii10082 afii10086 -51
KPX afii10083 afii10078 -26
KPX afii10083 afii10077 -26
KPX afii10083 afii10065 -51
KPX afii10083 afii10086 -51
KPX afii10086 afii10078 -26
KPX afii10086 afii10077 -26
KPX afii10086 afii10065 -51
KPX afii10086 afii10086 -51
KPX afii10092 uni04AB -26
KPX afii10092 afii10086 -26
KPX afii10092 uni04E9 -26
KPX afii10092 afii10080 -26
KPX afii10092 uni04B9 -77
KPX afii10092 uni04B7 -77
KPX afii10092 afii10089 -77
KPX afii10092 uni04A1 -26
KPX afii10092 afii10092 -26
KPX afii10092 uni04B1 -26
KPX afii10092 uni04AF -26
KPX afii10092 afii10078 -26
KPX afii10092 afii10077 -26
KPX afii10094 uni04AB -26
KPX afii10094 afii10086 -26
KPX afii10094 uni04E9 -26
KPX afii10094 afii10080 -26
KPX afii10094 uni04B9 -77
KPX afii10094 uni04B7 -77
KPX afii10094 afii10089 -77
KPX afii10094 uni04A1 -26
KPX afii10094 afii10092 -26
KPX afii10094 uni04B1 -26
KPX afii10094 uni04AF -26
KPX afii10094 afii10078 -26
KPX afii10094 afii10077 -26
KPX afii10095 afii10078 -26
KPX afii10095 afii10077 -26
KPX afii10095 afii10065 -51
KPX afii10095 afii10086 -51
KPX afii10096 afii10078 -26
KPX afii10096 afii10077 -26
KPX afii10096 afii10065 -51
KPX afii10096 afii10086 -51
EndKernPairs
EndKernData
EndFontMetrics
