%!PS-Adobe-2.0 EPSF-2.0
%%Creator: GhostScript rev. 550
%%BoundingBox: 68.0315 463.846 280.63 677.481
%%EndComments
%%BeginProlog
/GSexport 100 dict def GSexport begin
/h {closepath} def
/m {moveto} def
/c {curveto} def
/l {lineto} def
/k {setcmykcolor} def
/K {setcmykcolor} def
/*u {/oper_kind -1 def} def
/*U {*U*f *U*d *U*c} def
/f {/oper_kind 0 def} def
/*U*f {0 oper_kind eq {eofill} if} def
/s {closepath /oper_kind 1 def} def
/S {/oper_kind 1 def} def
/*U*d {1 oper_kind eq {stroke} if} def
/W {} def
/n {/oper_kind 2 def} def
/*U*c {2 oper_kind eq {eoclip newpath} if} def
/w {setlinewidth} def
/j {setlinejoin} def
/J {setlinecap} def
/M {setmiterlimit} def
/d {setdash} def
/setcmykcolor where {pop}
 {/setcmykcolor {1 sub /mf exch def
 3 {mf add neg dup 0 lt {pop 0} if 3 1 roll} repeat
 setrgbcolor} def} ifelse
/q {gsave} def
/Q {grestore} def
%%EndProlog
%%BeginSetup
%%EndSetup
q
*u
1.0 1.0 1.0 1.0 k
175.748 605.578 m
187.806 605.578 199.175 602.539 209.133 597.189 c
206.166 575.036 192.899 556.068 174.333 545.285 c
156.181 555.826 143.091 574.189 139.742 595.705 c
150.305 601.972 162.618 605.578 175.748 605.578 c
f
*U
Q
*u
1.00006 w 0 j 0 J 2.61326 M 
0 0 0 1.0 K
175.748 605.578 m
187.806 605.578 199.175 602.539 209.133 597.189 c
206.166 575.036 192.899 556.068 174.333 545.285 c
156.181 555.826 143.091 574.189 139.742 595.705 c
150.305 601.972 162.618 605.578 175.748 605.578 c
s
*U
q
*u
1.0 0 1.0 0 k
174.332 545.284 m
163.899 539.224 151.791 535.749 138.898 535.749 c
126.84 535.749 115.471 538.79 105.513 544.141 c
108.45 566.064 121.476 584.867 139.742 595.705 c
143.091 574.189 156.179 555.824 174.332 545.284 c
f
*U
Q
*u
1.00006 w 0 j 0 J 2.61326 M 
0 0 0 1.0 K
174.332 545.284 m
163.899 539.224 151.791 535.749 138.898 535.749 c
126.84 535.749 115.471 538.79 105.513 544.141 c
108.45 566.064 121.476 584.867 139.742 595.705 c
143.091 574.189 156.179 555.824 174.332 545.284 c
s
*U
q
*u
1.0 1.0 0 0 k
139.741 595.703 m
139.187 599.261 138.898 602.906 138.898 606.615 c
138.898 632.754 153.177 655.663 174.332 667.947 c
195.486 655.663 209.764 632.754 209.764 606.615 c
209.764 603.419 209.548 600.271 209.135 597.185 c
199.177 602.536 187.807 605.578 175.748 605.578 c
162.617 605.578 150.305 601.97 139.741 595.703 c
f
*U
Q
*u
1.00006 w 0 j 0 J 2.61326 M 
0 0 0 1.0 K
139.741 595.703 m
139.187 599.261 138.898 602.906 138.898 606.615 c
138.898 632.754 153.177 655.663 174.332 667.947 c
195.486 655.663 209.764 632.754 209.764 606.615 c
209.764 603.419 209.548 600.271 209.135 597.185 c
199.177 602.536 187.807 605.578 175.748 605.578 c
162.617 605.578 150.305 601.97 139.741 595.703 c
s
*U
q
*u
0 1.0 1.0 0 k
208.872 597.326 m
228.218 587.036 242.282 568.041 245.771 545.624 c
235.207 539.357 222.895 535.749 209.764 535.749 c
196.872 535.749 184.768 539.226 174.334 545.285 c
192.899 556.068 206.165 575.036 209.132 597.188 c
209.046 597.234 208.959 597.28 208.872 597.326 c
f
*U
Q
*u
1.00006 w 0 j 0 J 2.61326 M 
0 0 0 1.0 K
208.872 597.326 m
228.218 587.036 242.282 568.041 245.771 545.624 c
235.207 539.357 222.895 535.749 209.764 535.749 c
196.872 535.749 184.768 539.226 174.334 545.285 c
192.899 556.068 206.165 575.036 209.132 597.188 c
209.046 597.234 208.959 597.28 208.872 597.326 c
s
*U
q
*u
0 0 1.0 0 k
245.771 545.624 m
246.325 542.066 246.614 538.421 246.614 534.712 c
246.614 495.681 214.78 463.846 175.748 463.846 c
136.716 463.846 104.882 495.681 104.882 534.712 c
104.882 537.908 105.096 541.056 105.51 544.142 c
115.469 538.79 126.838 535.749 138.898 535.749 c
151.792 535.749 163.899 539.225 174.334 545.285 c
184.768 539.226 196.872 535.749 209.764 535.749 c
222.895 535.749 235.207 539.357 245.771 545.624 c
f
*U
Q
*u
1.00006 w 0 j 0 J 2.61326 M 
0 0 0 1.0 K
245.771 545.624 m
246.325 542.066 246.614 538.421 246.614 534.712 c
246.614 495.681 214.78 463.846 175.748 463.846 c
136.716 463.846 104.882 495.681 104.882 534.712 c
104.882 537.908 105.096 541.056 105.51 544.142 c
115.469 538.79 126.838 535.749 138.898 535.749 c
151.792 535.749 163.899 539.225 174.334 545.285 c
184.768 539.226 196.872 535.749 209.764 535.749 c
222.895 535.749 235.207 539.357 245.771 545.624 c
s
*U
q
*u
1.0 0 0 0 k
138.898 677.481 m
151.79 677.481 163.896 674.006 174.33 667.947 c
153.176 655.663 138.898 632.754 138.898 606.615 c
138.898 602.906 139.186 599.262 139.74 595.704 c
121.474 584.866 108.45 566.063 105.513 544.141 c
83.2374 556.108 68.0315 579.641 68.0315 606.615 c
68.0315 645.646 99.866 677.481 138.898 677.481 c
f
*U
Q
*u
1.00006 w 0 j 0 J 2.61326 M 
0 0 0 1.0 K
138.898 677.481 m
151.79 677.481 163.896 674.006 174.33 667.947 c
153.176 655.663 138.898 632.754 138.898 606.615 c
138.898 602.906 139.186 599.262 139.74 595.704 c
121.474 584.866 108.45 566.063 105.513 544.141 c
83.2374 556.108 68.0315 579.641 68.0315 606.615 c
68.0315 645.646 99.866 677.481 138.898 677.481 c
s
*U
q
*u
0 1.0 0 0 k
209.764 677.481 m
248.796 677.481 280.63 645.646 280.63 606.615 c
280.63 580.713 266.609 557.987 245.771 545.624 c
242.297 567.941 228.345 586.867 209.134 597.189 c
209.547 600.274 209.764 603.419 209.764 606.615 c
209.764 632.754 195.486 655.663 174.332 667.947 c
184.766 674.006 196.872 677.481 209.764 677.481 c
f
*U
Q
*u
1.00006 w 0 j 0 J 2.61326 M 
0 0 0 1.0 K
209.764 677.481 m
248.796 677.481 280.63 645.646 280.63 606.615 c
280.63 580.713 266.609 557.987 245.771 545.624 c
242.297 567.941 228.345 586.867 209.134 597.189 c
209.547 600.274 209.764 603.419 209.764 606.615 c
209.764 632.754 195.486 655.663 174.332 667.947 c
184.766 674.006 196.872 677.481 209.764 677.481 c
s
*U
%%Trailer
end
showpage