#FIG 3.2
Landscape
Center
Inches
Letter  
100.00
Single
-2
1200 2
0 32 #cfcfcf
6 1200 1200 4800 4800
6 1200 1200 3600 3600
2 2 0 1 0 4 100 0 -1 0.000 0 0 7 0 0 5
	 1200 1200 1800 1200 1800 1800 1200 1800 1200 1200
2 2 0 1 0 4 100 0 -1 0.000 0 0 7 0 0 5
	 1200 1800 1800 1800 1800 2400 1200 2400 1200 1800
2 2 0 1 0 4 100 0 -1 0.000 0 0 7 0 0 5
	 1200 2400 1800 2400 1800 3000 1200 3000 1200 2400
2 2 0 1 0 4 100 0 -1 0.000 0 0 7 0 0 5
	 1200 3000 1800 3000 1800 3600 1200 3600 1200 3000
2 2 0 1 0 4 100 0 -1 0.000 0 0 7 0 0 5
	 1800 1200 2400 1200 2400 1800 1800 1800 1800 1200
2 2 0 1 0 4 100 0 -1 0.000 0 0 7 0 0 5
	 1800 1800 2400 1800 2400 2400 1800 2400 1800 1800
2 2 0 1 0 4 100 0 -1 0.000 0 0 7 0 0 5
	 1800 2400 2400 2400 2400 3000 1800 3000 1800 2400
2 2 0 1 0 4 100 0 -1 0.000 0 0 7 0 0 5
	 1800 3000 2400 3000 2400 3600 1800 3600 1800 3000
2 2 0 1 0 4 100 0 -1 0.000 0 0 7 0 0 5
	 2400 1200 3000 1200 3000 1800 2400 1800 2400 1200
2 2 0 1 0 4 100 0 -1 0.000 0 0 7 0 0 5
	 2400 1800 3000 1800 3000 2400 2400 2400 2400 1800
2 2 0 1 0 4 100 0 -1 0.000 0 0 7 0 0 5
	 2400 2400 3000 2400 3000 3000 2400 3000 2400 2400
2 2 0 1 0 4 100 0 -1 0.000 0 0 7 0 0 5
	 2400 3000 3000 3000 3000 3600 2400 3600 2400 3000
2 2 0 1 0 4 100 0 -1 0.000 0 0 7 0 0 5
	 3000 1200 3600 1200 3600 1800 3000 1800 3000 1200
2 2 0 1 0 4 100 0 -1 0.000 0 0 7 0 0 5
	 3000 1800 3600 1800 3600 2400 3000 2400 3000 1800
2 2 0 1 0 4 100 0 -1 0.000 0 0 7 0 0 5
	 3000 2400 3600 2400 3600 3000 3000 3000 3000 2400
2 2 0 1 0 4 100 0 -1 0.000 0 0 7 0 0 5
	 3000 3000 3600 3000 3600 3600 3000 3600 3000 3000
-6
2 2 0 1 0 4 100 0 -1 0.000 0 0 7 0 0 5
	 1200 3600 1800 3600 1800 4200 1200 4200 1200 3600
2 2 0 1 0 4 100 0 -1 0.000 0 0 7 0 0 5
	 2400 3600 3000 3600 3000 4200 2400 4200 2400 3600
2 2 0 1 0 4 100 0 -1 0.000 0 0 7 0 0 5
	 3000 3600 3600 3600 3600 4200 3000 4200 3000 3600
2 2 0 1 0 4 100 0 -1 0.000 0 0 7 0 0 5
	 3600 3600 4200 3600 4200 4200 3600 4200 3600 3600
2 2 0 1 0 4 100 0 -1 0.000 0 0 7 0 0 5
	 3600 3000 4200 3000 4200 3600 3600 3600 3600 3000
2 2 0 1 0 4 100 0 -1 0.000 0 0 7 0 0 5
	 3600 2400 4200 2400 4200 3000 3600 3000 3600 2400
2 2 0 1 0 4 100 0 -1 0.000 0 0 7 0 0 5
	 3600 1800 4200 1800 4200 2400 3600 2400 3600 1800
2 2 0 1 0 4 100 0 -1 0.000 0 0 7 0 0 5
	 3600 1200 4200 1200 4200 1800 3600 1800 3600 1200
2 2 0 1 0 4 100 0 -1 0.000 0 0 7 0 0 5
	 4200 1200 4800 1200 4800 1800 4200 1800 4200 1200
2 2 0 1 0 4 100 0 -1 0.000 0 0 7 0 0 5
	 4200 1800 4800 1800 4800 2400 4200 2400 4200 1800
2 2 0 1 0 4 100 0 -1 0.000 0 0 7 0 0 5
	 4200 2400 4800 2400 4800 3000 4200 3000 4200 2400
2 2 0 1 0 4 100 0 -1 0.000 0 0 7 0 0 5
	 4200 3000 4800 3000 4800 3600 4200 3600 4200 3000
2 2 0 1 0 4 100 0 -1 0.000 0 0 7 0 0 5
	 4200 3600 4800 3600 4800 4200 4200 4200 4200 3600
2 2 0 1 0 4 100 0 -1 0.000 0 0 7 0 0 5
	 4200 4200 4800 4200 4800 4800 4200 4800 4200 4200
2 2 0 1 0 4 100 0 -1 0.000 0 0 7 0 0 5
	 3600 4200 4200 4200 4200 4800 3600 4800 3600 4200
2 2 0 1 0 4 100 0 -1 0.000 0 0 7 0 0 5
	 3000 4200 3600 4200 3600 4800 3000 4800 3000 4200
2 2 0 1 0 4 100 0 -1 0.000 0 0 7 0 0 5
	 2400 4200 3000 4200 3000 4800 2400 4800 2400 4200
2 2 0 1 0 4 100 0 -1 0.000 0 0 7 0 0 5
	 1800 4200 2400 4200 2400 4800 1800 4800 1800 4200
2 2 0 1 0 4 100 0 -1 0.000 0 0 7 0 0 5
	 1200 4200 1800 4200 1800 4800 1200 4800 1200 4200
2 2 0 1 0 4 100 0 -1 0.000 0 0 7 0 0 5
	 1800 3600 2400 3600 2400 4200 1800 4200 1800 3600
-6
1 3 0 1 0 31 100 0 20 0.000 1 0.0000 4513 2700 212 212 4513 2700 4725 2700
1 3 0 1 0 1 100 0 20 0.000 1 0.0000 2713 2700 212 212 2713 2700 2925 2700
2 4 0 1 0 31 100 0 20 0.000 0 0 9 0 0 5
	 4200 3600 3600 3600 3600 3000 4200 3000 4200 3600
2 4 0 1 0 1 100 0 20 0.000 0 0 9 0 0 5
	 2400 3000 1800 3000 1800 2400 2400 2400 2400 3000
