%!PS-Adobe-3.0 EPSF-3.0
%%Creator: cairo 1.16.0 (https://cairographics.org)
%%CreationDate: Wed Aug 11 12:26:11 2021
%%Pages: 1
%%DocumentData: Clean7Bit
%%LanguageLevel: 2
%%BoundingBox: 0 0 256 88
%%EndComments
%%BeginProlog
50 dict begin
/q { gsave } bind def
/Q { grestore } bind def
/cm { 6 array astore concat } bind def
/w { setlinewidth } bind def
/J { setlinecap } bind def
/j { setlinejoin } bind def
/M { setmiterlimit } bind def
/d { setdash } bind def
/m { moveto } bind def
/l { lineto } bind def
/c { curveto } bind def
/h { closepath } bind def
/re { exch dup neg 3 1 roll 5 3 roll moveto 0 rlineto
      0 exch rlineto 0 rlineto closepath } bind def
/S { stroke } bind def
/f { fill } bind def
/f* { eofill } bind def
/n { newpath } bind def
/W { clip } bind def
/W* { eoclip } bind def
/BT { } bind def
/ET { } bind def
/BDC { mark 3 1 roll /BDC pdfmark } bind def
/EMC { mark /EMC pdfmark } bind def
/cairo_store_point { /cairo_point_y exch def /cairo_point_x exch def } def
/Tj { show currentpoint cairo_store_point } bind def
/TJ {
  {
    dup
    type /stringtype eq
    { show } { -0.001 mul 0 cairo_font_matrix dtransform rmoveto } ifelse
  } forall
  currentpoint cairo_store_point
} bind def
/cairo_selectfont { cairo_font_matrix aload pop pop pop 0 0 6 array astore
    cairo_font exch selectfont cairo_point_x cairo_point_y moveto } bind def
/Tf { pop /cairo_font exch def /cairo_font_matrix where
      { pop cairo_selectfont } if } bind def
/Td { matrix translate cairo_font_matrix matrix concatmatrix dup
      /cairo_font_matrix exch def dup 4 get exch 5 get cairo_store_point
      /cairo_font where { pop cairo_selectfont } if } bind def
/Tm { 2 copy 8 2 roll 6 array astore /cairo_font_matrix exch def
      cairo_store_point /cairo_font where { pop cairo_selectfont } if } bind def
/g { setgray } bind def
/rg { setrgbcolor } bind def
/d1 { setcachedevice } bind def
/cairo_data_source {
  CairoDataIndex CairoData length lt
    { CairoData CairoDataIndex get /CairoDataIndex CairoDataIndex 1 add def }
    { () } ifelse
} def
/cairo_flush_ascii85_file { cairo_ascii85_file status { cairo_ascii85_file flushfile } if } def
/cairo_image { image cairo_flush_ascii85_file } def
/cairo_imagemask { imagemask cairo_flush_ascii85_file } def
%%EndProlog
%%BeginSetup
%%EndSetup
%%Page: 1 1
%%BeginPageSetup
%%PageBoundingBox: 0 0 256 88
%%EndPageSetup
q 0 0 256 88 rectclip
1 0 0 -1 0 88 cm q
Q q
q
0 0 256 88 re W n
  q
Q q
q
0 0 256 88 re W n
  q
Q q
0 71.992 5.992 10 re W n
q
0 71 6 11 re W n
  q
0.0666667 0.247059 0.380392 rg
2.227 80.426 m 2.227 76.934 l 2.82 76.934 3.422 76.949 4.016 76.965 c 4.336
 76.977 4.672 77.004 5.008 77.027 c 4.969 76.934 4.941 76.766 4.941 76.59
 c 4.941 76.395 4.969 76.266 5.008 76.129 c 4.324 76.207 2.883 76.215 2.227
 76.215 c 2.227 73.191 l 3.41 73.191 3.539 73.191 4.016 73.215 c 5.223 73.281
 l 5.188 73.18 5.16 73.004 5.16 72.805 c 5.16 72.648 5.188 72.547 5.223 
72.395 c 4.297 72.422 3.449 72.469 2.855 72.469 c 2.16 72.469 1.156 72.434
 0.527 72.395 c 0.617 73.68 0.645 76.168 0.645 76.707 c 0.645 77.297 0.617
 78.871 0.594 79.613 c 0.578 80.152 0.555 80.68 0.527 81.223 c 1.352 81.172
 2.16 81.145 2.934 81.145 c 3.758 81.145 4.531 81.172 5.305 81.223 c 5.25
 81.082 5.238 80.957 5.238 80.758 c 5.238 80.582 5.25 80.449 5.305 80.336
 c 4.207 80.383 2.559 80.426 2.227 80.426 c f
  Q
Q
Q q
0.0666667 0.247059 0.380392 rg
8.957 80.77 m 8.199 80.77 7.555 80.582 6.965 79.293 c 6.785 79.293 l 6.719
 79.914 6.707 80.082 6.488 80.75 c 6.949 80.977 7.785 81.398 8.895 81.398
 c 11.25 81.398 12.164 79.895 12.164 78.586 c 12.164 78.223 12.07 77.465
 11.531 76.883 c 11.16 76.473 10.773 76.336 9.781 75.945 c 8.648 75.508 
7.992 75.254 7.992 74.313 c 7.992 73.551 8.496 72.922 9.512 72.922 c 10.32
 72.922 11.004 73.305 11.199 74.043 c 11.379 74.043 l 11.492 73.551 11.52
 73.449 11.777 72.816 c 11.148 72.539 10.582 72.293 9.641 72.293 c 7.313
 72.293 6.641 73.73 6.641 74.863 c 6.641 75.934 7.016 76.59 8.266 77.141
 c 8.621 77.297 9.227 77.527 9.586 77.684 c 9.832 77.789 10.645 78.145 10.645
 79.168 c 10.645 80.09 9.973 80.77 8.957 80.77 c f
17.457 76.484 m 18.035 75.609 18.758 74.547 19.234 73.875 c 19.891 72.961
 l 20.047 72.738 20.07 72.715 20.07 72.613 c 20.07 72.547 20.059 72.484 
20.047 72.395 c 19.336 72.445 18.527 72.469 16.57 72.469 c 15.066 72.469
 14.098 72.484 13.109 72.395 c 13.133 72.559 13.148 72.688 13.148 72.895
 c 13.148 73.063 13.121 73.246 13.109 73.398 c 14.691 73.27 16.223 73.258
 17.664 73.258 c 17.008 74.387 15 77.418 14.406 78.301 c 14.152 78.664 12.852
 80.414 12.566 80.809 c 12.566 81.223 l 13.867 81.145 14.523 81.145 16.285
 81.145 c 18.797 81.145 19.633 81.215 20.02 81.223 c 19.98 81.094 19.957
 80.898 19.957 80.711 c 19.957 80.477 19.996 80.336 20.02 80.18 c 19.531
 80.211 19.043 80.23 18.551 80.27 c 17.832 80.336 16.766 80.359 16.172 80.359
 c 14.934 80.359 l 15.27 79.797 15.684 79.148 16.324 78.184 c 17.457 76.484
 l f
24.211 72.469 m 23.223 72.469 21.793 72.461 20.773 72.395 c 20.813 72.547
 20.84 72.715 20.84 72.871 c 20.84 73.023 20.813 73.191 20.773 73.348 c 
21.43 73.281 22.668 73.258 22.781 73.258 c 23.426 73.258 l 23.438 73.758
 23.453 74.211 23.453 74.684 c 23.465 78.273 l 23.465 79.254 23.387 80.246
 23.336 81.223 c 23.797 81.172 23.992 81.145 24.211 81.145 c 24.363 81.145
 24.777 81.184 25.152 81.223 c 25.109 80.863 25.059 80.438 25.059 79.465
 c 25.059 74.699 l 25.059 74.211 25.074 73.719 25.086 73.258 c 25.973 73.258
 26.887 73.27 27.648 73.348 c 27.609 73.137 27.586 73.023 27.586 72.883 
c 27.586 72.777 27.609 72.613 27.648 72.395 c 26.41 72.461 25.277 72.469
 24.211 72.469 c f
30.254 80.426 m 30.254 76.934 l 30.844 76.934 31.449 76.949 32.043 76.965
 c 32.363 76.977 32.699 77.004 33.035 77.027 c 32.996 76.934 32.969 76.766
 32.969 76.59 c 32.969 76.395 32.996 76.266 33.035 76.129 c 32.352 76.207
 30.91 76.215 30.254 76.215 c 30.254 73.191 l 31.438 73.191 31.566 73.191
 32.043 73.215 c 33.25 73.281 l 33.215 73.18 33.188 73.004 33.188 72.805
 c 33.188 72.648 33.215 72.547 33.25 72.395 c 32.324 72.422 31.477 72.469
 30.883 72.469 c 30.188 72.469 29.184 72.434 28.555 72.395 c 28.645 73.68
 28.672 76.168 28.672 76.707 c 28.672 77.297 28.645 78.871 28.617 79.613
 c 28.605 80.152 28.578 80.68 28.555 81.223 c 29.379 81.172 30.188 81.145
 30.961 81.145 c 31.785 81.145 32.555 81.172 33.328 81.223 c 33.277 81.082
 33.266 80.957 33.266 80.758 c 33.266 80.582 33.277 80.449 33.328 80.336
 c 32.234 80.383 30.586 80.426 30.254 80.426 c f
36.387 73.09 m 36.578 73.074 37.055 73.023 37.301 73.023 c 37.723 73.023
 38.148 73.09 38.496 73.348 c 38.945 73.68 39.035 74.145 39.035 74.684 c
 39.035 75.52 38.563 76.465 37.273 76.465 c 36.938 76.465 36.629 76.434 
36.387 76.422 c h
36.695 77.027 m 37.387 78.008 38.188 79.137 38.844 80.152 c 39.035 80.449
 39.32 80.926 39.512 81.223 c 39.898 81.172 40.051 81.145 40.555 81.145 
c 41.016 81.145 41.34 81.184 41.699 81.223 c 40.891 80.211 40.543 79.758
 39.527 78.324 c 39.332 78.055 39.051 77.633 38.855 77.359 c 38.496 76.848
 l 39.668 76.629 40.734 75.895 40.734 74.465 c 40.734 73.922 40.531 73.398
 40.145 73.023 c 39.59 72.5 38.957 72.395 38.121 72.395 c 37.824 72.395 
36.332 72.461 36 72.461 c 35.344 72.461 35.008 72.422 34.711 72.395 c 34.801
 74.051 34.801 74.234 34.801 75.922 c 34.801 78.402 34.789 78.684 34.688
 81.223 c 34.969 81.184 35.277 81.145 35.574 81.145 c 35.895 81.145 36.18
 81.195 36.438 81.223 c 36.438 80.887 36.387 79.227 36.387 78.852 c 36.387
 77.027 l 36.695 77.027 l f
220.367 77.359 m 220.906 76.434 221.406 75.469 221.988 74.547 c 222.18 
74.234 223.121 72.738 223.313 72.395 c 223.172 72.445 223.031 72.469 222.773
 72.469 c 222.488 72.469 222.234 72.434 222.027 72.395 c 221.102 74.426 
220.895 74.863 219.801 76.746 c 218.707 74.824 218.219 73.809 217.547 72.395
 c 217.176 72.461 216.801 72.469 216.492 72.469 c 216.211 72.469 215.914
 72.445 215.438 72.395 c 216.105 73.512 217.199 75.293 217.855 76.422 c 
218.617 77.734 l 218.617 78.531 218.578 80.215 218.539 81.223 c 218.785 
81.195 219.145 81.145 219.402 81.145 c 219.699 81.145 219.992 81.195 220.289
 81.223 c 220.238 80.027 220.199 79.332 220.199 78.254 c 220.199 77.773 
l 220.199 77.656 220.277 77.516 220.367 77.359 c f
226.004 80.426 m 226.004 76.934 l 226.598 76.934 227.199 76.949 227.793
 76.965 c 228.117 76.977 228.449 77.004 228.785 77.027 c 228.746 76.934 
228.719 76.766 228.719 76.59 c 228.719 76.395 228.746 76.266 228.785 76.129
 c 228.102 76.207 226.66 76.215 226.004 76.215 c 226.004 73.191 l 227.188
 73.191 227.316 73.191 227.793 73.215 c 229.004 73.281 l 228.965 73.18 228.938
 73.004 228.938 72.805 c 228.938 72.648 228.965 72.547 229.004 72.395 c 
228.078 72.422 227.227 72.469 226.633 72.469 c 225.938 72.469 224.938 72.434
 224.305 72.395 c 224.395 73.68 224.422 76.168 224.422 76.707 c 224.422 
77.297 224.395 78.871 224.371 79.613 c 224.355 80.152 224.332 80.68 224.305
 81.223 c 225.129 81.172 225.938 81.145 226.715 81.145 c 227.535 81.145 
228.309 81.172 229.082 81.223 c 229.031 81.082 229.016 80.957 229.016 80.758
 c 229.016 80.582 229.031 80.449 229.082 80.336 c 227.984 80.383 226.34 
80.426 226.004 80.426 c f
233.211 72.469 m 232.223 72.469 230.793 72.461 229.777 72.395 c 229.813
 72.547 229.84 72.715 229.84 72.871 c 229.84 73.023 229.813 73.191 229.777
 73.348 c 230.434 73.281 231.668 73.258 231.785 73.258 c 232.426 73.258 
l 232.441 73.758 232.453 74.211 232.453 74.684 c 232.465 78.273 l 232.465
 79.254 232.391 80.246 232.336 81.223 c 232.801 81.172 232.992 81.145 233.211
 81.145 c 233.367 81.145 233.777 81.184 234.152 81.223 c 234.113 80.863 
234.063 80.438 234.063 79.465 c 234.063 74.699 l 234.063 74.211 234.074 
73.719 234.09 73.258 c 234.977 73.258 235.891 73.27 236.648 73.348 c 236.609
 73.137 236.586 73.023 236.586 72.883 c 236.586 72.777 236.609 72.613 236.648
 72.395 c 235.414 72.461 234.281 72.469 233.211 72.469 c f
239.598 80.426 m 239.598 76.934 l 240.188 76.934 240.793 76.949 241.387
 76.965 c 241.707 76.977 242.039 77.004 242.375 77.027 c 242.34 76.934 242.313
 76.766 242.313 76.59 c 242.313 76.395 242.34 76.266 242.375 76.129 c 241.695
 76.207 240.254 76.215 239.598 76.215 c 239.598 73.191 l 240.781 73.191 
240.91 73.191 241.387 73.215 c 242.598 73.281 l 242.555 73.18 242.531 73.004
 242.531 72.805 c 242.531 72.648 242.555 72.547 242.598 72.395 c 241.668
 72.422 240.82 72.469 240.227 72.469 c 239.531 72.469 238.527 72.434 237.898
 72.395 c 237.988 73.68 238.016 76.168 238.016 76.707 c 238.016 77.297 237.988
 78.871 237.965 79.613 c 237.949 80.152 237.922 80.68 237.898 81.223 c 238.723
 81.172 239.531 81.145 240.305 81.145 c 241.129 81.145 241.902 81.172 242.672
 81.223 c 242.621 81.082 242.605 80.957 242.605 80.758 c 242.605 80.582 
242.621 80.449 242.672 80.336 c 241.578 80.383 239.934 80.426 239.598 80.426
 c f
253.266 72.395 m 253.176 72.422 253.086 72.434 252.996 72.434 c 252.906
 72.434 252.805 72.422 252.711 72.395 c 251.398 75.016 250.832 76.09 249.625
 78.215 c 249.148 79.047 l 248.453 77.813 l 247.23 75.625 246.867 74.941
 246.02 73.207 c 245.621 72.395 l 245.531 72.406 245.43 72.434 245.336 72.434
 c 245.234 72.434 245.145 72.422 245.043 72.395 c 244.887 73.887 244.117
 79.227 243.805 80.824 c 243.73 81.223 l 243.898 81.184 244.066 81.145 244.27
 81.145 c 244.422 81.145 244.629 81.172 244.863 81.223 c 244.953 79.293 
245.168 77.309 245.402 75.508 c 245.582 75.844 246.496 77.465 246.691 77.84
 c 247.652 79.707 247.977 80.246 248.465 81.223 c 248.543 81.215 248.633
 81.195 248.711 81.195 c 248.801 81.195 248.879 81.215 248.965 81.223 c 
249.727 79.473 251.168 76.848 252.031 75.383 c 252.066 75.922 252.379 78.52
 252.441 79.113 c 252.465 79.344 252.531 80.488 252.559 80.75 c 252.598 
81.223 l 252.996 81.172 253.227 81.145 253.473 81.145 c 253.652 81.145 254.09
 81.184 254.398 81.223 c 254.258 80.582 253.984 78.715 253.883 77.938 c 
253.68 76.395 253.512 74.98 253.367 73.465 c 253.266 72.395 l f
49.223 72.469 m 48.941 72.469 48.527 72.422 48.281 72.395 c 48.332 73.348
 48.348 73.449 48.348 73.848 c 48.359 74.172 48.375 75.727 48.375 76.063
 c 47.59 76.09 46.816 76.113 46.031 76.113 c 45.387 76.113 44.73 76.09 44.086
 76.063 c 44.086 73.652 44.137 73.102 44.203 72.395 c 44.035 72.422 43.559
 72.469 43.316 72.469 c 43.109 72.469 42.645 72.422 42.387 72.395 c 42.48
 73.383 42.516 74.363 42.516 75.371 c 42.516 77.32 42.504 79.266 42.402 
81.223 c 42.711 81.195 43.004 81.145 43.316 81.145 c 43.676 81.145 44.012
 81.215 44.203 81.223 c 44.137 80.414 44.086 79.836 44.086 78.172 c 44.086
 76.883 l 44.82 76.859 45.555 76.836 46.285 76.836 c 46.98 76.836 47.68 
76.859 48.375 76.883 c 48.359 78.961 l 48.359 79.434 48.27 80.988 48.258
 81.223 c 48.527 81.195 48.863 81.145 49.133 81.145 c 49.441 81.145 49.762
 81.195 50.074 81.223 c 49.945 80.297 49.945 79.199 49.945 78.184 c 49.945
 76.848 49.957 73.73 50.125 72.395 c 49.879 72.422 49.453 72.469 49.223 
72.469 c f
56.707 70.527 m 56.797 70.465 56.977 70.336 56.977 70.051 c 56.977 69.727
 56.691 69.523 56.371 69.523 c 56.141 69.523 55.922 69.688 55.754 69.875
 c 53.941 71.824 l 54.594 71.824 l 56.707 70.527 l f
54.543 74.465 m 55.754 77.633 l 55.355 77.656 54.969 77.684 54.57 77.684
 c 54.121 77.684 53.68 77.645 53.23 77.633 c h
50.711 81.223 m 50.891 81.195 51.07 81.145 51.289 81.145 c 51.492 81.145
 51.738 81.195 51.906 81.223 c 52.113 80.488 52.523 79.422 52.934 78.43 
c 53.449 78.402 53.965 78.383 54.48 78.383 c 55.031 78.383 55.574 78.402
 56.125 78.43 c 56.668 79.797 l 57.207 81.223 l 57.441 81.215 57.801 81.145
 58.16 81.145 c 58.523 81.145 58.973 81.215 59.164 81.223 c 58.586 79.973
 57.734 78.031 57.246 76.914 c 56.781 75.832 56.012 74.027 55.395 72.266
 c 55.254 72.301 55.125 72.332 54.98 72.332 c 54.828 72.332 54.695 72.301
 54.559 72.266 c 54.246 73.32 53.5 74.996 52.203 77.898 c 50.711 81.223 
l f
64.363 76.484 m 64.941 75.609 65.664 74.547 66.141 73.875 c 66.797 72.961
 l 66.953 72.738 66.977 72.715 66.977 72.613 c 66.977 72.547 66.965 72.484
 66.953 72.395 c 66.242 72.445 65.434 72.469 63.477 72.469 c 61.969 72.469
 61.004 72.484 60.016 72.395 c 60.039 72.559 60.055 72.688 60.055 72.895
 c 60.055 73.063 60.027 73.246 60.016 73.398 c 61.598 73.27 63.129 73.258
 64.57 73.258 c 63.914 74.387 61.906 77.418 61.316 78.301 c 61.055 78.664
 59.758 80.414 59.473 80.809 c 59.473 81.223 l 60.773 81.145 61.43 81.145
 63.195 81.145 c 65.703 81.145 66.539 81.215 66.926 81.223 c 66.887 81.094
 66.863 80.898 66.863 80.711 c 66.863 80.477 66.898 80.336 66.926 80.18 
c 66.438 80.211 65.949 80.23 65.457 80.27 c 64.738 80.336 63.668 80.359 
63.078 80.359 c 61.84 80.359 l 62.176 79.797 62.59 79.148 63.234 78.184 
c 64.363 76.484 l f
72.105 77.359 m 72.645 76.434 73.148 75.469 73.727 74.547 c 73.918 74.234
 74.859 72.738 75.051 72.395 c 74.91 72.445 74.77 72.469 74.512 72.469 c
 74.227 72.469 73.969 72.434 73.766 72.395 c 72.836 74.426 72.633 74.863
 71.539 76.746 c 70.445 74.824 69.953 73.809 69.285 72.395 c 68.914 72.461
 68.539 72.469 68.23 72.469 c 67.949 72.469 67.652 72.445 67.176 72.395 
c 67.844 73.512 68.938 75.293 69.594 76.422 c 70.355 77.734 l 70.355 78.531
 70.316 80.215 70.277 81.223 c 70.52 81.195 70.883 81.145 71.137 81.145 
c 71.434 81.145 71.73 81.195 72.027 81.223 c 71.977 80.027 71.938 79.332
 71.938 78.254 c 71.938 77.773 l 71.938 77.656 72.016 77.516 72.105 77.359
 c f
85.414 81.145 m 85.656 81.145 85.953 81.145 86.559 81.223 c 85.656 80.398
 83.805 77.957 83.148 77.09 c 82.465 76.188 l 83.406 75.164 83.609 74.965
 84.254 74.34 c 84.793 73.809 85.695 72.945 86.352 72.395 c 85.965 72.461
 85.707 72.469 85.492 72.469 c 85.273 72.469 85.027 72.445 84.887 72.395
 c 84.5 72.934 83.805 73.68 83.238 74.297 c 82.504 75.098 81.992 75.637 
81.039 76.473 c 81.039 75.801 81.039 75.07 81.051 74.426 c 81.063 73.965
 81.063 73.023 81.152 72.395 c 80.859 72.434 80.535 72.469 80.254 72.469
 c 79.98 72.469 79.648 72.422 79.352 72.395 c 79.453 73.68 79.469 73.898
 79.469 75.371 c 79.469 78.906 79.469 79.047 79.352 81.223 c 79.621 81.215
 79.98 81.145 80.254 81.145 c 80.563 81.145 80.934 81.215 81.152 81.223 
c 81.039 79.855 81.039 78.43 81.039 77.012 c 82.402 78.52 83.406 79.934 
84.32 81.223 c 84.691 81.195 85.105 81.145 85.414 81.145 c f
90.902 74.465 m 92.113 77.633 l 91.715 77.656 91.332 77.684 90.93 77.684
 c 90.48 77.684 90.043 77.645 89.594 77.633 c h
87.07 81.223 m 87.25 81.195 87.43 81.145 87.648 81.145 c 87.855 81.145 
88.098 81.195 88.266 81.223 c 88.473 80.488 88.883 79.422 89.297 78.43 c
 89.813 78.402 90.324 78.383 90.84 78.383 c 91.395 78.383 91.934 78.402 
92.488 78.43 c 93.027 79.797 l 93.566 81.223 l 93.801 81.215 94.16 81.145
 94.52 81.145 c 94.883 81.145 95.332 81.215 95.527 81.223 c 94.945 79.973
 94.098 78.031 93.609 76.914 c 93.145 75.832 92.371 74.027 91.754 72.266
 c 91.613 72.301 91.484 72.332 91.344 72.332 c 91.188 72.332 91.059 72.301
 90.918 72.266 c 90.609 73.32 89.863 74.996 88.563 77.898 c 87.07 81.223
 l f
93.066 70.527 m 93.156 70.465 93.336 70.336 93.336 70.051 c 93.336 69.727
 93.055 69.523 92.73 69.523 c 92.5 69.523 92.281 69.688 92.113 69.875 c 
90.301 71.824 l 90.957 71.824 l 93.066 70.527 l f
97.938 73.09 m 98.129 73.074 98.609 73.023 98.852 73.023 c 99.277 73.023
 99.699 73.09 100.047 73.348 c 100.496 73.68 100.59 74.145 100.59 74.684
 c 100.59 75.52 100.113 76.465 98.828 76.465 c 98.492 76.465 98.18 76.434
 97.938 76.422 c h
98.246 77.027 m 98.941 78.008 99.742 79.137 100.395 80.152 c 100.59 80.449
 100.875 80.926 101.063 81.223 c 101.449 81.172 101.605 81.145 102.109 81.145
 c 102.57 81.145 102.895 81.184 103.254 81.223 c 102.441 80.211 102.094 
79.758 101.078 78.324 c 100.883 78.055 100.602 77.633 100.41 77.359 c 100.047
 76.848 l 101.219 76.629 102.289 75.895 102.289 74.465 c 102.289 73.922 
102.082 73.398 101.695 73.023 c 101.145 72.5 100.512 72.395 99.676 72.395
 c 99.379 72.395 97.887 72.461 97.551 72.461 c 96.895 72.461 96.563 72.422
 96.266 72.395 c 96.355 74.051 96.355 74.234 96.355 75.922 c 96.355 78.402
 96.344 78.684 96.238 81.223 c 96.523 81.184 96.832 81.145 97.129 81.145
 c 97.449 81.145 97.73 81.195 97.988 81.223 c 97.988 80.887 97.938 79.227
 97.938 78.852 c 97.938 77.027 l 98.246 77.027 l f
111.289 76.848 m 111.289 78.684 110.441 80.75 108.254 80.75 c 106.039 80.75
 105.215 78.762 105.215 76.848 c 105.215 75.086 106.039 72.945 108.254 72.945
 c 110.504 72.945 111.289 74.754 111.289 76.848 c h
103.453 77.004 m 103.453 79.816 105.574 81.398 108.254 81.398 c 111.109
 81.398 113.055 79.563 113.055 76.691 c 113.055 73.602 110.699 72.293 108.293
 72.293 c 105.691 72.293 103.453 73.73 103.453 77.004 c f
116.09 80.383 m 115.859 80.383 l 115.844 79.68 115.82 78.84 115.82 77.938
 c 115.82 75.961 115.859 74.34 115.945 72.395 c 115.625 72.445 115.371 72.469
 115.047 72.469 c 114.727 72.469 114.48 72.461 114.16 72.395 c 114.172 72.637
 114.195 73.797 114.211 74.066 c 114.25 75.215 114.25 75.34 114.25 75.906
 c 114.25 77.711 l 114.25 78.031 114.16 81.016 114.16 81.223 c 115.098 81.172
 115.793 81.145 116.617 81.145 c 117.313 81.145 118.418 81.195 119.074 81.223
 c 119.023 81.055 119.012 80.977 119.012 80.781 c 119.012 80.488 119.039
 80.414 119.074 80.27 c 118.316 80.383 116.461 80.383 116.09 80.383 c f
123.156 77.359 m 123.699 76.434 124.199 75.469 124.777 74.547 c 124.969
 74.234 125.91 72.738 126.102 72.395 c 125.961 72.445 125.82 72.469 125.563
 72.469 c 125.281 72.469 125.02 72.434 124.816 72.395 c 123.887 74.426 123.684
 74.863 122.59 76.746 c 121.496 74.824 121.004 73.809 120.336 72.395 c 119.965
 72.461 119.59 72.469 119.281 72.469 c 119 72.469 118.703 72.445 118.227
 72.395 c 118.895 73.512 119.988 75.293 120.648 76.422 c 121.406 77.734 
l 121.406 78.531 121.367 80.215 121.328 81.223 c 121.57 81.195 121.934 81.145
 122.191 81.145 c 122.484 81.145 122.781 81.195 123.078 81.223 c 123.027
 80.027 122.988 79.332 122.988 78.254 c 122.988 77.773 l 122.988 77.656 
123.066 77.516 123.156 77.359 c f
136.465 81.145 m 136.707 81.145 137.004 81.145 137.609 81.223 c 136.707
 80.398 134.855 77.957 134.199 77.09 c 133.516 76.188 l 134.457 75.164 134.66
 74.965 135.309 74.34 c 135.848 73.809 136.746 72.945 137.402 72.395 c 137.02
 72.461 136.758 72.469 136.543 72.469 c 136.324 72.469 136.078 72.445 135.938
 72.395 c 135.551 72.934 134.855 73.68 134.289 74.297 c 133.555 75.098 133.043
 75.637 132.09 76.473 c 132.09 75.801 132.09 75.07 132.102 74.426 c 132.113
 73.965 132.113 73.023 132.207 72.395 c 131.91 72.434 131.586 72.469 131.305
 72.469 c 131.031 72.469 130.699 72.422 130.402 72.395 c 130.508 73.68 130.516
 73.898 130.516 75.371 c 130.516 78.906 130.516 79.047 130.402 81.223 c 
130.672 81.215 131.031 81.145 131.305 81.145 c 131.613 81.145 131.984 81.215
 132.207 81.223 c 132.09 79.855 132.09 78.43 132.09 77.012 c 133.453 78.52
 134.457 79.934 135.371 81.223 c 135.742 81.195 136.156 81.145 136.465 81.145
 c f
141.98 77.684 m 141.531 77.684 141.094 77.645 140.645 77.633 c 141.957 
74.465 l 143.164 77.633 l 142.766 77.656 142.383 77.684 141.98 77.684 c 
h
142.805 72.266 m 142.664 72.301 142.535 72.332 142.395 72.332 c 142.238
 72.332 142.109 72.301 141.969 72.266 c 141.66 73.32 140.914 74.996 139.613
 77.898 c 138.121 81.223 l 138.301 81.195 138.48 81.145 138.699 81.145 c
 138.906 81.145 139.148 81.195 139.316 81.223 c 139.523 80.488 139.934 79.422
 140.348 78.43 c 140.863 78.402 141.375 78.383 141.891 78.383 c 142.445 
78.383 142.984 78.402 143.539 78.43 c 144.078 79.797 l 144.617 81.223 l 
144.852 81.215 145.211 81.145 145.57 81.145 c 145.934 81.145 146.383 81.215
 146.578 81.223 c 145.996 79.973 145.148 78.031 144.66 76.914 c 144.195 
75.832 143.422 74.027 142.805 72.266 c f
150.039 73.258 m 150.926 73.258 151.84 73.27 152.602 73.348 c 152.559 73.137
 152.535 73.023 152.535 72.883 c 152.535 72.777 152.559 72.613 152.602 72.395
 c 151.363 72.461 150.23 72.469 149.164 72.469 c 148.176 72.469 146.746 
72.461 145.727 72.395 c 145.766 72.547 145.793 72.715 145.793 72.871 c 145.793
 73.023 145.766 73.191 145.727 73.348 c 146.383 73.281 147.621 73.258 147.734
 73.258 c 148.379 73.258 l 148.391 73.758 148.406 74.211 148.406 74.684 
c 148.418 78.273 l 148.418 79.254 148.34 80.246 148.289 81.223 c 148.754
 81.172 148.945 81.145 149.164 81.145 c 149.316 81.145 149.73 81.184 150.105
 81.223 c 150.063 80.863 150.012 80.438 150.012 79.465 c 150.012 74.699 
l 150.012 74.211 150.027 73.719 150.039 73.258 c f
157.34 72.945 m 159.594 72.945 160.379 74.754 160.379 76.848 c 160.379 
78.684 159.531 80.75 157.34 80.75 c 155.129 80.75 154.305 78.762 154.305
 76.848 c 154.305 75.086 155.129 72.945 157.34 72.945 c h
157.34 81.398 m 160.199 81.398 162.145 79.563 162.145 76.691 c 162.145 
73.602 159.789 72.293 157.379 72.293 c 154.781 72.293 152.543 73.73 152.543
 77.004 c 152.543 79.816 154.664 81.398 157.34 81.398 c f
165.52 80.383 m 165.289 80.383 l 165.277 79.68 165.25 78.84 165.25 77.938
 c 165.25 75.961 165.289 74.34 165.379 72.395 c 165.059 72.445 164.801 72.469
 164.48 72.469 c 164.156 72.469 163.914 72.461 163.59 72.395 c 163.602 72.637
 163.629 73.797 163.641 74.066 c 163.684 75.215 163.684 75.34 163.684 75.906
 c 163.684 77.711 l 163.684 78.031 163.59 81.016 163.59 81.223 c 164.531
 81.172 165.223 81.145 166.051 81.145 c 166.742 81.145 167.852 81.195 168.508
 81.223 c 168.457 81.055 168.441 80.977 168.441 80.781 c 168.441 80.488 
168.469 80.414 168.508 80.27 c 167.75 80.383 165.895 80.383 165.52 80.383
 c f
170.609 72.469 m 170.418 72.469 169.941 72.422 169.699 72.395 c 169.824
 73.641 169.824 74.555 169.824 75.371 c 169.824 77.566 169.824 79.691 169.684
 81.223 c 169.969 81.215 170.328 81.145 170.609 81.145 c 170.906 81.145 
171.215 81.215 171.512 81.223 c 171.41 80.18 171.383 78.793 171.383 76.875
 c 171.383 75.57 171.383 73.348 171.523 72.395 c 171.215 72.434 170.895 
72.469 170.609 72.469 c f
179.383 81.145 m 179.625 81.145 179.922 81.145 180.527 81.223 c 179.625
 80.398 177.773 77.957 177.117 77.09 c 176.434 76.188 l 177.371 75.164 177.578
 74.965 178.223 74.34 c 178.762 73.809 179.664 72.945 180.32 72.395 c 179.934
 72.461 179.68 72.469 179.457 72.469 c 179.238 72.469 178.996 72.445 178.852
 72.395 c 178.465 72.934 177.773 73.68 177.207 74.297 c 176.473 75.098 175.957
 75.637 175.004 76.473 c 175.004 75.801 175.004 75.07 175.016 74.426 c 175.031
 73.965 175.031 73.023 175.121 72.395 c 174.824 72.434 174.504 72.469 174.219
 72.469 c 173.949 72.469 173.617 72.422 173.32 72.395 c 173.422 73.68 173.434
 73.898 173.434 75.371 c 173.434 78.906 173.434 79.047 173.32 81.223 c 173.59
 81.215 173.949 81.145 174.219 81.145 c 174.527 81.145 174.902 81.215 175.121
 81.223 c 175.004 79.855 175.004 78.43 175.004 77.012 c 176.367 78.52 177.371
 79.934 178.285 81.223 c 178.66 81.195 179.07 81.145 179.379 81.145 c f
181.355 78.891 m 181.641 80.887 183.492 81.379 185.039 81.379 c 185.73 
81.379 186.594 81.215 187.199 80.824 c 188.047 80.281 188.484 79.59 188.512
 78.066 c 188.539 76.766 188.578 74.121 188.641 73.012 c 188.68 72.395 l
 188.484 72.422 188.277 72.469 188.074 72.469 c 187.867 72.469 187.676 72.422
 187.496 72.395 c 187.598 74.066 187.609 75.754 187.609 77.426 c 187.609
 78.48 187.547 78.883 187.445 79.168 c 187.16 79.945 186.336 80.488 185.293
 80.488 c 184.395 80.488 183.699 80.211 183.324 79.707 c 182.953 79.199 
182.926 78.738 182.926 76.691 c 182.926 75.586 182.926 74.348 182.965 73.375
 c 183.004 72.395 l 182.746 72.434 182.449 72.469 182.168 72.469 c 181.883
 72.469 181.563 72.434 181.266 72.395 c 181.305 73.051 181.332 74.051 181.332
 74.715 c 181.332 78.215 l 181.332 78.324 181.332 78.715 181.355 78.891 
c f
192.301 80.77 m 191.543 80.77 190.898 80.582 190.309 79.293 c 190.125 79.293
 l 190.063 79.914 190.047 80.082 189.828 80.75 c 190.293 80.977 191.129 
81.398 192.238 81.398 c 194.594 81.398 195.508 79.895 195.508 78.586 c 195.508
 78.223 195.414 77.465 194.875 76.883 c 194.504 76.473 194.117 76.336 193.125
 75.945 c 191.992 75.508 191.336 75.254 191.336 74.313 c 191.336 73.551 
191.84 72.922 192.855 72.922 c 193.664 72.922 194.348 73.305 194.543 74.043
 c 194.723 74.043 l 194.84 73.551 194.863 73.449 195.121 72.816 c 194.488
 72.539 193.922 72.293 192.984 72.293 c 190.652 72.293 189.984 73.73 189.984
 74.863 c 189.984 75.934 190.359 76.59 191.605 77.141 c 191.965 77.297 192.574
 77.527 192.934 77.684 c 193.176 77.789 193.988 78.145 193.988 79.168 c 
193.988 80.09 193.32 80.77 192.301 80.77 c f
202.266 80.426 m 202.266 76.934 l 202.855 76.934 203.461 76.949 204.051
 76.965 c 204.375 76.977 204.711 77.004 205.043 77.027 c 205.004 76.934 
204.98 76.766 204.98 76.59 c 204.98 76.395 205.004 76.266 205.043 76.129
 c 204.363 76.207 202.918 76.215 202.266 76.215 c 202.266 73.191 l 203.449
 73.191 203.578 73.191 204.051 73.215 c 205.266 73.281 l 205.223 73.18 205.199
 73.004 205.199 72.805 c 205.199 72.648 205.223 72.547 205.266 72.395 c 
204.336 72.422 203.484 72.469 202.895 72.469 c 202.199 72.469 201.199 72.434
 200.566 72.395 c 200.656 73.68 200.684 76.168 200.684 76.707 c 200.684 
77.297 200.656 78.871 200.633 79.613 c 200.617 80.152 200.59 80.68 200.566
 81.223 c 201.387 81.172 202.199 81.145 202.973 81.145 c 203.797 81.145 
204.566 81.172 205.34 81.223 c 205.289 81.082 205.277 80.957 205.277 80.758
 c 205.277 80.582 205.289 80.449 205.34 80.336 c 204.246 80.383 202.598 
80.426 202.266 80.426 c f
213.828 77.258 m 213.492 77.258 213.195 77.211 212.914 77.172 c 212.949
 77.797 212.992 78.43 212.992 79.059 c 212.992 79.227 212.992 79.332 212.949
 80.23 c 212.438 80.566 211.73 80.695 211.125 80.695 c 209.953 80.695 209.258
 80.133 208.797 79.523 c 208.191 78.738 208.012 77.813 208.012 76.836 c 
208.012 74.398 209.156 72.984 211.305 72.984 c 213.16 72.984 213.609 73.887
 213.762 74.195 c 213.891 74.195 l 214.277 72.934 l 213.246 72.469 212.32
 72.293 211.266 72.293 c 207.832 72.293 206.246 74.363 206.246 76.949 c 
206.246 79.844 208.332 81.398 210.84 81.398 c 212.078 81.398 213.48 81.082
 214.574 80.504 c 214.547 80.141 214.535 79.816 214.535 79.332 c 214.535
 78.98 214.563 77.633 214.637 77.172 c 214.367 77.219 214.188 77.258 213.828
 77.258 c f
Q q
0 85.992 255.113 1.715 re W n
q
0 85 256 3 re W n
  q
0.0666667 0.247059 0.380392 rg
0 86.469 255.117 1.234 re f
  Q
Q
Q q
0.0666667 0.247059 0.380392 rg
175.465 19.141 m 175.453 19.172 175.449 19.199 175.445 19.223 c 175.273
 19.352 l 175.27 19.406 l 181.699 19.398 l 181.289 19.141 l 179.262 17.863
 l 179.195 17.82 l 179.191 17.602 l 179.004 17.477 l 178.977 17.352 178.914
 16.965 179.176 16.68 c 179.434 16.484 179.605 16.133 179.605 15.73 c 179.605
 15.68 179.609 15.383 179.434 15.082 c 179.371 14.98 179.305 14.891 179.219
 14.82 c 179.215 14.758 179.191 14.582 179.063 14.473 c 179.02 14.434 178.977
 14.398 178.922 14.379 c 178.926 14.363 178.926 14.348 178.926 14.34 c 178.926
 14.246 178.875 14.164 178.805 14.125 c 178.777 14.102 178.746 14.094 178.707
 14.094 c 178.59 14.094 178.492 14.199 178.492 14.34 c 178.492 14.348 178.496
 14.363 178.496 14.379 c 178.332 14.461 178.219 14.625 178.203 14.82 c 177.969
 15.02 177.816 15.352 177.816 15.73 c 177.816 16.129 177.98 16.469 178.23
 16.668 c 178.355 16.809 178.523 17.074 178.434 17.391 c 178.426 17.422 
178.418 17.449 178.414 17.477 c 178.242 17.602 l 178.23 17.797 l 176.066
 19.051 l 176.012 19.086 l 175.996 18.914 176.012 18.641 176.207 18.426 
c 176.461 18.234 176.633 17.883 176.633 17.48 c 176.633 17.426 176.637 17.133
 176.461 16.832 c 176.402 16.727 176.332 16.641 176.25 16.566 c 176.242 
16.508 176.219 16.332 176.09 16.223 c 176.051 16.184 176.004 16.148 175.953
 16.129 c 175.953 16.113 175.957 16.098 175.957 16.09 c 175.957 15.988 175.906
 15.914 175.836 15.871 c 175.805 15.852 175.773 15.844 175.742 15.844 c 
175.621 15.844 175.523 15.949 175.523 16.09 c 175.523 16.098 175.523 16.113
 175.527 16.129 c 175.363 16.207 175.25 16.375 175.23 16.566 c 174.996 16.77
 174.844 17.102 174.844 17.48 c 174.844 17.879 175.012 18.219 175.258 18.418
 c 175.387 18.559 175.555 18.82 175.461 19.141 c f
192.418 51.805 3.563 0.246 re f
186.059 51.805 3.566 0.246 re f
192.762 59.707 m 192.762 61.633 l 195.637 61.633 l 195.637 56.895 l 195.637
 56.895 194.969 56.699 194.227 56.668 c 193.453 56.699 192.762 56.883 192.762
 56.883 c 192.762 59.707 l f
186.402 59.707 m 186.402 61.633 l 189.277 61.633 l 189.277 56.895 l 189.277
 56.895 188.609 56.699 187.867 56.668 c 187.098 56.699 186.402 56.883 186.402
 56.883 c 186.402 59.707 l f
147.152 61.602 m 147.152 56.863 l 147.152 56.863 146.676 56.672 146.145
 56.637 c 145.594 56.672 145.102 56.855 145.102 56.855 c 145.102 61.602 
l 147.152 61.602 l f
144.828 51.77 2.574 0.227 re f
175.176 51.793 3.559 0.25 re f
168.977 51.793 3.563 0.25 re f
162.777 51.793 3.559 0.25 re f
156.578 51.793 3.559 0.25 re f
150.379 51.793 3.559 0.25 re f
175.516 59.711 m 175.516 61.637 l 178.387 61.637 l 178.387 56.898 l 178.387
 56.898 177.719 56.707 176.977 56.672 c 176.207 56.711 175.516 56.887 175.516
 56.887 c 175.516 59.711 l f
169.313 59.711 m 169.313 61.637 l 172.188 61.637 l 172.188 56.898 l 172.188
 56.898 171.52 56.707 170.777 56.672 c 170.008 56.711 169.313 56.887 169.313
 56.887 c 169.313 59.711 l f
163.117 59.711 m 163.117 61.637 l 165.988 61.637 l 165.988 56.898 l 165.988
 56.898 165.32 56.707 164.578 56.672 c 163.809 56.711 163.117 56.887 163.117
 56.887 c 163.117 59.711 l f
159.789 61.637 m 159.789 56.898 l 159.789 56.898 159.121 56.707 158.383
 56.672 c 157.609 56.711 156.918 56.887 156.918 56.887 c 156.918 61.637 
l 159.789 61.637 l f
150.719 59.711 m 150.719 61.637 l 153.59 61.637 l 153.59 56.898 l 153.59
 56.898 152.922 56.707 152.18 56.672 c 151.41 56.711 150.719 56.887 150.719
 56.887 c 150.719 59.711 l f
132.926 34.711 m 133.484 34.711 l 133.484 34.355 l 133.484 34.355 134.18
 33.891 135.488 33.891 c 136.809 33.891 137.492 34.355 137.492 34.355 c 
137.492 34.711 l 138.027 34.711 l 138.027 33.891 l 138.414 33.891 l 138.414
 33.227 l 132.555 33.227 l 132.555 33.891 l 132.926 33.891 l 132.926 34.711
 l f
127.559 55.273 m 125.719 55.297 124.84 56.672 124.762 57.758 c 124.746 
64.797 l 130.371 64.797 l 130.355 57.758 l 130.277 56.672 129.398 55.297
 127.559 55.273 c f
119.543 55.887 m 118.234 55.887 117.594 56.805 117.547 57.758 c 117.539
 64.797 l 121.555 64.797 l 121.539 57.758 l 121.488 56.805 120.852 55.887
 119.543 55.887 c f
135.574 55.887 m 134.266 55.887 133.629 56.805 133.578 57.758 c 133.566
 64.797 l 137.582 64.797 l 137.574 57.758 l 137.527 56.805 136.887 55.887
 135.578 55.887 c f
201.133 53.254 m 199.043 53.254 l 199.066 35.508 l 201.133 35.508 l h
184.059 53.254 m 184.059 43.301 l 198.152 43.301 l 198.164 53.254 l h
184.059 35.508 m 198.141 35.508 l 198.148 42.996 l 184.059 42.996 l h
183.211 53.254 m 181.094 53.254 l 181.094 35.508 l 183.211 35.508 l h
180.168 35.508 m 180.168 43.047 l 148.93 43.047 l 148.93 35.434 l h
180.168 53.254 m 148.93 53.254 l 148.93 43.301 l 180.168 43.301 l h
148.027 53.25 m 144.336 53.25 l 144.359 31.34 l 148.023 31.34 l h
143.48 53.25 m 142.055 53.25 l 141.348 53.254 l 141.348 31.34 l 143.48 
31.34 l h
127.605 30.09 m 114.664 30.09 l 127.559 24.332 l 140.453 30.09 l h
140.441 50.734 m 137.383 50.734 l 137.383 45.34 l 137.383 45.34 136.457
 45.082 135.434 45.031 c 134.414 45.082 133.496 45.324 133.496 45.324 c 
133.496 46.875 l 133.492 46.875 l 133.492 50.734 l 129.496 50.734 l 129.496
 45.34 l 129.496 45.34 128.582 45.09 127.559 45.047 c 127.559 45.043 l 126.539
 45.09 125.621 45.34 125.621 45.34 c 125.637 50.734 l 121.629 50.734 l 121.629
 46.875 l 121.621 46.875 l 121.621 45.324 l 121.621 45.324 120.703 45.082
 119.68 45.031 c 118.656 45.082 117.734 45.34 117.734 45.34 c 117.734 47.09
 l 117.738 47.09 l 117.738 49.215 l 117.734 49.215 l 117.734 50.734 l 114.676
 50.734 l 114.676 31.34 l 115.109 31.34 l 115.109 31.941 l 115.973 31.941
 l 115.973 31.34 l 116.719 31.34 l 116.719 31.941 l 117.582 31.941 l 117.582
 31.34 l 121.605 31.34 l 121.605 31.941 l 122.469 31.941 l 122.469 31.34
 l 123.285 31.34 l 123.285 31.941 l 124.152 31.941 l 124.152 31.34 l 130.969
 31.34 l 130.969 31.941 l 131.832 31.941 l 131.832 31.34 l 132.652 31.34
 l 132.652 31.941 l 133.516 31.941 l 133.516 31.34 l 137.539 31.34 l 137.539
 31.941 l 138.402 31.941 l 138.402 31.34 l 139.148 31.34 l 139.148 31.941
 l 140.012 31.941 l 140.012 31.34 l 140.441 31.34 l h
140.441 53.254 m 139.141 53.254 l 139.141 51.297 l 140.441 51.297 l h
138.613 53.254 m 137.383 53.254 l 137.383 51.297 l 138.613 51.297 l h
133.492 53.254 m 132.793 53.254 l 132.793 51.297 l 133.492 51.297 l h
132.266 53.254 m 130.676 53.254 l 130.676 51.297 l 132.266 51.297 l h
130.148 53.254 m 129.496 53.258 l 129.496 51.297 l 130.148 51.297 l h
125.637 53.254 m 124.969 53.254 l 124.969 51.297 l 125.637 51.297 l h
124.441 53.254 m 122.852 53.254 l 122.852 51.297 l 124.441 51.297 l h
122.324 53.254 m 121.629 53.254 l 121.629 51.297 l 122.324 51.297 l h
117.738 51.52 m 117.734 51.52 l 117.734 53.254 l 116.504 53.254 l 116.504
 51.297 l 117.738 51.297 l h
115.977 53.254 m 114.676 53.254 l 114.676 51.297 l 115.977 51.297 l h
113.773 53.254 m 113.063 53.25 l 111.637 53.25 l 111.637 31.34 l 113.773
 31.34 l h
107.094 53.25 m 107.094 31.34 l 110.762 31.34 l 110.781 53.25 l h
106.188 43.047 m 74.949 43.047 l 74.949 35.508 l 106.188 35.434 l h
106.188 53.254 m 74.949 53.254 l 74.949 43.301 l 106.188 43.301 l h
74.023 53.254 m 71.91 53.254 l 71.91 35.508 l 74.023 35.508 l h
71.059 42.996 m 56.965 42.996 l 56.977 35.508 l 71.059 35.508 l h
71.059 53.254 m 56.953 53.254 l 56.965 43.301 l 71.059 43.301 l h
53.988 53.254 m 53.988 35.508 l 56.051 35.508 l 56.074 53.254 l h
56.27 30.355 m 56.629 29.875 58.227 30.148 58.227 30.148 c 59.742 30.148
 60.09 29.758 60.465 29.301 c 60.773 28.922 60.922 28.465 60.766 27.914 
c 60.652 27.512 60.555 27.258 60.594 26.711 c 60.602 26.543 60.641 26.391
 60.672 26.238 c 60.742 25.922 60.848 25.633 60.992 25.379 c 61.137 25.113
 61.313 24.883 61.512 24.676 c 61.809 24.371 62.16 24.133 62.531 23.965 
c 62.652 23.906 62.781 23.855 62.906 23.816 c 63.219 23.719 63.539 23.664
 63.84 23.672 c 65.242 23.637 66.996 24.766 67.125 26.711 c 67.16 27.258
 67.063 27.512 66.953 27.914 c 66.793 28.465 66.941 28.922 67.25 29.301 
c 67.629 29.758 67.977 30.148 69.492 30.148 c 69.492 30.148 70.875 30.008
 71.449 30.32 c 71.828 30.527 71.523 32.047 71.523 32.047 c 56.191 32.047
 l 56.191 32.047 55.984 30.73 56.27 30.355 c h
92.801 31.633 m 88.113 31.633 l 88.113 30.563 l 88.113 30.563 88.332 30.34
 88.539 30.074 c 88.719 29.863 88.801 29.602 88.711 29.293 c 88.648 29.066
 88.59 28.926 88.613 28.613 c 88.684 27.516 89.656 26.883 90.449 26.895 
c 91.238 26.883 92.23 27.516 92.301 28.613 c 92.32 28.926 92.27 29.066 92.203
 29.293 c 92.113 29.602 92.199 29.863 92.375 30.074 c 92.586 30.34 92.801
 30.563 92.801 30.563 c h
86.461 21.809 m 86.461 21.832 l 85.23 21.832 l 85.23 18.02 l 86.461 18.02
 l h
162.316 30.563 m 162.316 30.563 162.535 30.34 162.746 30.074 c 162.922 
29.863 163.004 29.602 162.914 29.293 c 162.852 29.066 162.797 28.926 162.82
 28.613 c 162.891 27.516 163.883 26.883 164.672 26.895 c 165.465 26.883 
166.434 27.516 166.504 28.613 c 166.527 28.926 166.473 29.066 166.406 29.293
 c 166.32 29.602 166.402 29.863 166.578 30.074 c 166.789 30.34 167.008 30.563
 167.008 30.563 c 167.008 31.633 l 162.316 31.633 l h
168.656 21.809 m 168.656 18.02 l 169.887 18.02 l 169.887 21.832 l 168.656
 21.832 l h
198.926 32.047 m 183.594 32.047 l 183.594 32.047 183.289 30.527 183.668
 30.32 c 184.242 30.008 185.629 30.148 185.629 30.148 c 187.141 30.148 187.492
 29.758 187.867 29.301 c 188.176 28.922 188.324 28.465 188.168 27.914 c 
188.055 27.512 187.957 27.258 187.996 26.711 c 188.121 24.766 189.875 23.637
 191.277 23.672 c 191.582 23.664 191.898 23.719 192.211 23.816 c 192.336
 23.855 192.465 23.906 192.586 23.965 c 192.957 24.133 193.309 24.371 193.609
 24.676 c 193.809 24.883 193.984 25.113 194.125 25.379 c 194.27 25.633 194.379
 25.922 194.445 26.238 c 194.477 26.391 194.516 26.543 194.527 26.711 c 
194.563 27.258 194.465 27.512 194.352 27.914 c 194.195 28.465 194.348 28.922
 194.652 29.301 c 195.027 29.758 195.379 30.148 196.895 30.148 c 196.895
 30.148 198.488 29.875 198.848 30.355 c 199.133 30.73 198.926 32.047 198.926
 32.047 c h
200.367 29.406 m 197.773 27.641 l 195.102 25.82 l 195.102 25.82 194.836
 24.598 193.598 23.668 c 193.191 23.359 192.777 23.168 192.391 23.047 c 
191.574 22.789 190.91 22.859 190.805 22.879 c 190.797 22.879 190.789 22.879
 190.789 22.879 c 188.668 21.809 l 188.633 21.793 l 188.617 21.809 l 178.445
 33.129 l 179.031 33.129 l 203.098 33.133 l 202.777 33.469 l 150.309 33.473
 l 150.309 33.129 l 177.453 33.129 l 187.137 22.469 l 188.027 21.496 l 184.785
 19.84 l 184.746 19.82 l 170.32 19.82 l 170.32 18.02 l 170.605 18.02 l 170.605
 17.355 l 167.953 17.355 l 167.953 18.02 l 168.063 18.02 l 168.059 18.043
 l 167.648 19.82 l 147.391 19.82 l 147.398 19.84 l 148.289 21.809 l 152.027
 30.09 l 152.02 30.168 l 149.559 30.164 l 149.559 34.313 l 201.973 34.313
 l 201.41 34.902 l 148.949 34.902 l 148.949 30.164 l 142.414 30.164 l 127.559
 23.281 l 112.789 30.164 l 106.188 30.164 l 106.188 34.902 l 53.707 34.902
 l 53.145 34.313 l 105.57 34.313 l 105.57 30.156 l 103.098 30.168 l 103.09
 30.09 l 106.832 21.809 l 107.723 19.84 l 107.73 19.82 l 87.473 19.82 l 
87.059 18.043 l 87.055 18.02 l 87.168 18.02 l 87.168 17.355 l 84.512 17.355
 l 84.512 18.02 l 84.801 18.02 l 84.801 19.82 l 70.371 19.82 l 70.336 19.84
 l 67.156 21.461 l 68.066 22.469 l 77.656 33.129 l 104.809 33.129 l 104.809
 33.473 l 104.266 33.473 l 52.344 33.469 l 52.023 33.133 l 76.086 33.129
 l 76.672 33.129 l 66.5 21.809 l 66.484 21.793 l 66.449 21.809 l 64.328 
22.879 l 64.328 22.879 64.324 22.879 64.313 22.879 c 64.207 22.859 63.543
 22.789 62.727 23.047 c 62.344 23.168 61.93 23.359 61.52 23.668 c 60.281
 24.598 60.016 25.82 60.016 25.82 c 57.344 27.641 l 54.754 29.406 l 50.266
 32.469 l 53.07 35.445 l 53.07 64.797 l 53.988 64.797 l 53.988 54.156 l 
56.051 54.156 l 56.051 64.797 l 56.977 64.797 l 56.977 54.164 l 71.059 54.164
 l 71.059 64.797 l 71.91 64.797 l 71.91 54.164 l 74.023 54.164 l 74.023 
64.797 l 74.949 64.797 l 74.949 54.164 l 106.188 54.164 l 106.188 64.797
 l 107.094 64.797 l 107.094 54.156 l 108.926 54.156 l 110.762 54.164 l 110.762
 64.797 l 111.637 64.797 l 111.637 54.164 l 113.773 54.152 l 113.773 64.797
 l 114.664 64.797 l 114.676 54.156 l 115.109 54.156 l 115.109 54.961 l 115.973
 54.961 l 115.973 54.156 l 116.715 54.156 l 116.715 54.961 l 117.578 54.961
 l 117.578 54.156 l 121.797 54.156 l 121.797 54.961 l 122.66 54.961 l 122.66
 54.156 l 123.48 54.156 l 123.48 54.961 l 124.344 54.961 l 124.344 54.156
 l 130.777 54.156 l 130.777 54.961 l 131.641 54.961 l 131.641 54.156 l 132.457
 54.156 l 132.457 54.961 l 133.32 54.961 l 133.32 54.156 l 137.539 54.156
 l 137.539 54.961 l 138.402 54.961 l 138.402 54.156 l 139.145 54.156 l 139.145
 54.961 l 140.008 54.961 l 140.008 54.156 l 140.441 54.156 l 140.453 64.797
 l 141.344 64.797 l 141.344 54.152 l 143.48 54.164 l 143.48 64.797 l 144.359
 64.797 l 144.359 54.164 l 146.191 54.156 l 148.023 54.156 l 148.023 64.797
 l 148.93 64.797 l 148.93 54.164 l 180.168 54.164 l 180.168 64.797 l 181.094
 64.797 l 181.094 54.164 l 183.211 54.164 l 183.211 64.797 l 184.059 64.797
 l 184.059 54.164 l 198.141 54.164 l 198.141 64.797 l 199.066 64.797 l 199.066
 54.156 l 201.133 54.156 l 201.133 64.797 l 202.047 64.797 l 202.047 35.445
 l 204.855 32.469 l 200.367 29.406 l f
133.5 44.02 m 135.477 43.383 l 137.379 44.02 l h
138.305 43.863 m 135.566 42.945 l 135.512 42.926 135.449 42.926 135.391
 42.945 c 132.656 43.836 l 132.574 43.855 132.516 43.918 132.5 43.988 c 
132.477 44.055 132.504 44.133 132.559 44.184 c 132.781 44.391 l 132.828 
44.434 132.895 44.461 132.965 44.461 c 133 44.461 l 133 44.813 l 133 44.934
 133.109 45.031 133.25 45.031 c 133.387 45.031 133.5 44.934 133.5 44.813
 c 133.5 44.461 l 137.457 44.461 l 137.457 44.813 l 137.457 44.855 137.469
 44.898 137.496 44.934 c 137.543 44.988 137.617 45.031 137.707 45.031 c 
137.844 45.031 137.957 44.934 137.957 44.813 c 137.957 44.461 l 137.988 
44.461 l 138.051 44.461 138.109 44.438 138.156 44.402 c 138.379 44.234 l
 138.445 44.184 138.473 44.102 138.457 44.027 c 138.445 43.957 138.383 43.891
 138.305 43.863 c f
164.691 27.625 m 164.086 27.625 163.598 28.113 163.598 28.715 c 163.598
 29.32 164.086 29.809 164.691 29.809 c 165.297 29.809 165.785 29.32 165.785
 28.715 c 165.785 28.113 165.297 27.625 164.691 27.625 c f
191.348 24.914 m 190.254 24.914 189.367 25.797 189.367 26.887 c 189.367
 27.98 190.254 28.863 191.348 28.863 c 192.438 28.863 193.324 27.98 193.324
 26.887 c 193.324 25.797 192.438 24.914 191.348 24.914 c f
192.777 44.719 2.848 6.625 re f
186.418 44.719 2.852 6.625 re f
133.559 38.746 m 133.559 41.223 l 137.363 41.223 l 137.363 35.133 l 137.363
 35.133 136.477 34.883 135.496 34.836 c 135.496 34.84 l 134.473 34.883 133.559
 35.121 133.559 35.121 c 133.559 38.746 l f
133.051 41.566 4.773 0.285 re f
193.965 41.715 m 195.637 41.715 l 195.637 36.973 l 195.637 36.973 194.969
 36.781 194.227 36.75 c 193.453 36.781 192.762 36.965 192.762 36.965 c 192.762
 41.715 l 193.965 41.715 l f
192.387 42.07 3.605 0.227 re f
187.605 41.715 m 189.277 41.715 l 189.277 36.973 l 189.277 36.973 188.609
 36.781 187.867 36.75 c 187.098 36.781 186.402 36.965 186.402 36.965 c 186.402
 41.715 l 187.605 41.715 l f
186.027 42.07 3.605 0.227 re f
145.039 34.68 m 145.301 34.68 l 145.301 34.332 l 145.301 34.332 145.621
 33.863 146.223 33.863 c 146.836 33.863 147.152 34.332 147.152 34.332 c 
147.152 34.68 l 147.398 34.68 l 147.398 33.863 l 147.578 33.863 l 147.578
 33.199 l 144.867 33.199 l 144.867 33.863 l 145.039 33.863 l 145.039 34.68
 l f
145.332 38.715 m 145.332 41.195 l 147.094 41.195 l 147.094 35.105 l 147.094
 35.105 146.684 34.855 146.23 34.809 c 145.758 34.855 145.332 35.094 145.332
 35.094 c 145.332 38.715 l f
145.098 41.543 2.207 0.289 re f
147.117 46.547 m 147.117 45.258 l 147.117 45.258 146.688 45.082 146.215
 45.043 c 146.215 45.031 l 145.742 45.07 145.316 45.254 145.316 45.254 c
 145.316 46.383 l 145.309 46.383 l 145.309 51.297 l 147.117 51.297 l 147.117
 46.547 l f
146.23 43.383 m 147.117 44.023 l 145.316 44.023 l h
144.98 44.391 m 145.004 44.438 145.035 44.465 145.066 44.465 c 145.082 
44.465 l 145.082 44.813 l 145.082 44.934 145.133 45.031 145.199 45.031 c
 145.262 45.031 145.316 44.934 145.316 44.813 c 145.316 44.465 l 147.148
 44.465 l 147.148 44.813 l 147.148 44.859 147.156 44.902 147.168 44.938 
c 147.191 45 147.227 45.031 147.266 45.031 c 147.328 45.031 147.379 44.934
 147.379 44.813 c 147.379 44.465 l 147.398 44.465 l 147.426 44.465 147.453
 44.441 147.473 44.406 c 147.578 44.234 l 147.609 44.188 147.621 44.109 
147.617 44.039 c 147.609 43.965 147.578 43.895 147.543 43.871 c 146.273 
42.949 l 146.246 42.93 146.219 42.93 146.191 42.949 c 144.922 43.836 l 144.887
 43.855 144.859 43.922 144.852 43.988 c 144.84 44.063 144.852 44.137 144.879
 44.188 c 144.98 44.391 l f
175.531 44.711 2.852 6.625 re f
172.18 51.336 m 172.18 51.172 l 172.184 51.172 l 172.184 44.711 l 169.332
 44.711 l 169.332 46.734 l 169.336 46.734 l 169.336 48.137 l 169.332 48.137
 l 169.332 51.336 l 172.18 51.336 l f
163.133 44.711 2.852 6.625 re f
156.938 44.711 2.852 6.625 re f
150.734 44.711 2.852 6.625 re f
176.715 41.715 m 178.387 41.715 l 178.387 36.973 l 178.387 36.973 177.719
 36.781 176.977 36.75 c 176.207 36.781 175.516 36.965 175.516 36.965 c 175.516
 41.715 l 176.715 41.715 l f
175.137 42.07 3.605 0.227 re f
170.516 41.715 m 172.188 41.715 l 172.188 36.973 l 172.188 36.973 171.52
 36.781 170.777 36.75 c 170.008 36.781 169.313 36.965 169.313 36.965 c 169.313
 41.715 l 170.516 41.715 l f
168.938 42.07 3.605 0.227 re f
164.316 41.715 m 165.988 41.715 l 165.988 36.973 l 165.988 36.973 165.32
 36.781 164.578 36.75 c 163.809 36.781 163.117 36.965 163.117 36.965 c 163.117
 41.715 l 164.316 41.715 l f
162.738 42.07 3.605 0.227 re f
158.117 41.715 m 159.789 41.715 l 159.789 36.973 l 159.789 36.973 159.121
 36.781 158.383 36.75 c 157.609 36.781 156.918 36.965 156.918 36.965 c 156.918
 41.715 l 158.117 41.715 l f
156.539 42.07 3.605 0.227 re f
151.918 41.715 m 153.59 41.715 l 153.59 36.973 l 153.59 36.973 152.922 
36.781 152.18 36.75 c 151.41 36.781 150.719 36.965 150.719 36.965 c 150.719
 41.715 l 151.918 41.715 l f
150.34 42.07 3.605 0.227 re f
142.887 21.809 m 145.719 29.527 l 151.07 29.527 l 147.566 21.809 l 146.879
 20.297 l 142.211 19.965 l 142.887 21.809 l f
142.082 19.293 m 146.613 19.625 l 142.344 16.664 l 137.867 13.555 l 135.238
 11.73 l 142.082 19.293 l f
79.852 19.406 m 79.848 19.352 l 79.676 19.223 l 79.672 19.199 79.668 19.172
 79.656 19.141 c 79.563 18.82 79.73 18.559 79.859 18.418 c 80.105 18.219
 80.273 17.879 80.273 17.48 c 80.273 17.102 80.121 16.77 79.887 16.566 c
 79.871 16.375 79.754 16.207 79.59 16.129 c 79.594 16.113 79.594 16.098 
79.594 16.09 c 79.594 15.949 79.496 15.844 79.379 15.844 c 79.344 15.844
 79.313 15.852 79.285 15.871 c 79.211 15.914 79.16 15.988 79.16 16.09 c 
79.16 16.098 79.164 16.113 79.164 16.129 c 79.113 16.148 79.066 16.184 79.027
 16.223 c 78.898 16.332 78.875 16.508 78.867 16.566 c 78.785 16.641 78.715
 16.727 78.656 16.832 c 78.48 17.133 78.484 17.426 78.484 17.48 c 78.484
 17.883 78.656 18.234 78.914 18.426 c 79.105 18.641 79.121 18.914 79.105
 19.086 c 79.051 19.051 l 76.887 17.797 l 76.875 17.602 l 76.703 17.477 
l 76.699 17.449 76.695 17.422 76.684 17.391 c 76.594 17.074 76.762 16.809
 76.887 16.668 c 77.137 16.469 77.301 16.129 77.301 15.73 c 77.301 15.352
 77.148 15.02 76.918 14.82 c 76.898 14.625 76.785 14.461 76.621 14.379 c
 76.625 14.363 76.625 14.348 76.625 14.34 c 76.625 14.199 76.527 14.094 
76.41 14.094 c 76.371 14.094 76.34 14.102 76.313 14.125 c 76.242 14.164 
76.191 14.246 76.191 14.34 c 76.191 14.348 76.191 14.363 76.195 14.379 c
 76.145 14.398 76.098 14.434 76.055 14.473 c 75.926 14.582 75.902 14.758
 75.898 14.82 c 75.816 14.891 75.746 14.98 75.684 15.082 c 75.512 15.383
 75.512 15.68 75.512 15.73 c 75.512 16.133 75.684 16.484 75.941 16.68 c 
76.203 16.965 76.141 17.352 76.113 17.477 c 75.926 17.602 l 75.922 17.82
 l 75.855 17.863 l 73.418 19.398 l 73.422 19.398 l 79.848 19.406 l f
1 g
108.887 43.383 m 108.004 44.023 l 109.805 44.023 l h
108.887 43.383 m f
0.0666667 0.247059 0.380392 rg
59.141 51.805 3.563 0.246 re f
65.5 51.805 3.559 0.246 re f
59.484 56.895 m 59.484 61.633 l 62.355 61.633 l 62.355 56.883 l 62.355 
56.883 61.664 56.699 60.891 56.668 c 60.152 56.699 59.484 56.895 59.484 
56.895 c f
65.844 56.895 m 65.844 61.633 l 68.715 61.633 l 68.715 56.883 l 68.715 
56.883 68.023 56.699 67.25 56.668 c 66.512 56.699 65.844 56.895 65.844 56.895
 c f
107.965 56.863 m 107.965 61.602 l 110.02 61.602 l 110.02 56.855 l 110.02
 56.855 109.523 56.672 108.973 56.637 c 108.441 56.672 107.965 56.863 107.965
 56.863 c f
107.715 51.77 2.574 0.227 re f
76.383 51.793 3.563 0.25 re f
82.582 51.793 3.559 0.25 re f
88.781 51.793 3.563 0.25 re f
94.98 51.793 3.559 0.25 re f
101.18 51.793 3.559 0.25 re f
76.73 56.898 m 76.73 61.637 l 79.605 61.637 l 79.605 56.887 l 79.605 56.887
 78.914 56.711 78.145 56.672 c 77.398 56.707 76.73 56.898 76.73 56.898 c
 f
82.93 56.898 m 82.93 61.637 l 85.805 61.637 l 85.805 56.887 l 85.805 56.887
 85.109 56.711 84.34 56.672 c 83.598 56.707 82.93 56.898 82.93 56.898 c f
89.129 56.898 m 89.129 61.637 l 92.004 61.637 l 92.004 56.887 l 92.004 
56.887 91.313 56.711 90.539 56.672 c 89.797 56.707 89.129 56.898 89.129 
56.898 c f
95.328 56.898 m 95.328 61.637 l 98.203 61.637 l 98.203 56.887 l 98.203 
56.887 97.508 56.711 96.738 56.672 c 95.996 56.707 95.328 56.898 95.328 
56.898 c f
101.527 56.898 m 101.527 61.637 l 104.402 61.637 l 104.402 56.887 l 104.402
 56.887 103.707 56.711 102.938 56.672 c 102.195 56.707 101.527 56.898 101.527
 56.898 c f
117.09 34.711 m 117.625 34.711 l 117.625 34.355 l 117.625 34.355 118.309
 33.891 119.633 33.891 c 120.938 33.891 121.633 34.355 121.633 34.355 c 
121.633 34.711 l 122.191 34.711 l 122.191 33.891 l 122.563 33.891 l 122.563
 33.227 l 116.707 33.227 l 116.707 33.891 l 117.09 33.891 l 117.09 34.711
 l f
117.738 44.02 m 119.641 43.383 l 121.617 44.02 l h
122.461 43.836 m 119.73 42.945 l 119.672 42.926 119.609 42.926 119.551 
42.945 c 116.813 43.863 l 116.734 43.891 116.676 43.957 116.66 44.027 c 
116.645 44.102 116.676 44.184 116.738 44.234 c 116.961 44.402 l 117.008 
44.438 117.066 44.461 117.129 44.461 c 117.16 44.461 l 117.16 44.813 l 117.16
 44.934 117.277 45.031 117.414 45.031 c 117.5 45.031 117.574 44.988 117.621
 44.934 c 117.648 44.898 117.664 44.855 117.664 44.813 c 117.664 44.461 
l 121.617 44.461 l 121.617 44.813 l 121.617 44.934 121.734 45.031 121.867
 45.031 c 122.008 45.031 122.121 44.934 122.121 44.813 c 122.121 44.461 
l 122.152 44.461 l 122.223 44.461 122.289 44.434 122.336 44.391 c 122.559
 44.184 l 122.617 44.133 122.641 44.055 122.621 43.988 c 122.602 43.918 
122.543 43.855 122.461 43.836 c f
90.426 27.625 m 89.82 27.625 89.332 28.113 89.332 28.715 c 89.332 29.32
 89.82 29.809 90.426 29.809 c 91.031 29.809 91.52 29.32 91.52 28.715 c 91.52
 28.113 91.031 27.625 90.426 27.625 c f
63.773 28.863 m 64.863 28.863 65.75 27.98 65.75 26.887 c 65.75 25.797 64.863
 24.914 63.773 24.914 c 62.68 24.914 61.793 25.797 61.793 26.887 c 61.793
 27.98 62.68 28.863 63.773 28.863 c f
59.492 44.719 2.852 6.625 re f
65.852 44.719 2.855 6.625 re f
125.133 41.566 4.852 0.285 re f
117.758 35.133 m 117.758 41.223 l 121.563 41.223 l 121.563 35.121 l 121.563
 35.121 120.645 34.883 119.621 34.84 c 119.621 34.836 l 118.641 34.883 117.758
 35.133 117.758 35.133 c f
117.293 41.566 4.773 0.285 re f
61.383 41.715 m 62.355 41.715 l 62.355 36.965 l 62.355 36.965 61.664 36.781
 60.891 36.75 c 60.152 36.781 59.484 36.973 59.484 36.973 c 59.484 41.715
 l 61.383 41.715 l f
59.129 42.07 3.602 0.227 re f
65.844 41.715 m 68.715 41.715 l 68.715 36.965 l 68.715 36.965 68.02 36.781
 67.25 36.75 c 66.512 36.781 65.844 36.973 65.844 36.973 c 65.844 41.715
 l f
65.484 42.07 3.605 0.227 re f
107.719 34.68 m 107.965 34.68 l 107.965 34.332 l 107.965 34.332 108.281
 33.863 108.895 33.863 c 109.5 33.863 109.82 34.332 109.82 34.332 c 109.82
 34.68 l 110.078 34.68 l 110.078 33.863 l 110.25 33.863 l 110.25 33.199 
l 107.539 33.199 l 107.539 33.863 l 107.719 33.863 l 107.719 34.68 l f
108.027 35.105 m 108.027 41.195 l 109.785 41.195 l 109.785 35.094 l 109.785
 35.094 109.363 34.855 108.891 34.809 c 108.434 34.855 108.027 35.105 108.027
 35.105 c f
107.813 41.543 2.207 0.289 re f
108.004 49.793 m 108.004 51.297 l 109.809 51.297 l 109.809 46.383 l 109.805
 46.383 l 109.805 45.254 l 109.805 45.254 109.379 45.07 108.906 45.031 c
 108.906 45.043 l 108.43 45.082 108.004 45.258 108.004 45.258 c 108.004 
49.793 l f
108.887 43.383 m 109.805 44.023 l 108.004 44.023 l h
107.738 44.465 m 107.738 44.813 l 107.738 44.934 107.789 45.031 107.852
 45.031 c 107.891 45.031 107.93 45 107.949 44.938 c 107.961 44.902 107.969
 44.859 107.969 44.813 c 107.969 44.465 l 109.805 44.465 l 109.805 44.813
 l 109.805 44.934 109.855 45.031 109.922 45.031 c 109.984 45.031 110.035
 44.934 110.035 44.813 c 110.035 44.465 l 110.051 44.465 l 110.082 44.465
 110.113 44.438 110.137 44.391 c 110.242 44.188 l 110.266 44.137 110.277
 44.063 110.27 43.988 c 110.262 43.922 110.23 43.855 110.195 43.836 c 108.926
 42.949 l 108.898 42.93 108.871 42.93 108.844 42.949 c 107.578 43.871 l 
107.539 43.895 107.512 43.965 107.504 44.039 c 107.496 44.109 107.512 44.188
 107.539 44.234 c 107.645 44.406 l 107.664 44.441 107.691 44.465 107.723
 44.465 c 107.738 44.465 l f
76.734 44.711 2.852 6.625 re f
82.938 44.711 2.852 6.625 re f
89.133 44.711 2.852 6.625 re f
95.332 44.711 2.848 6.625 re f
101.531 44.711 2.852 6.625 re f
76.73 41.715 m 79.605 41.715 l 79.605 36.965 l 79.605 36.965 78.914 36.781
 78.145 36.75 c 77.398 36.781 76.73 36.973 76.73 36.973 c 76.73 41.715 l
 f
76.379 42.07 3.602 0.227 re f
84.832 41.715 m 85.805 41.715 l 85.805 36.965 l 85.805 36.965 85.109 36.781
 84.34 36.75 c 83.598 36.781 82.93 36.973 82.93 36.973 c 82.93 41.715 l 
84.832 41.715 l f
82.574 42.07 3.605 0.227 re f
89.129 41.715 m 92.004 41.715 l 92.004 36.965 l 92.004 36.965 91.313 36.781
 90.539 36.75 c 89.797 36.781 89.129 36.973 89.129 36.973 c 89.129 41.715
 l f
88.773 42.07 3.605 0.227 re f
97.23 41.715 m 98.203 41.715 l 98.203 36.965 l 98.203 36.965 97.508 36.781
 96.738 36.75 c 95.996 36.781 95.328 36.973 95.328 36.973 c 95.328 41.715
 l 97.23 41.715 l f
94.973 42.07 3.605 0.227 re f
103.43 41.715 m 104.402 41.715 l 104.402 36.965 l 104.402 36.965 103.707
 36.781 102.938 36.75 c 102.195 36.781 101.527 36.973 101.527 36.973 c 101.527
 41.715 l 103.43 41.715 l f
101.172 42.07 3.605 0.227 re f
104.047 29.527 m 109.402 29.527 l 112.23 21.809 l 112.91 19.965 l 108.242
 20.297 l 107.555 21.809 l 104.047 29.527 l f
141.348 19.965 m 113.773 19.965 l 113.09 21.809 l 110.242 29.527 l 112.789
 29.547 l 127.559 22.602 l 142.414 29.527 l 144.879 29.527 l 142.027 21.809
 l 141.348 19.965 l f
133.438 5.297 m 133.406 6.816 l 132.145 8.629 l 122.973 8.629 l 121.711
 6.816 l 121.684 5.297 l h
124.188 3.871 m 124.207 3.781 124.324 3.699 124.512 3.633 c 125.086 3.402
 126.316 3.223 127.504 3.223 c 127.504 3.223 127.508 3.223 127.512 3.223
 c 127.512 3.223 127.516 3.223 127.516 3.223 c 127.543 3.223 127.574 3.223
 127.602 3.223 c 127.605 3.223 127.605 3.223 127.605 3.223 c 127.609 3.223
 127.613 3.223 127.613 3.223 c 128.797 3.223 130.035 3.402 130.605 3.633
 c 130.793 3.699 130.91 3.781 130.93 3.871 c 130.93 3.875 130.941 3.883 
130.941 3.891 c 124.172 3.891 l 124.172 3.883 124.188 3.875 124.188 3.871
 c h
133.273 11.211 m 133 11.375 l 132.996 11.52 l 122.125 11.52 l 122.121 11.375
 l 121.848 11.211 l 121.82 11.109 121.789 10.895 121.84 10.664 c 121.871
 10.488 121.938 10.313 122.098 10.156 c 122.363 9.98 122.555 9.699 122.652
 9.375 c 132.469 9.375 l 132.566 9.699 132.758 9.98 133.023 10.156 c 133.184
 10.313 133.246 10.488 133.281 10.664 c 133.328 10.895 133.301 11.109 133.273
 11.211 c h
118.621 10.105 m 120.078 9.75 l 120.094 9.746 120.172 9.715 120.301 9.684
 c 120.406 9.879 120.555 10.043 120.727 10.156 c 120.887 10.313 120.953 
10.488 120.988 10.664 c 121.035 10.895 121.004 11.109 120.98 11.211 c 120.703
 11.375 l 120.699 11.52 l 114.07 19.215 l 141.047 19.215 l 134.418 11.52
 l 134.414 11.375 l 134.141 11.211 l 134.117 11.109 134.086 10.895 134.133
 10.664 c 134.164 10.488 134.234 10.313 134.391 10.156 c 134.566 10.043 
134.711 9.879 134.816 9.684 c 134.949 9.715 135.023 9.746 135.043 9.75 c
 136.5 10.105 l 136.5 12.098 l 137.813 12.945 l 137.813 8.973 l 136.918 
8.746 l 136.859 8.73 l 135.934 8.488 l 135.934 5.102 l 134.039 3.891 l 134.008
 3.879 l 131.711 3.879 l 131.711 2.75 130.684 0.898 128.941 0.238 c 128.535
 0.09 128.09 0 127.609 0 c 127.594 0 127.527 0 127.512 0 c 127.031 0 126.586
 0.09 126.18 0.238 c 124.438 0.898 123.41 2.75 123.41 3.879 c 121.113 3.879
 l 121.082 3.891 l 119.188 5.102 l 119.188 8.488 l 119.133 8.508 l 117.309
 8.973 l 117.309 12.945 l 118.621 12.09 l 118.621 10.105 l f
119.883 11.73 m 117.25 13.555 l 112.773 16.664 l 108.504 19.625 l 113.035
 19.293 l 119.883 11.73 l f
125.582 44.02 m 127.559 43.383 l 129.461 44.02 l h
130.387 43.863 m 127.652 42.945 l 127.594 42.93 127.531 42.93 127.473 42.945
 c 124.738 43.836 l 124.656 43.855 124.598 43.918 124.578 43.988 c 124.563
 44.059 124.582 44.133 124.641 44.188 c 124.863 44.391 l 124.914 44.434 
124.98 44.461 125.047 44.461 c 125.082 44.461 l 125.082 44.813 l 125.082
 44.934 125.191 45.031 125.332 45.031 c 125.469 45.031 125.582 44.934 125.582
 44.813 c 125.582 44.461 l 129.535 44.461 l 129.535 44.813 l 129.535 44.859
 129.551 44.898 129.578 44.934 c 129.625 44.996 129.703 45.031 129.789 45.031
 c 129.926 45.031 130.039 44.934 130.039 44.813 c 130.039 44.461 l 130.074
 44.461 l 130.133 44.461 130.195 44.441 130.238 44.402 c 130.461 44.234 
l 130.527 44.184 130.559 44.102 130.543 44.031 c 130.527 43.957 130.465 
43.895 130.387 43.863 c f
125.016 34.711 m 125.551 34.711 l 125.551 34.355 l 125.551 34.355 126.238
 33.895 127.559 33.895 c 128.879 33.895 129.57 34.355 129.57 34.355 c 129.57
 34.711 l 130.105 34.711 l 130.105 33.895 l 130.488 33.895 l 130.488 33.227
 l 124.629 33.227 l 124.629 33.895 l 125.016 33.895 l 125.016 34.711 l f
129.473 41.223 m 129.473 35.133 l 129.473 35.133 128.535 34.883 127.555
 34.836 c 126.57 34.883 125.648 35.133 125.648 35.133 c 125.648 41.223 l
 129.473 41.223 l f
82.008 8.648 m 82.734 8.602 83.453 8.586 84.133 8.586 c 84.863 8.586 85.543
 8.602 86.227 8.648 c 86.18 8.523 86.168 8.414 86.168 8.246 c 86.168 8.086
 86.18 7.965 86.227 7.863 c 85.258 7.914 83.805 7.945 83.508 7.945 c 83.508
 4.863 l 84.031 4.863 84.566 4.879 85.09 4.887 c 85.375 4.898 85.668 4.922
 85.965 4.941 c 85.93 4.863 85.906 4.715 85.906 4.555 c 85.906 4.387 85.93
 4.273 85.965 4.145 c 85.359 4.215 84.09 4.227 83.508 4.227 c 83.508 1.555
 l 84.555 1.555 84.668 1.555 85.09 1.582 c 86.16 1.637 l 86.121 1.547 86.102
 1.383 86.102 1.215 c 86.102 1.082 86.121 0.984 86.16 0.852 c 85.34 0.879
 84.59 0.922 84.066 0.922 c 83.453 0.922 82.566 0.883 82.008 0.852 c 82.09
 1.988 82.113 4.184 82.113 4.656 c 82.113 5.18 82.09 6.57 82.066 7.227 c
 82.055 7.711 82.031 8.172 82.008 8.648 c f
91.445 8.809 m 92.535 8.809 93.777 8.523 94.742 8.012 c 94.719 7.695 94.711
 7.414 94.711 6.977 c 94.711 6.672 94.73 5.477 94.801 5.07 c 94.563 5.113
 94.402 5.148 94.082 5.148 c 93.789 5.148 93.527 5.102 93.277 5.07 c 93.313
 5.629 93.344 6.184 93.344 6.738 c 93.344 6.887 93.344 6.977 93.313 7.773
 c 92.855 8.07 92.23 8.184 91.695 8.184 c 90.66 8.184 90.047 7.684 89.637
 7.148 c 89.105 6.457 88.945 5.637 88.945 4.773 c 88.945 2.629 89.957 1.375
 91.855 1.375 c 93.492 1.375 93.891 2.172 94.027 2.441 c 94.141 2.441 l 
94.48 1.332 l 93.574 0.922 92.754 0.758 91.824 0.758 c 88.785 0.758 87.387
 2.59 87.387 4.879 c 87.387 7.434 89.227 8.809 91.445 8.809 c f
96.656 8.648 m 97.383 8.602 98.098 8.586 98.781 8.586 c 99.508 8.586 100.191
 8.602 100.875 8.648 c 100.828 8.523 100.816 8.414 100.816 8.246 c 100.816
 8.086 100.828 7.965 100.875 7.863 c 99.906 7.914 98.449 7.945 98.156 7.945
 c 98.156 4.863 l 98.68 4.863 99.215 4.879 99.738 4.887 c 100.02 4.898 100.316
 4.922 100.613 4.941 c 100.578 4.863 100.555 4.715 100.555 4.555 c 100.555
 4.387 100.578 4.273 100.613 4.145 c 100.012 4.215 98.734 4.227 98.156 4.227
 c 98.156 1.555 l 99.203 1.555 99.316 1.555 99.738 1.582 c 100.805 1.637
 l 100.773 1.547 100.75 1.383 100.75 1.215 c 100.75 1.082 100.773 0.984 
100.805 0.852 c 99.988 0.879 99.234 0.922 98.711 0.922 c 98.098 0.922 97.211
 0.883 96.656 0.852 c 96.734 1.988 96.758 4.184 96.758 4.656 c 96.758 5.18
 96.734 6.57 96.711 7.227 c 96.699 7.711 96.676 8.172 96.652 8.648 c f
103.934 1.465 m 104.105 1.457 104.523 1.406 104.742 1.406 c 105.117 1.406
 105.492 1.465 105.797 1.691 c 106.195 1.988 106.277 2.395 106.277 2.879
 c 106.277 3.613 105.855 4.441 104.719 4.441 c 104.422 4.441 104.152 4.422
 103.934 4.414 c h
103.219 8.586 m 103.5 8.586 103.75 8.629 103.98 8.648 c 103.98 8.352 103.934
 6.887 103.934 6.559 c 103.934 4.941 l 104.207 4.941 l 104.82 5.809 105.523
 6.809 106.105 7.711 c 106.277 7.965 106.527 8.387 106.695 8.648 c 107.039
 8.602 107.172 8.586 107.617 8.586 c 108.027 8.586 108.309 8.621 108.629
 8.648 c 107.914 7.754 107.605 7.355 106.707 6.09 c 106.535 5.852 106.285
 5.477 106.117 5.238 c 105.797 4.781 l 106.832 4.59 107.777 3.941 107.777
 2.68 c 107.777 2.207 107.594 1.738 107.254 1.406 c 106.766 0.941 106.207
 0.852 105.469 0.852 c 105.207 0.852 103.887 0.906 103.594 0.906 c 103.012
 0.906 102.715 0.879 102.457 0.852 c 102.535 2.316 102.535 2.477 102.535
 3.965 c 102.535 6.164 102.523 6.414 102.434 8.648 c 102.684 8.621 102.957
 8.586 103.219 8.586 c f
152.746 2.129 m 152.746 4.227 l 152.746 7.219 152.723 7.465 152.609 8.559
 c 152.801 8.547 153.141 8.496 153.406 8.496 c 153.664 8.496 153.984 8.547
 154.133 8.559 c 154.074 7.754 154.051 6.684 154.051 5.59 c 154.051 4.695
 154.063 1.805 154.18 0.84 c 154.051 0.758 l 153.824 0.906 153.098 1.332
 152.836 1.457 c 151.891 1.906 151.391 2.156 150.563 2.465 c 150.563 2.555
 l 150.813 2.84 150.879 2.906 151.051 3.09 c 151.391 2.922 152.484 2.297
 152.746 2.129 c f
156.418 8.477 m 156.441 8.559 l 156.656 8.523 156.805 8.496 156.996 8.496
 c 157.238 8.496 157.422 8.523 157.613 8.559 c 158.262 7.273 158.887 6.129
 159.59 4.82 c 159.91 4.227 161.43 1.531 161.602 1.332 c 161.602 1.055 l
 159.672 1.055 157.328 1.055 156.488 0.965 c 156.512 1.215 156.543 1.465
 156.543 1.707 c 156.543 1.906 156.535 2.055 156.488 2.34 c 157.816 2.262
 158.168 2.262 158.684 2.262 c 160.238 2.262 l 159.773 3.133 157.387 7.113
 156.703 8.07 c 156.418 8.477 l f
162.379 8.477 m 162.402 8.559 l 162.617 8.523 162.762 8.496 162.957 8.496
 c 163.195 8.496 163.379 8.523 163.57 8.559 c 164.219 7.273 164.844 6.129
 165.547 4.82 c 165.867 4.227 167.391 1.531 167.563 1.332 c 167.563 1.055
 l 165.629 1.055 163.289 1.055 162.445 0.965 c 162.469 1.215 162.504 1.465
 162.504 1.707 c 162.504 1.906 162.492 2.055 162.445 2.34 c 163.773 2.262
 164.129 2.262 164.641 2.262 c 166.199 2.262 l 165.73 3.133 163.344 7.113
 162.66 8.07 c 162.379 8.477 l f
171.125 2.395 m 171.125 5.637 l 168.848 5.637 l h
171.125 6.586 m 171.125 7.711 171.125 7.977 171.031 8.559 c 171.293 8.539
 171.543 8.496 171.805 8.496 c 171.996 8.496 172.18 8.523 172.441 8.559 
c 172.383 7.961 172.383 7.816 172.383 6.586 c 172.703 6.586 173.008 6.602
 173.352 6.613 c 173.305 6.422 173.293 6.344 173.293 6.137 c 173.293 5.914
 173.305 5.816 173.352 5.613 c 172.746 5.637 172.68 5.637 172.383 5.637 
c 172.383 4.637 172.418 1.715 172.449 0.965 c 172.316 1.004 172.156 1.031
 171.953 1.031 c 171.781 1.031 171.578 1.004 171.453 0.965 c 171.305 1.234
 171.246 1.316 170.738 2.039 c 169.098 4.352 l 168.836 4.727 168.59 5.113
 168.316 5.477 c 168.211 5.613 168.031 5.832 168.031 5.914 c 168.031 6.594
 l 168.316 6.586 168.746 6.57 169.098 6.57 c 169.68 6.57 170.27 6.57 171.125
 6.586 c f
Q q
0 63.992 255.113 3 re W n
q
0 63 256 4 re W n
  q
0.0666667 0.247059 0.380392 rg
0 64.801 255.004 1.238 re f
  Q
Q
Q q
0.0666667 0.247059 0.380392 rg
192.387 61.988 3.605 0.227 re f
186.027 61.988 3.605 0.227 re f
175.137 61.996 m 175.137 62.215 l 178.742 62.215 l 178.742 61.988 l 175.137
 61.988 l 175.137 61.996 l f
162.738 61.988 3.605 0.227 re f
156.539 61.996 m 156.539 62.215 l 160.145 62.215 l 160.145 61.988 l 156.539
 61.988 l 156.539 61.996 l f
150.34 61.996 m 150.34 62.215 l 153.945 62.215 l 153.945 61.988 l 150.34
 61.988 l 150.34 61.996 l f
59.129 61.988 3.602 0.227 re f
65.484 61.988 3.605 0.227 re f
76.379 61.988 3.602 0.227 re f
82.574 61.996 m 82.574 62.215 l 86.18 62.215 l 86.18 61.988 l 82.574 61.988
 l 82.574 61.996 l f
88.773 61.996 m 88.773 62.215 l 92.379 62.215 l 92.379 61.988 l 88.773 
61.988 l 88.773 61.996 l f
94.973 61.996 m 94.973 62.215 l 98.574 62.215 l 98.574 61.988 l 94.973 
61.988 l 94.973 61.996 l f
101.172 61.996 m 101.172 62.215 l 104.777 62.215 l 104.777 61.988 l 101.172
 61.988 l 101.172 61.996 l f
107.711 61.98 2.566 0.23 re f
144.84 61.98 2.566 0.227 re f
168.965 61.996 m 168.965 62.215 l 172.57 62.215 l 172.57 61.988 l 168.965
 61.988 l 168.965 61.996 l f
  Q
Q
  Q
Q
Q Q
showpage
%%Trailer
end
%%EOF
