%!PS-Adobe-3.0 EPSF-3.0
%%Creator: cairo 1.16.0 (https://cairographics.org)
%%CreationDate: Wed Aug 11 13:20:57 2021
%%Pages: 1
%%DocumentData: Clean7Bit
%%LanguageLevel: 2
%%BoundingBox: 0 0 256 88
%%EndComments
%%BeginProlog
50 dict begin
/q { gsave } bind def
/Q { grestore } bind def
/cm { 6 array astore concat } bind def
/w { setlinewidth } bind def
/J { setlinecap } bind def
/j { setlinejoin } bind def
/M { setmiterlimit } bind def
/d { setdash } bind def
/m { moveto } bind def
/l { lineto } bind def
/c { curveto } bind def
/h { closepath } bind def
/re { exch dup neg 3 1 roll 5 3 roll moveto 0 rlineto
      0 exch rlineto 0 rlineto closepath } bind def
/S { stroke } bind def
/f { fill } bind def
/f* { eofill } bind def
/n { newpath } bind def
/W { clip } bind def
/W* { eoclip } bind def
/BT { } bind def
/ET { } bind def
/BDC { mark 3 1 roll /BDC pdfmark } bind def
/EMC { mark /EMC pdfmark } bind def
/cairo_store_point { /cairo_point_y exch def /cairo_point_x exch def } def
/Tj { show currentpoint cairo_store_point } bind def
/TJ {
  {
    dup
    type /stringtype eq
    { show } { -0.001 mul 0 cairo_font_matrix dtransform rmoveto } ifelse
  } forall
  currentpoint cairo_store_point
} bind def
/cairo_selectfont { cairo_font_matrix aload pop pop pop 0 0 6 array astore
    cairo_font exch selectfont cairo_point_x cairo_point_y moveto } bind def
/Tf { pop /cairo_font exch def /cairo_font_matrix where
      { pop cairo_selectfont } if } bind def
/Td { matrix translate cairo_font_matrix matrix concatmatrix dup
      /cairo_font_matrix exch def dup 4 get exch 5 get cairo_store_point
      /cairo_font where { pop cairo_selectfont } if } bind def
/Tm { 2 copy 8 2 roll 6 array astore /cairo_font_matrix exch def
      cairo_store_point /cairo_font where { pop cairo_selectfont } if } bind def
/g { setgray } bind def
/rg { setrgbcolor } bind def
/d1 { setcachedevice } bind def
/cairo_data_source {
  CairoDataIndex CairoData length lt
    { CairoData CairoDataIndex get /CairoDataIndex CairoDataIndex 1 add def }
    { () } ifelse
} def
/cairo_flush_ascii85_file { cairo_ascii85_file status { cairo_ascii85_file flushfile } if } def
/cairo_image { image cairo_flush_ascii85_file } def
/cairo_imagemask { imagemask cairo_flush_ascii85_file } def
%%EndProlog
%%BeginSetup
%%EndSetup
%%Page: 1 1
%%BeginPageSetup
%%PageBoundingBox: 0 0 256 88
%%EndPageSetup
q 0 0 256 88 rectclip
1 0 0 -1 0 88 cm q
Q q
q
0 0 256 88 re W n
  q
Q q
q
0 0 256 88 re W n
  q
Q q
0 85.992 255.113 1.715 re W n
q
0 85 256 3 re W n
  q
0.0666667 0.247059 0.380392 rg
0 86.469 255.117 1.238 re f
  Q
Q
Q q
0.0666667 0.247059 0.380392 rg
175.461 19.141 m 175.453 19.176 175.449 19.203 175.441 19.227 c 175.27 
19.355 l 175.266 19.41 l 181.699 19.402 l 181.289 19.145 l 179.262 17.867
 l 179.195 17.824 l 179.188 17.605 l 179.004 17.48 l 178.973 17.355 178.914
 16.965 179.172 16.684 c 179.43 16.488 179.602 16.137 179.602 15.734 c 179.602
 15.684 179.605 15.387 179.43 15.082 c 179.371 14.984 179.301 14.895 179.219
 14.824 c 179.215 14.762 179.191 14.582 179.059 14.477 c 179.02 14.438 178.973
 14.402 178.922 14.379 c 178.926 14.367 178.926 14.352 178.926 14.34 c 178.926
 14.246 178.875 14.164 178.805 14.125 c 178.773 14.105 178.742 14.098 178.707
 14.098 c 178.59 14.098 178.492 14.203 178.492 14.34 c 178.492 14.352 178.492
 14.367 178.492 14.379 c 178.332 14.461 178.219 14.625 178.199 14.824 c 
177.965 15.023 177.813 15.355 177.813 15.734 c 177.813 16.129 177.977 16.473
 178.227 16.668 c 178.355 16.813 178.52 17.078 178.43 17.391 c 178.422 17.426
 178.418 17.453 178.414 17.48 c 178.242 17.605 l 178.227 17.801 l 176.066
 19.055 l 176.008 19.086 l 175.996 18.914 176.008 18.645 176.203 18.43 c
 176.461 18.238 176.633 17.883 176.633 17.484 c 176.633 17.43 176.637 17.137
 176.461 16.832 c 176.402 16.73 176.328 16.645 176.25 16.57 c 176.242 16.508
 176.219 16.332 176.09 16.227 c 176.047 16.188 176.004 16.152 175.953 16.129
 c 175.953 16.117 175.957 16.102 175.957 16.09 c 175.957 15.992 175.906 
15.91 175.832 15.871 c 175.805 15.855 175.773 15.848 175.738 15.848 c 175.621
 15.848 175.523 15.953 175.523 16.09 c 175.523 16.102 175.523 16.117 175.527
 16.129 c 175.363 16.207 175.246 16.375 175.23 16.57 c 174.996 16.773 174.844
 17.105 174.844 17.484 c 174.844 17.879 175.008 18.223 175.258 18.418 c 
175.387 18.563 175.551 18.824 175.461 19.141 c f
192.418 51.805 3.559 0.25 re f
186.059 51.805 3.563 0.25 re f
192.762 59.707 m 192.762 61.633 l 195.633 61.633 l 195.633 56.898 l 195.633
 56.898 194.965 56.703 194.223 56.664 c 193.453 56.703 192.762 56.887 192.762
 56.887 c 192.762 59.707 l f
186.402 59.707 m 186.402 61.633 l 189.273 61.633 l 189.273 56.898 l 189.273
 56.898 188.605 56.703 187.863 56.664 c 187.094 56.703 186.402 56.887 186.402
 56.887 c 186.402 59.707 l f
147.152 61.605 m 147.152 56.867 l 147.152 56.867 146.676 56.676 146.145
 56.637 c 145.594 56.676 145.102 56.859 145.102 56.859 c 145.102 61.605 
l 147.152 61.605 l f
144.828 51.773 2.574 0.223 re f
175.172 51.793 3.563 0.25 re f
168.973 51.793 3.566 0.25 re f
162.777 51.793 3.559 0.25 re f
156.578 51.793 3.559 0.25 re f
150.379 51.793 3.559 0.25 re f
175.512 59.711 m 175.512 61.637 l 178.383 61.637 l 178.383 56.902 l 178.383
 56.902 177.719 56.707 176.977 56.672 c 176.203 56.707 175.512 56.891 175.512
 56.891 c 175.512 59.711 l f
169.313 59.711 m 169.313 61.637 l 172.184 61.637 l 172.184 56.902 l 172.184
 56.902 171.516 56.707 170.777 56.672 c 170.004 56.707 169.313 56.891 169.313
 56.891 c 169.313 59.711 l f
163.113 59.711 m 163.113 61.637 l 165.988 61.637 l 165.988 56.902 l 165.988
 56.902 165.32 56.707 164.578 56.672 c 163.805 56.707 163.113 56.891 163.113
 56.891 c 163.113 59.711 l f
159.785 61.637 m 159.785 56.902 l 159.785 56.902 159.121 56.707 158.379
 56.672 c 157.609 56.707 156.914 56.891 156.914 56.891 c 156.914 61.637 
l 159.785 61.637 l f
150.715 59.711 m 150.715 61.637 l 153.59 61.637 l 153.59 56.902 l 153.59
 56.902 152.922 56.707 152.18 56.672 c 151.41 56.707 150.715 56.891 150.715
 56.891 c 150.715 59.711 l f
132.926 34.711 m 133.484 34.711 l 133.484 34.359 l 133.484 34.359 134.18
 33.895 135.488 33.895 c 136.809 33.895 137.492 34.359 137.492 34.359 c 
137.492 34.711 l 138.027 34.711 l 138.027 33.895 l 138.41 33.895 l 138.41
 33.23 l 132.555 33.23 l 132.555 33.895 l 132.926 33.895 l 132.926 34.711
 l f
127.559 55.277 m 125.719 55.301 124.84 56.676 124.762 57.762 c 124.746 
64.801 l 130.371 64.801 l 130.355 57.762 l 130.277 56.676 129.398 55.301
 127.559 55.277 c f
119.543 55.891 m 118.234 55.891 117.594 56.805 117.547 57.758 c 117.535
 64.801 l 121.551 64.801 l 121.535 57.758 l 121.488 56.805 120.852 55.891
 119.543 55.891 c f
135.574 55.891 m 134.266 55.891 133.625 56.805 133.578 57.758 c 133.566
 64.801 l 137.582 64.801 l 137.57 57.758 l 137.523 56.805 136.887 55.891
 135.574 55.891 c f
201.129 53.254 m 199.043 53.254 l 199.066 35.508 l 201.129 35.508 l h
184.059 53.254 m 184.059 43.301 l 198.148 43.301 l 198.16 53.254 l h
184.059 35.508 m 198.137 35.508 l 198.148 42.996 l 184.059 42.996 l h
183.207 53.254 m 181.094 53.254 l 181.094 35.508 l 183.207 35.508 l h
180.164 35.508 m 180.164 43.047 l 148.93 43.047 l 148.93 35.438 l h
180.164 53.254 m 148.93 53.254 l 148.93 43.301 l 180.164 43.301 l h
148.023 53.25 m 144.336 53.25 l 144.355 31.34 l 148.023 31.34 l h
143.477 53.25 m 142.055 53.25 l 141.344 53.254 l 141.344 31.34 l 143.48
 31.34 l h
127.605 30.086 m 114.664 30.086 l 127.559 24.332 l 140.453 30.086 l h
140.441 50.738 m 137.383 50.738 l 137.383 45.34 l 137.383 45.34 136.457
 45.082 135.434 45.035 c 134.414 45.082 133.496 45.328 133.496 45.328 c 
133.496 46.871 l 133.492 46.871 l 133.492 50.738 l 129.496 50.738 l 129.496
 45.34 l 129.496 45.34 128.582 45.094 127.559 45.047 c 127.559 45.043 l 
126.539 45.094 125.621 45.34 125.621 45.34 c 125.637 50.738 l 121.625 50.738
 l 121.625 46.871 l 121.621 46.871 l 121.621 45.328 l 121.621 45.328 120.699
 45.082 119.68 45.035 c 118.652 45.082 117.734 45.34 117.734 45.34 c 117.734
 50.738 l 114.676 50.738 l 114.676 31.34 l 115.109 31.34 l 115.109 31.945
 l 115.973 31.945 l 115.973 31.34 l 116.715 31.34 l 116.715 31.945 l 117.578
 31.945 l 117.578 31.34 l 121.605 31.34 l 121.605 31.945 l 122.469 31.945
 l 122.469 31.34 l 123.285 31.34 l 123.285 31.945 l 124.148 31.945 l 124.148
 31.34 l 130.965 31.34 l 130.965 31.945 l 131.828 31.945 l 131.828 31.34
 l 132.652 31.34 l 132.652 31.945 l 133.516 31.945 l 133.516 31.34 l 137.539
 31.34 l 137.539 31.945 l 138.398 31.945 l 138.398 31.34 l 139.145 31.34
 l 139.145 31.945 l 140.008 31.945 l 140.008 31.34 l 140.441 31.34 l h
140.441 53.254 m 139.141 53.254 l 139.141 51.297 l 140.441 51.297 l h
138.613 53.254 m 137.383 53.254 l 137.383 51.297 l 138.613 51.297 l h
133.492 53.254 m 132.789 53.254 l 132.789 51.297 l 133.492 51.297 l h
132.262 53.254 m 130.676 53.254 l 130.676 51.297 l 132.262 51.297 l h
130.145 53.254 m 129.496 53.254 l 129.496 51.301 l 129.617 51.297 l 130.145
 51.297 l h
125.637 53.254 m 124.969 53.254 l 124.969 51.297 l 125.637 51.297 l h
124.441 53.254 m 122.852 53.254 l 122.852 51.297 l 124.441 51.297 l h
122.324 53.254 m 121.625 53.254 l 121.625 51.297 l 122.324 51.297 l h
117.734 51.523 m 117.734 53.254 l 116.504 53.254 l 116.504 51.297 l 117.734
 51.297 l h
115.973 53.254 m 114.676 53.254 l 114.676 51.297 l 115.973 51.297 l h
113.773 53.254 m 113.059 53.25 l 111.641 53.25 l 111.637 31.34 l 113.773
 31.34 l h
107.094 53.25 m 107.094 31.34 l 110.762 31.34 l 110.781 53.25 l h
106.188 43.047 m 74.949 43.047 l 74.949 35.508 l 106.188 35.438 l h
106.188 53.254 m 74.949 53.254 l 74.949 43.301 l 106.188 43.301 l h
74.023 53.254 m 71.906 53.254 l 71.906 35.508 l 74.023 35.508 l h
71.059 42.996 m 56.969 42.996 l 56.98 35.508 l 71.059 35.508 l h
71.059 53.254 m 56.957 53.254 l 56.969 43.301 l 71.059 43.301 l h
53.984 53.254 m 53.984 35.508 l 56.051 35.508 l 56.074 53.254 l h
56.27 30.355 m 56.629 29.875 58.227 30.152 58.227 30.152 c 59.742 30.152
 60.09 29.758 60.465 29.305 c 60.773 28.926 60.926 28.465 60.766 27.914 
c 60.652 27.516 60.555 27.262 60.59 26.707 c 60.605 26.543 60.641 26.395
 60.672 26.242 c 60.672 26.238 60.672 26.238 60.672 26.238 c 60.738 25.926
 60.852 25.637 60.992 25.375 c 61.137 25.117 61.313 24.883 61.512 24.68 
c 61.809 24.371 62.16 24.133 62.531 23.965 c 62.656 23.91 62.781 23.859 
62.906 23.82 c 63.219 23.723 63.539 23.664 63.84 23.672 c 65.242 23.641 
66.996 24.77 67.125 26.707 c 67.16 27.262 67.066 27.516 66.949 27.914 c 
66.793 28.465 66.941 28.926 67.25 29.305 c 67.625 29.758 67.977 30.152 69.492
 30.152 c 69.492 30.152 70.875 30.008 71.449 30.324 c 71.828 30.527 71.523
 32.051 71.523 32.051 c 56.191 32.051 l 56.191 32.051 55.984 30.734 56.27
 30.355 c h
92.801 31.633 m 88.113 31.633 l 88.113 30.566 l 88.113 30.566 88.328 30.34
 88.543 30.078 c 88.715 29.867 88.801 29.605 88.711 29.293 c 88.648 29.07
 88.594 28.926 88.613 28.617 c 88.688 27.52 89.656 26.887 90.445 26.898 
c 91.238 26.887 92.227 27.52 92.301 28.617 c 92.32 28.926 92.266 29.07 92.203
 29.293 c 92.113 29.605 92.199 29.867 92.371 30.078 c 92.586 30.34 92.801
 30.566 92.801 30.566 c h
86.461 21.813 m 86.461 21.832 l 85.23 21.832 l 85.23 18.023 l 86.461 18.023
 l h
162.316 30.566 m 162.316 30.566 162.531 30.34 162.742 30.078 c 162.918 
29.867 163.004 29.605 162.914 29.293 c 162.852 29.07 162.793 28.926 162.816
 28.617 c 162.887 27.52 163.879 26.887 164.668 26.898 c 165.461 26.887 166.434
 27.52 166.504 28.617 c 166.523 28.926 166.469 29.07 166.406 29.293 c 166.316
 29.605 166.402 29.867 166.574 30.078 c 166.785 30.34 167.004 30.566 167.004
 30.566 c 167.004 31.633 l 162.316 31.633 l h
168.656 21.813 m 168.656 18.023 l 169.887 18.023 l 169.887 21.832 l 168.656
 21.832 l h
198.926 32.051 m 183.594 32.051 l 183.594 32.051 183.289 30.527 183.668
 30.324 c 184.238 30.008 185.625 30.152 185.625 30.152 c 187.141 30.152 
187.488 29.758 187.863 29.305 c 188.176 28.926 188.324 28.465 188.164 27.914
 c 188.051 27.516 187.957 27.262 187.992 26.707 c 188.121 24.77 189.875 
23.641 191.277 23.672 c 191.578 23.664 191.898 23.723 192.207 23.82 c 192.336
 23.859 192.461 23.91 192.586 23.965 c 192.957 24.133 193.309 24.371 193.605
 24.68 c 193.805 24.883 193.98 25.117 194.125 25.375 c 194.266 25.637 194.375
 25.926 194.441 26.238 c 194.441 26.238 194.445 26.238 194.445 26.242 c 
194.477 26.395 194.512 26.543 194.523 26.707 c 194.563 27.262 194.465 27.516
 194.352 27.914 c 194.195 28.465 194.344 28.926 194.648 29.305 c 195.027
 29.758 195.375 30.152 196.891 30.152 c 196.891 30.152 198.488 29.875 198.848
 30.355 c 199.129 30.734 198.926 32.051 198.926 32.051 c h
200.363 29.41 m 197.773 27.645 l 195.102 25.82 l 195.102 25.82 194.832 
24.602 193.598 23.668 c 193.188 23.363 192.773 23.168 192.391 23.047 c 191.57
 22.789 190.91 22.863 190.801 22.879 c 190.793 22.879 190.789 22.879 190.789
 22.879 c 188.668 21.813 l 188.629 21.793 l 188.613 21.813 l 178.445 33.129
 l 179.031 33.129 l 203.094 33.133 l 202.773 33.473 l 150.309 33.477 l 150.309
 33.129 l 177.453 33.129 l 187.137 22.473 l 188.023 21.496 l 184.781 19.844
 l 184.746 19.824 l 170.316 19.824 l 170.316 18.023 l 170.602 18.023 l 170.602
 17.359 l 167.949 17.359 l 167.949 18.023 l 168.063 18.023 l 168.059 18.043
 l 167.645 19.824 l 147.391 19.824 l 147.398 19.844 l 148.285 21.813 l 152.023
 30.086 l 152.02 30.168 l 149.555 30.164 l 149.555 34.316 l 201.973 34.316
 l 201.41 34.906 l 148.945 34.906 l 148.945 30.16 l 142.414 30.16 l 127.559
 23.285 l 112.789 30.16 l 106.188 30.16 l 106.188 34.906 l 53.707 34.906
 l 53.145 34.316 l 105.566 34.316 l 105.566 30.156 l 103.098 30.168 l 103.09
 30.086 l 106.832 21.813 l 107.719 19.844 l 107.727 19.824 l 87.473 19.824
 l 87.059 18.043 l 87.055 18.023 l 87.168 18.023 l 87.168 17.359 l 84.512
 17.359 l 84.512 18.023 l 84.801 18.023 l 84.801 19.824 l 70.371 19.824 
l 70.336 19.844 l 67.156 21.461 l 68.066 22.473 l 77.652 33.129 l 104.809
 33.129 l 104.809 33.477 l 104.266 33.477 l 52.344 33.473 l 52.023 33.133
 l 76.086 33.129 l 76.672 33.129 l 66.504 21.813 l 66.484 21.793 l 66.449
 21.813 l 64.328 22.879 l 64.328 22.879 64.324 22.879 64.313 22.879 c 64.211
 22.863 63.547 22.789 62.727 23.047 c 62.344 23.168 61.926 23.363 61.52 
23.668 c 60.285 24.602 60.016 25.82 60.016 25.82 c 57.344 27.645 l 54.754
 29.41 l 50.266 32.473 l 53.07 35.449 l 53.07 64.801 l 53.984 64.801 l 53.984
 54.16 l 56.051 54.16 l 56.051 64.801 l 56.98 64.801 l 56.98 54.164 l 71.059
 54.164 l 71.059 64.801 l 71.906 64.801 l 71.906 54.164 l 74.023 54.164 
l 74.023 64.801 l 74.953 64.801 l 74.953 54.164 l 106.188 54.164 l 106.188
 64.801 l 107.094 64.801 l 107.094 54.16 l 108.93 54.16 l 110.762 54.164
 l 110.762 64.801 l 111.637 64.801 l 111.637 54.164 l 113.773 54.156 l 113.773
 64.801 l 114.664 64.801 l 114.676 54.16 l 115.109 54.16 l 115.109 54.957
 l 115.973 54.957 l 115.973 54.16 l 116.719 54.16 l 116.719 54.957 l 117.582
 54.957 l 117.582 54.16 l 121.793 54.16 l 121.793 54.957 l 122.656 54.957
 l 122.656 54.16 l 123.48 54.16 l 123.48 54.957 l 124.344 54.957 l 124.344
 54.16 l 130.773 54.16 l 130.773 54.957 l 131.637 54.957 l 131.637 54.16
 l 132.457 54.16 l 132.457 54.957 l 133.32 54.957 l 133.32 54.16 l 137.539
 54.16 l 137.539 54.957 l 138.398 54.957 l 138.398 54.16 l 139.145 54.16
 l 139.145 54.957 l 140.008 54.957 l 140.008 54.16 l 140.441 54.16 l 140.453
 64.801 l 141.344 64.801 l 141.344 54.156 l 143.48 54.164 l 143.48 64.801
 l 144.355 64.801 l 144.355 54.164 l 146.188 54.16 l 148.023 54.16 l 148.023
 64.801 l 148.93 64.801 l 148.93 54.164 l 180.164 54.164 l 180.164 64.801
 l 181.094 64.801 l 181.094 54.164 l 183.207 54.164 l 183.207 64.801 l 184.059
 64.801 l 184.059 54.164 l 198.137 54.164 l 198.137 64.801 l 199.066 64.801
 l 199.066 54.16 l 201.129 54.16 l 201.129 64.801 l 202.043 64.801 l 202.043
 35.449 l 204.852 32.473 l 200.363 29.41 l f
133.5 44.023 m 135.473 43.387 l 137.379 44.023 l h
138.305 43.867 m 135.566 42.949 l 135.512 42.93 135.445 42.93 135.391 42.949
 c 132.652 43.836 l 132.574 43.859 132.516 43.918 132.496 43.988 c 132.477
 44.059 132.5 44.133 132.559 44.188 c 132.781 44.395 l 132.828 44.434 132.895
 44.461 132.965 44.461 c 132.996 44.461 l 132.996 44.816 l 132.996 44.938
 133.109 45.035 133.246 45.035 c 133.383 45.035 133.496 44.938 133.496 44.816
 c 133.496 44.461 l 137.453 44.461 l 137.453 44.816 l 137.453 44.859 137.469
 44.902 137.496 44.938 c 137.539 44.992 137.617 45.035 137.703 45.035 c 
137.84 45.035 137.953 44.938 137.953 44.816 c 137.953 44.461 l 137.988 44.461
 l 138.051 44.461 138.109 44.441 138.156 44.406 c 138.379 44.234 l 138.445
 44.184 138.473 44.105 138.457 44.031 c 138.445 43.957 138.383 43.895 138.305
 43.867 c f
164.691 27.625 m 164.086 27.625 163.598 28.113 163.598 28.719 c 163.598
 29.324 164.086 29.813 164.691 29.813 c 165.297 29.813 165.785 29.324 165.785
 28.719 c 165.785 28.113 165.297 27.625 164.691 27.625 c f
191.344 24.914 m 190.25 24.914 189.367 25.797 189.367 26.891 c 189.367 
27.984 190.25 28.867 191.344 28.867 c 192.438 28.867 193.32 27.984 193.32
 26.891 c 193.32 25.797 192.438 24.914 191.344 24.914 c f
192.773 44.723 2.852 6.625 re f
186.414 44.723 2.852 6.625 re f
133.555 38.746 m 133.555 41.227 l 137.363 41.227 l 137.363 35.133 l 137.363
 35.133 136.477 34.887 135.496 34.836 c 135.496 34.84 l 134.473 34.887 133.555
 35.121 133.555 35.121 c 133.555 38.746 l f
133.051 41.57 4.773 0.285 re f
193.961 41.715 m 195.633 41.715 l 195.633 36.977 l 195.633 36.977 194.965
 36.785 194.223 36.75 c 193.453 36.785 192.762 36.965 192.762 36.965 c 192.762
 41.715 l 193.961 41.715 l f
192.387 42.074 3.602 0.223 re f
187.605 41.715 m 189.273 41.715 l 189.273 36.977 l 189.273 36.977 188.605
 36.785 187.863 36.75 c 187.094 36.785 186.402 36.965 186.402 36.965 c 186.402
 41.715 l 187.605 41.715 l f
186.027 42.074 3.602 0.223 re f
145.039 34.684 m 145.297 34.684 l 145.297 34.332 l 145.297 34.332 145.621
 33.867 146.223 33.867 c 146.836 33.867 147.152 34.332 147.152 34.332 c 
147.152 34.684 l 147.398 34.684 l 147.398 33.867 l 147.574 33.867 l 147.574
 33.203 l 144.867 33.203 l 144.867 33.867 l 145.039 33.867 l 145.039 34.684
 l f
145.332 38.719 m 145.332 41.199 l 147.09 41.199 l 147.09 35.109 l 147.09
 35.109 146.684 34.859 146.227 34.813 c 145.754 34.859 145.332 35.098 145.332
 35.098 c 145.332 38.719 l f
145.098 41.543 2.207 0.289 re f
147.113 46.547 m 147.113 45.262 l 147.113 45.262 146.688 45.078 146.211
 45.043 c 146.211 45.035 l 145.738 45.07 145.313 45.25 145.313 45.25 c 145.313
 46.383 l 145.309 46.383 l 145.309 51.297 l 147.113 51.297 l 147.113 46.547
 l f
146.227 43.387 m 147.113 44.027 l 145.313 44.027 l h
144.98 44.395 m 145.004 44.441 145.031 44.461 145.066 44.461 c 145.082 
44.461 l 145.082 44.816 l 145.082 44.938 145.133 45.035 145.199 45.035 c
 145.262 45.035 145.313 44.938 145.313 44.816 c 145.313 44.461 l 147.148
 44.461 l 147.148 44.816 l 147.148 44.863 147.156 44.906 147.168 44.941 
c 147.188 44.996 147.223 45.035 147.262 45.035 c 147.328 45.035 147.379 
44.938 147.379 44.816 c 147.379 44.461 l 147.398 44.461 l 147.426 44.461
 147.453 44.445 147.473 44.406 c 147.578 44.238 l 147.605 44.188 147.621
 44.109 147.613 44.035 c 147.609 43.961 147.578 43.898 147.543 43.867 c 
146.273 42.953 l 146.246 42.934 146.219 42.934 146.191 42.953 c 144.922 
43.836 l 144.883 43.859 144.859 43.918 144.848 43.992 c 144.84 44.063 144.848
 44.137 144.879 44.191 c 144.98 44.395 l f
175.531 44.707 2.848 6.625 re f
169.332 44.707 2.848 6.625 re f
165.98 51.332 m 165.98 51.176 l 165.984 51.176 l 165.984 44.707 l 163.133
 44.707 l 163.133 51.332 l 165.98 51.332 l f
156.934 44.707 2.848 6.625 re f
150.734 44.707 2.852 6.625 re f
176.711 41.715 m 178.383 41.715 l 178.383 36.977 l 178.383 36.977 177.719
 36.785 176.977 36.75 c 176.203 36.785 175.512 36.965 175.512 36.965 c 175.512
 41.715 l 176.711 41.715 l f
175.137 42.074 3.602 0.223 re f
170.512 41.715 m 172.184 41.715 l 172.184 36.977 l 172.184 36.977 171.516
 36.785 170.777 36.75 c 170.004 36.785 169.313 36.965 169.313 36.965 c 169.313
 41.715 l 170.512 41.715 l f
168.938 42.074 3.605 0.223 re f
164.313 41.715 m 165.988 41.715 l 165.988 36.977 l 165.988 36.977 165.32
 36.785 164.578 36.75 c 163.805 36.785 163.113 36.965 163.113 36.965 c 163.113
 41.715 l 164.313 41.715 l f
162.738 42.074 3.602 0.223 re f
158.117 41.715 m 159.785 41.715 l 159.785 36.977 l 159.785 36.977 159.121
 36.785 158.379 36.75 c 157.609 36.785 156.914 36.965 156.914 36.965 c 156.914
 41.715 l 158.117 41.715 l f
156.539 42.074 3.605 0.223 re f
151.918 41.715 m 153.59 41.715 l 153.59 36.977 l 153.59 36.977 152.922 
36.785 152.18 36.75 c 151.41 36.785 150.715 36.965 150.715 36.965 c 150.715
 41.715 l 151.918 41.715 l f
150.34 42.074 3.602 0.223 re f
142.887 21.813 m 145.715 29.531 l 151.07 29.531 l 147.563 21.813 l 146.879
 20.301 l 142.207 19.965 l 142.887 21.813 l f
142.078 19.293 m 146.613 19.625 l 142.344 16.664 l 137.867 13.559 l 135.234
 11.734 l 142.078 19.293 l f
79.848 19.41 m 79.848 19.355 l 79.672 19.227 l 79.668 19.203 79.664 19.176
 79.656 19.141 c 79.566 18.824 79.73 18.563 79.859 18.418 c 80.109 18.223
 80.273 17.879 80.273 17.484 c 80.273 17.105 80.121 16.773 79.887 16.57 
c 79.867 16.375 79.754 16.207 79.594 16.129 c 79.594 16.117 79.594 16.102
 79.594 16.09 c 79.594 15.953 79.496 15.848 79.379 15.848 c 79.344 15.848
 79.313 15.855 79.281 15.871 c 79.211 15.91 79.16 15.992 79.16 16.09 c 79.16
 16.102 79.164 16.117 79.164 16.129 c 79.113 16.152 79.066 16.188 79.027
 16.227 c 78.895 16.332 78.871 16.508 78.867 16.57 c 78.785 16.645 78.715
 16.73 78.656 16.832 c 78.48 17.137 78.484 17.43 78.484 17.484 c 78.484 
17.883 78.656 18.238 78.914 18.43 c 79.105 18.645 79.125 18.914 79.105 19.086
 c 79.051 19.055 l 76.887 17.801 l 76.879 17.605 l 76.703 17.48 l 76.699
 17.453 76.695 17.426 76.688 17.395 c 76.594 17.078 76.762 16.813 76.887
 16.668 c 77.137 16.473 77.305 16.129 77.305 15.734 c 77.305 15.355 77.152
 15.023 76.918 14.824 c 76.898 14.625 76.785 14.461 76.621 14.379 c 76.625
 14.367 76.625 14.352 76.625 14.34 c 76.625 14.203 76.527 14.098 76.406 
14.098 c 76.375 14.098 76.344 14.105 76.313 14.125 c 76.242 14.164 76.191
 14.246 76.191 14.34 c 76.191 14.352 76.195 14.367 76.195 14.379 c 76.145
 14.402 76.098 14.438 76.059 14.477 c 75.926 14.582 75.902 14.762 75.898
 14.824 c 75.816 14.895 75.742 14.984 75.688 15.082 c 75.512 15.387 75.512
 15.684 75.512 15.734 c 75.512 16.137 75.688 16.488 75.945 16.684 c 76.203
 16.965 76.145 17.355 76.113 17.48 c 75.93 17.605 l 75.922 17.824 l 75.855
 17.867 l 73.418 19.402 l 79.848 19.41 l f
59.141 51.805 3.563 0.25 re f
65.496 51.805 3.563 0.25 re f
59.48 56.898 m 59.48 61.633 l 62.355 61.633 l 62.355 56.887 l 62.355 56.887
 61.66 56.703 60.891 56.664 c 60.152 56.703 59.48 56.898 59.48 56.898 c f
65.84 56.898 m 65.84 61.633 l 68.715 61.633 l 68.715 56.887 l 68.715 56.887
 68.02 56.703 67.25 56.664 c 66.508 56.703 65.84 56.898 65.84 56.898 c f
107.965 56.867 m 107.965 61.605 l 110.02 61.605 l 110.02 56.859 l 110.02
 56.859 109.523 56.676 108.973 56.637 c 108.441 56.676 107.965 56.867 107.965
 56.867 c f
107.715 51.773 2.574 0.223 re f
76.383 51.793 3.559 0.25 re f
82.582 51.793 3.559 0.25 re f
88.781 51.793 3.559 0.25 re f
94.98 51.793 3.559 0.25 re f
101.18 51.793 3.559 0.25 re f
76.734 56.902 m 76.734 61.637 l 79.605 61.637 l 79.605 56.891 l 79.605 
56.891 78.914 56.707 78.141 56.672 c 77.402 56.707 76.734 56.902 76.734 
56.902 c f
82.93 56.902 m 82.93 61.637 l 85.805 61.637 l 85.805 56.891 l 85.805 56.891
 85.113 56.707 84.34 56.672 c 83.598 56.707 82.93 56.902 82.93 56.902 c f
89.129 56.902 m 89.129 61.637 l 92.004 61.637 l 92.004 56.891 l 92.004 
56.891 91.309 56.707 90.539 56.672 c 89.797 56.707 89.129 56.902 89.129 
56.902 c f
95.328 56.902 m 95.328 61.637 l 98.199 61.637 l 98.199 56.891 l 98.199 
56.891 97.508 56.707 96.738 56.672 c 95.996 56.707 95.328 56.902 95.328 
56.902 c f
101.527 56.902 m 101.527 61.637 l 104.398 61.637 l 104.398 56.891 l 104.398
 56.891 103.707 56.707 102.938 56.672 c 102.195 56.707 101.527 56.902 101.527
 56.902 c f
117.09 34.711 m 117.625 34.711 l 117.625 34.359 l 117.625 34.359 118.309
 33.895 119.629 33.895 c 120.938 33.895 121.633 34.359 121.633 34.359 c 
121.633 34.711 l 122.191 34.711 l 122.191 33.895 l 122.563 33.895 l 122.563
 33.23 l 116.707 33.23 l 116.707 33.895 l 117.09 33.895 l 117.09 34.711 
l f
117.738 44.023 m 119.641 43.387 l 121.617 44.023 l h
122.465 43.836 m 119.727 42.949 l 119.668 42.93 119.605 42.93 119.547 42.949
 c 116.813 43.867 l 116.734 43.895 116.676 43.957 116.656 44.031 c 116.641
 44.105 116.676 44.184 116.738 44.234 c 116.961 44.406 l 117.008 44.441 
117.066 44.461 117.125 44.461 c 117.164 44.461 l 117.164 44.816 l 117.164
 44.938 117.273 45.035 117.414 45.035 c 117.496 45.035 117.574 44.992 117.621
 44.938 c 117.648 44.902 117.664 44.859 117.664 44.816 c 117.664 44.461 
l 121.617 44.461 l 121.617 44.816 l 121.617 44.938 121.73 45.035 121.867
 45.035 c 122.008 45.035 122.121 44.938 122.121 44.816 c 122.121 44.461 
l 122.152 44.461 l 122.223 44.461 122.285 44.434 122.336 44.395 c 122.559
 44.188 l 122.617 44.133 122.641 44.059 122.621 43.988 c 122.602 43.918 
122.543 43.859 122.465 43.836 c f
90.426 27.625 m 89.824 27.625 89.332 28.113 89.332 28.719 c 89.332 29.324
 89.824 29.813 90.426 29.813 c 91.031 29.813 91.52 29.324 91.52 28.719 c
 91.52 28.113 91.031 27.625 90.426 27.625 c f
63.773 28.867 m 64.863 28.867 65.75 27.984 65.75 26.891 c 65.75 25.797 
64.863 24.914 63.773 24.914 c 62.68 24.914 61.797 25.797 61.797 26.891 c
 61.797 27.984 62.68 28.867 63.773 28.867 c f
59.496 51.348 m 62.34 51.348 l 62.34 44.723 l 59.492 44.723 l 59.492 51.348
 l f
65.852 44.723 2.852 6.625 re f
125.133 41.57 4.852 0.285 re f
117.754 35.133 m 117.754 41.227 l 121.563 41.227 l 121.563 35.121 l 121.563
 35.121 120.645 34.887 119.621 34.84 c 119.621 34.836 l 118.641 34.887 117.754
 35.133 117.754 35.133 c f
117.293 41.57 4.773 0.285 re f
61.383 41.715 m 62.355 41.715 l 62.355 36.965 l 62.355 36.965 61.66 36.785
 60.891 36.75 c 60.148 36.785 59.48 36.977 59.48 36.977 c 59.48 41.715 l
 61.383 41.715 l f
59.129 42.074 3.602 0.223 re f
65.84 41.715 m 68.715 41.715 l 68.715 36.965 l 68.715 36.965 68.02 36.785
 67.25 36.75 c 66.508 36.785 65.84 36.977 65.84 36.977 c 65.84 41.715 l f
65.488 42.074 3.602 0.223 re f
107.715 34.684 m 107.965 34.684 l 107.965 34.332 l 107.965 34.332 108.281
 33.867 108.891 33.867 c 109.496 33.867 109.82 34.332 109.82 34.332 c 109.82
 34.684 l 110.078 34.684 l 110.078 33.867 l 110.25 33.867 l 110.25 33.203
 l 107.539 33.203 l 107.539 33.867 l 107.715 33.867 l 107.715 34.684 l f
108.023 35.109 m 108.023 41.199 l 109.785 41.199 l 109.785 35.098 l 109.785
 35.098 109.359 34.859 108.891 34.813 c 108.434 34.859 108.023 35.109 108.023
 35.109 c f
107.813 41.543 2.207 0.289 re f
108.004 49.793 m 108.004 51.297 l 109.805 51.297 l 109.805 45.25 l 109.805
 45.25 109.379 45.07 108.906 45.035 c 108.906 45.043 l 108.426 45.082 108
 45.262 108 45.262 c 108 46.547 l 108.004 46.547 l 108.004 49.793 l f
108.887 43.387 m 109.801 44.027 l 108.004 44.027 l h
107.734 44.461 m 107.734 44.816 l 107.734 44.938 107.789 45.035 107.852
 45.035 c 107.895 45.035 107.93 44.996 107.949 44.941 c 107.961 44.906 107.969
 44.863 107.969 44.816 c 107.969 44.461 l 109.805 44.461 l 109.805 44.816
 l 109.805 44.938 109.855 45.035 109.918 45.035 c 109.984 45.035 110.035
 44.938 110.035 44.816 c 110.035 44.461 l 110.051 44.461 l 110.082 44.461
 110.113 44.441 110.133 44.395 c 110.238 44.191 l 110.266 44.137 110.277
 44.063 110.27 43.992 c 110.258 43.918 110.23 43.859 110.195 43.836 c 108.926
 42.953 l 108.898 42.934 108.871 42.934 108.844 42.953 c 107.574 43.867 
l 107.539 43.898 107.512 43.961 107.504 44.035 c 107.496 44.109 107.512 
44.188 107.539 44.238 c 107.645 44.406 l 107.664 44.445 107.691 44.461 107.723
 44.461 c 107.734 44.461 l f
76.738 44.707 2.848 6.625 re f
82.934 44.707 2.855 6.625 re f
89.137 44.707 2.848 6.625 re f
95.332 44.707 2.852 6.625 re f
101.531 44.707 2.848 6.625 re f
76.734 41.715 m 79.605 41.715 l 79.605 36.965 l 79.605 36.965 78.914 36.785
 78.141 36.75 c 77.402 36.785 76.734 36.977 76.734 36.977 c 76.734 41.715
 l f
76.375 42.074 3.605 0.223 re f
84.832 41.715 m 85.805 41.715 l 85.805 36.965 l 85.805 36.965 85.113 36.785
 84.34 36.75 c 83.598 36.785 82.93 36.977 82.93 36.977 c 82.93 41.715 l 
84.832 41.715 l f
82.578 42.074 3.602 0.223 re f
89.129 41.715 m 92.004 41.715 l 92.004 36.965 l 92.004 36.965 91.309 36.785
 90.539 36.75 c 89.797 36.785 89.129 36.977 89.129 36.977 c 89.129 41.715
 l f
88.773 42.074 3.605 0.223 re f
97.23 41.715 m 98.199 41.715 l 98.199 36.965 l 98.199 36.965 97.508 36.785
 96.738 36.75 c 95.996 36.785 95.328 36.977 95.328 36.977 c 95.328 41.715
 l 97.23 41.715 l f
94.973 42.074 3.605 0.223 re f
103.426 41.715 m 104.402 41.715 l 104.402 39.785 l 104.398 39.785 l 104.398
 38.281 l 104.402 38.281 l 104.402 36.965 l 104.402 36.965 103.707 36.785
 102.938 36.75 c 102.195 36.785 101.527 36.977 101.527 36.977 c 101.527 
41.715 l 103.426 41.715 l f
101.172 42.074 3.602 0.223 re f
104.047 29.531 m 109.402 29.531 l 112.23 21.813 l 112.91 19.965 l 108.238
 20.301 l 107.555 21.813 l 104.047 29.531 l f
141.344 19.965 m 113.773 19.965 l 113.09 21.813 l 110.238 29.531 l 112.789
 29.547 l 127.559 22.605 l 142.414 29.531 l 144.879 29.531 l 142.027 21.813
 l 141.344 19.965 l f
133.438 5.297 m 133.402 6.82 l 132.145 8.629 l 122.973 8.629 l 121.711 
6.82 l 121.68 5.297 l h
124.188 3.871 m 124.203 3.785 124.324 3.703 124.512 3.633 c 125.082 3.406
 126.316 3.227 127.504 3.227 c 127.504 3.227 127.508 3.227 127.508 3.227
 c 127.512 3.227 127.512 3.227 127.516 3.227 c 127.543 3.227 127.57 3.227
 127.602 3.227 c 127.602 3.227 127.605 3.227 127.605 3.227 c 127.605 3.227
 127.609 3.227 127.613 3.227 c 128.797 3.227 130.031 3.406 130.605 3.633
 c 130.793 3.703 130.91 3.785 130.926 3.871 c 130.93 3.875 130.941 3.887
 130.941 3.895 c 124.172 3.895 l 124.172 3.887 124.184 3.875 124.188 3.871
 c h
133.273 11.211 m 133 11.375 l 132.992 11.523 l 122.125 11.523 l 122.117
 11.375 l 121.844 11.211 l 121.82 11.113 121.793 10.898 121.84 10.664 c 
121.871 10.492 121.938 10.316 122.098 10.16 c 122.359 9.984 122.555 9.703
 122.652 9.375 c 132.469 9.375 l 132.563 9.703 132.758 9.984 133.02 10.16
 c 133.18 10.316 133.246 10.492 133.281 10.664 c 133.328 10.898 133.297 
11.113 133.273 11.211 c h
118.621 10.109 m 120.078 9.75 l 120.098 9.746 120.172 9.719 120.301 9.688
 c 120.406 9.879 120.551 10.043 120.727 10.16 c 120.887 10.316 120.953 10.492
 120.988 10.664 c 121.035 10.898 121.004 11.113 120.98 11.211 c 120.703 
11.375 l 120.699 11.523 l 114.074 19.219 l 141.047 19.219 l 134.418 11.523
 l 134.414 11.375 l 134.141 11.211 l 134.117 11.113 134.082 10.898 134.133
 10.664 c 134.164 10.492 134.23 10.316 134.391 10.16 c 134.566 10.043 134.711
 9.879 134.816 9.688 c 134.945 9.719 135.023 9.746 135.039 9.75 c 136.5 
10.109 l 136.5 12.102 l 137.813 12.949 l 137.813 8.977 l 136.914 8.746 l
 136.898 8.742 l 136.859 8.734 l 135.934 8.492 l 135.934 5.105 l 134.035
 3.895 l 134.008 3.879 l 131.711 3.879 l 131.711 2.75 130.684 0.902 128.941
 0.242 c 128.531 0.09 128.086 0 127.609 0 c 127.59 0 127.527 0 127.512 0
 c 127.031 0 126.586 0.09 126.18 0.242 c 124.434 0.902 123.41 2.75 123.41
 3.879 c 121.113 3.879 l 121.082 3.895 l 119.188 5.105 l 119.188 8.492 l
 119.129 8.508 l 117.309 8.977 l 117.309 12.949 l 118.621 12.09 l 118.621
 10.109 l f
119.883 11.734 m 117.25 13.559 l 112.77 16.664 l 108.504 19.625 l 113.035
 19.293 l 119.883 11.734 l f
125.582 44.023 m 127.559 43.387 l 129.461 44.023 l h
130.387 43.867 m 127.648 42.949 l 127.594 42.93 127.531 42.93 127.473 42.949
 c 124.738 43.836 l 124.656 43.859 124.598 43.918 124.578 43.988 c 124.559
 44.063 124.582 44.137 124.641 44.188 c 124.863 44.395 l 124.914 44.438 
124.977 44.461 125.047 44.461 c 125.082 44.461 l 125.082 44.816 l 125.082
 44.938 125.191 45.035 125.332 45.035 c 125.469 45.035 125.582 44.938 125.582
 44.816 c 125.582 44.461 l 129.535 44.461 l 129.535 44.816 l 129.535 44.863
 129.551 44.902 129.578 44.938 c 129.625 44.996 129.703 45.035 129.789 45.035
 c 129.926 45.035 130.039 44.938 130.039 44.816 c 130.039 44.461 l 130.07
 44.461 l 130.133 44.461 130.191 44.445 130.238 44.406 c 130.461 44.234 
l 130.523 44.184 130.555 44.105 130.539 44.035 c 130.523 43.957 130.465 
43.895 130.387 43.867 c f
125.012 34.711 m 125.547 34.711 l 125.547 34.359 l 125.547 34.359 126.238
 33.898 127.559 33.898 c 128.879 33.898 129.57 34.359 129.57 34.359 c 129.57
 34.711 l 130.102 34.711 l 130.102 33.898 l 130.484 33.898 l 130.484 33.23
 l 124.629 33.23 l 124.629 33.898 l 125.012 33.898 l 125.012 34.711 l f
129.473 41.227 m 129.473 35.137 l 129.473 35.137 128.535 34.883 127.551
 34.836 c 126.57 34.883 125.645 35.137 125.645 35.137 c 125.645 41.227 l
 129.473 41.227 l f
82.008 8.652 m 82.734 8.605 83.453 8.586 84.133 8.586 c 84.859 8.586 85.543
 8.605 86.227 8.652 c 86.18 8.527 86.168 8.414 86.168 8.242 c 86.168 8.086
 86.18 7.969 86.227 7.867 c 85.262 7.914 83.805 7.949 83.508 7.949 c 83.508
 4.867 l 84.031 4.867 84.566 4.879 85.09 4.891 c 85.371 4.902 85.668 4.926
 85.965 4.945 c 85.93 4.867 85.906 4.719 85.906 4.559 c 85.906 4.391 85.93
 4.273 85.965 4.148 c 85.363 4.219 84.09 4.23 83.508 4.23 c 83.508 1.559
 l 84.555 1.559 84.668 1.559 85.09 1.582 c 86.156 1.641 l 86.125 1.547 86.102
 1.387 86.102 1.215 c 86.102 1.082 86.125 0.988 86.156 0.855 c 85.34 0.879
 84.59 0.922 84.066 0.922 c 83.453 0.922 82.563 0.887 82.008 0.855 c 82.086
 1.992 82.109 4.188 82.109 4.66 c 82.109 5.184 82.086 6.574 82.066 7.23 
c 82.055 7.711 82.031 8.176 82.008 8.652 c f
91.445 8.813 m 92.539 8.813 93.777 8.527 94.742 8.016 c 94.719 7.699 94.707
 7.414 94.707 6.98 c 94.707 6.676 94.73 5.48 94.801 5.074 c 94.563 5.117
 94.402 5.152 94.086 5.152 c 93.785 5.152 93.527 5.105 93.277 5.074 c 93.309
 5.629 93.344 6.188 93.344 6.742 c 93.344 6.891 93.344 6.98 93.309 7.777
 c 92.855 8.07 92.23 8.188 91.695 8.188 c 90.66 8.188 90.047 7.688 89.637
 7.152 c 89.105 6.457 88.945 5.641 88.945 4.777 c 88.945 2.629 89.957 1.375
 91.855 1.375 c 93.492 1.375 93.891 2.172 94.027 2.445 c 94.141 2.445 l 
94.48 1.332 l 93.574 0.922 92.754 0.762 91.82 0.762 c 88.785 0.762 87.387
 2.594 87.387 4.879 c 87.387 7.438 89.23 8.813 91.445 8.813 c f
96.656 8.652 m 97.383 8.605 98.098 8.586 98.781 8.586 c 99.508 8.586 100.191
 8.605 100.871 8.652 c 100.828 8.527 100.816 8.414 100.816 8.242 c 100.816
 8.086 100.828 7.969 100.871 7.867 c 99.906 7.914 98.453 7.949 98.156 7.949
 c 98.156 4.867 l 98.68 4.867 99.215 4.879 99.738 4.891 c 100.02 4.902 100.316
 4.926 100.609 4.945 c 100.578 4.867 100.555 4.719 100.555 4.559 c 100.555
 4.391 100.578 4.273 100.609 4.148 c 100.008 4.219 98.734 4.23 98.156 4.23
 c 98.156 1.559 l 99.203 1.559 99.316 1.559 99.738 1.582 c 100.805 1.641
 l 100.77 1.547 100.75 1.387 100.75 1.215 c 100.75 1.082 100.77 0.988 100.805
 0.855 c 99.984 0.879 99.234 0.922 98.711 0.922 c 98.098 0.922 97.211 0.887
 96.656 0.855 c 96.734 1.992 96.758 4.188 96.758 4.66 c 96.758 5.184 96.734
 6.574 96.711 7.23 c 96.699 7.711 96.68 8.176 96.656 8.652 c f
103.934 1.469 m 104.102 1.457 104.523 1.41 104.742 1.41 c 105.117 1.41 
105.492 1.469 105.797 1.695 c 106.195 1.992 106.273 2.398 106.273 2.879 
c 106.273 3.617 105.855 4.445 104.719 4.445 c 104.422 4.445 104.148 4.422
 103.934 4.414 c h
103.215 8.586 m 103.5 8.586 103.75 8.629 103.98 8.652 c 103.98 8.355 103.934
 6.891 103.934 6.563 c 103.934 4.945 l 104.207 4.945 l 104.82 5.813 105.523
 6.813 106.105 7.711 c 106.273 7.969 106.523 8.391 106.695 8.652 c 107.035
 8.605 107.172 8.586 107.617 8.586 c 108.027 8.586 108.313 8.621 108.629
 8.652 c 107.91 7.754 107.605 7.355 106.707 6.094 c 106.539 5.855 106.285
 5.48 106.113 5.242 c 105.797 4.785 l 106.832 4.594 107.777 3.945 107.777
 2.684 c 107.777 2.207 107.594 1.742 107.254 1.41 c 106.766 0.945 106.207
 0.855 105.469 0.855 c 105.207 0.855 103.887 0.91 103.59 0.91 c 103.012 
0.91 102.719 0.879 102.453 0.855 c 102.535 2.32 102.535 2.48 102.535 3.969
 c 102.535 6.164 102.523 6.414 102.434 8.652 c 102.68 8.621 102.953 8.586
 103.215 8.586 c f
152.742 2.129 m 152.742 4.23 l 152.742 7.223 152.723 7.469 152.605 8.563
 c 152.801 8.551 153.141 8.496 153.402 8.496 c 153.664 8.496 153.984 8.551
 154.129 8.563 c 154.074 7.754 154.051 6.688 154.051 5.594 c 154.051 4.699
 154.063 1.809 154.176 0.844 c 154.051 0.762 l 153.824 0.91 153.098 1.332
 152.832 1.457 c 151.891 1.91 151.391 2.16 150.559 2.469 c 150.559 2.559
 l 150.809 2.844 150.879 2.91 151.051 3.094 c 151.391 2.922 152.48 2.297
 152.742 2.129 c f
156.418 8.48 m 156.441 8.563 l 156.656 8.527 156.801 8.496 156.996 8.496
 c 157.234 8.496 157.418 8.527 157.609 8.563 c 158.258 7.277 158.883 6.129
 159.59 4.824 c 159.906 4.23 161.43 1.535 161.602 1.332 c 161.602 1.059 
l 159.668 1.059 157.328 1.059 156.488 0.969 c 156.508 1.215 156.543 1.469
 156.543 1.707 c 156.543 1.91 156.531 2.059 156.488 2.344 c 157.813 2.266
 158.168 2.266 158.68 2.266 c 160.238 2.266 l 159.773 3.137 157.383 7.117
 156.699 8.07 c 156.418 8.48 l f
162.375 8.48 m 162.398 8.563 l 162.613 8.527 162.762 8.496 162.957 8.496
 c 163.195 8.496 163.379 8.527 163.57 8.563 c 164.219 7.277 164.844 6.129
 165.547 4.824 c 165.867 4.23 167.391 1.535 167.563 1.332 c 167.563 1.059
 l 165.625 1.059 163.285 1.059 162.445 0.969 c 162.469 1.215 162.5 1.469
 162.5 1.707 c 162.5 1.91 162.488 2.059 162.445 2.344 c 163.773 2.266 164.125
 2.266 164.641 2.266 c 166.195 2.266 l 165.73 3.137 163.344 7.117 162.66
 8.07 c 162.375 8.48 l f
171.121 2.398 m 171.121 5.641 l 168.848 5.641 l h
171.121 6.586 m 171.121 7.711 171.121 7.98 171.027 8.563 c 171.293 8.539
 171.543 8.496 171.805 8.496 c 171.996 8.496 172.18 8.527 172.441 8.563 
c 172.383 7.961 172.383 7.82 172.383 6.586 c 172.699 6.586 173.008 6.605
 173.348 6.617 c 173.305 6.426 173.293 6.344 173.293 6.141 c 173.293 5.914
 173.305 5.82 173.348 5.617 c 172.746 5.641 172.676 5.641 172.383 5.641 
c 172.383 4.641 172.418 1.719 172.449 0.969 c 172.313 1.004 172.156 1.035
 171.953 1.035 c 171.781 1.035 171.578 1.004 171.449 0.969 c 171.301 1.238
 171.246 1.32 170.734 2.039 c 169.098 4.355 l 168.836 4.73 168.586 5.117
 168.313 5.48 c 168.211 5.617 168.031 5.832 168.031 5.914 c 168.031 6.598
 l 168.313 6.586 168.746 6.574 169.098 6.574 c 169.676 6.574 170.266 6.574
 171.121 6.586 c f
Q q
0 63.992 255.113 3 re W n
q
0 63 256 4 re W n
  q
0.0666667 0.247059 0.380392 rg
0 64.801 255 1.242 re f
  Q
Q
Q q
0.0666667 0.247059 0.380392 rg
192.387 61.992 3.602 0.223 re f
186.027 61.992 3.602 0.223 re f
175.137 61.996 m 175.137 62.215 l 178.738 62.215 l 178.738 61.992 l 175.137
 61.992 l 175.137 61.996 l f
162.738 61.992 3.602 0.223 re f
156.539 61.996 m 156.539 62.215 l 160.145 62.215 l 160.145 61.992 l 156.539
 61.992 l 156.539 61.996 l f
150.34 61.996 m 150.34 62.215 l 153.941 62.215 l 153.941 61.992 l 150.34
 61.992 l 150.34 61.996 l f
59.129 61.992 3.602 0.223 re f
65.488 61.992 3.602 0.223 re f
76.375 61.992 3.605 0.223 re f
82.578 61.996 m 82.578 62.215 l 86.18 62.215 l 86.18 61.992 l 82.578 61.992
 l 82.578 61.996 l f
88.773 61.996 m 88.773 62.215 l 92.379 62.215 l 92.379 61.992 l 88.773 
61.992 l 88.773 61.996 l f
94.973 61.996 m 94.973 62.215 l 98.578 62.215 l 98.578 61.992 l 94.973 
61.992 l 94.973 61.996 l f
101.172 61.996 m 101.172 62.215 l 104.773 62.215 l 104.773 61.992 l 101.172
 61.992 l 101.172 61.996 l f
107.711 61.984 2.563 0.223 re f
144.84 61.98 2.566 0.223 re f
168.965 61.996 m 168.965 62.215 l 172.566 62.215 l 172.566 61.992 l 168.965
 61.992 l 168.965 61.996 l f
Q q
0 85.992 255.113 1.715 re W n
q
0 85 256 3 re W n
  q
0.0666667 0.247059 0.380392 rg
0 86.441 255.117 1.266 re f
  Q
Q
Q q
0 71.992 5.992 10 re W n
q
0 71 6 11 re W n
  q
0.0666667 0.247059 0.380392 rg
2.043 76.105 m 2.695 76.105 4.133 76.094 4.813 76.016 c 4.773 76.156 4.746
 76.285 4.746 76.477 c 4.746 76.656 4.773 76.824 4.813 76.914 c 4.477 76.887
 4.145 76.863 3.824 76.848 c 3.234 76.836 2.633 76.824 2.043 76.824 c 2.043
 80.297 l 2.375 80.297 4.016 80.258 5.105 80.203 c 5.055 80.32 5.043 80.449
 5.043 80.629 c 5.043 80.82 5.055 80.949 5.105 81.09 c 4.336 81.039 3.566
 81.012 2.75 81.012 c 1.98 81.012 1.172 81.039 0.352 81.09 c 0.379 80.551
 0.402 80.027 0.414 79.488 c 0.441 78.746 0.465 77.184 0.465 76.594 c 0.465
 76.055 0.441 73.582 0.352 72.301 c 0.98 72.34 1.98 72.379 2.672 72.379 
c 3.262 72.379 4.105 72.328 5.027 72.301 c 4.988 72.453 4.965 72.559 4.965
 72.711 c 4.965 72.902 4.988 73.082 5.027 73.184 c 3.824 73.121 l 3.348 
73.094 3.223 73.094 2.043 73.094 c 2.043 76.105 l f
  Q
Q
Q q
0.0666667 0.247059 0.380392 rg
6.246 79.168 m 6.836 80.449 7.477 80.641 8.23 80.641 c 9.242 80.641 9.91
 79.961 9.91 79.039 c 9.91 78.027 9.105 77.668 8.859 77.566 c 8.5 77.414
 7.898 77.184 7.539 77.027 c 6.297 76.477 5.926 75.824 5.926 74.762 c 5.926
 73.633 6.594 72.199 8.91 72.199 c 9.848 72.199 10.41 72.441 11.039 72.723
 c 10.781 73.352 10.758 73.453 10.641 73.941 c 10.461 73.941 l 10.27 73.211
 9.59 72.824 8.785 72.824 c 7.773 72.824 7.27 73.453 7.27 74.211 c 7.27 
75.145 7.926 75.398 9.051 75.836 c 10.039 76.223 10.422 76.363 10.793 76.773
 c 11.332 77.348 11.422 78.105 11.422 78.461 c 11.422 79.77 10.512 81.266
 8.168 81.266 c 7.066 81.266 6.234 80.844 5.773 80.617 c 5.988 79.949 6.004
 79.781 6.066 79.168 c 6.246 79.168 l f
11.652 80.68 m 11.938 80.281 13.23 78.539 13.484 78.18 c 14.074 77.297 
16.07 74.285 16.727 73.16 c 15.293 73.16 13.766 73.172 12.191 73.301 c 12.207
 73.145 12.23 72.969 12.23 72.801 c 12.23 72.598 12.219 72.465 12.191 72.301
 c 13.18 72.391 14.137 72.379 15.637 72.379 c 17.586 72.379 18.391 72.352
 19.098 72.301 c 19.109 72.391 19.121 72.453 19.121 72.52 c 19.121 72.621
 19.098 72.648 18.941 72.863 c 18.289 73.773 l 17.816 74.441 17.098 75.504
 16.523 76.375 c 15.395 78.066 l 14.754 79.027 14.344 79.668 14.012 80.23
 c 15.242 80.23 l 15.832 80.23 16.895 80.203 17.609 80.141 c 18.098 80.102
 18.582 80.078 19.07 80.051 c 19.047 80.203 19.008 80.348 19.008 80.578 
c 19.008 80.77 19.031 80.961 19.07 81.09 c 18.684 81.074 17.855 81.012 15.355
 81.012 c 13.602 81.012 12.949 81.012 11.652 81.09 c 11.652 80.68 l f
23.82 79.336 m 23.82 80.309 23.871 80.73 23.906 81.09 c 23.535 81.051 23.129
 81.012 22.973 81.012 c 22.754 81.012 22.563 81.039 22.102 81.09 c 22.152
 80.117 22.23 79.129 22.23 78.156 c 22.219 74.582 l 22.219 74.109 22.203
 73.66 22.191 73.16 c 21.551 73.16 l 21.434 73.16 20.207 73.184 19.555 73.25
 c 19.59 73.094 19.617 72.93 19.617 72.773 c 19.617 72.621 19.59 72.453 
19.555 72.301 c 20.566 72.363 21.984 72.379 22.973 72.379 c 24.035 72.379
 25.164 72.363 26.395 72.301 c 26.355 72.52 26.328 72.684 26.328 72.785 
c 26.328 72.93 26.355 73.043 26.395 73.25 c 25.637 73.172 24.727 73.16 23.844
 73.16 c 23.832 73.621 23.82 74.109 23.82 74.594 c 23.82 79.336 l f
28.816 76.105 m 29.469 76.105 30.902 76.094 31.582 76.016 c 31.543 76.156
 31.52 76.285 31.52 76.477 c 31.52 76.656 31.543 76.824 31.582 76.914 c 
31.25 76.887 30.914 76.863 30.594 76.848 c 30.008 76.836 29.406 76.824 28.816
 76.824 c 28.816 80.297 l 29.148 80.297 30.789 80.258 31.875 80.203 c 31.824
 80.32 31.813 80.449 31.813 80.629 c 31.813 80.82 31.824 80.949 31.875 81.09
 c 31.109 81.039 30.34 81.012 29.52 81.012 c 28.754 81.012 27.945 81.039
 27.125 81.09 c 27.152 80.551 27.176 80.027 27.188 79.488 c 27.215 78.746
 27.238 77.184 27.238 76.594 c 27.238 76.055 27.215 73.582 27.125 72.301
 c 27.754 72.34 28.754 72.379 29.445 72.379 c 30.035 72.379 30.879 72.328
 31.801 72.301 c 31.762 72.453 31.738 72.559 31.738 72.711 c 31.738 72.902
 31.762 73.082 31.801 73.184 c 30.594 73.121 l 30.121 73.094 29.996 73.094
 28.816 73.094 c 28.816 76.105 l f
34.75 76.309 m 34.992 76.324 35.297 76.348 35.633 76.348 c 36.914 76.348
 37.387 75.414 37.387 74.582 c 37.387 74.043 37.297 73.582 36.848 73.25 
c 36.504 72.992 36.082 72.93 35.656 72.93 c 35.414 72.93 34.941 72.98 34.75
 72.992 c h
37.207 77.246 m 37.398 77.516 37.684 77.938 37.875 78.207 c 38.887 79.629
 39.23 80.078 40.039 81.09 c 39.68 81.051 39.359 81.012 38.898 81.012 c 
38.398 81.012 38.246 81.039 37.859 81.09 c 37.668 80.793 37.387 80.32 37.195
 80.027 c 36.543 79.016 35.746 77.887 35.055 76.914 c 34.75 76.914 l 34.75
 78.73 l 34.75 79.102 34.801 80.754 34.801 81.09 c 34.543 81.063 34.262 
81.012 33.941 81.012 c 33.645 81.012 33.34 81.051 33.055 81.09 c 33.16 78.566
 33.172 78.281 33.172 75.813 c 33.172 74.133 33.172 73.953 33.082 72.301
 c 33.375 72.328 33.711 72.363 34.363 72.363 c 34.695 72.363 36.184 72.301
 36.477 72.301 c 37.309 72.301 37.938 72.402 38.488 72.93 c 38.871 73.301
 39.078 73.824 39.078 74.363 c 39.078 75.785 38.016 76.516 36.848 76.734
 c 37.207 77.246 l f
46.508 76.773 m 45.816 76.746 45.125 76.719 44.434 76.719 c 43.703 76.719
 42.973 76.746 42.242 76.773 c 42.242 78.055 l 42.242 79.707 42.293 80.281
 42.355 81.09 c 42.168 81.074 41.832 81.012 41.477 81.012 c 41.168 81.012
 40.871 81.063 40.566 81.09 c 40.668 79.141 40.68 77.207 40.68 75.262 c 
40.68 74.262 40.641 73.289 40.551 72.301 c 40.809 72.328 41.27 72.379 41.477
 72.379 c 41.719 72.379 42.191 72.328 42.355 72.301 c 42.293 73.004 42.242
 73.555 42.242 75.953 c 42.883 75.977 43.535 76.004 44.176 76.004 c 44.957
 76.004 45.727 75.977 46.508 75.953 c 46.508 75.617 46.496 74.066 46.484
 73.746 c 46.484 73.352 46.469 73.25 46.418 72.301 c 46.664 72.328 47.074
 72.379 47.355 72.379 c 47.586 72.379 48.008 72.328 48.254 72.301 c 48.086
 73.633 48.07 76.734 48.07 78.066 c 48.07 79.078 48.07 80.168 48.199 81.09
 c 47.895 81.063 47.574 81.012 47.266 81.012 c 46.996 81.012 46.664 81.063
 46.395 81.09 c 46.406 80.859 46.496 79.309 46.496 78.836 c 46.508 76.773
 l f
52.531 71.738 m 51.879 71.738 l 53.684 69.789 l 53.852 69.609 54.066 69.445
 54.301 69.445 c 54.621 69.445 54.902 69.648 54.902 69.969 c 54.902 70.25
 54.723 70.379 54.633 70.441 c h
52.48 74.363 m 51.172 77.516 l 51.621 77.527 52.059 77.566 52.504 77.566
 c 52.902 77.566 53.289 77.539 53.684 77.516 c h
54.594 79.668 m 54.055 78.309 l 53.508 78.281 52.969 78.258 52.414 78.258
 c 51.902 78.258 51.391 78.281 50.879 78.309 c 50.469 79.293 50.059 80.359
 49.855 81.09 c 49.688 81.063 49.445 81.012 49.238 81.012 c 49.023 81.012
 48.844 81.063 48.664 81.09 c 50.148 77.785 l 51.441 74.891 52.184 73.223
 52.492 72.172 c 52.633 72.211 52.762 72.238 52.918 72.238 c 53.055 72.238
 53.188 72.211 53.324 72.172 c 53.941 73.93 54.707 75.719 55.172 76.797 
c 55.656 77.91 56.504 79.848 57.082 81.09 c 56.887 81.074 56.441 81.012 
56.078 81.012 c 55.723 81.012 55.363 81.074 55.133 81.09 c 54.594 79.668
 l f
57.457 80.68 m 57.738 80.281 59.035 78.539 59.289 78.18 c 59.879 77.297
 61.879 74.285 62.531 73.16 c 61.098 73.16 59.574 73.172 57.996 73.301 c
 58.008 73.145 58.035 72.969 58.035 72.801 c 58.035 72.598 58.023 72.465
 57.996 72.301 c 58.984 72.391 59.945 72.379 61.445 72.379 c 63.391 72.379
 64.195 72.352 64.902 72.301 c 64.914 72.391 64.926 72.453 64.926 72.52 
c 64.926 72.621 64.902 72.648 64.75 72.863 c 64.094 73.773 l 63.621 74.441
 62.902 75.504 62.324 76.375 c 61.199 78.066 l 60.559 79.027 60.148 79.668
 59.816 80.23 c 61.043 80.23 l 61.633 80.23 62.695 80.203 63.418 80.141 
c 63.902 80.102 64.391 80.078 64.875 80.051 c 64.852 80.203 64.813 80.348
 64.813 80.578 c 64.813 80.77 64.836 80.961 64.875 81.09 c 64.492 81.074
 63.656 81.012 61.16 81.012 c 59.406 81.012 58.75 81.012 57.457 81.09 c 
57.457 80.68 l f
69.828 78.129 m 69.828 79.207 69.867 79.898 69.918 81.09 c 69.621 81.063
 69.328 81.012 69.031 81.012 c 68.777 81.012 68.418 81.063 68.176 81.09 
c 68.215 80.09 68.254 78.41 68.254 77.617 c 67.496 76.309 l 66.844 75.184
 65.754 73.414 65.086 72.301 c 65.563 72.352 65.855 72.379 66.137 72.379
 c 66.445 72.379 66.816 72.363 67.191 72.301 c 67.855 73.711 68.34 74.723
 69.43 76.629 c 70.52 74.762 70.723 74.324 71.645 72.301 c 71.852 72.34 
72.109 72.379 72.391 72.379 c 72.645 72.379 72.789 72.352 72.926 72.301 
c 72.738 72.648 71.801 74.133 71.609 74.441 c 71.031 75.363 70.531 76.324
 69.992 77.246 c 69.906 77.398 69.828 77.539 69.828 77.656 c 69.828 78.129
 l f
76.184 72.301 m 76.477 72.328 76.813 72.379 77.082 72.379 c 77.359 72.379
 77.68 72.34 77.977 72.301 c 77.887 72.93 77.887 73.863 77.875 74.324 c 
77.863 74.965 77.863 75.695 77.863 76.363 c 78.809 75.531 79.324 74.992 
80.051 74.195 c 80.617 73.582 81.309 72.84 81.691 72.301 c 81.832 72.352
 82.074 72.379 82.293 72.379 c 82.512 72.379 82.77 72.363 83.152 72.301 
c 82.5 72.852 81.602 73.711 81.063 74.234 c 80.422 74.863 80.219 75.055 
79.281 76.082 c 79.965 76.977 l 80.617 77.836 82.461 80.27 83.355 81.09 
c 82.754 81.012 82.461 81.012 82.219 81.012 c 81.91 81.012 81.5 81.063 81.129
 81.09 c 80.219 79.809 79.219 78.398 77.863 76.898 c 77.863 78.309 77.863
 79.73 77.977 81.09 c 77.758 81.074 77.387 81.012 77.082 81.012 c 76.813
 81.012 76.453 81.074 76.184 81.09 c 76.297 78.922 76.297 78.781 76.297 
75.262 c 76.297 73.797 76.285 73.582 76.184 72.301 c f
87.465 71.738 m 86.809 71.738 l 88.617 69.789 l 88.785 69.609 89 69.445
 89.234 69.445 c 89.551 69.445 89.836 69.648 89.836 69.969 c 89.836 70.25
 89.656 70.379 89.566 70.441 c h
87.414 74.363 m 86.105 77.516 l 86.555 77.527 86.992 77.566 87.438 77.566
 c 87.836 77.566 88.219 77.539 88.617 77.516 c h
89.527 79.668 m 88.988 78.309 l 88.438 78.281 87.898 78.258 87.348 78.258
 c 86.836 78.258 86.324 78.281 85.813 78.309 c 85.402 79.293 84.992 80.359
 84.785 81.09 c 84.621 81.063 84.379 81.012 84.172 81.012 c 83.953 81.012
 83.773 81.063 83.594 81.09 c 85.082 77.785 l 86.375 74.891 87.117 73.223
 87.426 72.172 c 87.566 72.211 87.695 72.238 87.848 72.238 c 87.988 72.238
 88.117 72.211 88.258 72.172 c 88.871 73.93 89.641 75.719 90.102 76.797 
c 90.59 77.91 91.434 79.848 92.012 81.09 c 91.82 81.074 91.371 81.012 91.012
 81.012 c 90.652 81.012 90.297 81.074 90.063 81.09 c 89.527 79.668 l f
94.242 76.309 m 94.484 76.324 94.793 76.348 95.125 76.348 c 96.406 76.348
 96.883 75.414 96.883 74.582 c 96.883 74.043 96.793 73.582 96.344 73.25 
c 95.996 72.992 95.574 72.93 95.152 72.93 c 94.91 72.93 94.434 72.98 94.242
 72.992 c h
96.703 77.246 m 96.895 77.516 97.176 77.938 97.367 78.207 c 98.379 79.629
 98.727 80.078 99.535 81.09 c 99.176 81.051 98.855 81.012 98.395 81.012 
c 97.895 81.012 97.742 81.039 97.355 81.09 c 97.164 80.793 96.883 80.32 
96.688 80.027 c 96.035 79.016 95.242 77.887 94.551 76.914 c 94.242 76.914
 l 94.242 78.73 l 94.242 79.102 94.293 80.754 94.293 81.09 c 94.039 81.063
 93.754 81.012 93.434 81.012 c 93.141 81.012 92.832 81.051 92.551 81.09 
c 92.656 78.566 92.668 78.281 92.668 75.813 c 92.668 74.133 92.668 73.953
 92.578 72.301 c 92.871 72.328 93.207 72.363 93.859 72.363 c 94.191 72.363
 95.676 72.301 95.973 72.301 c 96.805 72.301 97.434 72.402 97.984 72.93 
c 98.367 73.301 98.574 73.824 98.574 74.363 c 98.574 75.785 97.508 76.516
 96.344 76.734 c 96.703 77.246 l f
104.336 80.617 m 106.516 80.617 107.363 78.566 107.363 76.734 c 107.363
 74.645 106.578 72.852 104.336 72.852 c 102.137 72.852 101.316 74.977 101.316
 76.734 c 101.316 78.641 102.137 80.617 104.336 80.617 c h
109.117 76.578 m 109.117 79.438 107.184 81.266 104.336 81.266 c 101.672
 81.266 99.563 79.691 99.563 76.887 c 99.563 73.633 101.789 72.199 104.375
 72.199 c 106.773 72.199 109.117 73.504 109.117 76.578 c f
110.477 75.797 m 110.477 75.234 110.477 75.105 110.438 73.965 c 110.426
 73.695 110.398 72.543 110.387 72.301 c 110.707 72.363 110.953 72.379 111.273
 72.379 c 111.59 72.379 111.848 72.352 112.168 72.301 c 112.078 74.234 112.039
 75.848 112.039 77.824 c 112.039 78.719 112.066 79.551 112.078 80.258 c 
112.309 80.258 l 112.68 80.258 114.527 80.258 115.281 80.141 c 115.242 80.281
 115.219 80.359 115.219 80.652 c 115.219 80.844 115.23 80.922 115.281 81.09
 c 114.629 81.063 113.523 81.012 112.832 81.012 c 112.016 81.012 111.324
 81.039 110.387 81.09 c 110.387 80.883 110.477 77.91 110.477 77.59 c 110.477
 75.797 l f
118.664 78.129 m 118.664 79.207 118.703 79.898 118.754 81.09 c 118.457 
81.063 118.164 81.012 117.867 81.012 c 117.613 81.012 117.254 81.063 117.012
 81.09 c 117.051 80.09 117.09 78.41 117.09 77.617 c 116.332 76.309 l 115.68
 75.184 114.59 73.414 113.922 72.301 c 114.398 72.352 114.691 72.379 114.973
 72.379 c 115.281 72.379 115.652 72.363 116.023 72.301 c 116.691 73.711 
117.176 74.723 118.266 76.629 c 119.355 74.762 119.559 74.324 120.48 72.301
 c 120.688 72.34 120.945 72.379 121.227 72.379 c 121.48 72.379 121.625 72.352
 121.762 72.301 c 121.57 72.648 120.637 74.133 120.445 74.441 c 119.867 
75.363 119.367 76.324 118.828 77.246 c 118.742 77.398 118.664 77.539 118.664
 77.656 c 118.664 78.129 l f
132.258 74.094 m 132.129 74.094 l 131.973 73.789 131.527 72.891 129.68 
72.891 c 127.543 72.891 126.402 74.301 126.402 76.719 c 126.402 77.168 126.402
 78.359 127.184 79.398 c 127.645 80 128.336 80.563 129.504 80.563 c 131.078
 80.563 131.887 79.781 132.461 79.102 c 132.605 79.191 l 132.461 80.461 
l 131.488 81 130.387 81.266 129.223 81.266 c 126.723 81.266 124.648 79.719
 124.648 76.836 c 124.648 74.262 126.223 72.199 129.645 72.199 c 130.691
 72.199 131.617 72.379 132.641 72.84 c 132.258 74.094 l f
136.707 74.363 m 135.402 77.516 l 135.852 77.527 136.285 77.566 136.734
 77.566 c 137.133 77.566 137.516 77.539 137.914 77.516 c h
138.824 79.668 m 138.285 78.309 l 137.734 78.281 137.195 78.258 136.648
 78.258 c 136.133 78.258 135.621 78.281 135.109 78.309 c 134.699 79.293 
134.289 80.359 134.082 81.09 c 133.918 81.063 133.672 81.012 133.469 81.012
 c 133.25 81.012 133.074 81.063 132.895 81.09 c 134.379 77.785 l 135.672
 74.891 136.414 73.223 136.723 72.172 c 136.863 72.211 136.992 72.238 137.145
 72.238 c 137.285 72.238 137.414 72.211 137.555 72.172 c 138.172 73.93 138.941
 75.719 139.402 76.797 c 139.887 77.91 140.734 79.848 141.309 81.09 c 141.117
 81.074 140.668 81.012 140.309 81.012 c 139.953 81.012 139.594 81.074 139.363
 81.09 c 138.824 79.668 l f
144.219 79.336 m 144.219 80.309 144.27 80.73 144.309 81.09 c 143.934 81.051
 143.527 81.012 143.375 81.012 c 143.156 81.012 142.961 81.039 142.5 81.09
 c 142.551 80.117 142.629 79.129 142.629 78.156 c 142.617 74.582 l 142.617
 74.109 142.602 73.66 142.59 73.16 c 141.949 73.16 l 141.836 73.16 140.605
 73.184 139.953 73.25 c 139.988 73.094 140.016 72.93 140.016 72.773 c 140.016
 72.621 139.988 72.453 139.953 72.301 c 140.965 72.363 142.387 72.379 143.375
 72.379 c 144.438 72.379 145.566 72.363 146.793 72.301 c 146.754 72.52 146.73
 72.684 146.73 72.785 c 146.73 72.93 146.754 73.043 146.793 73.25 c 146.039
 73.172 145.129 73.16 144.242 73.16 c 144.23 73.621 144.219 74.109 144.219
 74.594 c 144.219 79.336 l f
153.457 76.773 m 152.766 76.746 152.07 76.719 151.379 76.719 c 150.652 
76.719 149.918 76.746 149.191 76.773 c 149.191 78.055 l 149.191 79.707 149.242
 80.281 149.305 81.09 c 149.113 81.074 148.781 81.012 148.422 81.012 c 148.113
 81.012 147.82 81.063 147.512 81.09 c 147.613 79.141 147.625 77.207 147.625
 75.262 c 147.625 74.262 147.59 73.289 147.5 72.301 c 147.754 72.328 148.215
 72.379 148.422 72.379 c 148.664 72.379 149.137 72.328 149.305 72.301 c 
149.242 73.004 149.191 73.555 149.191 75.953 c 149.832 75.977 150.484 76.004
 151.125 76.004 c 151.906 76.004 152.676 75.977 153.457 75.953 c 153.457
 75.617 153.441 74.066 153.43 73.746 c 153.43 73.352 153.418 73.25 153.367
 72.301 c 153.609 72.328 154.02 72.379 154.301 72.379 c 154.531 72.379 154.953
 72.328 155.199 72.301 c 155.031 73.633 155.02 76.734 155.02 78.066 c 155.02
 79.078 155.02 80.168 155.148 81.09 c 154.84 81.063 154.52 81.012 154.211
 81.012 c 153.941 81.012 153.609 81.063 153.34 81.09 c 153.352 80.859 153.441
 79.309 153.441 78.836 c 153.457 76.773 l f
161.133 80.617 m 163.309 80.617 164.156 78.566 164.156 76.734 c 164.156
 74.645 163.375 72.852 161.133 72.852 c 158.93 72.852 158.105 74.977 158.105
 76.734 c 158.105 78.641 158.93 80.617 161.133 80.617 c h
165.91 76.578 m 165.91 79.438 163.973 81.266 161.133 81.266 c 158.465 81.266
 156.352 79.691 156.352 76.887 c 156.352 73.633 158.582 72.199 161.168 72.199
 c 163.566 72.199 165.91 73.504 165.91 76.578 c f
167.27 75.797 m 167.27 75.234 167.27 75.105 167.23 73.965 c 167.219 73.695
 167.191 72.543 167.18 72.301 c 167.5 72.363 167.742 72.379 168.063 72.379
 c 168.383 72.379 168.641 72.352 168.961 72.301 c 168.871 74.234 168.832
 75.848 168.832 77.824 c 168.832 78.719 168.855 79.551 168.871 80.258 c 
169.102 80.258 l 169.473 80.258 171.316 80.258 172.074 80.141 c 172.035 
80.281 172.008 80.359 172.008 80.652 c 172.008 80.844 172.023 80.922 172.074
 81.09 c 171.418 81.063 170.32 81.012 169.625 81.012 c 168.805 81.012 168.113
 81.039 167.18 81.09 c 167.18 80.883 167.27 77.91 167.27 77.59 c 167.27 
75.797 l f
173.086 72.301 m 173.332 72.328 173.805 72.379 173.996 72.379 c 174.277
 72.379 174.598 72.34 174.906 72.301 c 174.766 73.25 174.766 75.465 174.766
 76.758 c 174.766 78.668 174.789 80.051 174.895 81.09 c 174.598 81.074 174.289
 81.012 173.996 81.012 c 173.715 81.012 173.355 81.074 173.074 81.09 c 173.215
 79.563 173.215 77.449 173.215 75.262 c 173.215 74.453 173.215 73.543 173.086
 72.301 c f
183.758 74.094 m 183.629 74.094 l 183.477 73.789 183.027 72.891 181.184
 72.891 c 179.043 72.891 177.902 74.301 177.902 76.719 c 177.902 77.168 
177.902 78.359 178.684 79.398 c 179.148 80 179.84 80.563 181.004 80.563 
c 182.578 80.563 183.387 79.781 183.965 79.102 c 184.105 79.191 l 183.965
 80.461 l 182.988 81 181.887 81.266 180.723 81.266 c 178.223 81.266 176.148
 79.719 176.148 76.836 c 176.148 74.262 177.723 72.199 181.145 72.199 c 
182.195 72.199 183.117 72.379 184.141 72.84 c 183.758 74.094 l f
189.488 73.273 m 189.445 74.25 189.445 75.477 189.445 76.578 c 189.445 
78.617 189.473 79.078 189.848 79.578 c 190.219 80.078 190.91 80.359 191.805
 80.359 c 192.844 80.359 193.66 79.82 193.945 79.039 c 194.047 78.758 194.113
 78.359 194.113 77.309 c 194.113 75.645 194.098 73.965 193.996 72.301 c 
194.176 72.328 194.367 72.379 194.57 72.379 c 194.777 72.379 194.98 72.328
 195.176 72.301 c 195.137 72.918 l 195.074 74.016 195.035 76.656 195.008
 77.949 c 194.98 79.461 194.547 80.152 193.699 80.691 c 193.102 81.074 192.242
 81.242 191.551 81.242 c 190.012 81.242 188.164 80.754 187.883 78.77 c 187.859
 78.59 187.859 78.207 187.859 78.09 c 187.859 74.605 l 187.859 73.953 187.836
 72.953 187.793 72.301 c 188.09 72.34 188.41 72.379 188.691 72.379 c 188.973
 72.379 189.27 72.34 189.527 72.301 c 189.488 73.273 l f
196.711 75.902 m 196.711 74.695 196.699 73.492 196.688 72.301 c 196.789
 72.313 196.891 72.328 196.992 72.328 c 197.098 72.328 197.184 72.313 197.289
 72.301 c 198.508 73.645 199.645 74.836 201.195 76.348 c 202.707 77.836 
l 202.949 78.066 203.066 78.156 203.348 78.387 c 203.348 75.543 l 203.348
 74.453 203.285 73.352 203.195 72.301 c 203.348 72.34 203.516 72.379 203.746
 72.379 c 203.977 72.379 204.129 72.34 204.285 72.301 c 204.168 73.852 204.141
 74.762 204.141 76.629 c 204.141 77.375 204.156 79.219 204.156 79.883 c 
204.156 80.168 204.168 80.832 204.168 81.152 c 204.078 81.141 203.988 81.129
 203.91 81.129 c 203.82 81.129 203.734 81.141 203.645 81.152 c 202.016 79.387
 198.863 76.246 197.504 75.004 c 197.504 76.746 197.52 77.684 197.547 79.039
 c 197.559 79.781 197.57 79.91 197.66 81.09 c 197.52 81.074 197.262 81.012
 197.082 81.012 c 196.891 81.012 196.727 81.051 196.57 81.09 c 196.672 79.309
 l 196.699 78.961 196.711 78.004 196.711 77.641 c 196.711 75.902 l f
205.887 72.301 m 206.129 72.328 206.602 72.379 206.797 72.379 c 207.078
 72.379 207.398 72.34 207.707 72.301 c 207.563 73.25 207.563 75.465 207.563
 76.758 c 207.563 78.668 207.59 80.051 207.691 81.09 c 207.398 81.074 207.09
 81.012 206.797 81.012 c 206.516 81.012 206.156 81.074 205.875 81.09 c 206.012
 79.563 206.012 77.449 206.012 75.262 c 206.012 74.453 206.012 73.543 205.887
 72.301 c f
213.254 77.797 m 213.367 77.504 214.805 73.93 215.301 72.301 c 215.582 
72.352 215.75 72.379 215.891 72.379 c 216.047 72.379 216.223 72.352 216.508
 72.301 c 215.941 73.414 215.176 75.195 214.676 76.375 c 214.02 77.926 213.406
 79.5 212.844 81.09 c 212.688 81.051 212.598 81.012 212.367 81.012 c 212.063
 81.012 211.957 81.051 211.777 81.09 c 211.203 79.449 211.141 79.219 210.254
 77.105 c 210.063 76.645 209.242 74.621 209.078 74.223 c 208.949 73.914 
208.359 72.57 208.246 72.301 c 208.551 72.363 208.961 72.379 209.281 72.379
 c 209.578 72.379 209.91 72.34 210.23 72.301 c 210.602 73.57 210.832 74.25
 211.883 76.965 c 212.152 77.656 212.473 78.32 212.766 79 c 213.254 77.797
 l f
218.609 76.105 m 219.262 76.105 220.695 76.094 221.375 76.016 c 221.34 
76.156 221.313 76.285 221.313 76.477 c 221.313 76.656 221.34 76.824 221.375
 76.914 c 221.043 76.887 220.711 76.863 220.391 76.848 c 219.801 76.836 
219.199 76.824 218.609 76.824 c 218.609 80.297 l 218.941 80.297 220.582 
80.258 221.668 80.203 c 221.617 80.32 221.609 80.449 221.609 80.629 c 221.609
 80.82 221.617 80.949 221.668 81.09 c 220.902 81.039 220.133 81.012 219.313
 81.012 c 218.547 81.012 217.738 81.039 216.918 81.09 c 216.945 80.551 216.969
 80.027 216.98 79.488 c 217.008 78.746 217.031 77.184 217.031 76.594 c 217.031
 76.055 217.008 73.582 216.918 72.301 c 217.547 72.34 218.547 72.379 219.238
 72.379 c 219.828 72.379 220.672 72.328 221.594 72.301 c 221.555 72.453 
221.531 72.559 221.531 72.711 c 221.531 72.902 221.555 73.082 221.594 73.184
 c 220.391 73.121 l 219.914 73.094 219.785 73.094 218.609 73.094 c 218.609
 76.105 l f
224.543 76.309 m 224.785 76.324 225.094 76.348 225.426 76.348 c 226.707
 76.348 227.18 75.414 227.18 74.582 c 227.18 74.043 227.09 73.582 226.641
 73.25 c 226.297 72.992 225.875 72.93 225.453 72.93 c 225.207 72.93 224.734
 72.98 224.543 72.992 c h
227 77.246 m 227.191 77.516 227.477 77.938 227.668 78.207 c 228.68 79.629
 229.027 80.078 229.832 81.09 c 229.473 81.051 229.152 81.012 228.691 81.012
 c 228.191 81.012 228.039 81.039 227.656 81.09 c 227.461 80.793 227.18 80.32
 226.988 80.027 c 226.336 79.016 225.539 77.887 224.848 76.914 c 224.543
 76.914 l 224.543 78.73 l 224.543 79.102 224.594 80.754 224.594 81.09 c 
224.336 81.063 224.055 81.012 223.734 81.012 c 223.441 81.012 223.133 81.051
 222.852 81.09 c 222.953 78.566 222.965 78.281 222.965 75.813 c 222.965 
74.133 222.965 73.953 222.875 72.301 c 223.172 72.328 223.504 72.363 224.156
 72.363 c 224.488 72.363 225.977 72.301 226.27 72.301 c 227.105 72.301 227.73
 72.402 228.285 72.93 c 228.668 73.301 228.871 73.824 228.871 74.363 c 228.871
 75.785 227.809 76.516 226.641 76.734 c 227 77.246 l f
230.953 79.168 m 231.543 80.449 232.184 80.641 232.938 80.641 c 233.949
 80.641 234.617 79.961 234.617 79.039 c 234.617 78.027 233.813 77.668 233.566
 77.566 c 233.207 77.414 232.605 77.184 232.246 77.027 c 231.004 76.477 
230.633 75.824 230.633 74.762 c 230.633 73.633 231.301 72.199 233.617 72.199
 c 234.555 72.199 235.117 72.441 235.746 72.723 c 235.488 73.352 235.465
 73.453 235.348 73.941 c 235.168 73.941 l 234.977 73.211 234.297 72.824 
233.492 72.824 c 232.48 72.824 231.977 73.453 231.977 74.211 c 231.977 75.145
 232.633 75.398 233.762 75.836 c 234.746 76.223 235.129 76.363 235.5 76.773
 c 236.039 77.348 236.129 78.105 236.129 78.461 c 236.129 79.77 235.219 
81.266 232.875 81.266 c 231.773 81.266 230.941 80.844 230.48 80.617 c 230.695
 79.949 230.711 79.781 230.777 79.168 c 230.953 79.168 l f
237.371 72.301 m 237.617 72.328 238.09 72.379 238.281 72.379 c 238.566 
72.379 238.887 72.34 239.191 72.301 c 239.051 73.25 239.051 75.465 239.051
 76.758 c 239.051 78.668 239.078 80.051 239.18 81.09 c 238.887 81.074 238.578
 81.012 238.281 81.012 c 238 81.012 237.641 81.074 237.359 81.09 c 237.5
 79.563 237.5 77.449 237.5 75.262 c 237.5 74.453 237.5 73.543 237.371 72.301
 c f
244.148 79.336 m 244.148 80.309 244.199 80.73 244.242 81.09 c 243.867 81.051
 243.457 81.012 243.305 81.012 c 243.086 81.012 242.895 81.039 242.434 81.09
 c 242.484 80.117 242.563 79.129 242.563 78.156 c 242.547 74.582 l 242.547
 74.109 242.535 73.66 242.523 73.16 c 241.883 73.16 l 241.766 73.16 240.539
 73.184 239.883 73.25 c 239.922 73.094 239.949 72.93 239.949 72.773 c 239.949
 72.621 239.922 72.453 239.883 72.301 c 240.895 72.363 242.32 72.379 243.305
 72.379 c 244.367 72.379 245.496 72.363 246.727 72.301 c 246.688 72.52 246.66
 72.684 246.66 72.785 c 246.66 72.93 246.688 73.043 246.727 73.25 c 245.969
 73.172 245.059 73.16 244.176 73.16 c 244.164 73.621 244.148 74.109 244.148
 74.594 c 244.148 79.336 l f
251.867 78.129 m 251.867 79.207 251.91 79.898 251.961 81.09 c 251.664 81.063
 251.371 81.012 251.074 81.012 c 250.82 81.012 250.461 81.063 250.215 81.09
 c 250.258 80.09 250.293 78.41 250.293 77.617 c 249.539 76.309 l 248.883
 75.184 247.797 73.414 247.129 72.301 c 247.602 72.352 247.898 72.379 248.18
 72.379 c 248.488 72.379 248.859 72.363 249.23 72.301 c 249.898 73.711 250.383
 74.723 251.473 76.629 c 252.563 74.762 252.766 74.324 253.688 72.301 c 
253.895 72.34 254.152 72.379 254.43 72.379 c 254.691 72.379 254.828 72.352
 254.969 72.301 c 254.777 72.648 253.84 74.133 253.648 74.441 c 253.074 
75.363 252.574 76.324 252.035 77.246 c 251.945 77.398 251.867 77.539 251.867
 77.656 c 251.867 78.129 l f
  Q
Q
  Q
Q
Q Q
showpage
%%Trailer
end
%%EOF
