%!PS-Adobe-3.0 EPSF-3.0
%%Creator: cairo 1.16.0 (https://cairographics.org)
%%CreationDate: Thu Aug 12 11:46:03 2021
%%Pages: 1
%%DocumentData: Clean7Bit
%%LanguageLevel: 2
%%BoundingBox: 0 0 256 88
%%EndComments
%%BeginProlog
50 dict begin
/q { gsave } bind def
/Q { grestore } bind def
/cm { 6 array astore concat } bind def
/w { setlinewidth } bind def
/J { setlinecap } bind def
/j { setlinejoin } bind def
/M { setmiterlimit } bind def
/d { setdash } bind def
/m { moveto } bind def
/l { lineto } bind def
/c { curveto } bind def
/h { closepath } bind def
/re { exch dup neg 3 1 roll 5 3 roll moveto 0 rlineto
      0 exch rlineto 0 rlineto closepath } bind def
/S { stroke } bind def
/f { fill } bind def
/f* { eofill } bind def
/n { newpath } bind def
/W { clip } bind def
/W* { eoclip } bind def
/BT { } bind def
/ET { } bind def
/BDC { mark 3 1 roll /BDC pdfmark } bind def
/EMC { mark /EMC pdfmark } bind def
/cairo_store_point { /cairo_point_y exch def /cairo_point_x exch def } def
/Tj { show currentpoint cairo_store_point } bind def
/TJ {
  {
    dup
    type /stringtype eq
    { show } { -0.001 mul 0 cairo_font_matrix dtransform rmoveto } ifelse
  } forall
  currentpoint cairo_store_point
} bind def
/cairo_selectfont { cairo_font_matrix aload pop pop pop 0 0 6 array astore
    cairo_font exch selectfont cairo_point_x cairo_point_y moveto } bind def
/Tf { pop /cairo_font exch def /cairo_font_matrix where
      { pop cairo_selectfont } if } bind def
/Td { matrix translate cairo_font_matrix matrix concatmatrix dup
      /cairo_font_matrix exch def dup 4 get exch 5 get cairo_store_point
      /cairo_font where { pop cairo_selectfont } if } bind def
/Tm { 2 copy 8 2 roll 6 array astore /cairo_font_matrix exch def
      cairo_store_point /cairo_font where { pop cairo_selectfont } if } bind def
/g { setgray } bind def
/rg { setrgbcolor } bind def
/d1 { setcachedevice } bind def
/cairo_data_source {
  CairoDataIndex CairoData length lt
    { CairoData CairoDataIndex get /CairoDataIndex CairoDataIndex 1 add def }
    { () } ifelse
} def
/cairo_flush_ascii85_file { cairo_ascii85_file status { cairo_ascii85_file flushfile } if } def
/cairo_image { image cairo_flush_ascii85_file } def
/cairo_imagemask { imagemask cairo_flush_ascii85_file } def
%%EndProlog
%%BeginSetup
%%EndSetup
%%Page: 1 1
%%BeginPageSetup
%%PageBoundingBox: 0 0 256 88
%%EndPageSetup
q 0 0 256 88 rectclip
1 0 0 -1 0 88 cm q
Q q
q
0 0 256 88 re W n
  q
Q q
q
0 0 256 88 re W n
  q
0.0666667 0.247059 0.380392 rg
175.531 19.148 m 175.523 19.18 175.516 19.211 175.512 19.234 c 175.34 19.359
 l 175.336 19.418 l 181.77 19.41 l 181.359 19.152 l 179.332 17.875 l 179.266
 17.832 l 179.258 17.613 l 179.074 17.484 l 179.043 17.359 178.984 16.969
 179.246 16.684 c 179.5 16.488 179.676 16.141 179.676 15.738 c 179.676 15.684
 179.676 15.391 179.5 15.09 c 179.441 14.984 179.371 14.895 179.289 14.828
 c 179.281 14.762 179.258 14.59 179.129 14.48 c 179.09 14.441 179.043 14.41
 178.992 14.383 c 178.992 14.375 178.996 14.355 178.996 14.344 c 178.996
 14.25 178.945 14.172 178.875 14.129 c 178.844 14.109 178.813 14.098 178.781
 14.098 c 178.66 14.098 178.563 14.211 178.563 14.344 c 178.563 14.355 178.563
 14.375 178.566 14.383 c 178.402 14.465 178.285 14.633 178.27 14.828 c 178.035
 15.027 177.883 15.359 177.883 15.738 c 177.883 16.133 178.051 16.477 178.301
 16.676 c 178.426 16.82 178.594 17.082 178.5 17.398 c 178.492 17.43 178.488
 17.461 178.48 17.484 c 178.309 17.613 l 178.297 17.805 l 176.137 19.063
 l 176.078 19.094 l 176.063 18.922 176.078 18.648 176.273 18.438 c 176.531
 18.246 176.703 17.891 176.703 17.488 c 176.703 17.438 176.703 17.141 176.531
 16.84 c 176.469 16.734 176.402 16.648 176.316 16.582 c 176.313 16.512 176.289
 16.34 176.16 16.23 c 176.117 16.191 176.074 16.16 176.02 16.133 c 176.023
 16.121 176.023 16.105 176.023 16.094 c 176.023 16 175.973 15.922 175.902
 15.879 c 175.875 15.859 175.844 15.848 175.809 15.848 c 175.688 15.848 
175.59 15.961 175.59 16.094 c 175.59 16.105 175.59 16.121 175.594 16.133
 c 175.43 16.215 175.316 16.383 175.297 16.582 c 175.066 16.777 174.914 
17.109 174.914 17.488 c 174.914 17.883 175.078 18.227 175.328 18.422 c 175.453
 18.566 175.621 18.836 175.531 19.148 c f
192.492 51.828 3.563 0.25 re f
186.133 51.828 3.559 0.25 re f
192.836 59.727 m 192.836 61.66 l 195.711 61.66 l 195.711 56.922 l 195.711
 56.922 195.043 56.723 194.301 56.684 c 193.527 56.723 192.836 56.91 192.836
 56.91 c 192.836 59.727 l f
186.477 59.727 m 186.477 61.66 l 189.352 61.66 l 189.352 56.922 l 189.352
 56.922 188.684 56.723 187.941 56.684 c 187.168 56.723 186.477 56.91 186.477
 56.91 c 186.477 59.727 l f
147.211 61.629 m 147.211 56.887 l 147.211 56.887 146.734 56.691 146.203
 56.66 c 145.652 56.691 145.156 56.883 145.156 56.883 c 145.156 61.629 l
 147.211 61.629 l f
144.883 51.797 2.574 0.223 re f
175.242 51.813 3.559 0.25 re f
169.043 51.813 3.559 0.25 re f
162.84 51.813 3.563 0.25 re f
156.637 51.813 3.566 0.25 re f
150.438 51.813 3.566 0.25 re f
175.582 59.73 m 175.582 61.664 l 178.453 61.664 l 178.453 56.922 l 178.453
 56.922 177.785 56.727 177.047 56.688 c 176.273 56.727 175.582 56.914 175.582
 56.914 c 175.582 59.73 l f
169.379 59.73 m 169.379 61.664 l 172.254 61.664 l 172.254 56.922 l 172.254
 56.922 171.586 56.727 170.844 56.688 c 170.074 56.727 169.379 56.914 169.379
 56.914 c 169.379 59.73 l f
163.18 59.73 m 163.18 61.664 l 166.055 61.664 l 166.055 56.922 l 166.055
 56.922 165.383 56.727 164.641 56.688 c 163.871 56.727 163.18 56.914 163.18
 56.914 c 163.18 59.73 l f
159.852 61.664 m 159.852 56.922 l 159.852 56.922 159.184 56.727 158.441
 56.688 c 157.668 56.727 156.977 56.914 156.977 56.914 c 156.977 61.664 
l 159.852 61.664 l f
150.773 59.73 m 150.773 61.664 l 153.648 61.664 l 153.648 56.922 l 153.648
 56.922 152.98 56.727 152.238 56.688 c 151.469 56.727 150.773 56.914 150.773
 56.914 c 150.773 59.73 l f
132.977 34.723 m 133.535 34.723 l 133.535 34.375 l 133.535 34.375 134.23
 33.91 135.539 33.91 c 136.859 33.91 137.547 34.375 137.547 34.375 c 137.547
 34.723 l 138.082 34.723 l 138.082 33.91 l 138.465 33.91 l 138.465 33.238
 l 132.605 33.238 l 132.605 33.91 l 132.977 33.91 l 132.977 34.723 l f
127.609 55.297 m 125.766 55.316 124.887 56.695 124.809 57.785 c 124.797
 64.828 l 130.422 64.828 l 130.406 57.785 l 130.328 56.695 129.449 55.316
 127.609 55.297 c f
119.586 55.91 m 118.277 55.91 117.641 56.828 117.59 57.777 c 117.582 64.828
 l 121.602 64.828 l 121.586 57.777 l 121.535 56.828 120.898 55.91 119.59
 55.91 c f
135.629 55.91 m 134.32 55.91 133.68 56.828 133.633 57.777 c 133.617 64.828
 l 137.633 64.828 l 137.625 57.777 l 137.578 56.828 136.938 55.91 135.629
 55.91 c f
201.207 53.273 m 199.121 53.273 l 199.145 35.52 l 201.207 35.52 l h
184.129 53.273 m 184.129 43.316 l 198.227 43.316 l 198.238 53.273 l h
184.129 35.52 m 198.215 35.52 l 198.223 43.012 l 184.129 43.012 l h
183.281 53.27 m 181.164 53.27 l 181.164 35.52 l 183.281 35.52 l h
180.238 35.52 m 180.238 43.063 l 148.988 43.063 l 148.988 35.453 l h
180.238 53.273 m 148.988 53.273 l 148.988 43.316 l 180.238 43.316 l h
148.082 53.27 m 144.395 53.27 l 144.414 31.348 l 148.082 31.348 l h
143.535 53.27 m 141.398 53.27 l 141.398 31.348 l 143.535 31.348 l h
127.656 30.098 m 114.707 30.098 l 127.609 24.34 l 140.508 30.098 l h
140.496 50.758 m 137.438 50.758 l 137.438 45.352 l 137.438 45.352 136.512
 45.098 135.484 45.047 c 134.465 45.098 133.547 45.344 133.547 45.344 c 
133.547 46.887 l 133.543 46.887 l 133.543 50.758 l 129.547 50.758 l 129.547
 49.234 l 129.543 49.234 l 129.543 47.109 l 129.547 47.109 l 129.547 45.355
 l 129.547 45.355 128.633 45.113 127.609 45.059 c 126.586 45.109 125.668
 45.355 125.668 45.355 c 125.684 50.758 l 121.676 50.758 l 121.676 46.887
 l 121.668 46.887 l 121.668 45.344 l 121.668 45.344 120.75 45.098 119.727
 45.047 c 118.703 45.098 117.781 45.352 117.781 45.352 c 117.781 50.758 
l 114.719 50.758 l 114.719 31.348 l 115.152 31.348 l 115.152 31.957 l 116.016
 31.957 l 116.016 31.348 l 116.762 31.348 l 116.762 31.957 l 117.625 31.957
 l 117.625 31.348 l 121.652 31.348 l 121.652 31.957 l 122.516 31.957 l 122.516
 31.348 l 123.336 31.348 l 123.336 31.957 l 124.199 31.957 l 124.199 31.348
 l 131.02 31.348 l 131.02 31.957 l 131.883 31.957 l 131.883 31.348 l 132.703
 31.348 l 132.703 31.957 l 133.566 31.957 l 133.566 31.348 l 137.59 31.348
 l 137.59 31.957 l 138.453 31.957 l 138.453 31.348 l 139.199 31.348 l 139.199
 31.957 l 140.063 31.957 l 140.063 31.348 l 140.496 31.348 l h
140.496 53.27 m 139.195 53.27 l 139.195 51.313 l 140.496 51.313 l h
138.668 53.27 m 137.438 53.27 l 137.438 51.313 l 138.668 51.313 l h
133.543 53.27 m 132.844 53.27 l 132.844 51.313 l 133.543 51.313 l h
132.316 53.27 m 130.727 53.27 l 130.727 51.313 l 132.316 51.313 l h
130.199 53.27 m 129.547 53.273 l 129.547 51.547 l 129.543 51.547 l 129.543
 51.316 l 129.547 51.316 l 129.668 51.313 l 130.199 51.313 l h
125.688 53.27 m 125.02 53.27 l 125.02 51.313 l 125.688 51.313 l h
124.488 53.27 m 122.902 53.27 l 122.902 51.313 l 124.488 51.313 l h
122.371 53.27 m 121.672 53.27 l 121.672 51.313 l 122.371 51.313 l h
117.781 51.547 m 117.781 53.27 l 116.551 53.27 l 116.551 51.313 l 117.781
 51.313 l h
116.02 53.27 m 114.719 53.27 l 114.719 51.313 l 116.02 51.313 l h
113.816 53.27 m 111.684 53.27 l 111.68 31.348 l 113.816 31.348 l h
107.133 53.27 m 107.133 31.348 l 110.801 31.348 l 110.824 53.27 l h
106.23 43.063 m 74.98 43.063 l 74.98 35.52 l 106.23 35.453 l h
106.23 53.273 m 74.98 53.273 l 74.98 43.316 l 106.23 43.316 l h
74.051 53.27 m 71.938 53.27 l 71.938 35.52 l 74.051 35.52 l h
71.086 43.012 m 56.992 43.012 l 57 35.52 l 71.086 35.52 l h
71.086 53.273 m 56.977 53.273 l 56.988 43.316 l 71.086 43.316 l h
54.008 53.273 m 54.008 35.52 l 56.07 35.52 l 56.094 53.273 l h
56.289 30.371 m 56.652 29.883 58.25 30.164 58.25 30.164 c 59.766 30.164
 60.113 29.77 60.488 29.313 c 60.797 28.934 60.945 28.473 60.789 27.922 
c 60.676 27.523 60.578 27.27 60.613 26.715 c 60.625 26.551 60.664 26.402
 60.695 26.254 c 60.762 25.934 60.875 25.645 61.016 25.383 c 61.16 25.125
 61.336 24.891 61.535 24.684 c 61.832 24.383 62.184 24.137 62.555 23.969
 c 62.676 23.918 62.805 23.871 62.934 23.832 c 63.246 23.727 63.563 23.672
 63.863 23.676 c 65.266 23.648 67.02 24.773 67.148 26.715 c 67.184 27.27
 67.09 27.523 66.977 27.922 c 66.82 28.473 66.969 28.934 67.277 29.313 c
 67.652 29.77 68 30.164 69.516 30.164 c 69.516 30.164 70.902 30.02 71.477
 30.336 c 71.855 30.543 71.551 32.063 71.551 32.063 c 56.215 32.063 l 56.215
 32.063 56.008 30.746 56.289 30.371 c h
92.836 31.641 m 88.145 31.641 l 88.145 30.578 l 88.145 30.578 88.363 30.348
 88.578 30.09 c 88.75 29.879 88.832 29.621 88.746 29.305 c 88.68 29.082 
88.629 28.934 88.648 28.629 c 88.719 27.527 89.688 26.891 90.48 26.914 c
 91.273 26.891 92.266 27.527 92.336 28.629 c 92.355 28.934 92.305 29.082
 92.238 29.305 c 92.148 29.621 92.234 29.879 92.41 30.09 c 92.621 30.348
 92.836 30.578 92.836 30.578 c h
86.496 21.816 m 86.496 21.84 l 85.266 21.84 l 85.266 18.027 l 86.496 18.027
 l h
162.379 30.578 m 162.379 30.578 162.598 30.348 162.809 30.09 c 162.984 
29.879 163.066 29.621 162.977 29.305 c 162.914 29.082 162.859 28.934 162.883
 28.629 c 162.953 27.527 163.945 26.891 164.734 26.914 c 165.527 26.891 
166.496 27.527 166.57 28.629 c 166.59 28.934 166.535 29.082 166.473 29.305
 c 166.383 29.621 166.469 29.879 166.641 30.09 c 166.852 30.348 167.07 30.578
 167.07 30.578 c 167.07 31.641 l 162.379 31.641 l h
168.723 21.816 m 168.723 18.027 l 169.953 18.027 l 169.953 21.84 l 168.723
 21.84 l h
199.004 32.063 m 183.664 32.063 l 183.664 32.063 183.359 30.543 183.738
 30.336 c 184.313 30.02 185.699 30.164 185.699 30.164 c 187.215 30.164 187.563
 29.77 187.941 29.313 c 188.246 28.934 188.395 28.473 188.238 27.922 c 188.125
 27.523 188.031 27.27 188.066 26.715 c 188.195 24.773 189.949 23.648 191.352
 23.676 c 191.656 23.672 191.973 23.727 192.285 23.832 c 192.41 23.871 192.539
 23.918 192.66 23.969 c 193.031 24.137 193.383 24.383 193.684 24.684 c 193.883
 24.891 194.059 25.125 194.199 25.383 c 194.344 25.645 194.453 25.934 194.52
 26.254 c 194.551 26.402 194.59 26.551 194.602 26.715 c 194.637 27.27 194.543
 27.523 194.426 27.922 c 194.27 28.473 194.422 28.934 194.727 29.313 c 195.102
 29.77 195.453 30.164 196.969 30.164 c 196.969 30.164 198.563 29.883 198.926
 30.371 c 199.211 30.746 199.004 32.063 199.004 32.063 c h
200.441 29.422 m 197.848 27.652 l 195.18 25.836 l 195.18 25.836 194.91 
24.605 193.672 23.676 c 193.266 23.371 192.852 23.176 192.465 23.055 c 191.648
 22.797 190.984 22.871 190.879 22.883 c 190.867 22.887 190.863 22.887 190.863
 22.887 c 188.742 21.816 l 188.707 21.801 l 188.688 21.816 l 178.516 33.141
 l 179.102 33.141 l 203.176 33.145 l 202.852 33.484 l 150.367 33.488 l 150.367
 33.141 l 177.523 33.141 l 187.211 22.477 l 188.098 21.504 l 184.855 19.848
 l 184.816 19.832 l 170.383 19.832 l 170.383 18.027 l 170.672 18.027 l 170.672
 17.363 l 168.016 17.363 l 168.016 18.027 l 168.129 18.027 l 168.125 18.047
 l 167.711 19.832 l 147.445 19.832 l 147.453 19.848 l 148.344 21.816 l 152.086
 30.098 l 152.078 30.176 l 149.617 30.172 l 149.617 34.332 l 202.051 34.328
 l 201.488 34.922 l 149.004 34.922 l 149.004 30.172 l 142.469 30.172 l 127.609
 23.293 l 112.832 30.172 l 106.23 30.172 l 106.23 34.922 l 53.73 34.922 
l 53.164 34.328 l 105.609 34.332 l 105.609 30.172 l 103.137 30.176 l 103.133
 30.098 l 106.871 21.816 l 107.762 19.848 l 107.77 19.832 l 87.504 19.832
 l 87.094 18.047 l 87.09 18.027 l 87.203 18.027 l 87.203 17.363 l 84.547
 17.363 l 84.547 18.027 l 84.832 18.027 l 84.832 19.832 l 70.398 19.832 
l 70.363 19.848 l 67.184 21.469 l 68.094 22.477 l 77.684 33.141 l 104.848
 33.141 l 104.848 33.488 l 104.305 33.488 l 52.363 33.484 l 52.043 33.145
 l 76.113 33.141 l 76.703 33.141 l 66.527 21.816 l 66.512 21.801 l 66.473
 21.816 l 64.355 22.887 l 64.355 22.887 64.348 22.887 64.336 22.883 c 64.234
 22.871 63.57 22.797 62.75 23.055 c 62.367 23.176 61.953 23.371 61.543 23.676
 c 60.305 24.605 60.039 25.836 60.039 25.836 c 57.367 27.652 l 54.773 29.422
 l 50.281 32.48 l 53.09 35.461 l 53.09 64.828 l 54.008 64.828 l 54.008 54.176
 l 56.07 54.176 l 56.07 64.828 l 57 64.828 l 57 54.184 l 71.086 54.184 l
 71.086 64.828 l 71.938 64.828 l 71.938 54.184 l 74.051 54.184 l 74.051 
64.828 l 74.98 64.828 l 74.98 54.184 l 106.23 54.184 l 106.23 64.828 l 107.137
 64.828 l 107.137 54.176 l 108.969 54.18 l 110.805 54.184 l 110.805 64.828
 l 111.68 64.828 l 111.68 54.184 l 113.816 54.176 l 113.816 64.828 l 114.707
 64.828 l 114.719 54.176 l 115.152 54.176 l 115.152 54.977 l 116.016 54.977
 l 116.016 54.176 l 116.762 54.176 l 116.762 54.977 l 117.625 54.977 l 117.625
 54.176 l 121.844 54.176 l 121.844 54.977 l 122.707 54.977 l 122.707 54.176
 l 123.527 54.176 l 123.527 54.977 l 124.391 54.977 l 124.391 54.176 l 130.824
 54.176 l 130.824 54.977 l 131.691 54.977 l 131.691 54.176 l 132.512 54.176
 l 132.512 54.977 l 133.371 54.977 l 133.371 54.176 l 137.59 54.176 l 137.59
 54.977 l 138.453 54.977 l 138.453 54.176 l 139.199 54.176 l 139.199 54.977
 l 140.063 54.977 l 140.063 54.176 l 140.496 54.176 l 140.508 64.828 l 141.398
 64.828 l 141.398 54.176 l 143.535 54.184 l 143.535 64.828 l 144.414 64.828
 l 144.414 54.184 l 146.246 54.18 l 148.082 54.176 l 148.082 64.828 l 148.988
 64.828 l 148.988 54.184 l 180.238 54.184 l 180.238 64.828 l 181.164 64.828
 l 181.164 54.184 l 183.281 54.184 l 183.281 64.828 l 184.129 64.828 l 184.129
 54.184 l 198.215 54.184 l 198.215 64.828 l 199.145 64.828 l 199.145 54.176
 l 201.207 54.176 l 201.207 64.828 l 202.125 64.828 l 202.125 35.461 l 204.934
 32.48 l 200.441 29.422 l f
133.551 44.043 m 135.527 43.398 l 137.434 44.043 l h
138.355 43.883 m 135.621 42.965 l 135.563 42.941 135.5 42.941 135.445 42.965
 c 132.707 43.848 l 132.625 43.875 132.566 43.93 132.551 44.008 c 132.527
 44.078 132.555 44.148 132.609 44.203 c 132.832 44.41 l 132.879 44.453 132.945
 44.477 133.016 44.477 c 133.051 44.477 l 133.051 44.832 l 133.051 44.953
 133.164 45.047 133.301 45.047 c 133.438 45.047 133.551 44.953 133.551 44.832
 c 133.551 44.477 l 137.508 44.477 l 137.508 44.832 l 137.508 44.879 137.523
 44.922 137.551 44.957 c 137.594 45.008 137.672 45.047 137.758 45.047 c 
137.895 45.047 138.008 44.953 138.008 44.832 c 138.008 44.477 l 138.043 
44.477 l 138.105 44.477 138.164 44.461 138.211 44.422 c 138.434 44.254 l
 138.496 44.203 138.527 44.125 138.512 44.047 c 138.496 43.973 138.438 43.914
 138.355 43.883 c f
164.754 27.633 m 164.152 27.633 163.66 28.125 163.66 28.727 c 163.66 29.336
 164.152 29.828 164.754 29.828 c 165.359 29.828 165.848 29.336 165.848 28.727
 c 165.848 28.125 165.359 27.633 164.754 27.633 c f
191.418 24.922 m 190.328 24.922 189.441 25.809 189.441 26.898 c 189.441
 27.996 190.328 28.883 191.418 28.883 c 192.512 28.883 193.398 27.996 193.398
 26.898 c 193.398 25.809 192.512 24.922 191.418 24.922 c f
192.852 44.734 2.852 6.629 re f
186.492 44.734 2.848 6.629 re f
133.609 38.758 m 133.609 41.238 l 137.418 41.238 l 137.418 35.145 l 137.418
 35.145 136.531 34.895 135.547 34.848 c 134.523 34.895 133.609 35.133 133.609
 35.133 c 133.609 38.758 l f
133.102 41.586 4.777 0.285 re f
194.039 41.73 m 195.711 41.73 l 195.711 36.988 l 195.711 36.988 195.043
 36.797 194.301 36.758 c 193.527 36.797 192.836 36.98 192.836 36.98 c 192.836
 41.73 l 194.039 41.73 l f
192.461 42.09 3.605 0.223 re f
187.676 41.73 m 189.352 41.73 l 189.352 36.988 l 189.352 36.988 188.684
 36.797 187.941 36.758 c 187.168 36.797 186.477 36.98 186.477 36.98 c 186.477
 41.73 l 187.676 41.73 l f
186.102 42.09 3.605 0.223 re f
145.098 34.695 m 145.355 34.695 l 145.355 34.344 l 145.355 34.344 145.68
 33.883 146.281 33.883 c 146.891 33.883 147.211 34.344 147.211 34.344 c 
147.211 34.695 l 147.457 34.695 l 147.457 33.883 l 147.633 33.883 l 147.633
 33.215 l 144.926 33.215 l 144.926 33.883 l 145.098 33.883 l 145.098 34.695
 l f
145.391 38.73 m 145.391 41.215 l 147.152 41.215 l 147.152 35.121 l 147.152
 35.121 146.738 34.871 146.285 34.82 c 145.813 34.871 145.391 35.105 145.391
 35.105 c 145.391 38.73 l f
145.152 41.559 2.211 0.285 re f
147.172 46.563 m 147.172 45.273 l 147.172 45.273 146.746 45.094 146.27 
45.059 c 146.27 45.051 l 145.797 45.09 145.371 45.266 145.371 45.266 c 145.371
 46.398 l 145.367 46.398 l 145.367 51.313 l 147.172 51.313 l 147.172 46.563
 l f
146.285 43.402 m 147.172 44.047 l 145.371 44.047 l h
145.035 44.414 m 145.059 44.457 145.09 44.477 145.121 44.477 c 145.141 
44.477 l 145.141 44.836 l 145.141 44.957 145.191 45.051 145.254 45.051 c
 145.316 45.051 145.371 44.957 145.371 44.836 c 145.371 44.477 l 147.207
 44.477 l 147.207 44.836 l 147.207 44.883 147.211 44.922 147.227 44.957 
c 147.246 45.012 147.281 45.051 147.324 45.051 c 147.387 45.051 147.438 
44.957 147.438 44.836 c 147.438 44.477 l 147.453 44.477 l 147.48 44.477 
147.512 44.465 147.531 44.426 c 147.633 44.258 l 147.664 44.207 147.68 44.129
 147.672 44.051 c 147.664 43.977 147.637 43.918 147.602 43.887 c 146.332
 42.965 l 146.305 42.945 146.273 42.945 146.25 42.965 c 144.977 43.852 l
 144.941 43.879 144.914 43.938 144.906 44.008 c 144.895 44.082 144.906 44.152
 144.934 44.211 c 145.035 44.414 l f
175.602 44.727 2.852 6.625 re f
169.398 44.727 2.852 6.625 re f
163.195 44.727 2.852 6.625 re f
156.996 44.727 2.852 6.625 re f
153.645 51.352 m 153.645 44.727 l 150.793 44.727 l 150.793 46.754 l 150.797
 46.754 l 150.797 48.164 l 150.793 48.164 l 150.793 51.352 l 153.645 51.352
 l f
176.781 41.73 m 178.453 41.73 l 178.453 36.988 l 178.453 36.988 177.785
 36.797 177.047 36.758 c 176.273 36.797 175.582 36.98 175.582 36.98 c 175.582
 41.73 l 176.781 41.73 l f
175.207 42.09 3.602 0.223 re f
170.578 41.73 m 172.254 41.73 l 172.254 36.988 l 172.254 36.988 171.586
 36.797 170.844 36.758 c 170.074 36.797 169.379 36.98 169.379 36.98 c 169.379
 41.73 l 170.578 41.73 l f
169.004 42.09 3.605 0.223 re f
164.379 41.73 m 166.055 41.73 l 166.055 36.988 l 166.055 36.988 165.383
 36.797 164.641 36.758 c 163.871 36.797 163.18 36.98 163.18 36.98 c 163.18
 41.73 l 164.379 41.73 l f
162.801 42.09 3.605 0.223 re f
158.18 41.73 m 159.852 41.73 l 159.852 36.988 l 159.852 36.988 159.184 
36.797 158.441 36.758 c 157.668 36.797 156.977 36.98 156.977 36.98 c 156.977
 41.73 l 158.18 41.73 l f
156.602 42.09 3.605 0.223 re f
151.977 41.73 m 153.648 41.73 l 153.648 36.988 l 153.648 36.988 152.98 
36.797 152.238 36.758 c 151.469 36.797 150.773 36.98 150.773 36.98 c 150.773
 41.73 l 151.977 41.73 l f
150.398 42.09 3.605 0.223 re f
142.941 21.816 m 145.773 29.547 l 151.129 29.547 l 147.621 21.816 l 146.934
 20.309 l 142.262 19.969 l 142.941 21.816 l f
142.137 19.297 m 146.672 19.633 l 142.398 16.672 l 137.918 13.563 l 135.289
 11.738 l 142.137 19.297 l f
79.879 19.418 m 79.879 19.359 l 79.703 19.234 l 79.699 19.211 79.695 19.18
 79.688 19.148 c 79.598 18.836 79.762 18.566 79.891 18.422 c 80.137 18.227
 80.305 17.883 80.305 17.488 c 80.305 17.109 80.152 16.777 79.918 16.582
 c 79.898 16.383 79.785 16.215 79.621 16.133 c 79.625 16.121 79.625 16.105
 79.625 16.094 c 79.625 15.961 79.527 15.848 79.41 15.848 c 79.375 15.848
 79.34 15.859 79.313 15.879 c 79.242 15.922 79.191 16 79.191 16.094 c 79.191
 16.105 79.191 16.121 79.195 16.133 c 79.145 16.16 79.098 16.191 79.059 
16.23 c 78.926 16.34 78.902 16.512 78.898 16.582 c 78.816 16.648 78.746 
16.734 78.688 16.84 c 78.512 17.141 78.516 17.438 78.516 17.488 c 78.516
 17.891 78.688 18.246 78.945 18.438 c 79.137 18.648 79.152 18.922 79.137
 19.094 c 79.082 19.063 l 76.918 17.805 l 76.906 17.613 l 76.734 17.484 
l 76.73 17.461 76.723 17.43 76.715 17.398 c 76.625 17.082 76.789 16.82 76.918
 16.676 c 77.168 16.477 77.332 16.133 77.332 15.738 c 77.332 15.359 77.18
 15.027 76.949 14.828 c 76.93 14.633 76.813 14.465 76.652 14.383 c 76.652
 14.375 76.656 14.355 76.656 14.344 c 76.656 14.211 76.559 14.098 76.438
 14.098 c 76.402 14.098 76.371 14.109 76.344 14.129 c 76.27 14.172 76.219
 14.25 76.219 14.344 c 76.219 14.355 76.223 14.375 76.223 14.383 c 76.172
 14.41 76.125 14.441 76.086 14.48 c 75.957 14.59 75.934 14.762 75.926 14.828
 c 75.844 14.895 75.773 14.984 75.715 15.09 c 75.539 15.391 75.543 15.688
 75.543 15.738 c 75.543 16.141 75.715 16.488 75.973 16.684 c 76.23 16.969
 76.172 17.359 76.145 17.484 c 75.957 17.613 l 75.949 17.832 l 75.883 17.875
 l 73.449 19.41 l 79.879 19.418 l f
59.16 51.828 3.563 0.25 re f
65.523 51.828 3.563 0.25 re f
59.504 56.922 m 59.504 61.66 l 62.379 61.66 l 62.379 56.91 l 62.379 56.91
 61.688 56.723 60.914 56.684 c 60.172 56.723 59.504 56.922 59.504 56.922
 c f
65.867 56.922 m 65.867 61.66 l 68.742 61.66 l 68.742 56.91 l 68.742 56.91
 68.047 56.723 67.277 56.684 c 66.535 56.723 65.867 56.922 65.867 56.922
 c f
108.008 56.887 m 108.008 61.629 l 110.059 61.629 l 110.059 56.883 l 110.059
 56.883 109.566 56.691 109.016 56.66 c 108.484 56.691 108.008 56.887 108.008
 56.887 c f
107.758 51.797 2.574 0.223 re f
76.414 51.813 3.559 0.25 re f
82.613 51.813 3.563 0.25 re f
88.813 51.813 3.566 0.25 re f
95.016 51.813 3.566 0.25 re f
101.219 51.813 3.559 0.25 re f
76.762 56.922 m 76.762 61.664 l 79.637 61.664 l 79.637 56.914 l 79.637 
56.914 78.941 56.727 78.172 56.688 c 77.43 56.727 76.762 56.922 76.762 56.922
 c f
82.965 56.922 m 82.965 61.664 l 85.836 61.664 l 85.836 56.914 l 85.836 
56.914 85.145 56.727 84.375 56.688 c 83.633 56.727 82.965 56.922 82.965 
56.922 c f
89.164 56.922 m 89.164 61.664 l 92.039 61.664 l 92.039 56.914 l 92.039 
56.914 91.348 56.727 90.574 56.688 c 89.832 56.727 89.164 56.922 89.164 
56.922 c f
95.363 56.922 m 95.363 61.664 l 98.242 61.664 l 98.242 56.914 l 98.242 
56.914 97.547 56.727 96.777 56.688 c 96.035 56.727 95.363 56.922 95.363 
56.922 c f
101.566 56.922 m 101.566 61.664 l 104.441 61.664 l 104.441 56.914 l 104.441
 56.914 103.75 56.727 102.977 56.688 c 102.234 56.727 101.566 56.922 101.566
 56.922 c f
117.133 34.723 m 117.668 34.723 l 117.668 34.375 l 117.668 34.375 118.355
 33.91 119.676 33.91 c 120.984 33.91 121.68 34.375 121.68 34.375 c 121.68
 34.723 l 122.238 34.723 l 122.238 33.91 l 122.609 33.91 l 122.609 33.238
 l 116.754 33.238 l 116.754 33.91 l 117.133 33.91 l 117.133 34.723 l f
117.785 44.043 m 119.691 43.398 l 121.664 44.043 l h
122.508 43.848 m 119.773 42.965 l 119.719 42.941 119.652 42.941 119.598
 42.965 c 116.859 43.883 l 116.777 43.914 116.719 43.973 116.703 44.047 
c 116.688 44.125 116.719 44.203 116.785 44.254 c 117.008 44.422 l 117.051
 44.461 117.113 44.477 117.172 44.477 c 117.207 44.477 l 117.207 44.832 
l 117.207 44.953 117.32 45.047 117.461 45.047 c 117.543 45.047 117.621 45.008
 117.664 44.957 c 117.691 44.922 117.711 44.879 117.711 44.832 c 117.711
 44.477 l 121.664 44.477 l 121.664 44.832 l 121.664 44.953 121.781 45.047
 121.914 45.047 c 122.055 45.047 122.168 44.953 122.168 44.832 c 122.168
 44.477 l 122.199 44.477 l 122.27 44.477 122.336 44.453 122.383 44.41 c 
122.605 44.203 l 122.664 44.148 122.688 44.078 122.668 44.008 c 122.648 
43.93 122.59 43.875 122.512 43.848 c f
90.461 27.633 m 89.855 27.633 89.367 28.125 89.367 28.727 c 89.367 29.336
 89.855 29.828 90.461 29.828 c 91.066 29.828 91.555 29.336 91.555 28.727
 c 91.555 28.125 91.066 27.633 90.461 27.633 c f
63.797 28.883 m 64.891 28.883 65.777 27.996 65.777 26.898 c 65.777 25.809
 64.891 24.922 63.797 24.922 c 62.707 24.922 61.816 25.809 61.816 26.898
 c 61.816 27.996 62.707 28.883 63.797 28.883 c f
59.516 44.734 2.855 6.629 re f
65.879 44.734 2.848 6.629 re f
125.184 41.586 4.855 0.285 re f
117.801 35.145 m 117.801 41.238 l 121.609 41.238 l 121.609 35.133 l 121.609
 35.133 120.691 34.895 119.668 34.848 c 118.688 34.895 117.801 35.145 117.801
 35.145 c f
117.34 41.586 4.773 0.285 re f
61.406 41.73 m 62.379 41.73 l 62.379 36.98 l 62.379 36.98 61.688 36.797
 60.914 36.758 c 60.172 36.797 59.504 36.988 59.504 36.988 c 59.504 41.73
 l 61.406 41.73 l f
59.152 42.09 3.602 0.223 re f
65.867 41.73 m 68.742 41.73 l 68.742 36.98 l 68.742 36.98 68.047 36.797
 67.277 36.758 c 66.535 36.797 65.867 36.988 65.867 36.988 c 65.867 41.73
 l f
65.512 42.09 3.605 0.223 re f
107.758 34.695 m 108.004 34.695 l 108.004 34.344 l 108.004 34.344 108.324
 33.883 108.934 33.883 c 109.539 33.883 109.859 34.344 109.859 34.344 c 
109.859 34.695 l 110.121 34.695 l 110.121 33.883 l 110.293 33.883 l 110.293
 33.215 l 107.582 33.215 l 107.582 33.883 l 107.758 33.883 l 107.758 34.695
 l f
108.066 35.121 m 108.066 41.215 l 109.828 41.215 l 109.828 35.105 l 109.828
 35.105 109.402 34.871 108.93 34.82 c 108.477 34.871 108.066 35.121 108.066
 35.121 c f
107.852 41.559 2.211 0.285 re f
108.043 49.809 m 108.043 51.313 l 109.852 51.313 l 109.852 46.398 l 109.848
 46.398 l 109.848 45.266 l 109.848 45.266 109.422 45.09 108.945 45.051 c
 108.945 45.059 l 108.469 45.094 108.043 45.273 108.043 45.273 c 108.043
 49.809 l f
108.93 43.402 m 109.844 44.047 l 108.047 44.047 l h
107.777 44.477 m 107.777 44.836 l 107.777 44.957 107.832 45.051 107.895
 45.051 c 107.934 45.051 107.969 45.012 107.992 44.957 c 108.004 44.922 
108.012 44.883 108.012 44.836 c 108.012 44.477 l 109.844 44.477 l 109.844
 44.836 l 109.844 44.957 109.898 45.051 109.961 45.051 c 110.027 45.051 
110.078 44.957 110.078 44.836 c 110.078 44.477 l 110.094 44.477 l 110.125
 44.477 110.156 44.457 110.18 44.414 c 110.281 44.211 l 110.309 44.152 110.32
 44.082 110.309 44.008 c 110.301 43.938 110.273 43.879 110.238 43.852 c 
108.969 42.965 l 108.941 42.945 108.91 42.945 108.887 42.965 c 107.617 43.887
 l 107.578 43.918 107.551 43.977 107.547 44.051 c 107.539 44.129 107.551
 44.207 107.582 44.258 c 107.688 44.426 l 107.707 44.465 107.734 44.477 
107.762 44.477 c 107.777 44.477 l f
76.766 44.727 2.855 6.625 re f
82.969 44.727 2.848 6.625 re f
89.168 44.727 2.852 6.625 re f
95.371 44.727 2.848 6.625 re f
101.57 44.727 2.852 6.625 re f
76.762 41.73 m 79.637 41.73 l 79.637 36.98 l 79.637 36.98 78.941 36.797
 78.172 36.758 c 77.43 36.797 76.762 36.988 76.762 36.988 c 76.762 41.73
 l f
76.406 42.09 3.605 0.223 re f
84.867 41.73 m 85.836 41.73 l 85.836 36.98 l 85.836 36.98 85.145 36.797
 84.375 36.758 c 83.633 36.797 82.965 36.988 82.965 36.988 c 82.965 41.73
 l 84.867 41.73 l f
82.609 42.09 3.602 0.223 re f
89.164 41.73 m 92.039 41.73 l 92.039 36.98 l 92.039 36.98 91.348 36.797
 90.574 36.758 c 89.832 36.797 89.164 36.988 89.164 36.988 c 89.164 41.73
 l f
88.809 42.09 3.605 0.223 re f
97.27 41.73 m 98.242 41.73 l 98.242 36.98 l 98.242 36.98 97.547 36.797 
96.777 36.758 c 96.035 36.797 95.363 36.988 95.363 36.988 c 95.363 41.73
 l 97.27 41.73 l f
95.012 42.09 3.605 0.223 re f
103.469 41.73 m 104.441 41.73 l 104.441 36.98 l 104.441 36.98 103.75 36.797
 102.977 36.758 c 102.234 36.797 101.566 36.988 101.566 36.988 c 101.566
 41.73 l 103.469 41.73 l f
101.211 42.09 3.605 0.223 re f
104.086 29.547 m 109.445 29.547 l 112.273 21.816 l 112.953 19.969 l 108.281
 20.309 l 107.594 21.816 l 104.086 29.547 l f
141.398 19.969 m 113.816 19.969 l 113.133 21.816 l 110.281 29.547 l 112.832
 29.555 l 127.609 22.609 l 142.469 29.547 l 144.934 29.547 l 142.082 21.816
 l 141.398 19.969 l f
133.488 5.297 m 133.457 6.82 l 132.195 8.633 l 123.02 8.633 l 121.758 6.82
 l 121.73 5.297 l h
124.234 3.871 m 124.254 3.789 124.371 3.707 124.559 3.633 c 125.133 3.41
 126.367 3.223 127.551 3.223 c 127.555 3.223 127.559 3.223 127.559 3.223
 c 127.563 3.223 127.563 3.223 127.566 3.223 c 127.594 3.223 127.621 3.227
 127.652 3.227 c 127.652 3.223 l 127.652 3.223 127.656 3.223 127.656 3.223
 c 127.656 3.223 127.66 3.223 127.664 3.223 c 128.848 3.223 130.082 3.41
 130.656 3.633 c 130.844 3.707 130.961 3.789 130.98 3.871 c 130.98 3.879
 130.992 3.883 130.992 3.891 c 124.219 3.891 l 124.219 3.883 124.234 3.879
 124.234 3.871 c h
133.324 11.215 m 133.051 11.383 l 133.047 11.527 l 122.172 11.527 l 122.168
 11.383 l 121.895 11.215 l 121.871 11.113 121.84 10.898 121.887 10.668 c
 121.918 10.5 121.984 10.316 122.145 10.164 c 122.41 9.984 122.602 9.711
 122.699 9.379 c 132.52 9.379 l 132.617 9.711 132.813 9.984 133.074 10.164
 c 133.234 10.316 133.301 10.5 133.332 10.668 c 133.379 10.898 133.352 11.113
 133.324 11.215 c h
118.664 10.113 m 120.121 9.754 l 120.141 9.754 120.219 9.723 120.348 9.688
 c 120.457 9.883 120.602 10.047 120.773 10.164 c 120.934 10.316 121 10.5
 121.031 10.668 c 121.078 10.898 121.051 11.113 121.027 11.215 c 120.754
 11.383 l 120.746 11.527 l 114.117 19.227 l 141.102 19.227 l 134.469 11.527
 l 134.465 11.383 l 134.191 11.215 l 134.168 11.113 134.137 10.898 134.184
 10.668 c 134.215 10.5 134.285 10.316 134.441 10.164 c 134.621 10.047 134.762
 9.883 134.871 9.688 c 135 9.723 135.074 9.754 135.094 9.754 c 136.551 10.113
 l 136.551 12.105 l 137.863 12.957 l 137.863 8.98 l 136.969 8.754 l 136.953
 8.746 l 136.914 8.734 l 135.984 8.496 l 135.984 5.105 l 134.09 3.895 l 
134.059 3.879 l 131.762 3.879 l 131.762 2.75 130.734 0.898 128.988 0.238
 c 128.586 0.09 128.141 0 127.66 0 c 127.641 0 127.578 0 127.563 0 c 127.559
 0 l 127.078 0 126.633 0.09 126.23 0.238 c 124.484 0.898 123.457 2.75 123.457
 3.879 c 121.16 3.879 l 121.129 3.895 l 119.234 5.105 l 119.234 8.496 l 
119.176 8.508 l 117.355 8.98 l 117.355 12.957 l 118.668 12.09 l 118.668 
10.113 l f
119.926 11.738 m 117.297 13.563 l 112.816 16.672 l 108.547 19.633 l 113.078
 19.297 l 119.926 11.738 l f
125.633 44.043 m 127.605 43.402 l 129.512 44.043 l h
130.434 43.883 m 127.699 42.965 l 127.645 42.945 127.578 42.945 127.523
 42.965 c 124.785 43.848 l 124.707 43.879 124.648 43.93 124.629 44.008 c
 124.609 44.078 124.633 44.148 124.688 44.207 c 124.914 44.41 l 124.961 
44.457 125.027 44.477 125.098 44.477 c 125.129 44.477 l 125.129 44.836 l
 125.129 44.953 125.242 45.047 125.379 45.047 c 125.516 45.047 125.629 44.953
 125.629 44.836 c 125.629 44.477 l 129.586 44.477 l 129.586 44.836 l 129.586
 44.879 129.602 44.922 129.629 44.957 c 129.676 45.008 129.754 45.047 129.836
 45.047 c 129.977 45.047 130.086 44.953 130.086 44.836 c 130.086 44.477 
l 130.125 44.477 l 130.184 44.477 130.246 44.461 130.289 44.422 c 130.512
 44.254 l 130.578 44.203 130.605 44.125 130.594 44.047 c 130.578 43.973 
130.516 43.914 130.434 43.883 c f
125.063 34.723 m 125.598 34.723 l 125.598 34.375 l 125.598 34.375 126.285
 33.91 127.605 33.91 c 128.93 33.91 129.617 34.375 129.617 34.375 c 129.617
 34.723 l 130.156 34.723 l 130.156 33.91 l 130.539 33.91 l 130.539 33.246
 l 124.68 33.238 l 124.68 33.91 l 125.063 33.91 l 125.063 34.723 l f
129.523 41.238 m 129.523 35.145 l 129.523 35.145 128.586 34.895 127.602
 34.848 c 126.621 34.895 125.695 35.145 125.695 35.145 c 125.695 41.238 
l 129.523 41.238 l f
82.039 8.652 m 82.766 8.609 83.484 8.59 84.168 8.59 c 84.895 8.59 85.578
 8.609 86.258 8.652 c 86.215 8.527 86.203 8.418 86.203 8.246 c 86.203 8.09
 86.215 7.973 86.258 7.871 c 85.293 7.918 83.836 7.953 83.543 7.953 c 83.543
 4.871 l 84.066 4.871 84.598 4.883 85.121 4.891 c 85.406 4.898 85.703 4.922
 86 4.945 c 85.965 4.871 85.941 4.719 85.941 4.559 c 85.941 4.387 85.965
 4.273 86 4.148 c 85.395 4.219 84.121 4.23 83.543 4.23 c 83.543 1.559 l 
84.586 1.559 84.703 1.559 85.121 1.582 c 86.191 1.637 l 86.156 1.547 86.133
 1.387 86.133 1.215 c 86.133 1.082 86.156 0.988 86.191 0.852 c 85.371 0.879
 84.621 0.922 84.098 0.922 c 83.484 0.922 82.598 0.883 82.039 0.852 c 82.121
 1.988 82.145 4.184 82.145 4.664 c 82.145 5.184 82.121 6.57 82.098 7.23 
c 82.086 7.711 82.063 8.176 82.039 8.652 c f
91.48 8.813 m 92.574 8.813 93.813 8.527 94.781 8.016 c 94.758 7.703 94.746
 7.418 94.746 6.98 c 94.746 6.672 94.77 5.48 94.836 5.07 c 94.598 5.121 
94.438 5.148 94.121 5.148 c 93.824 5.148 93.563 5.105 93.313 5.07 c 93.348
 5.633 93.383 6.184 93.383 6.746 c 93.383 6.891 93.383 6.98 93.348 7.777
 c 92.895 8.078 92.266 8.188 91.73 8.188 c 90.695 8.188 90.082 7.688 89.672
 7.152 c 89.141 6.465 88.98 5.641 88.98 4.773 c 88.98 2.629 89.992 1.379
 91.891 1.379 c 93.531 1.379 93.926 2.172 94.063 2.445 c 94.176 2.445 l 
94.52 1.336 l 93.609 0.922 92.789 0.758 91.855 0.758 c 88.82 0.758 87.422
 2.59 87.422 4.883 c 87.422 7.438 89.266 8.813 91.48 8.813 c f
96.695 8.652 m 97.422 8.609 98.137 8.59 98.82 8.59 c 99.547 8.59 100.23
 8.609 100.91 8.652 c 100.867 8.527 100.855 8.418 100.855 8.246 c 100.855
 8.09 100.867 7.973 100.91 7.871 c 99.945 7.918 98.492 7.953 98.195 7.953
 c 98.195 4.871 l 98.719 4.871 99.254 4.883 99.773 4.891 c 100.059 4.898
 100.355 4.922 100.652 4.945 c 100.617 4.871 100.594 4.719 100.594 4.559
 c 100.594 4.387 100.617 4.273 100.652 4.148 c 100.047 4.219 98.773 4.23
 98.195 4.23 c 98.195 1.559 l 99.238 1.559 99.355 1.559 99.773 1.582 c 100.844
 1.637 l 100.809 1.547 100.785 1.387 100.785 1.215 c 100.785 1.082 100.809
 0.988 100.844 0.852 c 100.023 0.879 99.273 0.922 98.75 0.922 c 98.137 0.922
 97.25 0.883 96.695 0.852 c 96.773 1.988 96.797 4.184 96.797 4.664 c 96.797
 5.184 96.773 6.57 96.75 7.23 c 96.738 7.711 96.715 8.176 96.695 8.652 c
 f
103.973 1.465 m 104.145 1.457 104.563 1.414 104.781 1.414 c 105.156 1.414
 105.531 1.465 105.84 1.691 c 106.234 1.988 106.316 2.398 106.316 2.879 
c 106.316 3.621 105.898 4.445 104.758 4.445 c 104.461 4.445 104.191 4.422
 103.973 4.414 c h
103.258 8.59 m 103.543 8.59 103.793 8.633 104.02 8.652 c 104.02 8.359 103.973
 6.891 103.973 6.563 c 103.973 4.945 l 104.246 4.945 l 104.859 5.809 105.566
 6.813 106.145 7.711 c 106.316 7.973 106.566 8.391 106.738 8.652 c 107.078
 8.609 107.215 8.59 107.656 8.59 c 108.066 8.59 108.352 8.625 108.672 8.652
 c 107.953 7.758 107.648 7.355 106.746 6.094 c 106.578 5.855 106.328 5.48
 106.156 5.246 c 105.84 4.789 l 106.871 4.594 107.816 3.945 107.816 2.684
 c 107.816 2.207 107.637 1.738 107.297 1.414 c 106.805 0.941 106.25 0.852
 105.508 0.852 c 105.246 0.852 103.926 0.91 103.633 0.91 c 103.055 0.91 
102.758 0.879 102.496 0.852 c 102.574 2.32 102.574 2.477 102.574 3.969 c
 102.574 6.164 102.563 6.418 102.473 8.652 c 102.723 8.625 102.996 8.59 
103.258 8.59 c f
152.805 2.129 m 152.805 4.23 l 152.805 7.223 152.781 7.473 152.668 8.563
 c 152.859 8.551 153.203 8.496 153.465 8.496 c 153.723 8.496 154.043 8.551
 154.191 8.563 c 154.133 7.758 154.109 6.688 154.109 5.594 c 154.109 4.695
 154.125 1.805 154.238 0.84 c 154.109 0.758 l 153.883 0.91 153.156 1.336
 152.895 1.457 c 151.949 1.914 151.449 2.164 150.621 2.465 c 150.621 2.559
 l 150.871 2.84 150.938 2.914 151.109 3.09 c 151.449 2.922 152.543 2.297
 152.805 2.129 c f
156.48 8.484 m 156.504 8.563 l 156.715 8.527 156.863 8.496 157.059 8.496
 c 157.297 8.496 157.48 8.527 157.672 8.563 c 158.32 7.277 158.945 6.133
 159.652 4.82 c 159.969 4.23 161.496 1.539 161.664 1.336 c 161.664 1.055
 l 159.73 1.055 157.391 1.055 156.547 0.965 c 156.57 1.215 156.605 1.465
 156.605 1.707 c 156.605 1.914 156.594 2.055 156.547 2.34 c 157.879 2.262
 158.23 2.262 158.742 2.262 c 160.301 2.262 l 159.832 3.137 157.445 7.121
 156.762 8.078 c 156.48 8.484 l f
162.441 8.484 m 162.465 8.563 l 162.68 8.527 162.824 8.496 163.02 8.496
 c 163.258 8.496 163.441 8.527 163.633 8.563 c 164.285 7.277 164.906 6.133
 165.613 4.82 c 165.934 4.23 167.457 1.539 167.625 1.336 c 167.625 1.055
 l 165.691 1.055 163.352 1.055 162.508 0.965 c 162.531 1.215 162.566 1.465
 162.566 1.707 c 162.566 1.914 162.555 2.055 162.508 2.34 c 163.84 2.262
 164.191 2.262 164.703 2.262 c 166.262 2.262 l 165.797 3.137 163.406 7.121
 162.723 8.078 c 162.441 8.484 l f
171.188 2.398 m 171.188 5.641 l 168.914 5.641 l h
171.188 6.59 m 171.188 7.711 171.188 7.984 171.098 8.563 c 171.359 8.543
 171.609 8.496 171.871 8.496 c 172.063 8.496 172.246 8.527 172.508 8.563
 c 172.449 7.965 172.449 7.828 172.449 6.59 c 172.77 6.59 173.074 6.605 
173.418 6.621 c 173.371 6.426 173.363 6.344 173.363 6.141 c 173.363 5.914
 173.371 5.82 173.418 5.621 c 172.813 5.641 172.746 5.641 172.449 5.641 
c 172.449 4.637 172.484 1.715 172.52 0.965 c 172.383 1.004 172.223 1.035
 172.02 1.035 c 171.848 1.035 171.645 1.004 171.516 0.965 c 171.371 1.238
 171.313 1.316 170.801 2.039 c 169.164 4.355 l 168.902 4.73 168.652 5.121
 168.379 5.48 c 168.277 5.621 168.094 5.836 168.094 5.914 c 168.094 6.594
 l 168.379 6.59 168.813 6.57 169.164 6.57 c 169.742 6.57 170.336 6.57 171.188
 6.59 c f
Q q
0 63.992 255.113 3 re W n
q
0 63 256 4 re W n
  q
0.0666667 0.247059 0.380392 rg
0 64.828 255.102 1.234 re f
  Q
Q
Q q
0.0666667 0.247059 0.380392 rg
192.461 62.016 3.605 0.223 re f
186.102 62.016 3.605 0.223 re f
175.207 62.02 m 175.207 62.238 l 178.809 62.238 l 178.809 62.016 l 175.207
 62.016 l 175.207 62.02 l f
162.801 62.016 3.605 0.223 re f
156.602 62.02 m 156.602 62.238 l 160.207 62.238 l 160.207 62.016 l 156.602
 62.016 l 156.602 62.02 l f
150.398 62.02 m 150.398 62.238 l 154.004 62.238 l 154.004 62.016 l 150.398
 62.016 l 150.398 62.02 l f
59.152 62.016 3.602 0.223 re f
65.512 62.016 3.605 0.223 re f
76.406 62.016 3.605 0.223 re f
82.609 62.02 m 82.609 62.238 l 86.211 62.238 l 86.211 62.016 l 82.609 62.016
 l 82.609 62.02 l f
88.809 62.02 m 88.809 62.238 l 92.414 62.238 l 92.414 62.016 l 88.809 62.016
 l 88.809 62.02 l f
95.012 62.02 m 95.012 62.238 l 98.617 62.238 l 98.617 62.016 l 95.012 62.016
 l 95.012 62.02 l f
101.211 62.02 m 101.211 62.238 l 104.816 62.238 l 104.816 62.016 l 101.211
 62.016 l 101.211 62.02 l f
107.75 62.008 2.57 0.223 re f
144.898 62.008 2.566 0.223 re f
169.031 62.02 m 169.031 62.238 l 172.637 62.238 l 172.637 62.016 l 169.031
 62.016 l 169.031 62.02 l f
Q q
0 85.992 255.113 1.75 re W n
q
0 85 256 3 re W n
  q
0.0666667 0.247059 0.380392 rg
0 86.473 255.117 1.273 re f
  Q
Q
Q q
0.0666667 0.247059 0.380392 rg
244.434 71.383 m 244.434 71.016 244.742 70.695 245.102 70.695 c 245.465
 70.695 245.785 71.016 245.785 71.383 c 245.785 71.75 245.453 72.051 245.102
 72.051 c 244.754 72.051 244.434 71.75 244.434 71.383 c f
246.547 71.383 m 246.547 71.016 246.855 70.695 247.219 70.695 c 247.578
 70.695 247.898 71.016 247.898 71.383 c 247.898 71.75 247.566 72.051 247.219
 72.051 c 246.867 72.051 246.547 71.75 246.547 71.383 c f
77.973 76.215 m 78.547 76.215 79.813 76.195 80.41 76.133 c 80.379 76.258
 80.355 76.371 80.355 76.539 c 80.355 76.691 80.379 76.84 80.41 76.922 c
 80.117 76.898 79.824 76.879 79.543 76.863 c 79.023 76.852 78.492 76.84 
77.973 76.84 c 77.973 79.898 l 78.266 79.898 79.711 79.871 80.672 79.82 
c 80.625 79.922 80.613 80.039 80.613 80.195 c 80.613 80.363 80.625 80.477
 80.672 80.602 c 79.992 80.555 79.316 80.535 78.594 80.535 c 77.914 80.535
 77.203 80.555 76.48 80.602 c 76.504 80.129 76.527 79.664 76.539 79.188 
c 76.559 78.535 76.582 77.16 76.582 76.637 c 76.582 76.168 76.559 73.984
 76.48 72.855 c 77.035 72.887 77.914 72.922 78.523 72.922 c 79.043 72.922
 79.789 72.883 80.602 72.855 c 80.566 72.996 80.547 73.082 80.547 73.215
 c 80.547 73.387 80.566 73.547 80.602 73.633 c 79.543 73.582 l 79.125 73.555
 79.012 73.555 77.973 73.555 c 77.973 76.215 l f
82.074 78.91 m 82.59 80.039 83.156 80.211 83.82 80.211 c 84.715 80.211 
85.301 79.605 85.301 78.797 c 85.301 77.902 84.59 77.59 84.375 77.5 c 84.059
 77.359 83.527 77.16 83.211 77.023 c 82.117 76.539 81.789 75.965 81.789 
75.023 c 81.789 74.027 82.375 72.766 84.418 72.766 c 85.246 72.766 85.742
 72.98 86.293 73.227 c 86.07 73.785 86.047 73.875 85.945 74.301 c 85.785
 74.301 l 85.617 73.66 85.02 73.316 84.309 73.316 c 83.418 73.316 82.977
 73.875 82.977 74.543 c 82.977 75.359 83.551 75.59 84.547 75.973 c 85.414
 76.309 85.754 76.434 86.078 76.797 c 86.555 77.305 86.633 77.969 86.633
 78.289 c 86.633 79.438 85.832 80.758 83.766 80.758 c 82.793 80.758 82.059
 80.387 81.656 80.184 c 81.848 79.598 81.855 79.453 81.914 78.91 c 82.074
 78.91 l f
87.234 80.238 m 87.48 79.891 88.621 78.352 88.848 78.039 c 89.367 77.258
 91.129 74.605 91.703 73.613 c 90.441 73.613 89.094 73.625 87.707 73.734
 c 87.719 73.598 87.742 73.441 87.742 73.297 c 87.742 73.113 87.73 73.004
 87.707 72.855 c 88.578 72.934 89.422 72.922 90.742 72.922 c 92.461 72.922
 93.172 72.902 93.793 72.855 c 93.805 72.934 93.813 72.996 93.813 73.047
 c 93.813 73.137 93.793 73.164 93.656 73.352 c 93.082 74.152 l 92.664 74.746
 92.031 75.676 91.523 76.445 c 90.527 77.934 l 89.965 78.785 89.605 79.348
 89.309 79.844 c 90.395 79.844 l 90.914 79.844 91.852 79.82 92.484 79.766
 c 92.91 79.73 93.34 79.711 93.77 79.684 c 93.75 79.82 93.715 79.945 93.715
 80.148 c 93.715 80.316 93.734 80.488 93.77 80.602 c 93.434 80.59 92.699
 80.535 90.496 80.535 c 88.949 80.535 88.371 80.535 87.234 80.602 c 87.234
 80.238 l f
97.836 79.055 m 97.836 79.918 97.883 80.289 97.914 80.602 c 97.586 80.566
 97.227 80.535 97.09 80.535 c 96.898 80.535 96.73 80.555 96.32 80.602 c 
96.367 79.746 96.434 78.875 96.434 78.016 c 96.426 74.863 l 96.426 74.445
 96.414 74.051 96.402 73.613 c 95.84 73.613 l 95.738 73.613 94.652 73.633
 94.074 73.691 c 94.109 73.555 94.133 73.414 94.133 73.273 c 94.133 73.137
 94.109 72.996 94.074 72.855 c 94.969 72.914 96.219 72.922 97.09 72.922 
c 98.027 72.922 99.02 72.914 100.105 72.855 c 100.07 73.047 100.047 73.195
 100.047 73.285 c 100.047 73.414 100.07 73.512 100.105 73.691 c 99.438 73.625
 98.637 73.613 97.859 73.613 c 97.848 74.016 97.836 74.445 97.836 74.879
 c 97.836 79.055 l f
102.094 76.215 m 102.672 76.215 103.938 76.195 104.535 76.133 c 104.5 76.258
 104.477 76.371 104.477 76.539 c 104.477 76.691 104.5 76.84 104.535 76.922
 c 104.238 76.898 103.945 76.879 103.664 76.863 c 103.145 76.852 102.613
 76.84 102.094 76.84 c 102.094 79.898 l 102.391 79.898 103.832 79.871 104.793
 79.82 c 104.75 79.922 104.734 80.039 104.734 80.195 c 104.734 80.363 104.75
 80.477 104.793 80.602 c 104.117 80.555 103.438 80.535 102.715 80.535 c 
102.039 80.535 101.324 80.555 100.605 80.602 c 100.629 80.129 100.648 79.664
 100.66 79.188 c 100.684 78.535 100.707 77.16 100.707 76.637 c 100.707 76.168
 100.684 73.984 100.605 72.855 c 101.156 72.887 102.039 72.922 102.648 72.922
 c 103.168 72.922 103.914 72.883 104.727 72.855 c 104.691 72.996 104.672
 73.082 104.672 73.215 c 104.672 73.387 104.691 73.547 104.727 73.633 c 
103.664 73.582 l 103.246 73.555 103.133 73.555 102.094 73.555 c 102.094 
76.215 l f
107.18 76.391 m 107.391 76.398 107.66 76.422 107.957 76.422 c 109.086 76.422
 109.504 75.598 109.504 74.863 c 109.504 74.391 109.426 73.984 109.027 73.691
 c 108.727 73.465 108.352 73.414 107.977 73.414 c 107.766 73.414 107.348
 73.457 107.18 73.465 c h
109.344 77.215 m 109.516 77.453 109.762 77.82 109.934 78.059 c 110.824 
79.313 111.129 79.711 111.84 80.602 c 111.523 80.566 111.242 80.535 110.836
 80.535 c 110.395 80.535 110.258 80.555 109.922 80.602 c 109.754 80.34 109.504
 79.922 109.336 79.664 c 108.758 78.77 108.059 77.777 107.449 76.922 c 107.18
 76.922 l 107.18 78.523 l 107.18 78.848 107.223 80.309 107.223 80.602 c 
106.996 80.582 106.75 80.535 106.469 80.535 c 106.207 80.535 105.938 80.566
 105.688 80.602 c 105.777 78.379 105.789 78.133 105.789 75.953 c 105.789
 74.469 105.789 74.313 105.711 72.855 c 105.969 72.883 106.266 72.914 106.84
 72.914 c 107.133 72.914 108.441 72.855 108.703 72.855 c 109.438 72.855 
109.988 72.945 110.473 73.414 c 110.813 73.734 110.992 74.203 110.992 74.672
 c 110.992 75.926 110.059 76.57 109.027 76.762 c 109.344 77.215 l f
117.938 76.797 m 117.328 76.773 116.719 76.754 116.109 76.754 c 115.469
 76.754 114.82 76.773 114.18 76.797 c 114.18 77.926 l 114.18 79.383 114.223
 79.891 114.281 80.602 c 114.109 80.59 113.816 80.535 113.5 80.535 c 113.23
 80.535 112.973 80.582 112.699 80.602 c 112.789 78.883 112.801 77.18 112.801
 75.465 c 112.801 74.586 112.766 73.723 112.688 72.855 c 112.914 72.883 
113.32 72.922 113.5 72.922 c 113.715 72.922 114.133 72.883 114.281 72.855
 c 114.223 73.477 114.18 73.965 114.18 76.078 c 114.742 76.094 115.316 76.121
 115.883 76.121 c 116.574 76.121 117.25 76.094 117.938 76.078 c 117.938 
75.777 117.93 74.414 117.914 74.133 c 117.914 73.785 117.906 73.691 117.859
 72.855 c 118.074 72.883 118.434 72.922 118.684 72.922 c 118.887 72.922 
119.262 72.883 119.473 72.855 c 119.328 74.027 119.316 76.762 119.316 77.934
 c 119.316 78.832 119.316 79.789 119.43 80.602 c 119.156 80.582 118.875 
80.535 118.605 80.535 c 118.367 80.535 118.074 80.582 117.836 80.602 c 117.848
 80.395 117.93 79.035 117.93 78.613 c 117.938 76.797 l f
123.641 72.359 m 123.066 72.359 l 124.656 70.641 l 124.805 70.484 124.996
 70.34 125.199 70.34 c 125.484 70.34 125.73 70.52 125.73 70.801 c 125.73
 71.047 125.57 71.164 125.492 71.219 c h
123.598 74.672 m 122.445 77.453 l 122.84 77.465 123.227 77.5 123.621 77.5
 c 123.969 77.5 124.309 77.473 124.656 77.453 c h
125.461 79.348 m 124.984 78.148 l 124.5 78.133 124.023 78.105 123.539 78.105
 c 123.09 78.105 122.637 78.133 122.184 78.148 c 121.824 79.02 121.465 79.961
 121.281 80.602 c 121.133 80.582 120.922 80.535 120.738 80.535 c 120.551
 80.535 120.391 80.582 120.234 80.602 c 121.543 77.688 l 122.68 75.137 123.336
 73.672 123.609 72.746 c 123.73 72.777 123.844 72.797 123.98 72.797 c 124.105
 72.797 124.219 72.777 124.34 72.746 c 124.883 74.293 125.563 75.875 125.969
 76.82 c 126.398 77.801 127.141 79.508 127.648 80.602 c 127.48 80.59 127.086
 80.535 126.77 80.535 c 126.453 80.535 126.137 80.59 125.934 80.602 c 125.461
 79.348 l f
127.867 80.238 m 128.113 79.891 129.254 78.352 129.48 78.039 c 130 77.258
 131.762 74.605 132.336 73.613 c 131.07 73.613 129.73 73.625 128.34 73.734
 c 128.352 73.598 128.371 73.441 128.371 73.297 c 128.371 73.113 128.363
 73.004 128.34 72.855 c 129.207 72.934 130.055 72.922 131.379 72.922 c 133.094
 72.922 133.805 72.902 134.426 72.855 c 134.438 72.934 134.449 72.996 134.449
 73.047 c 134.449 73.137 134.426 73.164 134.293 73.352 c 133.715 74.152 
l 133.297 74.746 132.664 75.676 132.156 76.445 c 131.16 77.934 l 130.598
 78.785 130.234 79.348 129.941 79.844 c 131.027 79.844 l 131.547 79.844 
132.484 79.82 133.117 79.766 c 133.543 79.73 133.977 79.711 134.402 79.684
 c 134.379 79.82 134.348 79.945 134.348 80.148 c 134.348 80.316 134.371 
80.488 134.402 80.602 c 134.063 80.59 133.328 80.535 131.129 80.535 c 129.582
 80.535 129.004 80.535 127.867 80.602 c 127.867 80.238 l f
138.648 77.996 m 138.648 78.941 138.684 79.551 138.727 80.602 c 138.469
 80.582 138.207 80.535 137.949 80.535 c 137.723 80.535 137.406 80.582 137.195
 80.602 c 137.227 79.719 137.262 78.238 137.262 77.543 c 136.594 76.391 
l 136.02 75.395 135.059 73.84 134.473 72.855 c 134.891 72.902 135.148 72.922
 135.398 72.922 c 135.668 72.922 135.996 72.914 136.324 72.855 c 136.91 
74.098 137.34 74.988 138.301 76.672 c 139.258 75.023 139.438 74.641 140.25
 72.855 c 140.434 72.887 140.66 72.922 140.906 72.922 c 141.133 72.922 141.258
 72.902 141.383 72.855 c 141.215 73.164 140.387 74.469 140.219 74.746 c 
139.711 75.555 139.27 76.398 138.797 77.215 c 138.719 77.348 138.648 77.473
 138.648 77.578 c 138.648 77.996 l f
145.043 72.855 m 145.301 72.883 145.594 72.922 145.832 72.922 c 146.078
 72.922 146.363 72.887 146.621 72.855 c 146.543 73.414 146.543 74.23 146.531
 74.641 c 146.52 75.207 146.52 75.848 146.52 76.434 c 147.355 75.703 147.809
 75.227 148.453 74.523 c 148.949 73.984 149.559 73.332 149.895 72.855 c 
150.023 72.902 150.234 72.922 150.426 72.922 c 150.617 72.922 150.844 72.914
 151.184 72.855 c 150.605 73.34 149.816 74.098 149.344 74.559 c 148.777 
75.113 148.598 75.285 147.773 76.188 c 148.371 76.977 l 148.949 77.734 150.574
 79.883 151.363 80.602 c 150.836 80.535 150.574 80.535 150.359 80.535 c 
150.09 80.535 149.727 80.582 149.398 80.602 c 148.598 79.473 147.719 78.23
 146.52 76.91 c 146.52 78.148 146.52 79.402 146.621 80.602 c 146.43 80.59
 146.102 80.535 145.832 80.535 c 145.594 80.535 145.277 80.59 145.043 80.602
 c 145.145 78.691 145.145 78.566 145.145 75.465 c 145.145 74.176 145.133
 73.984 145.043 72.855 c f
154.867 72.359 m 154.289 72.359 l 155.883 70.641 l 156.027 70.484 156.219
 70.34 156.422 70.34 c 156.707 70.34 156.953 70.52 156.953 70.801 c 156.953
 71.047 156.797 71.164 156.715 71.219 c h
154.82 74.672 m 153.668 77.453 l 154.063 77.465 154.449 77.5 154.844 77.5
 c 155.191 77.5 155.531 77.473 155.883 77.453 c h
156.684 79.348 m 156.211 78.148 l 155.723 78.133 155.25 78.105 154.766 
78.105 c 154.313 78.105 153.859 78.133 153.41 78.148 c 153.047 79.02 152.688
 79.961 152.504 80.602 c 152.359 80.582 152.145 80.535 151.965 80.535 c 
151.773 80.535 151.613 80.582 151.457 80.602 c 152.766 77.688 l 153.906 
75.137 154.559 73.672 154.832 72.746 c 154.957 72.777 155.07 72.797 155.203
 72.797 c 155.328 72.797 155.441 72.777 155.566 72.746 c 156.109 74.293 
156.785 75.875 157.191 76.82 c 157.621 77.801 158.367 79.508 158.875 80.602
 c 158.703 80.59 158.309 80.535 157.992 80.535 c 157.676 80.535 157.363 
80.59 157.156 80.602 c 156.684 79.348 l f
161.234 76.391 m 161.449 76.398 161.719 76.422 162.012 76.422 c 163.141
 76.422 163.559 75.598 163.559 74.863 c 163.559 74.391 163.48 73.984 163.086
 73.691 c 162.781 73.465 162.41 73.414 162.035 73.414 c 161.82 73.414 161.402
 73.457 161.234 73.465 c h
163.402 77.215 m 163.57 77.453 163.82 77.82 163.988 78.059 c 164.883 79.313
 165.188 79.711 165.898 80.602 c 165.582 80.566 165.301 80.535 164.891 80.535
 c 164.453 80.535 164.316 80.555 163.977 80.602 c 163.809 80.34 163.559 
79.922 163.391 79.664 c 162.816 78.77 162.113 77.777 161.504 76.922 c 161.234
 76.922 l 161.234 78.523 l 161.234 78.848 161.277 80.309 161.277 80.602 
c 161.055 80.582 160.805 80.535 160.523 80.535 c 160.262 80.535 159.992 
80.566 159.746 80.602 c 159.832 78.379 159.848 78.133 159.848 75.953 c 159.848
 74.469 159.848 74.313 159.766 72.855 c 160.027 72.883 160.32 72.914 160.895
 72.914 c 161.191 72.914 162.5 72.855 162.758 72.855 c 163.492 72.855 164.047
 72.945 164.531 73.414 c 164.871 73.734 165.051 74.203 165.051 74.672 c 
165.051 75.926 164.113 76.57 163.086 76.762 c 163.402 77.215 l f
169.988 80.184 m 171.906 80.184 172.652 78.379 172.652 76.762 c 172.652
 74.922 171.965 73.34 169.988 73.34 c 168.047 73.34 167.32 75.215 167.32
 76.762 c 167.32 78.445 168.047 80.184 169.988 80.184 c h
174.199 76.629 m 174.199 79.145 172.492 80.758 169.988 80.758 c 167.637
 80.758 165.773 79.371 165.773 76.898 c 165.773 74.027 167.742 72.766 170.02
 72.766 c 172.133 72.766 174.199 73.918 174.199 76.629 c f
175.25 75.938 m 175.25 75.441 175.25 75.332 175.219 74.328 c 175.207 74.09
 175.184 73.07 175.172 72.855 c 175.453 72.914 175.672 72.922 175.949 72.922
 c 176.234 72.922 176.461 72.902 176.742 72.855 c 176.664 74.559 176.629
 75.98 176.629 77.719 c 176.629 78.512 176.652 79.25 176.664 79.871 c 176.867
 79.871 l 177.195 79.871 178.82 79.871 179.484 79.766 c 179.453 79.891 179.43
 79.961 179.43 80.215 c 179.43 80.387 179.438 80.457 179.484 80.602 c 178.91
 80.582 177.938 80.535 177.328 80.535 c 176.605 80.535 175.996 80.555 175.172
 80.602 c 175.172 80.422 175.25 77.801 175.25 77.52 c 175.25 75.938 l f
182.863 77.996 m 182.863 78.941 182.895 79.551 182.941 80.602 c 182.68 
80.582 182.422 80.535 182.16 80.535 c 181.938 80.535 181.621 80.582 181.406
 80.602 c 181.441 79.719 181.473 78.238 181.473 77.543 c 180.809 76.391 
l 180.23 75.395 179.27 73.84 178.688 72.855 c 179.102 72.902 179.363 72.922
 179.609 72.922 c 179.883 72.922 180.211 72.914 180.535 72.855 c 181.125
 74.098 181.551 74.988 182.512 76.672 c 183.469 75.023 183.652 74.641 184.465
 72.855 c 184.645 72.887 184.871 72.922 185.121 72.922 c 185.348 72.922 
185.469 72.902 185.594 72.855 c 185.426 73.164 184.602 74.469 184.434 74.746
 c 183.922 75.555 183.484 76.398 183.008 77.215 c 182.93 77.348 182.863 
77.473 182.863 77.578 c 182.863 77.996 l f
Q q
0 71.992 6.992 9 re W n
q
0 71 7 10 re W n
  q
0.0666667 0.247059 0.380392 rg
0 72.855 m 0.258 72.883 0.555 72.922 0.789 72.922 c 1.039 72.922 1.32 72.887
 1.582 72.855 c 1.504 73.414 1.504 74.23 1.488 74.641 c 1.48 75.207 1.48
 75.848 1.48 76.434 c 2.316 75.703 2.766 75.227 3.41 74.523 c 3.906 73.984
 4.516 73.332 4.855 72.855 c 4.977 72.902 5.191 72.922 5.387 72.922 c 5.578
 72.922 5.805 72.914 6.141 72.855 c 5.566 73.34 4.773 74.098 4.301 74.559
 c 3.738 75.113 3.555 75.285 2.73 76.188 c 3.328 76.977 l 3.906 77.734 5.531
 79.883 6.324 80.602 c 5.789 80.535 5.531 80.535 5.316 80.535 c 5.047 80.535
 4.684 80.582 4.359 80.602 c 3.555 79.473 2.676 78.23 1.48 76.91 c 1.48 
78.148 1.48 79.402 1.582 80.602 c 1.387 80.59 1.063 80.535 0.789 80.535 
c 0.555 80.535 0.238 80.59 0 80.602 c 0.102 78.691 0.102 78.566 0.102 75.465
 c 0.102 74.176 0.09 73.984 0 72.855 c f
  Q
Q
Q q
0.0666667 0.247059 0.380392 rg
9.777 74.672 m 8.625 77.453 l 9.023 77.465 9.406 77.5 9.801 77.5 c 10.152
 77.5 10.492 77.473 10.84 77.453 c h
11.641 79.348 m 11.168 78.148 l 10.684 78.133 10.207 78.105 9.723 78.105
 c 9.27 78.105 8.82 78.133 8.367 78.148 c 8.008 79.02 7.645 79.961 7.465
 80.602 c 7.316 80.582 7.102 80.535 6.922 80.535 c 6.73 80.535 6.57 80.582
 6.414 80.602 c 7.723 77.688 l 8.863 75.137 9.52 73.672 9.789 72.746 c 9.914
 72.777 10.027 72.797 10.164 72.797 c 10.289 72.797 10.398 72.777 10.523
 72.746 c 11.066 74.293 11.742 75.875 12.148 76.82 c 12.578 77.801 13.324
 79.508 13.832 80.602 c 13.66 80.59 13.266 80.535 12.949 80.535 c 12.637
 80.535 12.316 80.59 12.117 80.602 c 11.641 79.348 l f
16.793 79.055 m 16.793 79.918 16.836 80.289 16.871 80.602 c 16.543 80.566
 16.184 80.535 16.047 80.535 c 15.852 80.535 15.688 80.555 15.277 80.602
 c 15.324 79.746 15.391 78.875 15.391 78.016 c 15.379 74.863 l 15.379 74.445
 15.371 74.051 15.355 73.613 c 14.793 73.613 l 14.691 73.613 13.605 73.633
 13.031 73.691 c 13.066 73.555 13.09 73.414 13.09 73.273 c 13.09 73.137 
13.066 72.996 13.031 72.855 c 13.926 72.914 15.176 72.922 16.047 72.922 
c 16.984 72.922 17.977 72.914 19.059 72.855 c 19.027 73.047 19.004 73.195
 19.004 73.285 c 19.004 73.414 19.027 73.512 19.059 73.691 c 18.395 73.625
 17.594 73.613 16.816 73.613 c 16.801 74.016 16.793 74.445 16.793 74.879
 c 16.793 79.055 l f
25.328 76.797 m 24.719 76.773 24.109 76.754 23.5 76.754 c 22.855 76.754
 22.215 76.773 21.566 76.797 c 21.566 77.926 l 21.566 79.383 21.613 79.891
 21.672 80.602 c 21.5 80.59 21.207 80.535 20.891 80.535 c 20.621 80.535 
20.359 80.582 20.09 80.602 c 20.18 78.883 20.191 77.18 20.191 75.465 c 20.191
 74.586 20.156 73.723 20.078 72.855 c 20.305 72.883 20.711 72.922 20.891
 72.922 c 21.105 72.922 21.523 72.883 21.672 72.855 c 21.613 73.477 21.566
 73.965 21.566 76.078 c 22.133 76.094 22.711 76.121 23.273 76.121 c 23.961
 76.121 24.637 76.094 25.328 76.078 c 25.328 75.777 25.316 74.414 25.309
 74.133 c 25.309 73.785 25.293 73.691 25.25 72.855 c 25.465 72.883 25.824
 72.922 26.074 72.922 c 26.277 72.922 26.648 72.883 26.863 72.855 c 26.715
 74.027 26.707 76.762 26.707 77.934 c 26.707 78.832 26.707 79.789 26.82 
80.602 c 26.547 80.582 26.266 80.535 25.996 80.535 c 25.758 80.535 25.465
 80.582 25.227 80.602 c 25.238 80.395 25.316 79.035 25.316 78.613 c 25.328
 76.797 l f
31.945 80.184 m 33.867 80.184 34.613 78.379 34.613 76.762 c 34.613 74.922
 33.922 73.34 31.945 73.34 c 30.004 73.34 29.281 75.215 29.281 76.762 c 
29.281 78.445 30.004 80.184 31.945 80.184 c h
36.16 76.629 m 36.16 79.145 34.453 80.758 31.945 80.758 c 29.598 80.758
 27.734 79.371 27.734 76.898 c 27.734 74.027 29.699 72.766 31.98 72.766 
c 34.094 72.766 36.16 73.918 36.16 76.629 c f
37.211 75.938 m 37.211 75.441 37.211 75.332 37.176 74.328 c 37.168 74.09
 37.145 73.07 37.133 72.855 c 37.414 72.914 37.629 72.922 37.91 72.922 c
 38.195 72.922 38.418 72.902 38.699 72.855 c 38.621 74.559 38.59 75.98 38.59
 77.719 c 38.59 78.512 38.613 79.25 38.621 79.871 c 38.828 79.871 l 39.152
 79.871 40.777 79.871 41.445 79.766 c 41.41 79.891 41.391 79.961 41.391 
80.215 c 41.391 80.387 41.398 80.457 41.445 80.602 c 40.871 80.582 39.898
 80.535 39.289 80.535 c 38.566 80.535 37.957 80.555 37.133 80.602 c 37.133
 80.422 37.211 77.801 37.211 77.52 c 37.211 75.938 l f
42.734 72.855 m 42.949 72.883 43.367 72.922 43.535 72.922 c 43.785 72.922
 44.066 72.887 44.336 72.855 c 44.211 73.691 44.211 75.645 44.211 76.789
 c 44.211 78.465 44.234 79.684 44.328 80.602 c 44.066 80.59 43.793 80.535
 43.535 80.535 c 43.285 80.535 42.969 80.59 42.723 80.602 c 42.848 79.258
 42.848 77.395 42.848 75.465 c 42.848 74.754 42.848 73.953 42.734 72.855
 c f
46.191 78.91 m 46.707 80.039 47.273 80.211 47.941 80.211 c 48.832 80.211
 49.418 79.605 49.418 78.797 c 49.418 77.902 48.707 77.59 48.492 77.5 c 
48.176 77.359 47.645 77.16 47.328 77.023 c 46.234 76.539 45.906 75.965 45.906
 75.023 c 45.906 74.027 46.492 72.766 48.535 72.766 c 49.363 72.766 49.859
 72.98 50.414 73.227 c 50.184 73.785 50.164 73.875 50.063 74.301 c 49.902
 74.301 l 49.734 73.66 49.137 73.316 48.426 73.316 c 47.531 73.316 47.09
 73.875 47.09 74.543 c 47.09 75.359 47.668 75.59 48.66 75.973 c 49.531 76.309
 49.871 76.434 50.199 76.797 c 50.672 77.305 50.75 77.969 50.75 78.289 c
 50.75 79.438 49.949 80.758 47.883 80.758 c 46.91 80.758 46.176 80.387 45.773
 80.184 c 45.961 79.598 45.977 79.453 46.031 78.91 c 46.191 78.91 l f
58.543 74.434 m 58.43 74.434 l 58.293 74.168 57.898 73.379 56.273 73.379
 c 54.387 73.379 53.383 74.621 53.383 76.754 c 53.383 77.145 53.383 78.195
 54.07 79.109 c 54.477 79.641 55.086 80.137 56.113 80.137 c 57.504 80.137
 58.215 79.453 58.723 78.848 c 58.848 78.93 l 58.723 80.047 l 57.863 80.52
 56.895 80.758 55.867 80.758 c 53.664 80.758 51.836 79.391 51.836 76.852
 c 51.836 74.586 53.223 72.766 56.238 72.766 c 57.164 72.766 57.977 72.922
 58.883 73.332 c 58.543 74.434 l f
65.316 76.797 m 64.707 76.773 64.098 76.754 63.488 76.754 c 62.844 76.754
 62.203 76.773 61.559 76.797 c 61.559 77.926 l 61.559 79.383 61.605 79.891
 61.66 80.602 c 61.488 80.59 61.195 80.535 60.879 80.535 c 60.609 80.535
 60.352 80.582 60.078 80.602 c 60.168 78.883 60.18 77.18 60.18 75.465 c 
60.18 74.586 60.145 73.723 60.066 72.855 c 60.293 72.883 60.699 72.922 60.879
 72.922 c 61.094 72.922 61.512 72.883 61.66 72.855 c 61.605 73.477 61.559
 73.965 61.559 76.078 c 62.121 76.094 62.699 76.121 63.262 76.121 c 63.949
 76.121 64.629 76.094 65.316 76.078 c 65.316 75.777 65.309 74.414 65.293
 74.133 c 65.293 73.785 65.285 73.691 65.238 72.855 c 65.453 72.883 65.813
 72.922 66.063 72.922 c 66.266 72.922 66.641 72.883 66.855 72.855 c 66.707
 74.027 66.695 76.762 66.695 77.934 c 66.695 78.832 66.695 79.789 66.809
 80.602 c 66.539 80.582 66.254 80.535 65.984 80.535 c 65.746 80.535 65.453
 80.582 65.215 80.602 c 65.227 80.395 65.309 79.035 65.309 78.613 c 65.316
 76.797 l f
70.094 76.215 m 70.672 76.215 71.938 76.195 72.535 76.133 c 72.5 76.258
 72.477 76.371 72.477 76.539 c 72.477 76.691 72.5 76.84 72.535 76.922 c 
72.238 76.898 71.945 76.879 71.664 76.863 c 71.145 76.852 70.613 76.84 70.094
 76.84 c 70.094 79.898 l 70.391 79.898 71.836 79.871 72.793 79.82 c 72.75
 79.922 72.738 80.039 72.738 80.195 c 72.738 80.363 72.75 80.477 72.793 
80.602 c 72.117 80.555 71.438 80.535 70.715 80.535 c 70.039 80.535 69.328
 80.555 68.605 80.602 c 68.629 80.129 68.648 79.664 68.66 79.188 c 68.684
 78.535 68.707 77.16 68.707 76.637 c 68.707 76.168 68.684 73.984 68.605 
72.855 c 69.16 72.887 70.039 72.922 70.648 72.922 c 71.168 72.922 71.914
 72.883 72.727 72.855 c 72.691 72.996 72.668 73.082 72.668 73.215 c 72.668
 73.387 72.691 73.547 72.727 73.633 c 71.664 73.582 l 71.246 73.555 71.133
 73.555 70.094 73.555 c 70.094 76.215 l f
190.797 73.715 m 190.766 74.57 190.766 75.66 190.766 76.629 c 190.766 78.422
 190.789 78.832 191.117 79.266 c 191.441 79.711 192.051 79.961 192.844 79.961
 c 193.758 79.961 194.48 79.48 194.73 78.797 c 194.82 78.547 194.875 78.195
 194.875 77.27 c 194.875 75.801 194.863 74.328 194.773 72.855 c 194.934 
72.883 195.102 72.922 195.281 72.922 c 195.461 72.922 195.645 72.883 195.813
 72.855 c 195.777 73.395 l 195.723 74.371 195.688 76.691 195.664 77.836 
c 195.645 79.168 195.258 79.777 194.512 80.254 c 193.984 80.59 193.227 80.734
 192.617 80.734 c 191.262 80.734 189.637 80.309 189.391 78.555 c 189.367
 78.398 189.367 78.059 189.367 77.961 c 189.367 74.887 l 189.367 74.313 
189.344 73.43 189.309 72.855 c 189.57 72.887 189.852 72.922 190.102 72.922
 c 190.348 72.922 190.605 72.887 190.836 72.855 c 190.797 73.715 l f
197.023 76.027 m 197.023 74.965 197.012 73.91 197 72.855 c 197.094 72.863
 197.18 72.883 197.273 72.883 c 197.363 72.883 197.441 72.863 197.531 72.855
 c 198.605 74.043 199.609 75.09 200.977 76.422 c 202.309 77.734 l 202.523
 77.934 202.625 78.016 202.871 78.219 c 202.871 75.715 l 202.871 74.754 
202.816 73.785 202.738 72.855 c 202.871 72.887 203.02 72.922 203.223 72.922
 c 203.426 72.922 203.563 72.887 203.695 72.855 c 203.594 74.223 203.574
 75.023 203.574 76.672 c 203.574 77.328 203.582 78.953 203.582 79.543 c 
203.582 79.789 203.594 80.379 203.594 80.66 c 203.516 80.648 203.438 80.633
 203.367 80.633 c 203.289 80.633 203.211 80.648 203.133 80.66 c 201.699 
79.098 198.922 76.336 197.723 75.238 c 197.723 76.773 197.734 77.598 197.758
 78.797 c 197.77 79.453 197.781 79.563 197.859 80.602 c 197.734 80.59 197.512
 80.535 197.352 80.535 c 197.18 80.535 197.035 80.566 196.898 80.602 c 196.988
 79.035 l 197.012 78.727 197.023 77.883 197.023 77.563 c 197.023 76.027 
l f
205.504 72.855 m 205.719 72.883 206.137 72.922 206.305 72.922 c 206.555
 72.922 206.836 72.887 207.109 72.855 c 206.984 73.691 206.984 75.645 206.984
 76.789 c 206.984 78.465 207.004 79.684 207.094 80.602 c 206.836 80.59 206.566
 80.535 206.305 80.535 c 206.059 80.535 205.742 80.59 205.492 80.602 c 205.617
 79.258 205.617 77.395 205.617 75.465 c 205.617 74.754 205.617 73.953 205.504
 72.855 c f
212.391 77.703 m 212.492 77.438 213.758 74.293 214.199 72.855 c 214.449
 72.902 214.594 72.922 214.719 72.922 c 214.852 72.922 215.012 72.902 215.262
 72.855 c 214.766 73.84 214.086 75.41 213.645 76.445 c 213.07 77.813 212.527
 79.203 212.031 80.602 c 211.895 80.566 211.816 80.535 211.613 80.535 c 
211.34 80.535 211.254 80.566 211.094 80.602 c 210.586 79.16 210.527 78.953
 209.75 77.09 c 209.578 76.684 208.859 74.898 208.711 74.547 c 208.598 74.277
 208.078 73.094 207.977 72.855 c 208.246 72.914 208.609 72.922 208.891 72.922
 c 209.152 72.922 209.445 72.887 209.727 72.855 c 210.055 73.973 210.258
 74.57 211.184 76.965 c 211.418 77.578 211.703 78.164 211.965 78.762 c 212.391
 77.703 l f
217.508 76.215 m 218.082 76.215 219.348 76.195 219.945 76.133 c 219.91 
76.258 219.887 76.371 219.887 76.539 c 219.887 76.691 219.91 76.84 219.945
 76.922 c 219.652 76.898 219.359 76.879 219.074 76.863 c 218.559 76.852 
218.027 76.84 217.508 76.84 c 217.508 79.898 l 217.801 79.898 219.246 79.871
 220.203 79.82 c 220.16 79.922 220.148 80.039 220.148 80.195 c 220.148 80.363
 220.16 80.477 220.203 80.602 c 219.527 80.555 218.852 80.535 218.129 80.535
 c 217.449 80.535 216.738 80.555 216.016 80.602 c 216.039 80.129 216.063
 79.664 216.074 79.188 c 216.098 78.535 216.117 77.16 216.117 76.637 c 216.117
 76.168 216.098 73.984 216.016 72.855 c 216.57 72.887 217.449 72.922 218.063
 72.922 c 218.578 72.922 219.324 72.883 220.137 72.855 c 220.105 72.996 
220.082 73.082 220.082 73.215 c 220.082 73.387 220.105 73.547 220.137 73.633
 c 219.074 73.582 l 218.656 73.555 218.547 73.555 217.508 73.555 c 217.508
 76.215 l f
223.133 76.391 m 223.344 76.398 223.617 76.422 223.91 76.422 c 225.039 
76.422 225.457 75.598 225.457 74.863 c 225.457 74.391 225.379 73.984 224.984
 73.691 c 224.68 73.465 224.305 73.414 223.934 73.414 c 223.719 73.414 223.301
 73.457 223.133 73.465 c h
225.297 77.215 m 225.469 77.453 225.719 77.82 225.887 78.059 c 226.777 
79.313 227.082 79.711 227.797 80.602 c 227.48 80.566 227.195 80.535 226.789
 80.535 c 226.352 80.535 226.215 80.555 225.875 80.602 c 225.703 80.34 225.457
 79.922 225.285 79.664 c 224.711 78.77 224.012 77.777 223.402 76.922 c 223.133
 76.922 l 223.133 78.523 l 223.133 78.848 223.176 80.309 223.176 80.602 
c 222.949 80.582 222.703 80.535 222.422 80.535 c 222.16 80.535 221.891 80.566
 221.641 80.602 c 221.73 78.379 221.742 78.133 221.742 75.953 c 221.742 
74.469 221.742 74.313 221.664 72.855 c 221.922 72.883 222.215 72.914 222.793
 72.914 c 223.086 72.914 224.395 72.855 224.656 72.855 c 225.391 72.855 
225.941 72.945 226.43 73.414 c 226.766 73.734 226.945 74.203 226.945 74.672
 c 226.945 75.926 226.012 76.57 224.984 76.762 c 225.297 77.215 l f
234.563 72.855 m 234.777 72.883 235.195 72.922 235.363 72.922 c 235.613
 72.922 235.895 72.887 236.164 72.855 c 236.043 73.691 236.043 75.645 236.043
 76.789 c 236.043 78.465 236.066 79.684 236.152 80.602 c 235.895 80.59 235.625
 80.535 235.363 80.535 c 235.117 80.535 234.801 80.59 234.551 80.602 c 234.676
 79.258 234.676 77.395 234.676 75.465 c 234.676 74.754 234.676 73.953 234.563
 72.855 c f
240.93 79.055 m 240.93 79.918 240.977 80.289 241.008 80.602 c 240.684 80.566
 240.32 80.535 240.184 80.535 c 239.996 80.535 239.824 80.555 239.418 80.602
 c 239.461 79.746 239.531 78.875 239.531 78.016 c 239.52 74.863 l 239.52
 74.445 239.508 74.051 239.496 73.613 c 238.934 73.613 l 238.828 73.613 
237.746 73.633 237.172 73.691 c 237.203 73.555 237.227 73.414 237.227 73.273
 c 237.227 73.137 237.203 72.996 237.172 72.855 c 238.063 72.914 239.316
 72.922 240.188 72.922 c 241.125 72.922 242.117 72.914 243.199 72.855 c 
243.168 73.047 243.145 73.195 243.145 73.285 c 243.145 73.414 243.168 73.512
 243.199 73.691 c 242.535 73.625 241.734 73.613 240.953 73.613 c 240.941
 74.016 240.93 74.445 240.93 74.879 c 240.93 79.055 l f
245.82 74.672 m 244.668 77.453 l 245.063 77.465 245.449 77.5 245.844 77.5
 c 246.191 77.5 246.531 77.473 246.883 77.453 c h
247.684 79.348 m 247.211 78.148 l 246.723 78.133 246.25 78.105 245.766 
78.105 c 245.313 78.105 244.859 78.133 244.41 78.148 c 244.047 79.02 243.688
 79.961 243.508 80.602 c 243.359 80.582 243.145 80.535 242.965 80.535 c 
242.773 80.535 242.613 80.582 242.457 80.602 c 243.766 77.688 l 244.906 
75.137 245.563 73.672 245.832 72.746 c 245.957 72.777 246.07 72.797 246.207
 72.797 c 246.328 72.797 246.441 72.777 246.566 72.746 c 247.109 74.293 
247.785 75.875 248.191 76.82 c 248.621 77.801 249.367 79.508 249.875 80.602
 c 249.703 80.59 249.309 80.535 248.992 80.535 c 248.68 80.535 248.363 80.59
 248.156 80.602 c 247.684 79.348 l f
Q q
248.992 71.992 6.121 9 re W n
q
248 71 8 10 re W n
  q
0.0666667 0.247059 0.380392 rg
252.836 79.055 m 252.836 79.918 252.879 80.289 252.91 80.602 c 252.586 
80.566 252.223 80.535 252.09 80.535 c 251.898 80.535 251.727 80.555 251.32
 80.602 c 251.367 79.746 251.434 78.875 251.434 78.016 c 251.422 74.863 
l 251.422 74.445 251.41 74.051 251.398 73.613 c 250.836 73.613 l 250.734
 73.613 249.648 73.633 249.074 73.691 c 249.105 73.555 249.129 73.414 249.129
 73.273 c 249.129 73.137 249.105 72.996 249.074 72.855 c 249.965 72.914 
251.219 72.922 252.09 72.922 c 253.027 72.922 254.02 72.914 255.102 72.855
 c 255.07 73.047 255.047 73.195 255.047 73.285 c 255.047 73.414 255.07 73.512
 255.102 73.691 c 254.438 73.625 253.637 73.613 252.855 73.613 c 252.844
 74.016 252.836 74.445 252.836 74.879 c 252.836 79.055 l f
  Q
Q
Q q
0.0666667 0.247059 0.380392 rg
228.953 78.91 m 229.473 80.039 230.035 80.211 230.703 80.211 c 231.594 
80.211 232.18 79.605 232.18 78.797 c 232.18 77.902 231.469 77.59 231.258
 77.5 c 230.941 77.359 230.41 77.16 230.094 77.023 c 229 76.539 228.668 
75.965 228.668 75.023 c 228.668 74.027 229.258 72.766 231.301 72.766 c 232.125
 72.766 232.621 72.98 233.176 73.227 c 232.949 73.785 232.926 73.875 232.828
 74.301 c 232.668 74.301 l 232.496 73.66 231.898 73.316 231.188 73.316 c
 230.293 73.316 229.855 73.875 229.855 74.543 c 229.855 75.359 230.43 75.59
 231.426 75.973 c 232.293 76.309 232.633 76.434 232.961 76.797 c 233.434
 77.305 233.516 77.969 233.516 78.289 c 233.516 79.438 232.711 80.758 230.648
 80.758 c 229.676 80.758 228.941 80.387 228.535 80.184 c 228.727 79.598 
228.738 79.453 228.793 78.91 c 228.953 78.91 l f
  Q
Q
  Q
Q
Q Q
showpage
%%Trailer
end
%%EOF
