%!PS-Adobe-3.0
%%Title: flattened PostScript generated from file: xa.eps
%%Creator: pstoedit
%%BoundingBox: (atend)
%%Pages: (atend)
%%EndComments
%%BeginProlog
/setPageSize { pop pop } def
/ntranslate { neg exch neg exch translate } def
/p2esetcolorname { pop } def
/setshowparams { pop pop pop} def
/awidthshowhex { dup length 0 gt { dup /ASCIIHexDecode filter exch length 2 div cvi string readstring pop } if awidthshow } def
/awidthshowhexwithglyphs { true { pop awidthshowhex } { { glyphshow } forall pop } ifelse } def
/backendconstraints { pop pop } def
%%>>> /pstoedit.newfont { 80 string cvs  findfont  dup length dict begin {1 index /FID ne {def} {pop pop} ifelse} forall  /Encoding ISOLatin1Encoding def   dup 80 string cvs /FontName exch def  currentdict end  definefont pop } def
/imagestring 1 string def
%%EndProlog
%%BeginSetup
% pstoedit.textastext pstoedit.doflatten backendconstraints   
0 0 backendconstraints
%%EndSetup
%%Page: 1 1
6 28.3464567 mul 148 div dup scale 148 0 add 2 div neg 791 766 add 2 div neg translate
%%>>> (Fa) cvn /CMR10 pstoedit.newfont
%%>>> (Fb) cvn /NimbusRomNo9L-ReguItal pstoedit.newfont
%%>>> (Fd) cvn /NimbusRomNo9L-Regu pstoedit.newfont
%%>>> (Ff) cvn /CMSY10 pstoedit.newfont
save %{
 
 792 612 setPageSize
 0 setlinecap
 10.0 setmiterlimit
 0 setlinejoin
 [ ] 0.0 setdash
 0.12 setlinewidth
 0.0 0.0 0.0 1.0 setcmykcolor
() p2esetcolorname
 
 
% 1                   pathnumber
% eofilledpath
 0 setlinecap
 10.0 setmiterlimit
 0 setlinejoin
 [ ] 0.0 setdash
 0.12 setlinewidth
 0.0 0.0 0.0 1.0 setcmykcolor
() p2esetcolorname
newpath
 140.375 768.906 moveto
 144.734 778.547 lineto
 144.906 778.938 145.031 778.938 145.094 778.938 curveto
 145.125 778.938 145.25 778.938 145.516 778.734 curveto
 147.875 776.953 lineto
 148.188 776.703 148.188 776.641 148.188 776.562 curveto
 148.188 776.438 148.125 776.281 147.938 776.281 curveto
 147.797 776.281 147.375 776.641 147.109 776.828 curveto
 146.953 776.953 146.578 777.234 146.312 777.422 curveto
 141.438 766.703 lineto
 141.266 766.312 141.141 766.312 140.906 766.312 curveto
 140.547 766.312 140.469 766.453 140.297 766.812 curveto
 129.062 790.078 lineto
 128.875 790.422 128.875 790.531 128.875 790.578 curveto
 128.875 790.828 129.078 791.062 129.375 791.062 curveto
 129.578 791.062 129.75 790.938 129.953 790.547 curveto
 140.375 768.906 lineto
 closepath
 129.363 790.078 moveto
eofill
gsave %{
  
 
% 2                   pathnumber
% filledpath
 0 setlinecap
 10.0 setmiterlimit
 0 setlinejoin
 [ ] 0.0 setdash
 0.12 setlinewidth
 0.0 0.0 0.0 1.0 setcmykcolor
() p2esetcolorname
newpath
 129.0 790.0 moveto
 79.3203 790.0 lineto
 79.3203 791.078 lineto
 129.0 791.078 lineto
fill
grestore %}
  
 0 setlinecap
 10.0 setmiterlimit
 0 setlinejoin
 [ ] 0.0 setdash
 0.12 setlinewidth
 0.0 0.0 0.0 1.0 setcmykcolor
() p2esetcolorname
 
 
% 3                   pathnumber
% eofilledpath
 0 setlinecap
 10.0 setmiterlimit
 0 setlinejoin
 [ ] 0.0 setdash
 0.12 setlinewidth
 0.0 0.0 0.0 1.0 setcmykcolor
() p2esetcolorname
newpath
 119.41 773.031 moveto
 119.613 772.812 119.738 772.656 119.957 772.359 curveto
 120.52 771.625 120.816 771.375 121.098 771.375 curveto
 121.473 771.375 121.691 771.688 121.863 772.391 curveto
 121.91 772.578 121.941 772.734 121.957 772.812 curveto
 122.582 775.312 122.848 776.453 122.848 776.812 curveto
 121.77 778.719 120.879 779.812 120.426 779.812 curveto
 120.27 779.812 120.082 779.734 119.832 779.609 curveto
 119.535 779.438 119.363 779.391 119.16 779.391 curveto
 118.645 779.391 118.301 779.766 118.301 780.281 curveto
 118.301 780.797 118.723 781.203 119.316 781.203 curveto
 120.395 781.203 121.348 780.312 123.051 777.656 curveto
 123.316 779.016 lineto
 123.676 780.703 123.941 781.203 124.613 781.203 curveto
 125.16 781.203 126.004 780.984 127.504 780.484 curveto
 127.785 780.375 lineto
 127.676 780.016 lineto
 126.738 780.234 126.52 780.281 126.301 780.281 curveto
 125.676 780.281 125.52 780.062 125.176 778.578 curveto
 124.457 775.531 lineto
 126.488 772.641 lineto
 126.988 771.891 127.488 771.438 127.754 771.438 curveto
 127.91 771.438 128.145 771.516 128.395 771.672 curveto
 128.723 771.844 128.988 771.922 129.191 771.922 curveto
 129.66 771.922 130.035 771.547 130.035 771.047 curveto
 130.035 770.406 129.535 770.016 128.801 770.016 curveto
 128.02 770.016 127.723 770.234 126.488 771.734 curveto
 125.816 772.531 125.301 773.203 124.27 774.641 curveto
 123.52 771.672 lineto
 123.191 770.406 122.879 770.016 122.082 770.016 curveto
 121.145 770.016 120.504 770.609 119.066 772.828 curveto
 119.41 773.031 lineto
 closepath
 118.324 770.281 moveto
eofill
 
 0 setlinecap
 10.0 setmiterlimit
 0 setlinejoin
 [ ] 0.0 setdash
 0.12 setlinewidth
 0.0 0.0 0.0 1.0 setcmykcolor
() p2esetcolorname
 
 
% 4                   pathnumber
% eofilledpath
 0 setlinecap
 10.0 setmiterlimit
 0 setlinejoin
 [ ] 0.0 setdash
 0.12 setlinewidth
 0.0 0.0 0.0 1.0 setcmykcolor
() p2esetcolorname
newpath
 98.5312 775.969 moveto
 98.1094 775.969 97.6562 775.969 97.6562 776.469 curveto
 97.6562 776.969 98.1094 776.969 98.5312 776.969 curveto
 111.922 776.969 lineto
 112.344 776.969 112.781 776.969 112.781 776.469 curveto
 112.781 775.969 112.344 775.969 111.922 775.969 curveto
 98.5312 775.969 lineto
 closepath
 95.5273 766.441 moveto
eofill
 
 0 setlinecap
 10.0 setmiterlimit
 0 setlinejoin
 [ ] 0.0 setdash
 0.12 setlinewidth
 0.0 0.0 0.0 1.0 setcmykcolor
() p2esetcolorname
 
 
% 5                   pathnumber
% eofilledpath
 0 setlinecap
 10.0 setmiterlimit
 0 setlinejoin
 [ ] 0.0 setdash
 0.12 setlinewidth
 0.0 0.0 0.0 1.0 setcmykcolor
() p2esetcolorname
newpath
 84.8438 787.016 moveto
 89.2969 784.766 lineto
 89.2969 784.422 lineto
 89.0 784.547 88.7344 784.641 88.625 784.688 curveto
 88.1875 784.859 87.7656 784.969 87.5156 784.969 curveto
 87.0 784.969 86.7812 784.594 86.7812 783.797 curveto
 86.7812 772.578 lineto
 86.7812 771.766 86.9688 771.203 87.375 770.969 curveto
 87.7344 770.75 88.0781 770.672 89.125 770.656 curveto
 89.125 770.281 lineto
 82.2969 770.281 lineto
 82.2969 770.656 lineto
 84.25 770.672 84.6406 770.922 84.6406 772.109 curveto
 84.6406 786.969 lineto
 84.8438 787.016 lineto
 closepath
 79.6875 770.281 moveto
eofill
 
 0 setlinecap
 10.0 setmiterlimit
 0 setlinejoin
 [ ] 0.0 setdash
 0.12 setlinewidth
 0.0 0.0 0.0 1.0 setcmykcolor
() p2esetcolorname
 
 
% 6                   pathnumber
% eofilledpath
 0 setlinecap
 10.0 setmiterlimit
 0 setlinejoin
 [ ] 0.0 setdash
 0.12 setlinewidth
 0.0 0.0 0.0 1.0 setcmykcolor
() p2esetcolorname
newpath
 57.2734 778.375 moveto
 56.9141 778.375 56.4453 778.375 56.4453 778.875 curveto
 56.4453 779.375 56.9141 779.375 57.2578 779.375 curveto
 72.0859 779.375 lineto
 72.4297 779.375 72.8984 779.375 72.8984 778.875 curveto
 72.8984 778.375 72.4297 778.375 72.0547 778.375 curveto
 57.2734 778.375 lineto
 closepath
 57.2578 773.578 moveto
 56.9141 773.578 56.4453 773.578 56.4453 774.062 curveto
 56.4453 774.562 56.9141 774.562 57.2734 774.562 curveto
 72.0547 774.562 lineto
 72.4297 774.562 72.8984 774.562 72.8984 774.062 curveto
 72.8984 773.578 72.4297 773.578 72.0859 773.578 curveto
 57.2578 773.578 lineto
 closepath
 54.9727 770.281 moveto
eofill
 
 0 setlinecap
 10.0 setmiterlimit
 0 setlinejoin
 [ ] 0.0 setdash
 0.12 setlinewidth
 0.0 0.0 0.0 1.0 setcmykcolor
() p2esetcolorname
 
 
% 7                   pathnumber
% eofilledpath
 0 setlinecap
 10.0 setmiterlimit
 0 setlinejoin
 [ ] 0.0 setdash
 0.12 setlinewidth
 0.0 0.0 0.0 1.0 setcmykcolor
() p2esetcolorname
newpath
 39.5 773.031 moveto
 39.7031 772.812 39.8281 772.656 40.0469 772.359 curveto
 40.6094 771.625 40.9062 771.375 41.1875 771.375 curveto
 41.5625 771.375 41.7812 771.688 41.9531 772.391 curveto
 42.0 772.578 42.0312 772.734 42.0469 772.812 curveto
 42.6719 775.312 42.9375 776.453 42.9375 776.812 curveto
 41.8594 778.719 40.9688 779.812 40.5156 779.812 curveto
 40.3594 779.812 40.1719 779.734 39.9219 779.609 curveto
 39.625 779.438 39.4531 779.391 39.25 779.391 curveto
 38.7344 779.391 38.3906 779.766 38.3906 780.281 curveto
 38.3906 780.797 38.8125 781.203 39.4062 781.203 curveto
 40.4844 781.203 41.4375 780.312 43.1406 777.656 curveto
 43.4062 779.016 lineto
 43.7656 780.703 44.0312 781.203 44.7031 781.203 curveto
 45.25 781.203 46.0938 780.984 47.5938 780.484 curveto
 47.875 780.375 lineto
 47.7656 780.016 lineto
 46.8281 780.234 46.6094 780.281 46.3906 780.281 curveto
 45.7656 780.281 45.6094 780.062 45.2656 778.578 curveto
 44.5469 775.531 lineto
 46.5781 772.641 lineto
 47.0781 771.891 47.5781 771.438 47.8438 771.438 curveto
 48.0 771.438 48.2344 771.516 48.4844 771.672 curveto
 48.8125 771.844 49.0781 771.922 49.2812 771.922 curveto
 49.75 771.922 50.125 771.547 50.125 771.047 curveto
 50.125 770.406 49.625 770.016 48.8906 770.016 curveto
 48.1094 770.016 47.8125 770.234 46.5781 771.734 curveto
 45.9062 772.531 45.3906 773.203 44.3594 774.641 curveto
 43.6094 771.672 lineto
 43.2812 770.406 42.9688 770.016 42.1719 770.016 curveto
 41.2344 770.016 40.5938 770.609 39.1562 772.828 curveto
 39.5 773.031 lineto
 closepath
 38.4141 770.281 moveto
eofill
 
 0 setlinecap
 10.0 setmiterlimit
 0 setlinejoin
 [ ] 0.0 setdash
 0.12 setlinewidth
 0.0 0.0 0.0 1.0 setcmykcolor
() p2esetcolorname
 
 
% 8                   pathnumber
% eofilledpath
 0 setlinecap
 10.0 setmiterlimit
 0 setlinejoin
 [ ] 0.0 setdash
 0.12 setlinewidth
 0.0 0.0 0.0 1.0 setcmykcolor
() p2esetcolorname
newpath
 24.8086 775.969 moveto
 17.9023 775.969 lineto
 17.5586 775.969 17.0898 775.969 17.0898 776.469 curveto
 17.0898 776.969 17.5586 776.969 17.9023 776.969 curveto
 24.8086 776.969 lineto
 24.8086 783.891 lineto
 24.8086 784.25 24.8086 784.719 25.3086 784.719 curveto
 25.793 784.719 25.793 784.25 25.793 783.891 curveto
 25.793 776.969 lineto
 32.7305 776.969 lineto
 33.0742 776.969 33.543 776.969 33.543 776.469 curveto
 33.543 775.969 33.0742 775.969 32.7305 775.969 curveto
 25.793 775.969 lineto
 25.793 769.047 lineto
 25.793 768.703 25.793 768.219 25.3086 768.219 curveto
 24.8086 768.219 24.8086 768.703 24.8086 769.047 curveto
 24.8086 775.969 lineto
 closepath
 15.6172 770.281 moveto
eofill
 
 0 setlinecap
 10.0 setmiterlimit
 0 setlinejoin
 [ ] 0.0 setdash
 0.12 setlinewidth
 0.0 0.0 0.0 1.0 setcmykcolor
() p2esetcolorname
 
 
% 9                   pathnumber
% eofilledpath
 0 setlinecap
 10.0 setmiterlimit
 0 setlinejoin
 [ ] 0.0 setdash
 0.12 setlinewidth
 0.0 0.0 0.0 1.0 setcmykcolor
() p2esetcolorname
newpath
 1.08984 787.219 moveto
 3.91797 786.969 5.35547 786.5 7.16797 785.234 curveto
 9.83984 783.328 11.293 780.5 11.293 777.188 curveto
 11.293 775.031 10.6211 772.859 9.55859 771.625 curveto
 8.62109 770.531 7.27734 769.938 5.74609 769.938 curveto
 2.68359 769.938 0.542969 772.281 0.542969 775.703 curveto
 0.542969 778.875 2.35547 780.875 5.19922 780.875 curveto
 6.29297 780.875 6.80859 780.703 8.37109 779.766 curveto
 7.69922 783.5 4.93359 786.172 1.04297 786.812 curveto
 1.08984 787.219 lineto
 closepath
 6.15234 779.734 moveto
 4.01172 779.734 2.77734 777.953 2.77734 774.859 curveto
 2.77734 772.141 3.74609 770.625 5.48047 770.625 curveto
 7.65234 770.625 8.99609 772.953 8.99609 776.797 curveto
 8.99609 778.062 8.79297 778.75 8.29297 779.125 curveto
 7.77734 779.516 7.01172 779.734 6.15234 779.734 curveto
 closepath
 -0.222656 770.281 moveto
eofill
restore %}
showpage
%%BoundingBox: 0 766 148 791 
%%Page: 1 1
% normal end reached by pstoedit.pro
%%Trailer
%%Pages: 1
%%EOF