[% file dataMul.data
0    0    3.375    0.0625 10    5.375    7.1875    4.5
20    7.1875    8.375    6.25 30    5.75    7.75    6.6875
40    2.1875    5.75    5.9375 50    -1.9375    2.1875    4.3125
60    -5.125    -1.8125    0.875 70    -6.4375    -5.3125    -2.6875
80    -4.875    -7.1875    -4.875 90    0    -7.625    -5.625
100    5.5    -6.3125    -5.8125 110    6.8125    -2.75    -4.75
120    5.25    2.875    -0.75
]%
