    0.1414    0.0052
    0.2828    0.0217
    0.4243    0.0480
    0.5657    0.0890
    0.7071    0.1375
    0.8485    0.1906
    0.9899    0.2663
    1.1314    0.3580
    1.2728    0.4644
    1.4142    0.5801
    1.5556    0.7033
    1.6971    0.8899
    1.8385    1.1143
    1.9799    1.2593
    2.1213    1.5692
    2.2627    3.2331
    2.4042    4.4097
    2.5456    5.8186
    2.6870    7.4441
    2.8284    8.2287
