<?xml version="1.0" encoding="UTF-8"?>
<svg xmlns="http://www.w3.org/2000/svg" xmlns:xlink="http://www.w3.org/1999/xlink" width="420pt" height="142pt" viewBox="0 0 420 142" version="1.2">
<defs>
<g>
<symbol overflow="visible" id="glyph0-0">
<path style="stroke:none;" d=""/>
</symbol>
<symbol overflow="visible" id="glyph0-1">
<path style="stroke:none;" d="M 1.28125 -2.375 C 1.28125 -4.15625 2.171875 -4.609375 2.75 -4.609375 C 2.84375 -4.609375 3.53125 -4.609375 3.921875 -4.203125 C 3.46875 -4.171875 3.40625 -3.84375 3.40625 -3.703125 C 3.40625 -3.421875 3.59375 -3.203125 3.90625 -3.203125 C 4.1875 -3.203125 4.40625 -3.390625 4.40625 -3.71875 C 4.40625 -4.453125 3.578125 -4.890625 2.734375 -4.890625 C 1.375 -4.890625 0.375 -3.703125 0.375 -2.359375 C 0.375 -0.953125 1.453125 0.125 2.71875 0.125 C 4.171875 0.125 4.53125 -1.1875 4.53125 -1.296875 C 4.53125 -1.40625 4.421875 -1.40625 4.390625 -1.40625 C 4.28125 -1.40625 4.265625 -1.359375 4.25 -1.296875 C 3.921875 -0.28125 3.21875 -0.15625 2.8125 -0.15625 C 2.234375 -0.15625 1.28125 -0.625 1.28125 -2.375 Z M 1.28125 -2.375 "/>
</symbol>
<symbol overflow="visible" id="glyph0-2">
<path style="stroke:none;" d="M 5.140625 -2.328125 C 5.140625 -3.734375 4.046875 -4.890625 2.71875 -4.890625 C 1.359375 -4.890625 0.3125 -3.703125 0.3125 -2.328125 C 0.3125 -0.921875 1.4375 0.125 2.71875 0.125 C 4.03125 0.125 5.140625 -0.953125 5.140625 -2.328125 Z M 2.71875 -0.15625 C 2.25 -0.15625 1.78125 -0.375 1.484375 -0.890625 C 1.203125 -1.359375 1.203125 -2.03125 1.203125 -2.421875 C 1.203125 -2.84375 1.203125 -3.4375 1.46875 -3.921875 C 1.765625 -4.421875 2.28125 -4.640625 2.71875 -4.640625 C 3.203125 -4.640625 3.671875 -4.40625 3.953125 -3.9375 C 4.234375 -3.46875 4.234375 -2.828125 4.234375 -2.421875 C 4.234375 -2.03125 4.234375 -1.4375 3.984375 -0.953125 C 3.75 -0.46875 3.265625 -0.15625 2.71875 -0.15625 Z M 2.71875 -0.15625 "/>
</symbol>
<symbol overflow="visible" id="glyph0-3">
<path style="stroke:none;" d="M 1.9375 -7.5625 L 0.359375 -7.453125 L 0.359375 -7.109375 C 1.125 -7.109375 1.203125 -7.03125 1.203125 -6.5 L 1.203125 -0.828125 C 1.203125 -0.34375 1.09375 -0.34375 0.359375 -0.34375 L 0.359375 0 C 0.71875 -0.015625 1.296875 -0.03125 1.578125 -0.03125 C 1.84375 -0.03125 2.375 -0.015625 2.78125 0 L 2.78125 -0.34375 C 2.046875 -0.34375 1.9375 -0.34375 1.9375 -0.828125 Z M 1.9375 -7.5625 "/>
</symbol>
<symbol overflow="visible" id="glyph0-4">
<path style="stroke:none;" d="M 4.265625 -0.859375 L 4.265625 0.125 L 5.828125 0 L 5.828125 -0.34375 C 5.078125 -0.34375 4.984375 -0.421875 4.984375 -0.953125 L 4.984375 -4.828125 L 3.375 -4.703125 L 3.375 -4.359375 C 4.140625 -4.359375 4.234375 -4.28125 4.234375 -3.75 L 4.234375 -1.8125 C 4.234375 -0.859375 3.703125 -0.125 2.90625 -0.125 C 2 -0.125 1.953125 -0.625 1.953125 -1.203125 L 1.953125 -4.828125 L 0.34375 -4.703125 L 0.34375 -4.359375 C 1.203125 -4.359375 1.203125 -4.328125 1.203125 -3.359375 L 1.203125 -1.71875 C 1.203125 -0.875 1.203125 0.125 2.859375 0.125 C 3.46875 0.125 3.953125 -0.1875 4.265625 -0.859375 Z M 4.265625 -0.859375 "/>
</symbol>
<symbol overflow="visible" id="glyph0-5">
<path style="stroke:none;" d="M 1.203125 -3.75 L 1.203125 -0.828125 C 1.203125 -0.34375 1.078125 -0.34375 0.34375 -0.34375 L 0.34375 0 C 0.734375 -0.015625 1.28125 -0.03125 1.578125 -0.03125 C 1.859375 -0.03125 2.4375 -0.015625 2.796875 0 L 2.796875 -0.34375 C 2.078125 -0.34375 1.953125 -0.34375 1.953125 -0.828125 L 1.953125 -2.828125 C 1.953125 -3.96875 2.71875 -4.578125 3.421875 -4.578125 C 4.109375 -4.578125 4.234375 -3.984375 4.234375 -3.375 L 4.234375 -0.828125 C 4.234375 -0.34375 4.109375 -0.34375 3.375 -0.34375 L 3.375 0 C 3.765625 -0.015625 4.3125 -0.03125 4.609375 -0.03125 C 4.890625 -0.03125 5.46875 -0.015625 5.828125 0 L 5.828125 -0.34375 C 5.109375 -0.34375 4.984375 -0.34375 4.984375 -0.828125 L 4.984375 -2.828125 C 4.984375 -3.96875 5.765625 -4.578125 6.453125 -4.578125 C 7.140625 -4.578125 7.265625 -3.984375 7.265625 -3.375 L 7.265625 -0.828125 C 7.265625 -0.34375 7.140625 -0.34375 6.40625 -0.34375 L 6.40625 0 C 6.796875 -0.015625 7.34375 -0.03125 7.640625 -0.03125 C 7.921875 -0.03125 8.5 -0.015625 8.859375 0 L 8.859375 -0.34375 C 8.296875 -0.34375 8.03125 -0.34375 8.015625 -0.671875 L 8.015625 -2.75 C 8.015625 -3.6875 8.015625 -4.03125 7.671875 -4.421875 C 7.53125 -4.609375 7.171875 -4.828125 6.53125 -4.828125 C 5.609375 -4.828125 5.140625 -4.171875 4.953125 -3.75 C 4.796875 -4.703125 3.984375 -4.828125 3.5 -4.828125 C 2.703125 -4.828125 2.1875 -4.359375 1.890625 -3.671875 L 1.890625 -4.828125 L 0.34375 -4.703125 L 0.34375 -4.359375 C 1.109375 -4.359375 1.203125 -4.28125 1.203125 -3.75 Z M 1.203125 -3.75 "/>
</symbol>
<symbol overflow="visible" id="glyph0-6">
<path style="stroke:none;" d="M 1.203125 -0.828125 C 1.203125 -0.34375 1.078125 -0.34375 0.34375 -0.34375 L 0.34375 0 C 0.734375 -0.015625 1.28125 -0.03125 1.578125 -0.03125 C 1.859375 -0.03125 2.4375 -0.015625 2.796875 0 L 2.796875 -0.34375 C 2.078125 -0.34375 1.953125 -0.34375 1.953125 -0.828125 L 1.953125 -2.828125 C 1.953125 -3.96875 2.71875 -4.578125 3.421875 -4.578125 C 4.109375 -4.578125 4.234375 -3.984375 4.234375 -3.375 L 4.234375 -0.828125 C 4.234375 -0.34375 4.109375 -0.34375 3.375 -0.34375 L 3.375 0 C 3.765625 -0.015625 4.3125 -0.03125 4.609375 -0.03125 C 4.890625 -0.03125 5.46875 -0.015625 5.828125 0 L 5.828125 -0.34375 C 5.265625 -0.34375 5 -0.34375 4.984375 -0.671875 L 4.984375 -2.75 C 4.984375 -3.6875 4.984375 -4.03125 4.640625 -4.421875 C 4.5 -4.609375 4.140625 -4.828125 3.5 -4.828125 C 2.578125 -4.828125 2.109375 -4.171875 1.921875 -3.75 L 1.921875 -7.5625 L 0.34375 -7.453125 L 0.34375 -7.109375 C 1.109375 -7.109375 1.203125 -7.03125 1.203125 -6.5 Z M 1.203125 -0.828125 "/>
</symbol>
<symbol overflow="visible" id="glyph0-7">
<path style="stroke:none;" d="M 1.21875 -2.75 C 1.28125 -4.375 2.203125 -4.640625 2.578125 -4.640625 C 3.703125 -4.640625 3.8125 -3.171875 3.8125 -2.75 Z M 1.203125 -2.515625 L 4.25 -2.515625 C 4.5 -2.515625 4.53125 -2.515625 4.53125 -2.75 C 4.53125 -3.828125 3.9375 -4.890625 2.578125 -4.890625 C 1.3125 -4.890625 0.3125 -3.765625 0.3125 -2.40625 C 0.3125 -0.9375 1.453125 0.125 2.703125 0.125 C 4.03125 0.125 4.53125 -1.09375 4.53125 -1.296875 C 4.53125 -1.40625 4.4375 -1.421875 4.390625 -1.421875 C 4.28125 -1.421875 4.265625 -1.359375 4.25 -1.28125 C 3.859375 -0.15625 2.875 -0.15625 2.765625 -0.15625 C 2.21875 -0.15625 1.78125 -0.484375 1.53125 -0.890625 C 1.203125 -1.40625 1.203125 -2.125 1.203125 -2.515625 Z M 1.203125 -2.515625 "/>
</symbol>
<symbol overflow="visible" id="glyph0-8">
<path style="stroke:none;" d="M 3.625 -0.828125 C 3.671875 -0.390625 3.96875 0.0625 4.484375 0.0625 C 4.71875 0.0625 5.375 -0.09375 5.375 -0.96875 L 5.375 -1.578125 L 5.109375 -1.578125 L 5.109375 -0.96875 C 5.109375 -0.34375 4.828125 -0.265625 4.71875 -0.265625 C 4.359375 -0.265625 4.3125 -0.765625 4.3125 -0.8125 L 4.3125 -3 C 4.3125 -3.453125 4.3125 -3.875 3.921875 -4.28125 C 3.484375 -4.71875 2.9375 -4.890625 2.421875 -4.890625 C 1.53125 -4.890625 0.78125 -4.375 0.78125 -3.65625 C 0.78125 -3.328125 1 -3.140625 1.28125 -3.140625 C 1.578125 -3.140625 1.78125 -3.359375 1.78125 -3.640625 C 1.78125 -3.78125 1.71875 -4.140625 1.21875 -4.140625 C 1.515625 -4.53125 2.046875 -4.640625 2.40625 -4.640625 C 2.9375 -4.640625 3.5625 -4.21875 3.5625 -3.25 L 3.5625 -2.84375 C 3 -2.8125 2.234375 -2.78125 1.546875 -2.453125 C 0.734375 -2.078125 0.453125 -1.515625 0.453125 -1.03125 C 0.453125 -0.15625 1.515625 0.125 2.203125 0.125 C 2.921875 0.125 3.421875 -0.3125 3.625 -0.828125 Z M 3.5625 -2.625 L 3.5625 -1.53125 C 3.5625 -0.484375 2.765625 -0.125 2.28125 -0.125 C 1.75 -0.125 1.296875 -0.5 1.296875 -1.046875 C 1.296875 -1.640625 1.75 -2.546875 3.5625 -2.625 Z M 3.5625 -2.625 "/>
</symbol>
<symbol overflow="visible" id="glyph0-9">
<path style="stroke:none;" d="M 4.140625 -0.59375 L 4.140625 0.125 L 5.75 0 L 5.75 -0.34375 C 4.984375 -0.34375 4.890625 -0.421875 4.890625 -0.953125 L 4.890625 -7.5625 L 3.328125 -7.453125 L 3.328125 -7.109375 C 4.09375 -7.109375 4.171875 -7.03125 4.171875 -6.5 L 4.171875 -4.140625 C 3.859375 -4.53125 3.390625 -4.828125 2.796875 -4.828125 C 1.515625 -4.828125 0.375 -3.75 0.375 -2.34375 C 0.375 -0.953125 1.4375 0.125 2.6875 0.125 C 3.375 0.125 3.875 -0.25 4.140625 -0.59375 Z M 4.140625 -3.515625 L 4.140625 -1.28125 C 4.140625 -1.09375 4.140625 -1.0625 4.03125 -0.890625 C 3.703125 -0.359375 3.203125 -0.125 2.734375 -0.125 C 2.25 -0.125 1.859375 -0.40625 1.59375 -0.8125 C 1.3125 -1.265625 1.28125 -1.890625 1.28125 -2.328125 C 1.28125 -2.734375 1.296875 -3.390625 1.609375 -3.875 C 1.84375 -4.21875 2.25 -4.578125 2.84375 -4.578125 C 3.234375 -4.578125 3.6875 -4.421875 4.03125 -3.921875 C 4.140625 -3.734375 4.140625 -3.71875 4.140625 -3.515625 Z M 4.140625 -3.515625 "/>
</symbol>
<symbol overflow="visible" id="glyph0-10">
<path style="stroke:none;" d="M 1.828125 -3.625 L 1.828125 -4.828125 L 0.3125 -4.703125 L 0.3125 -4.359375 C 1.0625 -4.359375 1.15625 -4.28125 1.15625 -3.75 L 1.15625 -0.828125 C 1.15625 -0.34375 1.03125 -0.34375 0.3125 -0.34375 L 0.3125 0 C 0.734375 -0.015625 1.25 -0.03125 1.546875 -0.03125 C 1.984375 -0.03125 2.5 -0.03125 2.9375 0 L 2.9375 -0.34375 L 2.703125 -0.34375 C 1.890625 -0.34375 1.875 -0.453125 1.875 -0.84375 L 1.875 -2.53125 C 1.875 -3.609375 2.328125 -4.578125 3.15625 -4.578125 C 3.234375 -4.578125 3.265625 -4.578125 3.28125 -4.5625 C 3.25 -4.5625 3.03125 -4.421875 3.03125 -4.140625 C 3.03125 -3.84375 3.265625 -3.671875 3.5 -3.671875 C 3.703125 -3.671875 3.96875 -3.8125 3.96875 -4.15625 C 3.96875 -4.5 3.625 -4.828125 3.15625 -4.828125 C 2.359375 -4.828125 1.96875 -4.09375 1.828125 -3.625 Z M 1.828125 -3.625 "/>
</symbol>
<symbol overflow="visible" id="glyph0-11">
<path style="stroke:none;" d="M 5.015625 -3.484375 C 5.015625 -4.359375 4.96875 -5.234375 4.578125 -6.046875 C 4.078125 -7.09375 3.1875 -7.265625 2.71875 -7.265625 C 2.078125 -7.265625 1.28125 -6.984375 0.828125 -5.96875 C 0.484375 -5.21875 0.421875 -4.359375 0.421875 -3.484375 C 0.421875 -2.671875 0.46875 -1.6875 0.921875 -0.859375 C 1.390625 0.015625 2.1875 0.234375 2.71875 0.234375 C 3.296875 0.234375 4.140625 0.015625 4.609375 -1.03125 C 4.96875 -1.78125 5.015625 -2.625 5.015625 -3.484375 Z M 2.71875 0 C 2.296875 0 1.640625 -0.265625 1.453125 -1.3125 C 1.328125 -1.96875 1.328125 -2.984375 1.328125 -3.625 C 1.328125 -4.3125 1.328125 -5.03125 1.421875 -5.625 C 1.625 -6.921875 2.4375 -7.03125 2.71875 -7.03125 C 3.078125 -7.03125 3.796875 -6.828125 4 -5.75 C 4.109375 -5.140625 4.109375 -4.3125 4.109375 -3.625 C 4.109375 -2.796875 4.109375 -2.0625 3.984375 -1.359375 C 3.828125 -0.328125 3.203125 0 2.71875 0 Z M 2.71875 0 "/>
</symbol>
<symbol overflow="visible" id="glyph0-12">
<path style="stroke:none;" d="M 6.75 -3.671875 C 6.953125 -4.203125 7.28125 -4.359375 7.671875 -4.359375 L 7.671875 -4.703125 C 7.421875 -4.671875 7.109375 -4.671875 6.875 -4.671875 C 6.546875 -4.671875 6.0625 -4.6875 5.859375 -4.703125 L 5.859375 -4.359375 C 6.25 -4.359375 6.484375 -4.15625 6.484375 -3.84375 C 6.484375 -3.78125 6.484375 -3.75 6.4375 -3.609375 L 5.4375 -0.8125 L 4.359375 -3.859375 C 4.3125 -3.984375 4.3125 -4.015625 4.3125 -4.0625 C 4.3125 -4.359375 4.734375 -4.359375 4.953125 -4.359375 L 4.953125 -4.703125 C 4.640625 -4.6875 4.078125 -4.671875 3.8125 -4.671875 C 3.484375 -4.671875 3.171875 -4.671875 2.84375 -4.703125 L 2.84375 -4.359375 C 3.25 -4.359375 3.421875 -4.34375 3.53125 -4.203125 C 3.59375 -4.140625 3.703125 -3.8125 3.78125 -3.59375 L 2.84375 -0.953125 L 1.8125 -3.875 C 1.75 -4 1.75 -4.03125 1.75 -4.0625 C 1.75 -4.359375 2.1875 -4.359375 2.40625 -4.359375 L 2.40625 -4.703125 C 2.078125 -4.6875 1.46875 -4.671875 1.203125 -4.671875 C 1.171875 -4.671875 0.59375 -4.671875 0.203125 -4.703125 L 0.203125 -4.359375 C 0.734375 -4.359375 0.875 -4.328125 1 -3.984375 L 2.375 -0.125 C 2.4375 0.03125 2.46875 0.125 2.609375 0.125 C 2.75 0.125 2.765625 0.046875 2.828125 -0.09375 L 3.921875 -3.1875 L 5.03125 -0.09375 C 5.078125 0.03125 5.109375 0.125 5.25 0.125 C 5.40625 0.125 5.4375 0.015625 5.46875 -0.09375 Z M 6.75 -3.671875 "/>
</symbol>
<symbol overflow="visible" id="glyph0-13">
<path style="stroke:none;" d="M 3.203125 -6.984375 C 3.203125 -7.234375 3.203125 -7.265625 2.953125 -7.265625 C 2.28125 -6.5625 1.3125 -6.5625 0.96875 -6.5625 L 0.96875 -6.234375 C 1.1875 -6.234375 1.828125 -6.234375 2.40625 -6.515625 L 2.40625 -0.859375 C 2.40625 -0.46875 2.359375 -0.34375 1.390625 -0.34375 L 1.03125 -0.34375 L 1.03125 0 C 1.421875 -0.03125 2.359375 -0.03125 2.796875 -0.03125 C 3.234375 -0.03125 4.1875 -0.03125 4.5625 0 L 4.5625 -0.34375 L 4.21875 -0.34375 C 3.234375 -0.34375 3.203125 -0.453125 3.203125 -0.859375 Z M 3.203125 -6.984375 "/>
</symbol>
<symbol overflow="visible" id="glyph0-14">
<path style="stroke:none;" d="M 1.390625 -0.84375 L 2.546875 -1.96875 C 4.25 -3.46875 4.890625 -4.0625 4.890625 -5.140625 C 4.890625 -6.390625 3.921875 -7.265625 2.578125 -7.265625 C 1.359375 -7.265625 0.546875 -6.265625 0.546875 -5.296875 C 0.546875 -4.671875 1.09375 -4.671875 1.125 -4.671875 C 1.3125 -4.671875 1.6875 -4.8125 1.6875 -5.25 C 1.6875 -5.546875 1.5 -5.828125 1.109375 -5.828125 C 1.03125 -5.828125 1 -5.828125 0.96875 -5.8125 C 1.21875 -6.515625 1.8125 -6.921875 2.4375 -6.921875 C 3.4375 -6.921875 3.90625 -6.046875 3.90625 -5.140625 C 3.90625 -4.28125 3.359375 -3.40625 2.765625 -2.734375 L 0.671875 -0.40625 C 0.546875 -0.28125 0.546875 -0.265625 0.546875 0 L 4.59375 0 L 4.890625 -1.890625 L 4.625 -1.890625 C 4.5625 -1.578125 4.5 -1.09375 4.390625 -0.921875 C 4.3125 -0.84375 3.59375 -0.84375 3.34375 -0.84375 Z M 1.390625 -0.84375 "/>
</symbol>
<symbol overflow="visible" id="glyph0-15">
<path style="stroke:none;" d="M 3.15625 -3.84375 C 4.0625 -4.140625 4.6875 -4.890625 4.6875 -5.765625 C 4.6875 -6.65625 3.734375 -7.265625 2.6875 -7.265625 C 1.578125 -7.265625 0.75 -6.609375 0.75 -5.78125 C 0.75 -5.421875 1 -5.21875 1.3125 -5.21875 C 1.640625 -5.21875 1.859375 -5.453125 1.859375 -5.765625 C 1.859375 -6.3125 1.359375 -6.3125 1.1875 -6.3125 C 1.53125 -6.84375 2.25 -6.984375 2.640625 -6.984375 C 3.09375 -6.984375 3.6875 -6.75 3.6875 -5.765625 C 3.6875 -5.640625 3.671875 -5 3.375 -4.53125 C 3.046875 -4 2.6875 -3.96875 2.40625 -3.953125 C 2.328125 -3.953125 2.0625 -3.921875 1.984375 -3.921875 C 1.890625 -3.921875 1.828125 -3.90625 1.828125 -3.796875 C 1.828125 -3.671875 1.890625 -3.671875 2.078125 -3.671875 L 2.5625 -3.671875 C 3.453125 -3.671875 3.859375 -2.9375 3.859375 -1.859375 C 3.859375 -0.375 3.109375 -0.0625 2.625 -0.0625 C 2.15625 -0.0625 1.34375 -0.25 0.953125 -0.890625 C 1.34375 -0.84375 1.671875 -1.078125 1.671875 -1.5 C 1.671875 -1.890625 1.390625 -2.109375 1.0625 -2.109375 C 0.8125 -2.109375 0.453125 -1.953125 0.453125 -1.46875 C 0.453125 -0.484375 1.46875 0.234375 2.65625 0.234375 C 3.984375 0.234375 4.984375 -0.75 4.984375 -1.859375 C 4.984375 -2.765625 4.296875 -3.609375 3.15625 -3.84375 Z M 3.15625 -3.84375 "/>
</symbol>
<symbol overflow="visible" id="glyph0-16">
<path style="stroke:none;" d="M 3.203125 -1.796875 L 3.203125 -0.84375 C 3.203125 -0.453125 3.1875 -0.34375 2.375 -0.34375 L 2.15625 -0.34375 L 2.15625 0 C 2.59375 -0.03125 3.15625 -0.03125 3.625 -0.03125 C 4.078125 -0.03125 4.65625 -0.03125 5.109375 0 L 5.109375 -0.34375 L 4.875 -0.34375 C 4.0625 -0.34375 4.046875 -0.453125 4.046875 -0.84375 L 4.046875 -1.796875 L 5.140625 -1.796875 L 5.140625 -2.140625 L 4.046875 -2.140625 L 4.046875 -7.09375 C 4.046875 -7.3125 4.046875 -7.390625 3.875 -7.390625 C 3.78125 -7.390625 3.734375 -7.390625 3.65625 -7.25 L 0.3125 -2.140625 L 0.3125 -1.796875 Z M 3.265625 -2.140625 L 0.609375 -2.140625 L 3.265625 -6.203125 Z M 3.265625 -2.140625 "/>
</symbol>
<symbol overflow="visible" id="glyph0-17">
<path style="stroke:none;" d="M 4.890625 -2.1875 C 4.890625 -3.484375 4 -4.578125 2.828125 -4.578125 C 2.296875 -4.578125 1.828125 -4.40625 1.4375 -4.03125 L 1.4375 -6.15625 C 1.65625 -6.078125 2.015625 -6.015625 2.359375 -6.015625 C 3.703125 -6.015625 4.46875 -7 4.46875 -7.140625 C 4.46875 -7.203125 4.4375 -7.265625 4.359375 -7.265625 C 4.359375 -7.265625 4.328125 -7.265625 4.28125 -7.234375 C 4.0625 -7.125 3.515625 -6.921875 2.796875 -6.921875 C 2.359375 -6.921875 1.859375 -6.984375 1.34375 -7.21875 C 1.25 -7.25 1.234375 -7.25 1.203125 -7.25 C 1.09375 -7.25 1.09375 -7.171875 1.09375 -6.984375 L 1.09375 -3.765625 C 1.09375 -3.5625 1.09375 -3.484375 1.25 -3.484375 C 1.328125 -3.484375 1.359375 -3.515625 1.390625 -3.578125 C 1.515625 -3.75 1.921875 -4.34375 2.796875 -4.34375 C 3.375 -4.34375 3.640625 -3.84375 3.734375 -3.640625 C 3.90625 -3.234375 3.921875 -2.8125 3.921875 -2.265625 C 3.921875 -1.890625 3.921875 -1.234375 3.671875 -0.78125 C 3.40625 -0.34375 3 -0.0625 2.5 -0.0625 C 1.703125 -0.0625 1.078125 -0.640625 0.890625 -1.28125 C 0.921875 -1.28125 0.953125 -1.265625 1.078125 -1.265625 C 1.4375 -1.265625 1.625 -1.53125 1.625 -1.796875 C 1.625 -2.0625 1.4375 -2.328125 1.078125 -2.328125 C 0.921875 -2.328125 0.546875 -2.25 0.546875 -1.75 C 0.546875 -0.8125 1.296875 0.234375 2.515625 0.234375 C 3.78125 0.234375 4.890625 -0.8125 4.890625 -2.1875 Z M 4.890625 -2.1875 "/>
</symbol>
<symbol overflow="visible" id="glyph0-18">
<path style="stroke:none;" d="M 1.4375 -3.578125 L 1.4375 -3.84375 C 1.4375 -6.59375 2.796875 -6.984375 3.34375 -6.984375 C 3.609375 -6.984375 4.0625 -6.921875 4.3125 -6.546875 C 4.140625 -6.546875 3.703125 -6.546875 3.703125 -6.0625 C 3.703125 -5.71875 3.96875 -5.5625 4.203125 -5.5625 C 4.390625 -5.5625 4.71875 -5.65625 4.71875 -6.078125 C 4.71875 -6.734375 4.234375 -7.265625 3.328125 -7.265625 C 1.9375 -7.265625 0.453125 -5.859375 0.453125 -3.453125 C 0.453125 -0.53125 1.71875 0.234375 2.734375 0.234375 C 3.953125 0.234375 4.984375 -0.78125 4.984375 -2.21875 C 4.984375 -3.609375 4.015625 -4.65625 2.796875 -4.65625 C 2.0625 -4.65625 1.65625 -4.09375 1.4375 -3.578125 Z M 2.734375 -0.0625 C 2.046875 -0.0625 1.71875 -0.71875 1.65625 -0.890625 C 1.46875 -1.390625 1.46875 -2.265625 1.46875 -2.46875 C 1.46875 -3.3125 1.8125 -4.40625 2.796875 -4.40625 C 2.96875 -4.40625 3.46875 -4.40625 3.8125 -3.734375 C 4 -3.328125 4 -2.765625 4 -2.234375 C 4 -1.71875 4 -1.171875 3.8125 -0.78125 C 3.484375 -0.125 2.984375 -0.0625 2.734375 -0.0625 Z M 2.734375 -0.0625 "/>
</symbol>
<symbol overflow="visible" id="glyph0-19">
<path style="stroke:none;" d="M 5.1875 -6.640625 C 5.296875 -6.765625 5.296875 -6.796875 5.296875 -7.03125 L 2.640625 -7.03125 C 1.3125 -7.03125 1.28125 -7.171875 1.25 -7.375 L 0.96875 -7.375 L 0.609375 -5.125 L 0.890625 -5.125 C 0.921875 -5.296875 1.015625 -5.984375 1.15625 -6.125 C 1.234375 -6.1875 2.078125 -6.1875 2.21875 -6.1875 L 4.484375 -6.1875 C 4.359375 -6.015625 3.5 -4.828125 3.265625 -4.453125 C 2.28125 -2.984375 1.921875 -1.46875 1.921875 -0.359375 C 1.921875 -0.25 1.921875 0.234375 2.421875 0.234375 C 2.921875 0.234375 2.921875 -0.25 2.921875 -0.359375 L 2.921875 -0.921875 C 2.921875 -1.515625 2.953125 -2.109375 3.046875 -2.703125 C 3.09375 -2.953125 3.234375 -3.890625 3.71875 -4.5625 Z M 5.1875 -6.640625 "/>
</symbol>
<symbol overflow="visible" id="glyph0-20">
<path style="stroke:none;" d="M 1.78125 -4.984375 C 1.28125 -5.3125 1.234375 -5.6875 1.234375 -5.875 C 1.234375 -6.53125 1.9375 -6.984375 2.71875 -6.984375 C 3.515625 -6.984375 4.203125 -6.421875 4.203125 -5.640625 C 4.203125 -5.015625 3.78125 -4.5 3.125 -4.109375 Z M 3.375 -3.953125 C 4.15625 -4.359375 4.6875 -4.921875 4.6875 -5.640625 C 4.6875 -6.640625 3.71875 -7.265625 2.71875 -7.265625 C 1.640625 -7.265625 0.75 -6.453125 0.75 -5.4375 C 0.75 -5.25 0.78125 -4.75 1.234375 -4.25 C 1.359375 -4.109375 1.75 -3.84375 2.03125 -3.65625 C 1.390625 -3.34375 0.453125 -2.71875 0.453125 -1.640625 C 0.453125 -0.484375 1.578125 0.234375 2.71875 0.234375 C 3.953125 0.234375 4.984375 -0.671875 4.984375 -1.828125 C 4.984375 -2.21875 4.859375 -2.71875 4.453125 -3.171875 C 4.25 -3.40625 4.0625 -3.515625 3.375 -3.953125 Z M 2.28125 -3.484375 L 3.625 -2.640625 C 3.921875 -2.4375 4.4375 -2.109375 4.4375 -1.4375 C 4.4375 -0.625 3.625 -0.0625 2.71875 -0.0625 C 1.78125 -0.0625 1 -0.734375 1 -1.640625 C 1 -2.28125 1.359375 -2.984375 2.28125 -3.484375 Z M 2.28125 -3.484375 "/>
</symbol>
<symbol overflow="visible" id="glyph0-21">
<path style="stroke:none;" d="M 4 -3.46875 L 4 -3.125 C 4 -0.5625 2.875 -0.0625 2.234375 -0.0625 C 2.046875 -0.0625 1.46875 -0.09375 1.171875 -0.453125 C 1.640625 -0.453125 1.734375 -0.78125 1.734375 -0.953125 C 1.734375 -1.296875 1.46875 -1.46875 1.234375 -1.46875 C 1.0625 -1.46875 0.734375 -1.359375 0.734375 -0.9375 C 0.734375 -0.203125 1.3125 0.234375 2.25 0.234375 C 3.65625 0.234375 4.984375 -1.25 4.984375 -3.59375 C 4.984375 -6.515625 3.734375 -7.265625 2.765625 -7.265625 C 2.15625 -7.265625 1.625 -7.0625 1.15625 -6.578125 C 0.703125 -6.078125 0.453125 -5.625 0.453125 -4.8125 C 0.453125 -3.453125 1.421875 -2.375 2.640625 -2.375 C 3.296875 -2.375 3.75 -2.828125 4 -3.46875 Z M 2.65625 -2.625 C 2.46875 -2.625 1.96875 -2.625 1.640625 -3.3125 C 1.4375 -3.71875 1.4375 -4.265625 1.4375 -4.796875 C 1.4375 -5.390625 1.4375 -5.90625 1.671875 -6.296875 C 1.96875 -6.84375 2.375 -6.984375 2.765625 -6.984375 C 3.265625 -6.984375 3.625 -6.625 3.8125 -6.125 C 3.9375 -5.78125 3.984375 -5.09375 3.984375 -4.59375 C 3.984375 -3.6875 3.609375 -2.625 2.65625 -2.625 Z M 2.65625 -2.625 "/>
</symbol>
<symbol overflow="visible" id="glyph1-0">
<path style="stroke:none;" d=""/>
</symbol>
<symbol overflow="visible" id="glyph1-1">
<path style="stroke:none;" d="M -1.796875 -2.015625 C -3.46875 -2.625 -3.578125 -3.625 -3.390625 -4.15625 C -3.359375 -4.25 -3.125 -4.890625 -2.609375 -5.125 C -2.734375 -4.6875 -2.4375 -4.515625 -2.3125 -4.46875 C -2.046875 -4.375 -1.78125 -4.46875 -1.671875 -4.765625 C -1.578125 -5.03125 -1.6875 -5.296875 -2 -5.40625 C -2.6875 -5.65625 -3.375 -5.03125 -3.65625 -4.234375 C -4.125 -2.96875 -3.359375 -1.625 -2.09375 -1.171875 C -0.765625 -0.6875 0.625 -1.3125 1.0625 -2.515625 C 1.546875 -3.875 0.4375 -4.671875 0.328125 -4.703125 C 0.21875 -4.75 0.1875 -4.640625 0.171875 -4.609375 C 0.140625 -4.5 0.171875 -4.484375 0.234375 -4.4375 C 1.078125 -3.78125 0.953125 -3.078125 0.828125 -2.6875 C 0.625 -2.140625 -0.15625 -1.421875 -1.796875 -2.015625 Z M -1.796875 -2.015625 "/>
</symbol>
<symbol overflow="visible" id="glyph1-2">
<path style="stroke:none;" d="M -0.421875 -5.625 C -1.75 -6.109375 -3.203125 -5.46875 -3.65625 -4.234375 C -4.125 -2.953125 -3.375 -1.5625 -2.078125 -1.09375 C -0.75 -0.609375 0.609375 -1.296875 1.0625 -2.515625 C 1.5 -3.734375 0.875 -5.15625 -0.421875 -5.625 Z M 0.796875 -2.609375 C 0.625 -2.15625 0.25 -1.796875 -0.34375 -1.6875 C -0.875 -1.59375 -1.5 -1.8125 -1.875 -1.953125 C -2.265625 -2.09375 -2.828125 -2.296875 -3.1875 -2.71875 C -3.546875 -3.171875 -3.578125 -3.734375 -3.421875 -4.15625 C -3.265625 -4.609375 -2.890625 -4.953125 -2.34375 -5.0625 C -1.8125 -5.171875 -1.203125 -4.953125 -0.828125 -4.8125 C -0.453125 -4.671875 0.109375 -4.46875 0.46875 -4.078125 C 0.84375 -3.6875 0.96875 -3.109375 0.796875 -2.609375 Z M 0.796875 -2.609375 "/>
</symbol>
<symbol overflow="visible" id="glyph1-3">
<path style="stroke:none;" d="M -6.453125 -4.421875 L -6.875 -2.890625 L -6.5625 -2.78125 C -6.296875 -3.5 -6.203125 -3.53125 -5.703125 -3.34375 L -0.375 -1.40625 C 0.078125 -1.25 0.046875 -1.15625 -0.203125 -0.46875 L 0.125 -0.34375 C 0.234375 -0.671875 0.40625 -1.234375 0.515625 -1.5 C 0.59375 -1.75 0.796875 -2.234375 0.953125 -2.609375 L 0.625 -2.734375 C 0.375 -2.046875 0.328125 -1.953125 -0.125 -2.109375 Z M -6.453125 -4.421875 "/>
</symbol>
<symbol overflow="visible" id="glyph1-4">
<path style="stroke:none;" d="M 0.640625 -4.3125 L 1.578125 -3.96875 L 2 -5.484375 L 1.671875 -5.609375 C 1.40625 -4.890625 1.3125 -4.828125 0.8125 -5.015625 L -2.828125 -6.34375 L -3.265625 -4.78125 L -2.9375 -4.65625 C -2.671875 -5.375 -2.5625 -5.453125 -2.078125 -5.265625 L -0.25 -4.609375 C 0.640625 -4.28125 1.140625 -3.53125 0.875 -2.78125 C 0.5625 -1.921875 0.078125 -2.046875 -0.453125 -2.234375 L -3.859375 -3.484375 L -4.296875 -1.9375 L -3.96875 -1.8125 C -3.6875 -2.609375 -3.65625 -2.609375 -2.75 -2.28125 L -1.203125 -1.71875 C -0.421875 -1.421875 0.53125 -1.078125 1.109375 -2.640625 C 1.3125 -3.21875 1.1875 -3.78125 0.640625 -4.3125 Z M 0.640625 -4.3125 "/>
</symbol>
<symbol overflow="visible" id="glyph1-5">
<path style="stroke:none;" d="M -3.125 -2.40625 L -0.375 -1.40625 C 0.078125 -1.25 0.046875 -1.140625 -0.203125 -0.453125 L 0.125 -0.328125 C 0.234375 -0.6875 0.40625 -1.21875 0.515625 -1.5 C 0.609375 -1.765625 0.8125 -2.296875 0.953125 -2.625 L 0.625 -2.75 C 0.375 -2.078125 0.34375 -1.953125 -0.109375 -2.109375 L -1.984375 -2.796875 C -3.0625 -3.1875 -3.359375 -4.125 -3.125 -4.78125 C -2.890625 -5.421875 -2.296875 -5.34375 -1.71875 -5.140625 L 0.671875 -4.265625 C 1.125 -4.109375 1.078125 -3.984375 0.828125 -3.296875 L 1.15625 -3.171875 C 1.265625 -3.53125 1.4375 -4.0625 1.546875 -4.34375 C 1.640625 -4.609375 1.859375 -5.140625 2 -5.484375 L 1.671875 -5.609375 C 1.421875 -4.921875 1.375 -4.8125 0.921875 -4.96875 L -0.953125 -5.65625 C -2.03125 -6.046875 -2.328125 -6.984375 -2.09375 -7.625 C -1.859375 -8.265625 -1.265625 -8.1875 -0.6875 -7.984375 L 1.703125 -7.109375 C 2.15625 -6.953125 2.109375 -6.828125 1.859375 -6.140625 L 2.1875 -6.015625 C 2.3125 -6.390625 2.484375 -6.921875 2.578125 -7.203125 C 2.671875 -7.453125 2.890625 -7.984375 3.03125 -8.328125 L 2.703125 -8.453125 C 2.515625 -7.921875 2.421875 -7.671875 2.109375 -7.765625 L 0.15625 -8.46875 C -0.734375 -8.796875 -1.046875 -8.90625 -1.53125 -8.71875 C -1.75 -8.65625 -2.078125 -8.390625 -2.296875 -7.796875 C -2.609375 -6.921875 -2.15625 -6.25 -1.84375 -5.9375 C -2.78125 -6.109375 -3.171875 -5.40625 -3.328125 -4.9375 C -3.609375 -4.203125 -3.34375 -3.546875 -2.8125 -3.03125 L -3.890625 -3.4375 L -4.296875 -1.9375 L -3.96875 -1.8125 C -3.71875 -2.53125 -3.609375 -2.59375 -3.125 -2.40625 Z M -3.125 -2.40625 "/>
</symbol>
<symbol overflow="visible" id="glyph1-6">
<path style="stroke:none;" d="M -0.375 -1.40625 C 0.078125 -1.25 0.046875 -1.140625 -0.203125 -0.453125 L 0.125 -0.328125 C 0.234375 -0.6875 0.40625 -1.21875 0.515625 -1.5 C 0.609375 -1.765625 0.8125 -2.296875 0.953125 -2.625 L 0.625 -2.75 C 0.375 -2.078125 0.34375 -1.953125 -0.109375 -2.109375 L -1.984375 -2.796875 C -3.0625 -3.1875 -3.359375 -4.125 -3.125 -4.78125 C -2.890625 -5.421875 -2.296875 -5.34375 -1.71875 -5.140625 L 0.671875 -4.265625 C 1.125 -4.109375 1.078125 -3.984375 0.828125 -3.296875 L 1.15625 -3.171875 C 1.265625 -3.53125 1.4375 -4.0625 1.546875 -4.34375 C 1.640625 -4.609375 1.859375 -5.140625 2 -5.484375 L 1.671875 -5.609375 C 1.46875 -5.078125 1.375 -4.828125 1.078125 -4.921875 L -0.875 -5.625 C -1.765625 -5.953125 -2.078125 -6.0625 -2.5625 -5.875 C -2.796875 -5.8125 -3.109375 -5.546875 -3.328125 -4.9375 C -3.65625 -4.078125 -3.203125 -3.40625 -2.875 -3.09375 L -6.453125 -4.40625 L -6.875 -2.875 L -6.5625 -2.765625 C -6.3125 -3.484375 -6.203125 -3.53125 -5.703125 -3.34375 Z M -0.375 -1.40625 "/>
</symbol>
<symbol overflow="visible" id="glyph1-7">
<path style="stroke:none;" d="M -2.15625 -2.078125 C -3.671875 -2.703125 -3.609375 -3.65625 -3.484375 -4.015625 C -3.09375 -5.078125 -1.6875 -4.65625 -1.28125 -4.515625 Z M -1.953125 -1.984375 L -0.90625 -4.859375 C -0.828125 -5.09375 -0.8125 -5.125 -1.03125 -5.203125 C -2.046875 -5.578125 -3.25 -5.375 -3.71875 -4.09375 C -4.140625 -2.90625 -3.421875 -1.578125 -2.15625 -1.125 C -0.765625 -0.625 0.625 -1.3125 1.046875 -2.5 C 1.5 -3.734375 0.515625 -4.640625 0.328125 -4.703125 C 0.21875 -4.75 0.171875 -4.65625 0.15625 -4.609375 C 0.125 -4.5 0.171875 -4.484375 0.25 -4.4375 C 1.171875 -3.671875 0.84375 -2.75 0.8125 -2.640625 C 0.625 -2.125 0.15625 -1.84375 -0.3125 -1.734375 C -0.921875 -1.609375 -1.59375 -1.859375 -1.953125 -1.984375 Z M -1.953125 -1.984375 "/>
</symbol>
<symbol overflow="visible" id="glyph1-8">
<path style="stroke:none;" d="M 0.453125 -3.6875 C 0.890625 -3.59375 1.421875 -3.71875 1.59375 -4.203125 C 1.671875 -4.421875 1.75 -5.078125 0.9375 -5.375 L 0.359375 -5.59375 L 0.265625 -5.34375 L 0.84375 -5.125 C 1.421875 -4.921875 1.40625 -4.625 1.359375 -4.53125 C 1.234375 -4.1875 0.75 -4.3125 0.703125 -4.328125 L -1.34375 -5.078125 C -1.78125 -5.234375 -2.171875 -5.375 -2.671875 -5.15625 C -3.25 -4.890625 -3.59375 -4.4375 -3.765625 -3.953125 C -4.0625 -3.109375 -3.84375 -2.234375 -3.171875 -1.984375 C -2.859375 -1.875 -2.609375 -2.015625 -2.515625 -2.28125 C -2.40625 -2.5625 -2.546875 -2.828125 -2.8125 -2.921875 C -2.9375 -2.96875 -3.296875 -3.03125 -3.46875 -2.5625 C -3.75 -2.96875 -3.65625 -3.515625 -3.53125 -3.859375 C -3.359375 -4.359375 -2.75 -4.78125 -1.828125 -4.453125 L -1.453125 -4.3125 C -1.609375 -3.78125 -1.84375 -3.046875 -1.78125 -2.296875 C -1.703125 -1.390625 -1.265625 -0.9375 -0.8125 -0.78125 C 0.015625 -0.46875 0.640625 -1.375 0.875 -2.015625 C 1.125 -2.703125 0.875 -3.328125 0.453125 -3.6875 Z M -1.25 -4.234375 L -0.21875 -3.875 C 0.765625 -3.515625 0.828125 -2.640625 0.65625 -2.1875 C 0.46875 -1.6875 -0.03125 -1.390625 -0.546875 -1.578125 C -1.109375 -1.78125 -1.796875 -2.515625 -1.25 -4.234375 Z M -1.25 -4.234375 "/>
</symbol>
<symbol overflow="visible" id="glyph1-9">
<path style="stroke:none;" d="M 0.859375 -4.09375 L 1.546875 -3.84375 L 1.96875 -5.40625 L 1.640625 -5.53125 C 1.375 -4.8125 1.28125 -4.734375 0.78125 -4.921875 L -5.4375 -7.1875 L -5.859375 -5.671875 L -5.546875 -5.5625 C -5.28125 -6.28125 -5.1875 -6.328125 -4.6875 -6.140625 L -2.46875 -5.34375 C -2.953125 -5.171875 -3.375 -4.84375 -3.578125 -4.28125 C -4.015625 -3.078125 -3.40625 -1.640625 -2.078125 -1.15625 C -0.765625 -0.6875 0.609375 -1.296875 1.046875 -2.484375 C 1.28125 -3.125 1.09375 -3.71875 0.859375 -4.09375 Z M -1.875 -5.09375 L 0.21875 -4.328125 C 0.390625 -4.265625 0.421875 -4.25 0.53125 -4.078125 C 0.921875 -3.609375 0.96875 -3.0625 0.8125 -2.609375 C 0.640625 -2.15625 0.265625 -1.890625 -0.21875 -1.78125 C -0.734375 -1.671875 -1.34375 -1.84375 -1.75 -2 C -2.125 -2.140625 -2.75 -2.375 -3.09375 -2.84375 C -3.34375 -3.171875 -3.53125 -3.671875 -3.328125 -4.234375 C -3.1875 -4.609375 -2.890625 -4.984375 -2.3125 -5.125 C -2.09375 -5.171875 -2.078125 -5.15625 -1.875 -5.09375 Z M -1.875 -5.09375 "/>
</symbol>
<symbol overflow="visible" id="glyph1-10">
<path style="stroke:none;" d="M -2.78125 -2.953125 L -3.90625 -3.375 L -4.3125 -1.90625 L -3.984375 -1.78125 C -3.734375 -2.484375 -3.625 -2.5625 -3.140625 -2.375 L -0.390625 -1.375 C 0.0625 -1.21875 0.03125 -1.09375 -0.21875 -0.421875 L 0.109375 -0.296875 C 0.234375 -0.6875 0.390625 -1.1875 0.5 -1.46875 C 0.640625 -1.875 0.828125 -2.359375 1 -2.765625 L 0.671875 -2.890625 L 0.59375 -2.671875 C 0.3125 -1.90625 0.21875 -1.921875 -0.15625 -2.046875 L -1.734375 -2.625 C -2.75 -3 -3.5 -3.75 -3.21875 -4.53125 C -3.1875 -4.609375 -3.1875 -4.625 -3.15625 -4.640625 C -3.171875 -4.609375 -3.125 -4.359375 -2.859375 -4.265625 C -2.578125 -4.15625 -2.34375 -4.3125 -2.25 -4.53125 C -2.1875 -4.734375 -2.21875 -5.03125 -2.546875 -5.15625 C -2.875 -5.265625 -3.296875 -5.0625 -3.453125 -4.625 C -3.71875 -3.875 -3.171875 -3.25 -2.78125 -2.953125 Z M -2.78125 -2.953125 "/>
</symbol>
<symbol overflow="visible" id="glyph1-11">
<path style="stroke:none;" d="M -5.46875 -5.40625 C -5.703125 -5.484375 -5.734375 -5.5 -5.8125 -5.265625 C -5.390625 -4.390625 -5.71875 -3.484375 -5.84375 -3.15625 L -5.53125 -3.03125 C -5.453125 -3.234375 -5.234375 -3.84375 -5.296875 -4.5 L 0.015625 -2.5625 C 0.390625 -2.421875 0.484375 -2.34375 0.140625 -1.4375 L 0.03125 -1.09375 L 0.359375 -0.96875 C 0.453125 -1.359375 0.78125 -2.234375 0.921875 -2.640625 C 1.078125 -3.0625 1.40625 -3.953125 1.5625 -4.28125 L 1.234375 -4.40625 L 1.109375 -4.09375 C 0.78125 -3.171875 0.671875 -3.171875 0.28125 -3.3125 Z M -5.46875 -5.40625 "/>
</symbol>
<symbol overflow="visible" id="glyph1-12">
<path style="stroke:none;" d="M -0.328125 -1.59375 L -0.96875 -3.0625 C -1.8125 -5.1875 -2.140625 -5.984375 -3.15625 -6.359375 C -4.328125 -6.78125 -5.484375 -6.171875 -5.953125 -4.90625 C -6.359375 -3.765625 -5.703125 -2.65625 -4.796875 -2.328125 C -4.203125 -2.109375 -4.015625 -2.625 -4 -2.65625 C -3.9375 -2.828125 -3.9375 -3.21875 -4.359375 -3.375 C -4.640625 -3.46875 -4.96875 -3.40625 -5.109375 -3.046875 C -5.125 -2.96875 -5.140625 -2.9375 -5.140625 -2.890625 C -5.703125 -3.375 -5.875 -4.078125 -5.671875 -4.671875 C -5.328125 -5.609375 -4.34375 -5.734375 -3.484375 -5.4375 C -2.671875 -5.140625 -2.046875 -4.328125 -1.609375 -3.53125 L -0.140625 -0.765625 C -0.078125 -0.609375 -0.0625 -0.609375 0.1875 -0.515625 L 1.578125 -4.3125 L -0.109375 -5.234375 L -0.203125 -4.984375 C 0.078125 -4.828125 0.5 -4.609375 0.640625 -4.4375 C 0.671875 -4.328125 0.4375 -3.65625 0.34375 -3.421875 Z M -0.328125 -1.59375 "/>
</symbol>
</g>
</defs>
<g id="surface1">
<g style="fill:rgb(0%,0%,0%);fill-opacity:1;">
  <use xlink:href="#glyph0-1" x="21.395" y="74.567"/>
  <use xlink:href="#glyph0-2" x="26.243004" y="74.567"/>
  <use xlink:href="#glyph0-3" x="31.697554" y="74.567"/>
  <use xlink:href="#glyph0-4" x="34.728102" y="74.567"/>
  <use xlink:href="#glyph0-5" x="40.789198" y="74.567"/>
</g>
<g style="fill:rgb(0%,0%,0%);fill-opacity:1;">
  <use xlink:href="#glyph0-6" x="53.512481" y="74.567"/>
  <use xlink:href="#glyph0-7" x="59.573577" y="74.567"/>
  <use xlink:href="#glyph0-8" x="64.421581" y="74.567"/>
  <use xlink:href="#glyph0-9" x="69.876131" y="74.567"/>
  <use xlink:href="#glyph0-7" x="75.937227" y="74.567"/>
  <use xlink:href="#glyph0-10" x="80.785231" y="74.567"/>
</g>
<g style="fill:rgb(0%,0%,0%);fill-opacity:1;">
  <use xlink:href="#glyph0-11" x="88.701965" y="74.567"/>
</g>
<g style="fill:rgb(0%,0%,0%);fill-opacity:1;">
  <use xlink:href="#glyph1-1" x="121.26" y="74.567"/>
  <use xlink:href="#glyph1-2" x="122.918114" y="70.011379"/>
  <use xlink:href="#glyph1-3" x="124.78368" y="64.885793"/>
  <use xlink:href="#glyph1-4" x="125.820188" y="62.038017"/>
  <use xlink:href="#glyph1-5" x="127.893204" y="56.342466"/>
</g>
<g style="fill:rgb(0%,0%,0%);fill-opacity:1;">
  <use xlink:href="#glyph1-6" x="132.244821" y="44.386524"/>
  <use xlink:href="#glyph1-7" x="134.317837" y="38.690973"/>
  <use xlink:href="#glyph1-8" x="135.975951" y="34.135352"/>
  <use xlink:href="#glyph1-9" x="137.841517" y="29.009766"/>
  <use xlink:href="#glyph1-7" x="139.914533" y="23.314214"/>
  <use xlink:href="#glyph1-10" x="141.572647" y="18.758594"/>
</g>
<g style="fill:rgb(0%,0%,0%);fill-opacity:1;">
  <use xlink:href="#glyph1-11" x="144.280328" y="11.319318"/>
</g>
<g style="fill:rgb(0%,0%,0%);fill-opacity:1;">
  <use xlink:href="#glyph1-1" x="163.518" y="74.567"/>
  <use xlink:href="#glyph1-2" x="165.176114" y="70.011379"/>
  <use xlink:href="#glyph1-3" x="167.04168" y="64.885793"/>
  <use xlink:href="#glyph1-4" x="168.078188" y="62.038017"/>
  <use xlink:href="#glyph1-5" x="170.151204" y="56.342466"/>
</g>
<g style="fill:rgb(0%,0%,0%);fill-opacity:1;">
  <use xlink:href="#glyph1-6" x="174.502821" y="44.386524"/>
  <use xlink:href="#glyph1-7" x="176.575837" y="38.690973"/>
  <use xlink:href="#glyph1-8" x="178.233951" y="34.135352"/>
  <use xlink:href="#glyph1-9" x="180.099517" y="29.009766"/>
  <use xlink:href="#glyph1-7" x="182.172533" y="23.314214"/>
  <use xlink:href="#glyph1-10" x="183.830647" y="18.758594"/>
</g>
<g style="fill:rgb(0%,0%,0%);fill-opacity:1;">
  <use xlink:href="#glyph1-12" x="186.538328" y="11.319318"/>
</g>
<g style="fill:rgb(0%,0%,0%);fill-opacity:1;">
  <use xlink:href="#glyph0-10" x="32.577" y="88.116"/>
  <use xlink:href="#glyph0-2" x="36.850094" y="88.116"/>
</g>
<g style="fill:rgb(0%,0%,0%);fill-opacity:1;">
  <use xlink:href="#glyph0-12" x="41.99919" y="88.116"/>
</g>
<g style="fill:rgb(0%,0%,0%);fill-opacity:1;">
  <use xlink:href="#glyph0-6" x="53.521381" y="88.116"/>
  <use xlink:href="#glyph0-7" x="59.582477" y="88.116"/>
  <use xlink:href="#glyph0-8" x="64.430481" y="88.116"/>
  <use xlink:href="#glyph0-9" x="69.885031" y="88.116"/>
  <use xlink:href="#glyph0-7" x="75.946127" y="88.116"/>
  <use xlink:href="#glyph0-10" x="80.794131" y="88.116"/>
</g>
<g style="fill:rgb(0%,0%,0%);fill-opacity:1;">
  <use xlink:href="#glyph0-13" x="88.699956" y="88.116"/>
</g>
<g style="fill:rgb(0%,0%,0%);fill-opacity:1;">
  <use xlink:href="#glyph0-1" x="108.838154" y="88.116"/>
  <use xlink:href="#glyph0-7" x="113.686159" y="88.116"/>
  <use xlink:href="#glyph0-3" x="118.534163" y="88.116"/>
  <use xlink:href="#glyph0-3" x="121.564711" y="88.116"/>
</g>
<g style="fill:rgb(0%,0%,0%);fill-opacity:1;">
  <use xlink:href="#glyph0-13" x="128.227989" y="88.116"/>
</g>
<g style="fill:rgb(0%,0%,0%);fill-opacity:1;">
  <use xlink:href="#glyph0-1" x="151.093462" y="88.116"/>
  <use xlink:href="#glyph0-7" x="155.941466" y="88.116"/>
  <use xlink:href="#glyph0-3" x="160.78947" y="88.116"/>
  <use xlink:href="#glyph0-3" x="163.820018" y="88.116"/>
</g>
<g style="fill:rgb(0%,0%,0%);fill-opacity:1;">
  <use xlink:href="#glyph0-14" x="170.483297" y="88.116"/>
</g>
<g style="fill:rgb(0%,0%,0%);fill-opacity:1;">
  <use xlink:href="#glyph0-10" x="32.577" y="101.665"/>
  <use xlink:href="#glyph0-2" x="36.850094" y="101.665"/>
</g>
<g style="fill:rgb(0%,0%,0%);fill-opacity:1;">
  <use xlink:href="#glyph0-12" x="41.99919" y="101.665"/>
</g>
<g style="fill:rgb(0%,0%,0%);fill-opacity:1;">
  <use xlink:href="#glyph0-6" x="53.521381" y="101.665"/>
  <use xlink:href="#glyph0-7" x="59.582477" y="101.665"/>
  <use xlink:href="#glyph0-8" x="64.430481" y="101.665"/>
  <use xlink:href="#glyph0-9" x="69.885031" y="101.665"/>
  <use xlink:href="#glyph0-7" x="75.946127" y="101.665"/>
  <use xlink:href="#glyph0-10" x="80.794131" y="101.665"/>
</g>
<g style="fill:rgb(0%,0%,0%);fill-opacity:1;">
  <use xlink:href="#glyph0-14" x="88.699956" y="101.665"/>
</g>
<g style="fill:rgb(0%,0%,0%);fill-opacity:1;">
  <use xlink:href="#glyph0-1" x="108.838154" y="101.665"/>
  <use xlink:href="#glyph0-7" x="113.686159" y="101.665"/>
  <use xlink:href="#glyph0-3" x="118.534163" y="101.665"/>
  <use xlink:href="#glyph0-3" x="121.564711" y="101.665"/>
</g>
<g style="fill:rgb(0%,0%,0%);fill-opacity:1;">
  <use xlink:href="#glyph0-15" x="128.227989" y="101.665"/>
</g>
<g style="fill:rgb(0%,0%,0%);fill-opacity:1;">
  <use xlink:href="#glyph0-1" x="151.093462" y="101.665"/>
  <use xlink:href="#glyph0-7" x="155.941466" y="101.665"/>
  <use xlink:href="#glyph0-3" x="160.78947" y="101.665"/>
  <use xlink:href="#glyph0-3" x="163.820018" y="101.665"/>
</g>
<g style="fill:rgb(0%,0%,0%);fill-opacity:1;">
  <use xlink:href="#glyph0-16" x="170.483297" y="101.665"/>
</g>
<g style="fill:rgb(0%,0%,0%);fill-opacity:1;">
  <use xlink:href="#glyph0-10" x="32.577" y="115.215"/>
  <use xlink:href="#glyph0-2" x="36.850094" y="115.215"/>
</g>
<g style="fill:rgb(0%,0%,0%);fill-opacity:1;">
  <use xlink:href="#glyph0-12" x="41.99919" y="115.215"/>
</g>
<g style="fill:rgb(0%,0%,0%);fill-opacity:1;">
  <use xlink:href="#glyph0-6" x="53.521381" y="115.215"/>
  <use xlink:href="#glyph0-7" x="59.582477" y="115.215"/>
  <use xlink:href="#glyph0-8" x="64.430481" y="115.215"/>
  <use xlink:href="#glyph0-9" x="69.885031" y="115.215"/>
  <use xlink:href="#glyph0-7" x="75.946127" y="115.215"/>
  <use xlink:href="#glyph0-10" x="80.794131" y="115.215"/>
</g>
<g style="fill:rgb(0%,0%,0%);fill-opacity:1;">
  <use xlink:href="#glyph0-15" x="88.699956" y="115.215"/>
</g>
<g style="fill:rgb(0%,0%,0%);fill-opacity:1;">
  <use xlink:href="#glyph0-1" x="108.838154" y="115.215"/>
  <use xlink:href="#glyph0-7" x="113.686159" y="115.215"/>
  <use xlink:href="#glyph0-3" x="118.534163" y="115.215"/>
  <use xlink:href="#glyph0-3" x="121.564711" y="115.215"/>
</g>
<g style="fill:rgb(0%,0%,0%);fill-opacity:1;">
  <use xlink:href="#glyph0-17" x="128.227989" y="115.215"/>
</g>
<g style="fill:rgb(0%,0%,0%);fill-opacity:1;">
  <use xlink:href="#glyph0-1" x="151.093462" y="115.215"/>
  <use xlink:href="#glyph0-7" x="155.941466" y="115.215"/>
  <use xlink:href="#glyph0-3" x="160.78947" y="115.215"/>
  <use xlink:href="#glyph0-3" x="163.820018" y="115.215"/>
</g>
<g style="fill:rgb(0%,0%,0%);fill-opacity:1;">
  <use xlink:href="#glyph0-18" x="170.483297" y="115.215"/>
</g>
<g style="fill:rgb(0%,0%,0%);fill-opacity:1;">
  <use xlink:href="#glyph0-1" x="234.723" y="74.567"/>
  <use xlink:href="#glyph0-2" x="239.571004" y="74.567"/>
  <use xlink:href="#glyph0-3" x="245.025554" y="74.567"/>
  <use xlink:href="#glyph0-4" x="248.056102" y="74.567"/>
  <use xlink:href="#glyph0-5" x="254.117198" y="74.567"/>
</g>
<g style="fill:rgb(0%,0%,0%);fill-opacity:1;">
  <use xlink:href="#glyph0-6" x="266.840481" y="74.567"/>
  <use xlink:href="#glyph0-7" x="272.901577" y="74.567"/>
  <use xlink:href="#glyph0-8" x="277.749581" y="74.567"/>
  <use xlink:href="#glyph0-9" x="283.204131" y="74.567"/>
  <use xlink:href="#glyph0-7" x="289.265227" y="74.567"/>
  <use xlink:href="#glyph0-10" x="294.113231" y="74.567"/>
</g>
<g style="fill:rgb(0%,0%,0%);fill-opacity:1;">
  <use xlink:href="#glyph0-11" x="302.029965" y="74.567"/>
</g>
<g style="fill:rgb(0%,0%,0%);fill-opacity:1;">
  <use xlink:href="#glyph1-1" x="334.588" y="74.567"/>
  <use xlink:href="#glyph1-2" x="336.246114" y="70.011379"/>
  <use xlink:href="#glyph1-3" x="338.11168" y="64.885793"/>
  <use xlink:href="#glyph1-4" x="339.148188" y="62.038017"/>
  <use xlink:href="#glyph1-5" x="341.221204" y="56.342466"/>
</g>
<g style="fill:rgb(0%,0%,0%);fill-opacity:1;">
  <use xlink:href="#glyph1-6" x="345.572821" y="44.386524"/>
  <use xlink:href="#glyph1-7" x="347.645837" y="38.690973"/>
  <use xlink:href="#glyph1-8" x="349.303951" y="34.135352"/>
  <use xlink:href="#glyph1-9" x="351.169517" y="29.009766"/>
  <use xlink:href="#glyph1-7" x="353.242533" y="23.314214"/>
  <use xlink:href="#glyph1-10" x="354.900647" y="18.758594"/>
</g>
<g style="fill:rgb(0%,0%,0%);fill-opacity:1;">
  <use xlink:href="#glyph1-11" x="357.608328" y="11.319318"/>
</g>
<g style="fill:rgb(0%,0%,0%);fill-opacity:1;">
  <use xlink:href="#glyph1-1" x="376.846" y="74.567"/>
  <use xlink:href="#glyph1-2" x="378.504114" y="70.011379"/>
  <use xlink:href="#glyph1-3" x="380.36968" y="64.885793"/>
  <use xlink:href="#glyph1-4" x="381.406188" y="62.038017"/>
  <use xlink:href="#glyph1-5" x="383.479204" y="56.342466"/>
</g>
<g style="fill:rgb(0%,0%,0%);fill-opacity:1;">
  <use xlink:href="#glyph1-6" x="387.830821" y="44.386524"/>
  <use xlink:href="#glyph1-7" x="389.903837" y="38.690973"/>
  <use xlink:href="#glyph1-8" x="391.561951" y="34.135352"/>
  <use xlink:href="#glyph1-9" x="393.427517" y="29.009766"/>
  <use xlink:href="#glyph1-7" x="395.500533" y="23.314214"/>
  <use xlink:href="#glyph1-10" x="397.158647" y="18.758594"/>
</g>
<g style="fill:rgb(0%,0%,0%);fill-opacity:1;">
  <use xlink:href="#glyph1-12" x="399.866328" y="11.319318"/>
</g>
<g style="fill:rgb(0%,0%,0%);fill-opacity:1;">
  <use xlink:href="#glyph0-10" x="245.905" y="88.116"/>
  <use xlink:href="#glyph0-2" x="250.178094" y="88.116"/>
</g>
<g style="fill:rgb(0%,0%,0%);fill-opacity:1;">
  <use xlink:href="#glyph0-12" x="255.32719" y="88.116"/>
</g>
<g style="fill:rgb(0%,0%,0%);fill-opacity:1;">
  <use xlink:href="#glyph0-6" x="266.849381" y="88.116"/>
  <use xlink:href="#glyph0-7" x="272.910477" y="88.116"/>
  <use xlink:href="#glyph0-8" x="277.758481" y="88.116"/>
  <use xlink:href="#glyph0-9" x="283.213031" y="88.116"/>
  <use xlink:href="#glyph0-7" x="289.274127" y="88.116"/>
  <use xlink:href="#glyph0-10" x="294.122131" y="88.116"/>
</g>
<g style="fill:rgb(0%,0%,0%);fill-opacity:1;">
  <use xlink:href="#glyph0-16" x="302.027956" y="88.116"/>
</g>
<g style="fill:rgb(0%,0%,0%);fill-opacity:1;">
  <use xlink:href="#glyph0-1" x="322.166154" y="88.116"/>
  <use xlink:href="#glyph0-7" x="327.014158" y="88.116"/>
  <use xlink:href="#glyph0-3" x="331.862163" y="88.116"/>
  <use xlink:href="#glyph0-3" x="334.892711" y="88.116"/>
</g>
<g style="fill:rgb(0%,0%,0%);fill-opacity:1;">
  <use xlink:href="#glyph0-19" x="341.555989" y="88.116"/>
</g>
<g style="fill:rgb(0%,0%,0%);fill-opacity:1;">
  <use xlink:href="#glyph0-1" x="364.421462" y="88.116"/>
  <use xlink:href="#glyph0-7" x="369.269466" y="88.116"/>
  <use xlink:href="#glyph0-3" x="374.11747" y="88.116"/>
  <use xlink:href="#glyph0-3" x="377.148018" y="88.116"/>
</g>
<g style="fill:rgb(0%,0%,0%);fill-opacity:1;">
  <use xlink:href="#glyph0-20" x="383.811297" y="88.116"/>
</g>
<g style="fill:rgb(0%,0%,0%);fill-opacity:1;">
  <use xlink:href="#glyph0-10" x="245.905" y="101.665"/>
  <use xlink:href="#glyph0-2" x="250.178094" y="101.665"/>
</g>
<g style="fill:rgb(0%,0%,0%);fill-opacity:1;">
  <use xlink:href="#glyph0-12" x="255.32719" y="101.665"/>
</g>
<g style="fill:rgb(0%,0%,0%);fill-opacity:1;">
  <use xlink:href="#glyph0-6" x="266.849381" y="101.665"/>
  <use xlink:href="#glyph0-7" x="272.910477" y="101.665"/>
  <use xlink:href="#glyph0-8" x="277.758481" y="101.665"/>
  <use xlink:href="#glyph0-9" x="283.213031" y="101.665"/>
  <use xlink:href="#glyph0-7" x="289.274127" y="101.665"/>
  <use xlink:href="#glyph0-10" x="294.122131" y="101.665"/>
</g>
<g style="fill:rgb(0%,0%,0%);fill-opacity:1;">
  <use xlink:href="#glyph0-17" x="302.027956" y="101.665"/>
</g>
<g style="fill:rgb(0%,0%,0%);fill-opacity:1;">
  <use xlink:href="#glyph0-1" x="322.166154" y="101.665"/>
  <use xlink:href="#glyph0-7" x="327.014158" y="101.665"/>
  <use xlink:href="#glyph0-3" x="331.862163" y="101.665"/>
  <use xlink:href="#glyph0-3" x="334.892711" y="101.665"/>
</g>
<g style="fill:rgb(0%,0%,0%);fill-opacity:1;">
  <use xlink:href="#glyph0-21" x="341.555989" y="101.665"/>
</g>
<g style="fill:rgb(0%,0%,0%);fill-opacity:1;">
  <use xlink:href="#glyph0-1" x="361.694187" y="101.665"/>
  <use xlink:href="#glyph0-7" x="366.542191" y="101.665"/>
  <use xlink:href="#glyph0-3" x="371.390195" y="101.665"/>
  <use xlink:href="#glyph0-3" x="374.420743" y="101.665"/>
</g>
<g style="fill:rgb(0%,0%,0%);fill-opacity:1;">
  <use xlink:href="#glyph0-13" x="381.084022" y="101.665"/>
  <use xlink:href="#glyph0-11" x="386.538572" y="101.665"/>
</g>
<g style="fill:rgb(0%,0%,0%);fill-opacity:1;">
  <use xlink:href="#glyph0-10" x="245.905" y="115.215"/>
  <use xlink:href="#glyph0-2" x="250.178094" y="115.215"/>
</g>
<g style="fill:rgb(0%,0%,0%);fill-opacity:1;">
  <use xlink:href="#glyph0-12" x="255.32719" y="115.215"/>
</g>
<g style="fill:rgb(0%,0%,0%);fill-opacity:1;">
  <use xlink:href="#glyph0-6" x="266.849381" y="115.215"/>
  <use xlink:href="#glyph0-7" x="272.910477" y="115.215"/>
  <use xlink:href="#glyph0-8" x="277.758481" y="115.215"/>
  <use xlink:href="#glyph0-9" x="283.213031" y="115.215"/>
  <use xlink:href="#glyph0-7" x="289.274127" y="115.215"/>
  <use xlink:href="#glyph0-10" x="294.122131" y="115.215"/>
</g>
<g style="fill:rgb(0%,0%,0%);fill-opacity:1;">
  <use xlink:href="#glyph0-18" x="302.027956" y="115.215"/>
</g>
<g style="fill:rgb(0%,0%,0%);fill-opacity:1;">
  <use xlink:href="#glyph0-1" x="319.438879" y="115.215"/>
  <use xlink:href="#glyph0-7" x="324.286883" y="115.215"/>
  <use xlink:href="#glyph0-3" x="329.134888" y="115.215"/>
  <use xlink:href="#glyph0-3" x="332.165436" y="115.215"/>
</g>
<g style="fill:rgb(0%,0%,0%);fill-opacity:1;">
  <use xlink:href="#glyph0-13" x="338.828714" y="115.215"/>
  <use xlink:href="#glyph0-13" x="344.283264" y="115.215"/>
</g>
<g style="fill:rgb(0%,0%,0%);fill-opacity:1;">
  <use xlink:href="#glyph0-1" x="361.694187" y="115.215"/>
  <use xlink:href="#glyph0-7" x="366.542191" y="115.215"/>
  <use xlink:href="#glyph0-3" x="371.390195" y="115.215"/>
  <use xlink:href="#glyph0-3" x="374.420743" y="115.215"/>
</g>
<g style="fill:rgb(0%,0%,0%);fill-opacity:1;">
  <use xlink:href="#glyph0-13" x="381.084022" y="115.215"/>
  <use xlink:href="#glyph0-14" x="386.538572" y="115.215"/>
</g>
</g>
</svg>
