<?xml version="1.0" encoding="UTF-8"?>
<svg xmlns="http://www.w3.org/2000/svg" xmlns:xlink="http://www.w3.org/1999/xlink" width="532pt" height="168pt" viewBox="0 0 532 168" version="1.2">
<defs>
<g>
<symbol overflow="visible" id="glyph0-0">
<path style="stroke:none;" d=""/>
</symbol>
<symbol overflow="visible" id="glyph0-1">
<path style="stroke:none;" d="M 0.59375 -7.40625 L 0.390625 -4.96875 L 0.65625 -4.96875 C 0.703125 -5.546875 0.734375 -6.296875 1.078125 -6.6875 C 1.421875 -7.0625 2.046875 -7.09375 2.53125 -7.09375 L 2.984375 -7.09375 C 3.234375 -7.09375 3.453125 -7.0625 3.453125 -6.703125 L 3.453125 -0.84375 C 3.453125 -0.390625 3.046875 -0.328125 2.65625 -0.328125 C 2.53125 -0.328125 2.40625 -0.34375 2.296875 -0.34375 L 1.96875 -0.34375 L 1.96875 -0.015625 L 3.59375 -0.015625 L 3.921875 -0.046875 L 5.859375 -0.046875 L 5.859375 -0.34375 L 5.171875 -0.34375 C 4.75 -0.34375 4.359375 -0.375 4.359375 -0.84375 L 4.359375 -6.703125 C 4.359375 -7.078125 4.59375 -7.09375 4.96875 -7.09375 L 5.34375 -7.09375 C 6 -7.09375 6.765625 -7.015625 7.015625 -6.109375 C 7.09375 -5.734375 7.125 -5.34375 7.171875 -4.96875 L 7.421875 -4.96875 L 7.21875 -7.40625 Z M 0.59375 -7.40625 "/>
</symbol>
<symbol overflow="visible" id="glyph0-2">
<path style="stroke:none;" d="M 0.359375 -7.453125 L 0.359375 -7.125 L 0.5625 -7.125 C 0.90625 -7.125 1.1875 -7.09375 1.1875 -6.59375 L 1.1875 -0.78125 C 1.1875 -0.375 0.921875 -0.34375 0.625 -0.34375 L 0.359375 -0.34375 L 0.359375 -0.015625 L 2.765625 -0.015625 L 2.765625 -0.34375 L 2.515625 -0.34375 C 2.1875 -0.34375 1.9375 -0.375 1.9375 -0.78125 L 1.9375 -2.8125 C 1.9375 -3.59375 2.359375 -4.578125 3.40625 -4.578125 C 4.09375 -4.578125 4.1875 -3.875 4.1875 -3.234375 L 4.1875 -0.75 C 4.1875 -0.375 3.890625 -0.34375 3.59375 -0.34375 L 3.359375 -0.34375 L 3.359375 -0.015625 L 5.765625 -0.015625 L 5.765625 -0.34375 L 5.5 -0.34375 C 5.21875 -0.34375 4.921875 -0.34375 4.921875 -0.78125 L 4.921875 -3.21875 C 4.921875 -3.5625 4.921875 -3.921875 4.734375 -4.21875 C 4.484375 -4.65625 3.984375 -4.8125 3.484375 -4.8125 C 2.8125 -4.8125 2.078125 -4.390625 1.90625 -3.75 L 1.890625 -7.578125 Z M 0.359375 -7.453125 "/>
</symbol>
<symbol overflow="visible" id="glyph0-3">
<path style="stroke:none;" d="M 0.421875 -4.6875 L 0.421875 -4.359375 L 0.59375 -4.359375 C 0.9375 -4.359375 1.203125 -4.3125 1.203125 -3.8125 L 1.203125 -0.796875 C 1.203125 -0.359375 0.921875 -0.34375 0.375 -0.34375 L 0.375 -0.015625 L 2.65625 -0.015625 L 2.65625 -0.34375 L 2.484375 -0.34375 C 2.1875 -0.34375 1.90625 -0.375 1.90625 -0.71875 L 1.90625 -4.8125 Z M 1.3125 -7.265625 C 1 -7.21875 0.84375 -6.96875 0.84375 -6.734375 C 0.84375 -6.484375 1.03125 -6.1875 1.375 -6.1875 C 1.71875 -6.1875 1.921875 -6.453125 1.921875 -6.734375 C 1.921875 -6.984375 1.75 -7.28125 1.390625 -7.28125 C 1.359375 -7.28125 1.328125 -7.265625 1.3125 -7.265625 Z M 1.3125 -7.265625 "/>
</symbol>
<symbol overflow="visible" id="glyph0-4">
<path style="stroke:none;" d="M 0.953125 -0.40625 C 1.140625 -0.078125 1.71875 0.09375 2.109375 0.09375 C 2.875 0.09375 3.8125 -0.15625 3.90625 -1.3125 C 3.90625 -2.03125 3.515625 -2.515625 2.90625 -2.765625 C 2.640625 -2.875 2.34375 -2.90625 2.078125 -2.96875 L 1.84375 -3.015625 C 1.421875 -3.09375 0.859375 -3.3125 0.859375 -3.84375 C 0.859375 -4.484375 1.578125 -4.671875 2.109375 -4.671875 C 2.90625 -4.671875 3.28125 -4.171875 3.375 -3.453125 C 3.375 -3.359375 3.375 -3.25 3.5 -3.25 C 3.625 -3.25 3.625 -3.359375 3.625 -3.453125 L 3.625 -4.734375 C 3.625 -4.78125 3.59375 -4.859375 3.515625 -4.859375 C 3.34375 -4.859375 3.234375 -4.5625 3.125 -4.5625 C 3.046875 -4.578125 2.984375 -4.640625 2.921875 -4.671875 C 2.6875 -4.8125 2.40625 -4.859375 2.125 -4.859375 C 1.46875 -4.859375 0.359375 -4.640625 0.359375 -3.5625 C 0.359375 -2.375 1.671875 -2.25 2.4375 -2.09375 C 2.90625 -2 3.390625 -1.671875 3.40625 -1.140625 C 3.40625 -0.34375 2.703125 -0.125 2.140625 -0.125 C 1.28125 -0.125 0.875 -0.796875 0.671875 -1.53125 C 0.640625 -1.640625 0.671875 -1.875 0.484375 -1.875 C 0.421875 -1.875 0.359375 -1.828125 0.359375 -1.75 L 0.359375 -0.3125 C 0.359375 -0.25 0.34375 -0.1875 0.34375 -0.125 C 0.34375 -0.03125 0.375 0.09375 0.484375 0.09375 C 0.640625 0.078125 0.78125 -0.265625 0.953125 -0.40625 Z M 0.953125 -0.40625 "/>
</symbol>
<symbol overflow="visible" id="glyph0-5">
<path style="stroke:none;" d="M 0.3125 -7.453125 L 0.3125 -7.125 L 0.46875 -7.125 C 0.8125 -7.125 1.140625 -7.09375 1.140625 -6.59375 L 1.140625 -0.015625 L 1.390625 -0.03125 L 1.8125 -0.703125 C 2.078125 -0.1875 2.6875 0.09375 3.25 0.09375 C 4.578125 0.09375 5.640625 -1.0625 5.640625 -2.359375 C 5.640625 -3.59375 4.71875 -4.8125 3.28125 -4.8125 C 2.703125 -4.8125 2.25 -4.53125 1.859375 -4.09375 L 1.859375 -7.578125 Z M 4.75 -2.109375 C 4.71875 -1.578125 4.640625 -1.078125 4.28125 -0.671875 C 4.015625 -0.34375 3.59375 -0.140625 3.171875 -0.140625 C 2.71875 -0.140625 2.328125 -0.375 2.0625 -0.765625 C 1.96875 -0.890625 1.890625 -1.03125 1.890625 -1.1875 L 1.890625 -3.015625 C 1.890625 -3.15625 1.875 -3.28125 1.875 -3.421875 C 1.875 -4.0625 2.640625 -4.578125 3.28125 -4.578125 C 4.46875 -4.578125 4.765625 -3.25 4.765625 -2.34375 C 4.765625 -2.265625 4.765625 -2.1875 4.75 -2.109375 Z M 4.75 -2.109375 "/>
</symbol>
<symbol overflow="visible" id="glyph0-6">
<path style="stroke:none;" d="M 2.546875 -4.859375 C 1.15625 -4.703125 0.3125 -3.5625 0.3125 -2.328125 C 0.3125 -1.171875 1.203125 0.109375 2.703125 0.109375 C 4.0625 0.109375 5.09375 -1.0625 5.09375 -2.34375 C 5.09375 -3.625 4.125 -4.859375 2.65625 -4.859375 Z M 1.1875 -2.09375 C 1.171875 -2.1875 1.171875 -2.28125 1.171875 -2.359375 C 1.171875 -3.234375 1.375 -4.625 2.703125 -4.625 C 3.84375 -4.625 4.21875 -3.546875 4.21875 -2.5 C 4.21875 -1.609375 4.109375 -0.234375 2.765625 -0.15625 L 2.703125 -0.15625 C 1.828125 -0.15625 1.296875 -0.921875 1.21875 -1.765625 C 1.203125 -1.875 1.203125 -1.984375 1.1875 -2.09375 Z M 1.1875 -2.09375 "/>
</symbol>
<symbol overflow="visible" id="glyph0-7">
<path style="stroke:none;" d="M 0.171875 -4.703125 L 0.171875 -4.375 L 0.375 -4.375 C 0.890625 -4.375 1.09375 -4.171875 1.34375 -3.84375 C 1.703125 -3.390625 2.03125 -2.9375 2.390625 -2.484375 C 2.421875 -2.4375 2.515625 -2.359375 2.515625 -2.28125 C 2.515625 -2.21875 2.4375 -2.15625 2.390625 -2.109375 L 2.03125 -1.640625 C 1.46875 -0.9375 1.03125 -0.34375 0.125 -0.34375 L 0.125 -0.015625 L 2.046875 -0.015625 L 2.046875 -0.34375 C 1.84375 -0.34375 1.734375 -0.53125 1.734375 -0.6875 C 1.734375 -0.953125 2 -1.171875 2.15625 -1.375 C 2.34375 -1.609375 2.515625 -1.859375 2.71875 -2.078125 C 2.796875 -1.9375 2.90625 -1.8125 3 -1.6875 C 3.15625 -1.46875 3.34375 -1.25 3.5 -1.03125 C 3.59375 -0.921875 3.78125 -0.75 3.78125 -0.59375 C 3.78125 -0.4375 3.546875 -0.34375 3.40625 -0.34375 L 3.40625 -0.015625 L 5.609375 -0.015625 L 5.609375 -0.34375 L 5.390625 -0.34375 C 4.828125 -0.34375 4.640625 -0.578125 4.390625 -0.921875 C 4.171875 -1.21875 3.921875 -1.53125 3.703125 -1.828125 L 3.296875 -2.359375 C 3.25 -2.40625 3.15625 -2.5 3.140625 -2.578125 C 3.140625 -2.640625 3.21875 -2.703125 3.25 -2.75 L 3.59375 -3.171875 C 4.109375 -3.796875 4.53125 -4.375 5.375 -4.375 L 5.421875 -4.375 L 5.421875 -4.703125 L 3.5 -4.703125 L 3.5 -4.375 C 3.703125 -4.375 3.8125 -4.171875 3.8125 -4.03125 C 3.8125 -3.625 3.203125 -3.234375 2.953125 -2.796875 L 2.9375 -2.796875 C 2.875 -2.90625 2.796875 -3.015625 2.71875 -3.109375 L 2.25 -3.703125 C 2.171875 -3.8125 2 -3.96875 2 -4.109375 C 2 -4.28125 2.21875 -4.359375 2.359375 -4.375 L 2.359375 -4.703125 Z M 0.171875 -4.703125 "/>
</symbol>
<symbol overflow="visible" id="glyph0-8">
<path style="stroke:none;" d="M 0.359375 -4.6875 L 0.359375 -4.359375 L 0.5 -4.359375 C 0.78125 -4.359375 1.109375 -4.34375 1.171875 -4.03125 C 1.1875 -3.921875 1.1875 -3.796875 1.1875 -3.671875 L 1.1875 -1.484375 C 1.1875 -1.171875 1.203125 -0.84375 1.359375 -0.5625 C 1.640625 -0.015625 2.28125 0.09375 2.84375 0.09375 C 3.453125 0.09375 4 -0.28125 4.203125 -0.875 L 4.21875 0.09375 L 5.765625 -0.015625 L 5.765625 -0.34375 L 5.609375 -0.34375 C 5.265625 -0.34375 4.921875 -0.375 4.921875 -0.859375 L 4.921875 -4.8125 L 3.359375 -4.6875 L 3.359375 -4.359375 L 3.453125 -4.359375 C 3.828125 -4.359375 4.1875 -4.34375 4.1875 -3.8125 L 4.1875 -1.84375 C 4.1875 -1.046875 3.78125 -0.125 2.84375 -0.125 C 2.421875 -0.125 2.046875 -0.265625 1.953125 -0.8125 C 1.9375 -1.03125 1.9375 -1.234375 1.9375 -1.4375 L 1.9375 -4.8125 L 1.390625 -4.765625 Z M 0.359375 -4.6875 "/>
</symbol>
<symbol overflow="visible" id="glyph0-9">
<path style="stroke:none;" d="M 0.375 -7.453125 L 0.375 -7.125 L 0.5625 -7.125 C 0.921875 -7.125 1.203125 -7.09375 1.203125 -6.578125 L 1.203125 -0.78125 C 1.203125 -0.375 0.90625 -0.34375 0.59375 -0.34375 L 0.375 -0.34375 L 0.375 -0.015625 L 2.734375 -0.015625 L 2.734375 -0.34375 L 2.484375 -0.34375 C 2.1875 -0.34375 1.90625 -0.375 1.90625 -0.765625 L 1.90625 -7.578125 Z M 0.375 -7.453125 "/>
</symbol>
<symbol overflow="visible" id="glyph0-10">
<path style="stroke:none;" d="M 3.328125 -7.453125 L 3.328125 -7.125 L 3.453125 -7.125 C 3.875 -7.125 4.15625 -7.109375 4.15625 -6.453125 L 4.15625 -4.140625 C 3.796875 -4.546875 3.34375 -4.8125 2.765625 -4.8125 C 1.46875 -4.8125 0.375 -3.703125 0.375 -2.34375 C 0.375 -1.140625 1.296875 0.09375 2.65625 0.09375 C 3.25 0.09375 3.703125 -0.15625 4.125 -0.625 L 4.125 0.09375 L 5.6875 -0.015625 L 5.6875 -0.34375 L 5.546875 -0.34375 C 5.1875 -0.34375 4.859375 -0.375 4.859375 -0.890625 L 4.859375 -7.578125 Z M 1.25 -2.09375 L 1.25 -2.25 C 1.25 -3.0625 1.359375 -3.875 2.109375 -4.390625 C 2.328125 -4.515625 2.578125 -4.5625 2.8125 -4.5625 C 3.375 -4.5625 4.140625 -4.140625 4.140625 -3.453125 C 4.140625 -3.3125 4.125 -3.171875 4.125 -3.03125 L 4.125 -1.21875 C 4.125 -1.0625 4.0625 -0.984375 3.984375 -0.859375 C 3.703125 -0.4375 3.21875 -0.125 2.71875 -0.125 C 1.890625 -0.125 1.390625 -0.90625 1.28125 -1.640625 C 1.265625 -1.78125 1.265625 -1.9375 1.25 -2.09375 Z M 1.25 -2.09375 "/>
</symbol>
<symbol overflow="visible" id="glyph0-11">
<path style="stroke:none;" d="M 1.1875 -4.0625 C 1.46875 -4.40625 1.875 -4.640625 2.328125 -4.640625 C 3.125 -4.640625 3.53125 -3.953125 3.53125 -3.203125 L 3.53125 -2.84375 C 2.296875 -2.84375 0.46875 -2.4375 0.46875 -1.046875 C 0.46875 -0.234375 1.421875 0.09375 2.1875 0.09375 L 2.328125 0.09375 C 2.875 0.046875 3.46875 -0.34375 3.609375 -0.84375 L 3.625 -0.84375 C 3.65625 -0.390625 3.953125 0.046875 4.453125 0.046875 C 4.921875 0.046875 5.296875 -0.328125 5.34375 -0.796875 L 5.34375 -1.59375 L 5.078125 -1.59375 L 5.078125 -1.046875 C 5.078125 -0.75 5.03125 -0.296875 4.671875 -0.296875 C 4.34375 -0.296875 4.265625 -0.734375 4.265625 -1 C 4.265625 -1.125 4.28125 -1.25 4.28125 -1.375 L 4.28125 -2.875 C 4.28125 -3 4.28125 -3.125 4.28125 -3.265625 C 4.28125 -4.28125 3.328125 -4.859375 2.421875 -4.859375 C 1.734375 -4.859375 0.796875 -4.5 0.796875 -3.625 C 0.796875 -3.34375 0.984375 -3.125 1.265625 -3.125 C 1.53125 -3.125 1.734375 -3.328125 1.734375 -3.59375 C 1.734375 -3.84375 1.53125 -4.0625 1.265625 -4.0625 C 1.25 -4.0625 1.203125 -4.0625 1.1875 -4.0625 Z M 3.53125 -2.625 L 3.53125 -1.53125 C 3.53125 -0.78125 3.015625 -0.171875 2.296875 -0.125 L 2.25 -0.125 C 1.75 -0.125 1.28125 -0.53125 1.28125 -1.0625 L 1.28125 -1.109375 C 1.359375 -2.171875 2.515625 -2.59375 3.53125 -2.625 Z M 3.53125 -2.625 "/>
</symbol>
<symbol overflow="visible" id="glyph0-12">
<path style="stroke:none;" d="M 0.203125 -4.703125 L 0.203125 -4.375 L 0.421875 -4.375 C 1 -4.375 1.03125 -4.03125 1.3125 -3.34375 C 1.75 -2.296875 2.1875 -1.25 2.59375 -0.1875 C 2.65625 -0.046875 2.6875 0.09375 2.859375 0.09375 C 3.109375 0.09375 3.3125 -0.6875 3.484375 -1.09375 C 3.78125 -1.859375 4.109375 -2.625 4.421875 -3.390625 C 4.65625 -4 4.921875 -4.375 5.5 -4.375 L 5.5 -4.703125 L 4.75 -4.671875 L 3.78125 -4.671875 L 3.78125 -4.375 C 4.03125 -4.359375 4.28125 -4.203125 4.28125 -3.921875 C 4.28125 -3.703125 4.171875 -3.515625 4.09375 -3.3125 C 3.84375 -2.6875 3.578125 -2.0625 3.328125 -1.421875 C 3.25 -1.25 3.1875 -1.046875 3.09375 -0.859375 C 2.71875 -1.859375 2.3125 -2.84375 1.890625 -3.828125 C 1.859375 -3.90625 1.828125 -4 1.828125 -4.09375 L 1.828125 -4.140625 C 1.890625 -4.375 2.203125 -4.375 2.421875 -4.375 L 2.421875 -4.703125 Z M 0.203125 -4.703125 "/>
</symbol>
<symbol overflow="visible" id="glyph0-13">
<path style="stroke:none;" d="M 1.1875 -2.546875 L 4.34375 -2.546875 C 4.453125 -2.546875 4.5 -2.59375 4.5 -2.703125 C 4.5 -3.78125 3.921875 -4.859375 2.59375 -4.859375 C 1.28125 -4.859375 0.3125 -3.671875 0.3125 -2.421875 C 0.3125 -1.234375 1.171875 0.09375 2.640625 0.09375 C 3.46875 0.09375 4.171875 -0.34375 4.46875 -1.1875 C 4.484375 -1.234375 4.5 -1.265625 4.5 -1.3125 C 4.5 -1.375 4.4375 -1.421875 4.390625 -1.421875 C 4.203125 -1.421875 4.140625 -1.0625 4.078125 -0.9375 C 3.8125 -0.484375 3.296875 -0.15625 2.765625 -0.15625 C 2.15625 -0.15625 1.625 -0.59375 1.390625 -1.140625 C 1.203125 -1.578125 1.1875 -2.078125 1.1875 -2.546875 Z M 1.203125 -2.765625 C 1.203125 -3.609375 1.671875 -4.640625 2.578125 -4.640625 C 3.515625 -4.640625 3.796875 -3.546875 3.796875 -2.765625 Z M 1.203125 -2.765625 "/>
</symbol>
<symbol overflow="visible" id="glyph0-14">
<path style="stroke:none;" d="M 1.609375 -6.71875 C 1.609375 -5.984375 1.3125 -4.609375 0.203125 -4.609375 L 0.203125 -4.375 L 1.140625 -4.375 L 1.140625 -1.46875 C 1.140625 -1.140625 1.15625 -0.8125 1.3125 -0.53125 C 1.578125 -0.09375 2.078125 0.09375 2.546875 0.09375 C 3.421875 0.09375 3.609375 -0.859375 3.609375 -1.5625 L 3.609375 -1.984375 L 3.34375 -1.984375 C 3.34375 -1.828125 3.359375 -1.65625 3.359375 -1.5 C 3.359375 -0.984375 3.25 -0.15625 2.609375 -0.15625 C 1.984375 -0.15625 1.875 -0.921875 1.875 -1.421875 L 1.875 -4.375 L 3.421875 -4.375 L 3.421875 -4.703125 L 1.875 -4.703125 L 1.875 -6.71875 Z M 1.609375 -6.71875 "/>
</symbol>
<symbol overflow="visible" id="glyph0-15">
<path style="stroke:none;" d="M 0.359375 -4.6875 L 0.359375 -4.359375 L 0.53125 -4.359375 C 0.859375 -4.359375 1.1875 -4.328125 1.1875 -3.8125 L 1.1875 -0.796875 C 1.1875 -0.34375 0.890625 -0.34375 0.421875 -0.34375 L 0.359375 -0.34375 L 0.359375 -0.015625 L 2.765625 -0.015625 L 2.765625 -0.34375 L 2.515625 -0.34375 C 2.1875 -0.34375 1.9375 -0.375 1.9375 -0.78125 L 1.9375 -2.828125 C 1.9375 -3.59375 2.359375 -4.578125 3.40625 -4.578125 C 4.0625 -4.578125 4.203125 -3.921875 4.203125 -3.34375 L 4.203125 -0.75 C 4.203125 -0.375 3.90625 -0.34375 3.609375 -0.34375 L 3.375 -0.34375 L 3.375 -0.015625 L 5.765625 -0.015625 L 5.765625 -0.34375 L 5.515625 -0.34375 C 5.203125 -0.34375 4.9375 -0.375 4.9375 -0.78125 L 4.9375 -2.828125 C 4.9375 -3.59375 5.359375 -4.578125 6.421875 -4.578125 C 7.078125 -4.578125 7.203125 -3.921875 7.203125 -3.34375 L 7.203125 -0.75 C 7.203125 -0.375 6.921875 -0.34375 6.625 -0.34375 L 6.375 -0.34375 L 6.375 -0.015625 L 8.78125 -0.015625 L 8.78125 -0.34375 L 8.53125 -0.34375 C 8.234375 -0.34375 7.953125 -0.34375 7.953125 -0.78125 L 7.953125 -3.203125 C 7.953125 -3.5625 7.9375 -3.921875 7.75 -4.21875 C 7.5 -4.6875 6.9375 -4.8125 6.4375 -4.8125 L 6.3125 -4.8125 C 5.734375 -4.75 5.078125 -4.3125 4.921875 -3.75 L 4.90625 -3.75 C 4.78125 -4.53125 4.125 -4.8125 3.46875 -4.8125 C 2.78125 -4.8125 2.109375 -4.375 1.890625 -3.703125 L 1.875 -4.8125 Z M 0.359375 -4.6875 "/>
</symbol>
<symbol overflow="visible" id="glyph0-16">
<path style="stroke:none;" d="M 0.359375 -4.6875 L 0.359375 -4.359375 L 0.53125 -4.359375 C 0.859375 -4.359375 1.1875 -4.328125 1.1875 -3.8125 L 1.1875 -0.796875 C 1.1875 -0.34375 0.890625 -0.34375 0.421875 -0.34375 L 0.359375 -0.34375 L 0.359375 -0.015625 L 2.765625 -0.015625 L 2.765625 -0.34375 L 2.515625 -0.34375 C 2.1875 -0.34375 1.9375 -0.375 1.9375 -0.78125 L 1.9375 -2.8125 C 1.9375 -3.59375 2.359375 -4.578125 3.40625 -4.578125 C 4.09375 -4.578125 4.1875 -3.875 4.1875 -3.234375 L 4.1875 -0.75 C 4.1875 -0.375 3.890625 -0.34375 3.59375 -0.34375 L 3.359375 -0.34375 L 3.359375 -0.015625 L 5.765625 -0.015625 L 5.765625 -0.34375 L 5.5 -0.34375 C 5.21875 -0.34375 4.921875 -0.34375 4.921875 -0.765625 L 4.921875 -3.234375 C 4.921875 -3.5625 4.921875 -3.890625 4.75 -4.1875 C 4.5 -4.671875 3.953125 -4.8125 3.4375 -4.8125 C 2.75 -4.8125 2.078125 -4.3125 1.890625 -3.703125 L 1.875 -4.8125 Z M 0.359375 -4.6875 "/>
</symbol>
<symbol overflow="visible" id="glyph0-17">
<path style="stroke:none;" d="M 1.421875 -1.09375 C 1.125 -1.046875 0.96875 -0.796875 0.96875 -0.5625 C 0.96875 -0.3125 1.140625 -0.015625 1.5 -0.015625 C 1.828125 -0.015625 2.046875 -0.28125 2.046875 -0.5625 C 2.046875 -0.8125 1.859375 -1.09375 1.515625 -1.09375 C 1.484375 -1.09375 1.453125 -1.09375 1.421875 -1.09375 Z M 1.421875 -1.09375 "/>
</symbol>
<symbol overflow="visible" id="glyph0-18">
<path style="stroke:none;" d="M 0.34375 -0.34375 L 0.34375 -0.015625 L 2.546875 -0.015625 L 2.546875 -0.34375 C 2.25 -0.34375 1.796875 -0.5 1.796875 -0.875 L 1.796875 -0.890625 C 1.796875 -1.0625 1.90625 -1.25 1.96875 -1.421875 C 2.109375 -1.78125 2.28125 -2.1875 2.359375 -2.546875 L 5.03125 -2.546875 C 5.234375 -2.546875 5.34375 -1.984375 5.4375 -1.703125 C 5.546875 -1.375 5.796875 -0.890625 5.796875 -0.671875 C 5.796875 -0.34375 5.265625 -0.34375 4.96875 -0.34375 L 4.96875 -0.015625 L 6.21875 -0.015625 L 6.453125 -0.046875 L 7.234375 -0.046875 L 7.765625 -0.015625 L 7.765625 -0.34375 L 7.484375 -0.34375 C 7.25 -0.34375 7.015625 -0.359375 6.859375 -0.484375 C 6.71875 -0.625 6.671875 -0.84375 6.625 -1.03125 C 6.046875 -2.625 5.46875 -4.234375 4.90625 -5.84375 L 4.28125 -7.609375 C 4.234375 -7.734375 4.203125 -7.796875 4.0625 -7.796875 C 3.84375 -7.796875 3.8125 -7.5625 3.734375 -7.359375 C 3 -5.328125 2.296875 -3.28125 1.578125 -1.21875 C 1.390625 -0.78125 1.21875 -0.34375 0.34375 -0.34375 Z M 2.46875 -2.875 L 3.75 -6.46875 L 5.03125 -2.875 Z M 2.46875 -2.875 "/>
</symbol>
<symbol overflow="visible" id="glyph0-19">
<path style="stroke:none;" d="M 3.953125 -4.140625 C 3.671875 -4.140625 3.453125 -3.953125 3.453125 -3.671875 C 3.453125 -3.421875 3.65625 -3.1875 3.921875 -3.1875 C 4.171875 -3.1875 4.390625 -3.390625 4.390625 -3.6875 L 4.390625 -3.78125 C 4.28125 -4.609375 3.296875 -4.859375 2.6875 -4.859375 C 1.359375 -4.859375 0.375 -3.625 0.375 -2.359375 C 0.375 -1.078125 1.359375 0.09375 2.71875 0.09375 C 3.421875 0.09375 4.140625 -0.3125 4.421875 -1.0625 C 4.453125 -1.140625 4.5 -1.21875 4.5 -1.296875 L 4.5 -1.34375 C 4.46875 -1.390625 4.421875 -1.421875 4.375 -1.421875 C 4.203125 -1.421875 4.140625 -0.96875 4 -0.8125 C 3.734375 -0.40625 3.296875 -0.15625 2.8125 -0.15625 C 1.65625 -0.15625 1.25 -1.421875 1.25 -2.359375 C 1.25 -3.265625 1.546875 -4.53125 2.65625 -4.609375 L 2.734375 -4.609375 C 3.140625 -4.609375 3.671875 -4.484375 3.953125 -4.140625 Z M 3.953125 -4.140625 "/>
</symbol>
<symbol overflow="visible" id="glyph0-20">
<path style="stroke:none;" d="M 1.203125 -4.703125 L 0.34375 -4.703125 L 0.34375 -4.375 L 1.203125 -4.375 L 1.203125 -0.75 C 1.203125 -0.375 0.90625 -0.34375 0.609375 -0.34375 L 0.375 -0.34375 L 0.375 -0.015625 L 2.9375 -0.015625 L 2.9375 -0.34375 C 2.828125 -0.34375 2.703125 -0.328125 2.578125 -0.328125 C 2.234375 -0.328125 1.90625 -0.375 1.90625 -0.765625 L 1.90625 -4.375 L 3.15625 -4.375 L 3.15625 -4.703125 L 1.875 -4.703125 L 1.875 -5.71875 C 1.875 -6.078125 1.875 -6.453125 2.03125 -6.796875 C 2.171875 -7.109375 2.4375 -7.4375 2.8125 -7.453125 L 2.84375 -7.453125 C 2.984375 -7.453125 3.09375 -7.421875 3.234375 -7.390625 C 3.0625 -7.28125 2.90625 -7.203125 2.90625 -6.953125 C 2.90625 -6.703125 3.078125 -6.5 3.375 -6.5 C 3.65625 -6.5 3.8125 -6.71875 3.8125 -6.953125 C 3.8125 -7.453125 3.28125 -7.6875 2.875 -7.6875 C 1.890625 -7.6875 1.203125 -6.9375 1.203125 -5.875 Z M 1.203125 -4.703125 "/>
</symbol>
<symbol overflow="visible" id="glyph0-21">
<path style="stroke:none;" d="M 1.15625 -2.109375 C 0.9375 -1.890625 0.8125 -1.5 0.8125 -1.203125 C 0.8125 -0.8125 1 -0.53125 1.28125 -0.234375 C 0.78125 -0.140625 0.3125 0.3125 0.3125 0.84375 C 0.3125 1.96875 2.078125 2.234375 2.71875 2.234375 C 3.6875 2.234375 5.109375 1.859375 5.109375 0.796875 C 5.109375 -0.4375 3.859375 -0.71875 2.71875 -0.71875 L 1.96875 -0.71875 C 1.421875 -0.71875 1.140625 -1.015625 1.140625 -1.46875 C 1.140625 -1.671875 1.25 -1.828125 1.3125 -1.96875 C 1.609375 -1.78125 1.9375 -1.65625 2.296875 -1.640625 L 2.375 -1.640625 C 3.25 -1.640625 4 -2.171875 4.140625 -3.09375 L 4.140625 -3.203125 C 4.140625 -3.5625 4.015625 -3.921875 3.78125 -4.1875 C 3.765625 -4.21875 3.734375 -4.25 3.734375 -4.28125 L 3.734375 -4.296875 C 3.875 -4.515625 4.390625 -4.703125 4.703125 -4.703125 C 4.75 -4.703125 4.78125 -4.6875 4.828125 -4.6875 C 4.75 -4.625 4.671875 -4.5625 4.65625 -4.453125 L 4.65625 -4.421875 C 4.65625 -4.25 4.796875 -4.109375 4.96875 -4.109375 C 5.171875 -4.109375 5.25 -4.265625 5.25 -4.421875 C 5.25 -4.765625 4.9375 -4.921875 4.671875 -4.921875 C 4.3125 -4.921875 3.9375 -4.765625 3.65625 -4.53125 C 3.625 -4.5 3.59375 -4.453125 3.546875 -4.453125 L 3.53125 -4.453125 C 3.46875 -4.453125 3.25 -4.640625 3.09375 -4.671875 C 2.875 -4.765625 2.640625 -4.8125 2.40625 -4.8125 C 1.578125 -4.8125 0.75 -4.21875 0.65625 -3.359375 L 0.65625 -3.25 C 0.65625 -2.828125 0.8125 -2.375 1.15625 -2.109375 Z M 0.859375 0.921875 L 0.859375 0.828125 C 0.859375 0.234375 1.390625 -0.09375 1.96875 -0.09375 L 3.015625 -0.09375 C 3.609375 -0.09375 4.4375 0.046875 4.546875 0.765625 L 4.546875 0.84375 C 4.546875 1.65625 3.375 1.984375 2.6875 1.984375 C 1.96875 1.984375 0.96875 1.65625 0.859375 0.921875 Z M 1.4375 -3.015625 L 1.4375 -3.140625 C 1.4375 -3.734375 1.578125 -4.546875 2.390625 -4.546875 C 3.09375 -4.546875 3.359375 -3.921875 3.359375 -3.21875 C 3.359375 -2.671875 3.21875 -1.890625 2.40625 -1.890625 C 1.78125 -1.890625 1.515625 -2.40625 1.4375 -3.015625 Z M 1.4375 -3.015625 "/>
</symbol>
<symbol overflow="visible" id="glyph0-22">
<path style="stroke:none;" d="M 0.203125 -4.671875 L 0.203125 -4.375 L 0.375 -4.375 C 0.9375 -4.375 0.96875 -4.203125 1.34375 -3.34375 C 1.765625 -2.328125 2.15625 -1.3125 2.59375 -0.3125 C 2.625 -0.21875 2.703125 -0.09375 2.703125 0 C 2.703125 0.171875 2.515625 0.453125 2.453125 0.625 C 2.21875 1.1875 1.890625 1.984375 1.1875 1.984375 C 1 1.984375 0.828125 1.90625 0.671875 1.78125 C 0.890625 1.75 1.0625 1.59375 1.0625 1.359375 C 1.0625 1.09375 0.875 0.9375 0.625 0.9375 C 0.359375 0.9375 0.203125 1.140625 0.203125 1.359375 C 0.203125 1.921875 0.734375 2.21875 1.203125 2.21875 C 2 2.21875 2.40625 1.421875 2.6875 0.734375 L 2.953125 0.09375 C 3.4375 -1.109375 3.9375 -2.296875 4.4375 -3.484375 C 4.640625 -3.96875 4.890625 -4.375 5.5 -4.375 L 5.5 -4.703125 L 4.734375 -4.671875 L 3.78125 -4.671875 L 3.78125 -4.375 C 4.046875 -4.359375 4.28125 -4.203125 4.28125 -3.921875 C 4.28125 -3.78125 4.21875 -3.640625 4.171875 -3.515625 C 3.921875 -2.921875 3.671875 -2.328125 3.421875 -1.734375 L 3.234375 -1.25 C 3.1875 -1.140625 3.140625 -1.046875 3.109375 -0.953125 L 3.09375 -0.953125 C 3.015625 -1.234375 2.875 -1.5 2.765625 -1.765625 C 2.46875 -2.46875 2.203125 -3.15625 1.890625 -3.84375 C 1.859375 -3.921875 1.828125 -4.015625 1.828125 -4.09375 L 1.828125 -4.140625 C 1.890625 -4.375 2.21875 -4.375 2.421875 -4.375 L 2.421875 -4.703125 L 1.421875 -4.703125 L 1.21875 -4.671875 Z M 0.203125 -4.671875 "/>
</symbol>
<symbol overflow="visible" id="glyph0-23">
<path style="stroke:none;" d="M 0.203125 -4.703125 L 0.203125 -4.375 L 0.34375 -4.375 C 0.953125 -4.375 1 -4 1.25 -3.28125 C 1.609375 -2.234375 1.984375 -1.21875 2.34375 -0.1875 C 2.390625 -0.078125 2.421875 0.078125 2.5625 0.09375 L 2.578125 0.09375 C 2.828125 0.09375 2.984375 -0.625 3.125 -1 C 3.34375 -1.5625 3.53125 -2.125 3.734375 -2.6875 C 3.796875 -2.859375 3.859375 -3.015625 3.90625 -3.203125 L 3.921875 -3.203125 C 4.09375 -2.4375 4.453125 -1.71875 4.703125 -0.984375 C 4.828125 -0.609375 5 0.09375 5.21875 0.09375 L 5.25 0.09375 C 5.40625 0.09375 5.4375 -0.0625 5.46875 -0.1875 C 5.78125 -1.09375 6.125 -2 6.453125 -2.921875 C 6.703125 -3.609375 6.859375 -4.375 7.625 -4.375 L 7.625 -4.703125 L 6.875 -4.671875 L 5.859375 -4.671875 L 5.859375 -4.375 C 6.140625 -4.359375 6.4375 -4.203125 6.46875 -3.90625 L 6.46875 -3.859375 C 6.46875 -3.71875 6.40625 -3.578125 6.34375 -3.4375 C 6.078125 -2.65625 5.8125 -1.875 5.515625 -1.109375 C 5.484375 -1.03125 5.453125 -0.9375 5.4375 -0.84375 L 5.421875 -0.84375 C 5.140625 -1.84375 4.71875 -2.84375 4.359375 -3.8125 C 4.328125 -3.890625 4.28125 -3.984375 4.28125 -4.078125 C 4.28125 -4.359375 4.6875 -4.375 4.90625 -4.375 L 4.90625 -4.703125 L 2.828125 -4.703125 L 2.828125 -4.375 L 2.984375 -4.375 C 3.40625 -4.375 3.546875 -4.25 3.671875 -3.84375 C 3.703125 -3.78125 3.75 -3.671875 3.75 -3.59375 L 3.75 -3.5625 C 3.71875 -3.359375 3.59375 -3.109375 3.515625 -2.890625 C 3.375 -2.46875 3.234375 -2.078125 3.078125 -1.65625 C 3 -1.421875 2.890625 -1.203125 2.828125 -0.953125 C 2.765625 -1.21875 2.65625 -1.46875 2.5625 -1.71875 C 2.3125 -2.4375 2.046875 -3.140625 1.796875 -3.84375 C 1.78125 -3.921875 1.734375 -4 1.734375 -4.078125 C 1.734375 -4.359375 2.109375 -4.375 2.296875 -4.375 L 2.359375 -4.375 L 2.359375 -4.703125 Z M 0.203125 -4.703125 "/>
</symbol>
<symbol overflow="visible" id="glyph0-24">
<path style="stroke:none;" d="M 0.3125 -4.6875 L 0.3125 -4.359375 L 0.484375 -4.359375 C 0.8125 -4.359375 1.140625 -4.328125 1.140625 -3.8125 L 1.140625 -0.796875 C 1.140625 -0.34375 0.84375 -0.34375 0.375 -0.34375 L 0.3125 -0.34375 L 0.3125 -0.015625 L 2.90625 -0.015625 L 2.90625 -0.34375 C 2.78125 -0.34375 2.65625 -0.328125 2.515625 -0.328125 C 2.171875 -0.328125 1.859375 -0.375 1.859375 -0.78125 L 1.859375 -2.265625 C 1.859375 -3.125 2.03125 -4.578125 3.125 -4.578125 C 3.171875 -4.578125 3.21875 -4.5625 3.265625 -4.5625 C 3.109375 -4.5 3.015625 -4.3125 3.015625 -4.15625 C 3.015625 -3.921875 3.203125 -3.734375 3.421875 -3.703125 C 3.734375 -3.703125 3.921875 -3.90625 3.921875 -4.171875 C 3.921875 -4.59375 3.5 -4.8125 3.140625 -4.8125 C 2.453125 -4.8125 1.9375 -4.1875 1.8125 -3.625 L 1.796875 -4.8125 Z M 0.3125 -4.6875 "/>
</symbol>
<symbol overflow="visible" id="glyph0-25">
<path style="stroke:none;" d="M 1.421875 -4.6875 C 1.125 -4.640625 0.96875 -4.390625 0.96875 -4.15625 C 0.96875 -3.90625 1.140625 -3.609375 1.5 -3.609375 C 1.828125 -3.609375 2.046875 -3.875 2.046875 -4.15625 C 2.046875 -4.40625 1.859375 -4.703125 1.515625 -4.703125 C 1.484375 -4.703125 1.453125 -4.6875 1.421875 -4.6875 Z M 1.421875 -1.09375 C 1.125 -1.046875 0.96875 -0.796875 0.96875 -0.5625 C 0.96875 -0.3125 1.140625 -0.015625 1.5 -0.015625 C 1.828125 -0.015625 2.046875 -0.28125 2.046875 -0.5625 C 2.046875 -0.8125 1.859375 -1.09375 1.515625 -1.09375 C 1.484375 -1.09375 1.453125 -1.09375 1.421875 -1.09375 Z M 1.421875 -1.09375 "/>
</symbol>
<symbol overflow="visible" id="glyph0-26">
<path style="stroke:none;" d="M 1.25 -0.578125 C 1.640625 -0.015625 2.625 0.234375 3.265625 0.234375 C 4.421875 0.234375 5.40625 -0.734375 5.40625 -2.015625 C 5.40625 -2.953125 4.890625 -3.8125 3.90625 -4.171875 C 3.765625 -4.203125 3.625 -4.234375 3.484375 -4.28125 L 2.703125 -4.453125 C 2.515625 -4.515625 2.296875 -4.546875 2.109375 -4.640625 C 1.609375 -4.859375 1.296875 -5.359375 1.25 -5.90625 L 1.25 -5.9375 C 1.25 -6.734375 1.9375 -7.390625 2.75 -7.390625 C 3.90625 -7.390625 4.609375 -6.53125 4.78125 -5.4375 C 4.828125 -5.296875 4.78125 -4.984375 4.96875 -4.984375 C 5.0625 -4.984375 5.109375 -5.046875 5.109375 -5.140625 L 5.109375 -7.515625 C 5.109375 -7.59375 5.09375 -7.6875 5 -7.6875 C 4.875 -7.6875 4.578125 -7.171875 4.46875 -6.90625 C 3.921875 -7.390625 3.5 -7.6875 2.75 -7.6875 C 1.71875 -7.6875 0.59375 -6.953125 0.59375 -5.625 C 0.59375 -4.75 1.140625 -3.96875 1.953125 -3.65625 C 2.984375 -3.25 4.546875 -3.515625 4.75 -1.796875 L 4.75 -1.703125 C 4.75 -0.84375 4.140625 -0.109375 3.234375 -0.109375 C 2.15625 -0.109375 1.0625 -0.734375 0.890625 -1.96875 C 0.875 -2.078125 0.875 -2.15625 0.859375 -2.25 L 0.859375 -2.390625 C 0.84375 -2.453125 0.796875 -2.484375 0.734375 -2.484375 C 0.625 -2.484375 0.59375 -2.421875 0.59375 -2.328125 L 0.59375 -0.21875 C 0.59375 -0.15625 0.59375 -0.09375 0.59375 -0.015625 C 0.59375 0.078125 0.59375 0.21875 0.734375 0.21875 C 0.890625 0.1875 1.0625 -0.328125 1.25 -0.578125 Z M 1.25 -0.578125 "/>
</symbol>
<symbol overflow="visible" id="glyph0-27">
<path style="stroke:none;" d="M 0.5625 -4.703125 L 0.453125 -2.953125 L 0.703125 -2.953125 C 0.734375 -3.328125 0.75 -3.78125 1 -4.09375 C 1.25 -4.4375 1.765625 -4.46875 2.203125 -4.46875 L 3.4375 -4.46875 C 2.484375 -3.09375 1.4375 -1.75 0.4375 -0.40625 C 0.375 -0.34375 0.3125 -0.25 0.3125 -0.15625 C 0.3125 -0.046875 0.375 -0.015625 0.46875 -0.015625 L 4.1875 -0.015625 L 4.359375 -2.046875 L 4.09375 -2.046875 C 4.0625 -1.578125 4.03125 -1.046875 3.765625 -0.703125 C 3.453125 -0.3125 2.921875 -0.265625 2.4375 -0.265625 L 1.203125 -0.265625 C 1.296875 -0.421875 1.40625 -0.546875 1.515625 -0.6875 C 2.390625 -1.90625 3.3125 -3.09375 4.1875 -4.3125 C 4.25 -4.390625 4.328125 -4.46875 4.328125 -4.5625 C 4.328125 -4.671875 4.25 -4.703125 4.171875 -4.703125 Z M 0.5625 -4.703125 "/>
</symbol>
<symbol overflow="visible" id="glyph0-28">
<path style="stroke:none;" d="M 0.3125 -7.453125 L 0.3125 -7.125 L 0.515625 -7.125 C 0.859375 -7.125 1.140625 -7.09375 1.140625 -6.59375 L 1.140625 -0.78125 C 1.140625 -0.375 0.875 -0.34375 0.59375 -0.34375 L 0.3125 -0.34375 L 0.3125 -0.015625 L 2.65625 -0.015625 L 2.65625 -0.34375 L 2.40625 -0.34375 C 2.078125 -0.34375 1.828125 -0.375 1.828125 -0.8125 L 1.828125 -1.828125 C 1.828125 -2.078125 2.28125 -2.359375 2.53125 -2.578125 C 2.625 -2.40625 2.765625 -2.21875 2.890625 -2.0625 L 3.671875 -0.953125 C 3.734375 -0.84375 3.828125 -0.703125 3.828125 -0.578125 C 3.828125 -0.375 3.609375 -0.34375 3.453125 -0.34375 L 3.453125 -0.015625 L 5.546875 -0.015625 L 5.546875 -0.34375 C 5.25 -0.34375 5 -0.359375 4.75 -0.625 C 4.578125 -0.796875 4.453125 -1 4.3125 -1.1875 C 3.9375 -1.71875 3.578125 -2.25 3.1875 -2.78125 C 3.125 -2.859375 3.09375 -2.9375 3.015625 -3 L 3.015625 -3.015625 C 3.734375 -3.484375 4.296875 -4.375 5.296875 -4.375 L 5.296875 -4.703125 L 3.34375 -4.703125 L 3.34375 -4.375 C 3.515625 -4.375 3.640625 -4.25 3.640625 -4.109375 C 3.640625 -3.84375 3.375 -3.671875 3.203125 -3.515625 C 2.765625 -3.109375 2.296875 -2.71875 1.859375 -2.34375 L 1.859375 -7.578125 Z M 0.3125 -7.453125 "/>
</symbol>
<symbol overflow="visible" id="glyph0-29">
<path style="stroke:none;" d="M 1.140625 -4.703125 L 0.296875 -4.703125 L 0.296875 -4.375 L 1.140625 -4.375 L 1.140625 -0.75 C 1.140625 -0.359375 0.828125 -0.34375 0.46875 -0.34375 L 0.3125 -0.34375 L 0.3125 -0.015625 L 2.6875 -0.015625 L 2.6875 -0.34375 L 2.4375 -0.34375 C 2.140625 -0.34375 1.859375 -0.375 1.859375 -0.75 L 1.859375 -4.375 L 3.59375 -4.375 C 3.9375 -4.375 4.171875 -4.28125 4.171875 -3.84375 L 4.171875 -0.796875 C 4.171875 -0.359375 3.875 -0.34375 3.453125 -0.34375 L 3.328125 -0.34375 L 3.328125 -0.015625 L 5.71875 -0.015625 L 5.71875 -0.34375 L 5.4375 -0.34375 C 5.140625 -0.34375 4.875 -0.375 4.875 -0.78125 L 4.875 -4.828125 L 3.265625 -4.703125 L 1.828125 -4.703125 L 1.828125 -5.8125 C 1.828125 -6.84375 2.53125 -7.453125 3.4375 -7.453125 C 3.796875 -7.453125 4.15625 -7.34375 4.421875 -7.09375 C 4.15625 -7.09375 3.921875 -6.921875 3.921875 -6.625 C 3.921875 -6.375 4.09375 -6.140625 4.390625 -6.140625 C 4.625 -6.140625 4.84375 -6.328125 4.859375 -6.59375 L 4.859375 -6.625 C 4.859375 -7.375 4.078125 -7.6875 3.4375 -7.6875 C 2.609375 -7.6875 1.671875 -7.34375 1.28125 -6.59375 C 1.15625 -6.34375 1.140625 -6.078125 1.140625 -5.828125 Z M 1.140625 -4.703125 "/>
</symbol>
<symbol overflow="visible" id="glyph0-30">
<path style="stroke:none;" d="M 0.3125 -4.6875 L 0.3125 -4.359375 L 0.546875 -4.359375 C 0.859375 -4.359375 1.140625 -4.3125 1.140625 -3.875 L 1.140625 1.3125 C 1.140625 1.765625 0.84375 1.78125 0.3125 1.78125 L 0.3125 2.109375 L 2.71875 2.109375 L 2.71875 1.78125 L 2.46875 1.78125 C 2.15625 1.78125 1.890625 1.734375 1.890625 1.34375 L 1.890625 -0.578125 C 2.140625 -0.125 2.78125 0.09375 3.265625 0.09375 C 4.578125 0.09375 5.640625 -1.0625 5.640625 -2.359375 C 5.640625 -3.5625 4.734375 -4.8125 3.40625 -4.8125 C 2.796875 -4.8125 2.296875 -4.578125 1.859375 -4.09375 L 1.859375 -4.8125 Z M 4.75 -2.171875 C 4.71875 -1.34375 4.265625 -0.203125 3.265625 -0.125 L 3.15625 -0.125 C 2.640625 -0.125 1.890625 -0.625 1.890625 -1.171875 L 1.890625 -3 C 1.890625 -3.140625 1.875 -3.265625 1.875 -3.40625 C 1.875 -4 2.609375 -4.546875 3.265625 -4.546875 C 4.390625 -4.546875 4.765625 -3.140625 4.765625 -2.34375 C 4.765625 -2.296875 4.765625 -2.21875 4.75 -2.171875 Z M 4.75 -2.171875 "/>
</symbol>
<symbol overflow="visible" id="glyph0-31">
<path style="stroke:none;" d="M 1.421875 -7.796875 C 1.09375 -7.796875 0.96875 -7.484375 0.96875 -7.25 L 1 -6.703125 C 1.078125 -5.578125 1.203125 -4.4375 1.28125 -3.296875 C 1.296875 -2.890625 1.296875 -2.046875 1.484375 -2 L 1.53125 -2 C 1.671875 -2.03125 1.640625 -2.234375 1.65625 -2.328125 C 1.671875 -2.6875 1.703125 -3.015625 1.734375 -3.375 C 1.859375 -4.546875 1.90625 -5.734375 2.03125 -6.921875 C 2.046875 -7.03125 2.046875 -7.140625 2.046875 -7.25 C 2.046875 -7.5625 1.828125 -7.8125 1.5 -7.8125 C 1.46875 -7.8125 1.453125 -7.796875 1.421875 -7.796875 Z M 1.421875 -1.09375 C 1.125 -1.046875 0.96875 -0.796875 0.96875 -0.5625 C 0.96875 -0.3125 1.140625 -0.015625 1.5 -0.015625 C 1.828125 -0.015625 2.046875 -0.28125 2.046875 -0.5625 C 2.046875 -0.8125 1.859375 -1.09375 1.515625 -1.09375 C 1.484375 -1.09375 1.453125 -1.09375 1.421875 -1.09375 Z M 1.421875 -1.09375 "/>
</symbol>
<symbol overflow="visible" id="glyph0-32">
<path style="stroke:none;" d="M 0.640625 -4.6875 L 0.640625 -4.359375 L 0.84375 -4.359375 C 1.21875 -4.359375 1.5625 -4.328125 1.5625 -3.828125 L 1.5625 -0.09375 C 1.5625 0.09375 1.578125 0.3125 1.578125 0.5 C 1.578125 1.0625 1.5 1.984375 0.78125 1.984375 C 0.59375 1.984375 0.375 1.921875 0.203125 1.84375 L 0.203125 1.828125 C 0.421875 1.796875 0.5625 1.59375 0.5625 1.375 C 0.5625 1.09375 0.328125 0.921875 0.09375 0.921875 C -0.203125 0.921875 -0.375 1.140625 -0.375 1.4375 C -0.34375 2 0.3125 2.21875 0.78125 2.21875 C 1.59375 2.21875 2.203125 1.546875 2.265625 0.703125 L 2.265625 -4.8125 Z M 1.640625 -7.265625 C 1.34375 -7.21875 1.1875 -6.96875 1.1875 -6.734375 C 1.1875 -6.484375 1.359375 -6.1875 1.71875 -6.1875 C 2.046875 -6.1875 2.25 -6.453125 2.25 -6.734375 C 2.25 -6.984375 2.078125 -7.28125 1.734375 -7.28125 C 1.703125 -7.28125 1.671875 -7.265625 1.640625 -7.265625 Z M 1.640625 -7.265625 "/>
</symbol>
<symbol overflow="visible" id="glyph0-33">
<path style="stroke:none;" d="M 1.140625 -4.703125 L 0.296875 -4.703125 L 0.296875 -4.375 L 1.140625 -4.375 L 1.140625 -0.75 C 1.140625 -0.359375 0.828125 -0.34375 0.46875 -0.34375 L 0.3125 -0.34375 L 0.3125 -0.015625 L 2.6875 -0.015625 L 2.6875 -0.34375 L 2.4375 -0.34375 C 2.140625 -0.34375 1.859375 -0.375 1.859375 -0.75 L 1.859375 -4.375 L 4.171875 -4.375 L 4.171875 -0.75 C 4.171875 -0.359375 3.84375 -0.34375 3.484375 -0.34375 L 3.328125 -0.34375 L 3.328125 -0.015625 L 5.71875 -0.015625 L 5.71875 -0.34375 L 5.453125 -0.34375 C 5.140625 -0.34375 4.875 -0.375 4.875 -0.75 L 4.875 -7.578125 C 4.765625 -7.5625 4.640625 -7.53125 4.53125 -7.53125 L 4.484375 -7.53125 C 4.390625 -7.53125 4.28125 -7.59375 4.203125 -7.609375 C 4.03125 -7.65625 3.84375 -7.671875 3.65625 -7.6875 L 3.484375 -7.6875 C 2.390625 -7.6875 1.140625 -7.125 1.140625 -5.90625 Z M 4.171875 -4.703125 L 1.828125 -4.703125 L 1.828125 -5.828125 C 1.828125 -6.65625 2.3125 -7.453125 3.484375 -7.453125 C 3.671875 -7.453125 4.109375 -7.4375 4.140625 -7.359375 L 4.140625 -7.34375 C 4.140625 -7.28125 3.9375 -7.140625 3.9375 -6.9375 C 3.9375 -6.71875 4.140625 -6.625 4.171875 -6.5 Z M 4.171875 -4.703125 "/>
</symbol>
<symbol overflow="visible" id="glyph1-0">
<path style="stroke:none;" d=""/>
</symbol>
<symbol overflow="visible" id="glyph1-1">
<path style="stroke:none;" d="M 4 -4.359375 L 4.9375 -4.359375 C 5.15625 -4.359375 5.265625 -4.359375 5.265625 -4.578125 C 5.265625 -4.703125 5.15625 -4.703125 4.96875 -4.703125 L 4.0625 -4.703125 L 4.296875 -5.9375 C 4.34375 -6.171875 4.5 -6.953125 4.5625 -7.078125 C 4.65625 -7.28125 4.84375 -7.453125 5.078125 -7.453125 C 5.109375 -7.453125 5.40625 -7.453125 5.609375 -7.25 C 5.125 -7.203125 5.015625 -6.828125 5.015625 -6.65625 C 5.015625 -6.40625 5.21875 -6.28125 5.421875 -6.28125 C 5.703125 -6.28125 6.015625 -6.515625 6.015625 -6.9375 C 6.015625 -7.4375 5.515625 -7.6875 5.078125 -7.6875 C 4.703125 -7.6875 4.015625 -7.5 3.6875 -6.40625 C 3.625 -6.1875 3.59375 -6.078125 3.328125 -4.703125 L 2.578125 -4.703125 C 2.359375 -4.703125 2.25 -4.703125 2.25 -4.5 C 2.25 -4.359375 2.34375 -4.359375 2.546875 -4.359375 L 3.265625 -4.359375 L 2.453125 -0.046875 C 2.25 1 2.078125 2 1.5 2 C 1.46875 2 1.1875 2 0.984375 1.796875 C 1.484375 1.765625 1.578125 1.375 1.578125 1.203125 C 1.578125 0.953125 1.390625 0.828125 1.171875 0.828125 C 0.890625 0.828125 0.578125 1.0625 0.578125 1.484375 C 0.578125 1.96875 1.0625 2.234375 1.5 2.234375 C 2.109375 2.234375 2.546875 1.59375 2.734375 1.171875 C 3.09375 0.484375 3.34375 -0.828125 3.34375 -0.90625 Z M 4 -4.359375 "/>
</symbol>
<symbol overflow="visible" id="glyph1-2">
<path style="stroke:none;" d="M 3.640625 -3.296875 C 3.703125 -3.578125 3.953125 -4.578125 4.71875 -4.578125 C 4.78125 -4.578125 5.03125 -4.578125 5.265625 -4.4375 C 4.96875 -4.390625 4.75 -4.109375 4.75 -3.84375 C 4.75 -3.671875 4.859375 -3.46875 5.15625 -3.46875 C 5.40625 -3.46875 5.75 -3.671875 5.75 -4.09375 C 5.75 -4.671875 5.109375 -4.828125 4.734375 -4.828125 C 4.09375 -4.828125 3.71875 -4.25 3.59375 -3.984375 C 3.3125 -4.71875 2.71875 -4.828125 2.40625 -4.828125 C 1.28125 -4.828125 0.65625 -3.40625 0.65625 -3.140625 C 0.65625 -3.03125 0.765625 -3.03125 0.78125 -3.03125 C 0.875 -3.03125 0.90625 -3.046875 0.921875 -3.15625 C 1.296875 -4.3125 2.015625 -4.578125 2.390625 -4.578125 C 2.59375 -4.578125 2.984375 -4.484375 2.984375 -3.84375 C 2.984375 -3.515625 2.796875 -2.78125 2.390625 -1.25 C 2.21875 -0.578125 1.828125 -0.125 1.359375 -0.125 C 1.28125 -0.125 1.03125 -0.125 0.8125 -0.265625 C 1.078125 -0.3125 1.3125 -0.546875 1.3125 -0.84375 C 1.3125 -1.140625 1.078125 -1.234375 0.921875 -1.234375 C 0.59375 -1.234375 0.3125 -0.953125 0.3125 -0.59375 C 0.3125 -0.09375 0.859375 0.125 1.34375 0.125 C 2.0625 0.125 2.453125 -0.640625 2.484375 -0.703125 C 2.625 -0.3125 3.015625 0.125 3.671875 0.125 C 4.78125 0.125 5.40625 -1.28125 5.40625 -1.5625 C 5.40625 -1.671875 5.3125 -1.671875 5.28125 -1.671875 C 5.1875 -1.671875 5.15625 -1.625 5.140625 -1.546875 C 4.78125 -0.375 4.03125 -0.125 3.6875 -0.125 C 3.265625 -0.125 3.09375 -0.46875 3.09375 -0.84375 C 3.09375 -1.078125 3.15625 -1.3125 3.265625 -1.796875 Z M 3.640625 -3.296875 "/>
</symbol>
<symbol overflow="visible" id="glyph2-0">
<path style="stroke:none;" d=""/>
</symbol>
<symbol overflow="visible" id="glyph2-1">
<path style="stroke:none;" d="M 3.609375 2.625 C 3.609375 2.578125 3.609375 2.5625 3.421875 2.375 C 2.0625 1 1.71875 -1.0625 1.71875 -2.71875 C 1.71875 -4.625 2.125 -6.515625 3.46875 -7.890625 C 3.609375 -8.015625 3.609375 -8.03125 3.609375 -8.078125 C 3.609375 -8.140625 3.5625 -8.171875 3.5 -8.171875 C 3.390625 -8.171875 2.40625 -7.4375 1.765625 -6.046875 C 1.203125 -4.859375 1.078125 -3.640625 1.078125 -2.71875 C 1.078125 -1.875 1.203125 -0.5625 1.796875 0.671875 C 2.453125 2.015625 3.390625 2.71875 3.5 2.71875 C 3.5625 2.71875 3.609375 2.6875 3.609375 2.625 Z M 3.609375 2.625 "/>
</symbol>
<symbol overflow="visible" id="glyph2-2">
<path style="stroke:none;" d="M 3.15625 -2.71875 C 3.15625 -3.578125 3.03125 -4.890625 2.4375 -6.125 C 1.78125 -7.46875 0.84375 -8.171875 0.734375 -8.171875 C 0.671875 -8.171875 0.625 -8.140625 0.625 -8.078125 C 0.625 -8.03125 0.625 -8.015625 0.828125 -7.8125 C 1.890625 -6.734375 2.515625 -5 2.515625 -2.71875 C 2.515625 -0.859375 2.109375 1.0625 0.765625 2.4375 C 0.625 2.5625 0.625 2.578125 0.625 2.625 C 0.625 2.6875 0.671875 2.71875 0.734375 2.71875 C 0.84375 2.71875 1.828125 1.984375 2.46875 0.59375 C 3.015625 -0.59375 3.15625 -1.8125 3.15625 -2.71875 Z M 3.15625 -2.71875 "/>
</symbol>
<symbol overflow="visible" id="glyph2-3">
<path style="stroke:none;" d="M 7.5 -3.5625 C 7.65625 -3.5625 7.859375 -3.5625 7.859375 -3.78125 C 7.859375 -4 7.65625 -4 7.5 -4 L 0.96875 -4 C 0.8125 -4 0.609375 -4 0.609375 -3.78125 C 0.609375 -3.5625 0.8125 -3.5625 0.984375 -3.5625 Z M 7.5 -1.453125 C 7.65625 -1.453125 7.859375 -1.453125 7.859375 -1.671875 C 7.859375 -1.890625 7.65625 -1.890625 7.5 -1.890625 L 0.984375 -1.890625 C 0.8125 -1.890625 0.609375 -1.890625 0.609375 -1.671875 C 0.609375 -1.453125 0.8125 -1.453125 0.96875 -1.453125 Z M 7.5 -1.453125 "/>
</symbol>
<symbol overflow="visible" id="glyph3-0">
<path style="stroke:none;" d=""/>
</symbol>
<symbol overflow="visible" id="glyph3-1">
<path style="stroke:none;" d="M 2.5 -5.078125 C 2.5 -5.296875 2.484375 -5.296875 2.265625 -5.296875 C 1.9375 -4.984375 1.515625 -4.796875 0.765625 -4.796875 L 0.765625 -4.53125 C 0.984375 -4.53125 1.40625 -4.53125 1.875 -4.734375 L 1.875 -0.65625 C 1.875 -0.359375 1.84375 -0.265625 1.09375 -0.265625 L 0.8125 -0.265625 L 0.8125 0 C 1.140625 -0.03125 1.828125 -0.03125 2.1875 -0.03125 C 2.546875 -0.03125 3.234375 -0.03125 3.5625 0 L 3.5625 -0.265625 L 3.28125 -0.265625 C 2.53125 -0.265625 2.5 -0.359375 2.5 -0.65625 Z M 2.5 -5.078125 "/>
</symbol>
<symbol overflow="visible" id="glyph4-0">
<path style="stroke:none;" d=""/>
</symbol>
<symbol overflow="visible" id="glyph4-1">
<path style="stroke:none;" d="M 3.265625 -3.046875 C 2.9375 -3.015625 2.828125 -2.765625 2.828125 -2.609375 C 2.828125 -2.375 3.03125 -2.3125 3.140625 -2.3125 C 3.171875 -2.3125 3.578125 -2.34375 3.578125 -2.828125 C 3.578125 -3.3125 3.0625 -3.515625 2.578125 -3.515625 C 1.453125 -3.515625 0.34375 -2.421875 0.34375 -1.296875 C 0.34375 -0.546875 0.875 0.078125 1.75 0.078125 C 3.015625 0.078125 3.671875 -0.71875 3.671875 -0.828125 C 3.671875 -0.90625 3.59375 -0.953125 3.546875 -0.953125 C 3.5 -0.953125 3.46875 -0.9375 3.4375 -0.890625 C 2.8125 -0.140625 1.90625 -0.140625 1.765625 -0.140625 C 1.34375 -0.140625 1 -0.40625 1 -1.015625 C 1 -1.359375 1.15625 -2.203125 1.53125 -2.703125 C 1.875 -3.140625 2.28125 -3.296875 2.59375 -3.296875 C 2.6875 -3.296875 3.046875 -3.28125 3.265625 -3.046875 Z M 3.265625 -3.046875 "/>
</symbol>
</g>
</defs>
<g id="surface1">
<path style="fill:none;stroke-width:1;stroke-linecap:butt;stroke-linejoin:miter;stroke:rgb(0%,0%,0%);stroke-opacity:1;stroke-miterlimit:10;" d="M 9.421062 4.9595 C 9.421062 7.424344 7.424969 9.420438 4.960125 9.420438 C 2.495281 9.420438 0.499187 7.424344 0.499187 4.9595 C 0.499187 2.498563 2.495281 0.498563 4.960125 0.498563 C 7.424969 0.498563 9.421062 2.498563 9.421062 4.9595 Z M 9.421062 4.9595 " transform="matrix(1,0,0,-1,5.993,-6.978)"/>
<path style="fill:none;stroke-width:1;stroke-linecap:butt;stroke-linejoin:miter;stroke:rgb(0%,0%,0%);stroke-opacity:1;stroke-miterlimit:10;" d="M 9.422906 4.9595 C 9.422906 7.424344 7.422906 9.420438 4.961969 9.420438 C 2.497125 9.420438 0.501031 7.424344 0.501031 4.9595 C 0.501031 2.498563 2.497125 0.498563 4.961969 0.498563 C 7.422906 0.498563 9.422906 2.498563 9.422906 4.9595 Z M 9.422906 4.9595 " transform="matrix(1,0,0,-1,360.956,-6.978)"/>
<path style="fill:none;stroke-width:1;stroke-linecap:butt;stroke-linejoin:miter;stroke:rgb(0%,0%,0%);stroke-opacity:1;stroke-miterlimit:10;" d="M -1.991156 -1.993625 L 0.391656 0.818875 L 4.958063 4.9595 L 8.215875 8.264188 L 11.911188 11.912625 " transform="matrix(1,0,0,-1,360.956,-6.978)"/>
<path style="fill:none;stroke-width:1;stroke-linecap:butt;stroke-linejoin:miter;stroke:rgb(0%,0%,0%);stroke-opacity:1;stroke-miterlimit:10;" d="M -1.991156 11.912625 L 1.454156 8.705594 L 4.958063 4.963406 L 8.290094 2.580594 L 11.911188 -1.989719 " transform="matrix(1,0,0,-1,360.956,-6.978)"/>
<path style="fill:none;stroke-width:1;stroke-linecap:butt;stroke-linejoin:miter;stroke:rgb(0%,0%,0%);stroke-opacity:1;stroke-miterlimit:10;" d="M 9.422906 4.9595 C 9.422906 7.424344 7.422906 9.420438 4.961969 9.420438 C 2.497125 9.420438 0.501031 7.424344 0.501031 4.9595 C 0.501031 2.498563 2.497125 0.498563 4.961969 0.498563 C 7.422906 0.498563 9.422906 2.498563 9.422906 4.9595 Z M 9.422906 4.9595 " transform="matrix(1,0,0,-1,444.206,-6.978)"/>
<path style="fill:none;stroke-width:1;stroke-linecap:butt;stroke-linejoin:miter;stroke:rgb(0%,0%,0%);stroke-opacity:1;stroke-miterlimit:10;" d="M -1.991156 -1.993625 L 0.661188 0.80325 L 4.958063 4.9595 L 7.790094 7.654813 L 11.911188 11.912625 " transform="matrix(1,0,0,-1,444.206,-6.978)"/>
<path style="fill:none;stroke-width:1;stroke-linecap:butt;stroke-linejoin:miter;stroke:rgb(0%,0%,0%);stroke-opacity:1;stroke-miterlimit:10;" d="M -1.991156 11.912625 L 0.586969 10.045438 L 4.958063 4.963406 L 9.141656 2.119656 L 11.911188 -1.989719 " transform="matrix(1,0,0,-1,444.206,-6.978)"/>
<path style="fill-rule:nonzero;fill:rgb(100%,100%,100%);fill-opacity:1;stroke-width:1;stroke-linecap:butt;stroke-linejoin:miter;stroke:rgb(0%,0%,0%);stroke-opacity:1;stroke-miterlimit:10;" d="M 0.499625 10.014125 L 0.499625 -2.5015 L 53.167594 -2.5015 L 53.167594 10.014125 Z M 0.499625 10.014125 " transform="matrix(1,0,0,-1,0.016,14.436)"/>
<g style="fill:rgb(0%,0%,0%);fill-opacity:1;">
  <use xlink:href="#glyph0-1" x="3.016" y="14.436"/>
  <use xlink:href="#glyph0-2" x="10.848734" y="14.436"/>
  <use xlink:href="#glyph0-3" x="16.874921" y="14.436"/>
  <use xlink:href="#glyph0-4" x="19.890196" y="14.436"/>
</g>
<g style="fill:rgb(0%,0%,0%);fill-opacity:1;">
  <use xlink:href="#glyph0-2" x="27.780748" y="14.436"/>
</g>
<g style="fill:rgb(0%,0%,0%);fill-opacity:1;">
  <use xlink:href="#glyph0-5" x="33.512389" y="14.436"/>
</g>
<g style="fill:rgb(0%,0%,0%);fill-opacity:1;">
  <use xlink:href="#glyph0-6" x="39.833122" y="14.436"/>
</g>
<g style="fill:rgb(0%,0%,0%);fill-opacity:1;">
  <use xlink:href="#glyph0-7" x="44.96258" y="14.436"/>
</g>
<g style="fill:rgb(0%,0%,0%);fill-opacity:1;">
  <use xlink:href="#glyph0-4" x="57.047681" y="14.436"/>
  <use xlink:href="#glyph0-2" x="61.327321" y="14.436"/>
  <use xlink:href="#glyph0-6" x="67.353508" y="14.436"/>
  <use xlink:href="#glyph0-8" x="72.777513" y="14.436"/>
  <use xlink:href="#glyph0-9" x="78.8037" y="14.436"/>
  <use xlink:href="#glyph0-10" x="81.818975" y="14.436"/>
</g>
<g style="fill:rgb(0%,0%,0%);fill-opacity:1;">
  <use xlink:href="#glyph0-2" x="91.205164" y="14.436"/>
  <use xlink:href="#glyph0-11" x="97.231351" y="14.436"/>
</g>
<g style="fill:rgb(0%,0%,0%);fill-opacity:1;">
  <use xlink:href="#glyph0-12" x="102.36081" y="14.436"/>
</g>
<g style="fill:rgb(0%,0%,0%);fill-opacity:1;">
  <use xlink:href="#glyph0-13" x="107.780451" y="14.436"/>
</g>
<g style="fill:rgb(0%,0%,0%);fill-opacity:1;">
  <use xlink:href="#glyph0-14" x="115.962276" y="14.436"/>
  <use xlink:href="#glyph0-2" x="120.181916" y="14.436"/>
  <use xlink:href="#glyph0-13" x="126.208103" y="14.436"/>
</g>
<g style="fill:rgb(0%,0%,0%);fill-opacity:1;">
  <use xlink:href="#glyph0-4" x="134.400837" y="14.436"/>
  <use xlink:href="#glyph0-11" x="138.680477" y="14.436"/>
  <use xlink:href="#glyph0-15" x="144.104481" y="14.436"/>
  <use xlink:href="#glyph0-13" x="153.14158" y="14.436"/>
</g>
<g style="fill:rgb(0%,0%,0%);fill-opacity:1;">
  <use xlink:href="#glyph0-5" x="161.323405" y="14.436"/>
  <use xlink:href="#glyph0-11" x="167.349591" y="14.436"/>
  <use xlink:href="#glyph0-4" x="172.773596" y="14.436"/>
  <use xlink:href="#glyph0-13" x="177.053236" y="14.436"/>
  <use xlink:href="#glyph0-9" x="181.875058" y="14.436"/>
  <use xlink:href="#glyph0-3" x="184.890333" y="14.436"/>
  <use xlink:href="#glyph0-16" x="187.905609" y="14.436"/>
  <use xlink:href="#glyph0-13" x="193.931795" y="14.436"/>
  <use xlink:href="#glyph0-17" x="198.753618" y="14.436"/>
</g>
<g style="fill:rgb(0%,0%,0%);fill-opacity:1;">
  <use xlink:href="#glyph0-18" x="206.503442" y="14.436"/>
  <use xlink:href="#glyph0-16" x="214.633995" y="14.436"/>
  <use xlink:href="#glyph0-10" x="220.660181" y="14.436"/>
</g>
<g style="fill:rgb(0%,0%,0%);fill-opacity:1;">
  <use xlink:href="#glyph0-6" x="230.046371" y="14.436"/>
  <use xlink:href="#glyph0-16" x="235.470376" y="14.436"/>
  <use xlink:href="#glyph0-13" x="241.496562" y="14.436"/>
</g>
<g style="fill:rgb(0%,0%,0%);fill-opacity:1;">
  <use xlink:href="#glyph0-19" x="249.689296" y="14.436"/>
  <use xlink:href="#glyph0-11" x="254.511119" y="14.436"/>
  <use xlink:href="#glyph0-16" x="259.935123" y="14.436"/>
</g>
<g style="fill:rgb(0%,0%,0%);fill-opacity:1;">
  <use xlink:href="#glyph0-4" x="269.321313" y="14.436"/>
  <use xlink:href="#glyph0-13" x="273.600953" y="14.436"/>
  <use xlink:href="#glyph0-13" x="278.422775" y="14.436"/>
</g>
<g style="fill:rgb(0%,0%,0%);fill-opacity:1;">
  <use xlink:href="#glyph0-14" x="286.615509" y="14.436"/>
</g>
<g style="fill:rgb(0%,0%,0%);fill-opacity:1;">
  <use xlink:href="#glyph0-2" x="290.82424" y="14.436"/>
  <use xlink:href="#glyph0-11" x="296.850427" y="14.436"/>
  <use xlink:href="#glyph0-14" x="302.274431" y="14.436"/>
</g>
<g style="fill:rgb(0%,0%,0%);fill-opacity:1;">
  <use xlink:href="#glyph0-11" x="309.864983" y="14.436"/>
</g>
<g style="fill:rgb(0%,0%,0%);fill-opacity:1;">
  <use xlink:href="#glyph0-2" x="318.64899" y="14.436"/>
</g>
<g style="fill:rgb(0%,0%,0%);fill-opacity:1;">
  <use xlink:href="#glyph0-5" x="324.380631" y="14.436"/>
</g>
<g style="fill:rgb(0%,0%,0%);fill-opacity:1;">
  <use xlink:href="#glyph0-6" x="330.701364" y="14.436"/>
</g>
<g style="fill:rgb(0%,0%,0%);fill-opacity:1;">
  <use xlink:href="#glyph0-7" x="335.830823" y="14.436"/>
</g>
<g style="fill:rgb(0%,0%,0%);fill-opacity:1;">
  <use xlink:href="#glyph0-6" x="344.915921" y="14.436"/>
  <use xlink:href="#glyph0-16" x="350.339926" y="14.436"/>
</g>
<g style="fill:rgb(0%,0%,0%);fill-opacity:1;">
  <use xlink:href="#glyph0-14" x="359.726115" y="14.436"/>
  <use xlink:href="#glyph0-2" x="363.945755" y="14.436"/>
  <use xlink:href="#glyph0-13" x="369.971942" y="14.436"/>
</g>
<g style="fill:rgb(0%,0%,0%);fill-opacity:1;">
  <use xlink:href="#glyph0-9" x="378.164676" y="14.436"/>
  <use xlink:href="#glyph0-13" x="381.179951" y="14.436"/>
  <use xlink:href="#glyph0-20" x="386.001774" y="14.436"/>
  <use xlink:href="#glyph0-14" x="389.31814" y="14.436"/>
</g>
<g style="fill:rgb(0%,0%,0%);fill-opacity:1;">
  <use xlink:href="#glyph0-13" x="396.897783" y="14.436"/>
  <use xlink:href="#glyph0-10" x="401.719605" y="14.436"/>
  <use xlink:href="#glyph0-21" x="407.745792" y="14.436"/>
  <use xlink:href="#glyph0-13" x="413.169796" y="14.436"/>
</g>
<g style="fill:rgb(0%,0%,0%);fill-opacity:1;">
  <use xlink:href="#glyph0-3" x="421.351621" y="14.436"/>
  <use xlink:href="#glyph0-4" x="424.366897" y="14.436"/>
</g>
<path style="fill-rule:nonzero;fill:rgb(100%,100%,100%);fill-opacity:1;stroke-width:1;stroke-linecap:butt;stroke-linejoin:miter;stroke:rgb(0%,0%,0%);stroke-opacity:1;stroke-miterlimit:10;" d="M 0.498719 10.014125 L 0.498719 -4.622594 L 70.291688 -4.622594 L 70.291688 10.014125 Z M 0.498719 10.014125 " transform="matrix(1,0,0,-1,432.013,14.436)"/>
<g style="fill:rgb(0%,0%,0%);fill-opacity:1;">
  <use xlink:href="#glyph0-16" x="435.013" y="14.436"/>
  <use xlink:href="#glyph0-3" x="441.039187" y="14.436"/>
  <use xlink:href="#glyph0-19" x="444.054462" y="14.436"/>
  <use xlink:href="#glyph0-13" x="448.876284" y="14.436"/>
  <use xlink:href="#glyph0-9" x="453.698106" y="14.436"/>
  <use xlink:href="#glyph0-22" x="456.713382" y="14.436"/>
</g>
<g style="fill:rgb(0%,0%,0%);fill-opacity:1;">
  <use xlink:href="#glyph0-11" x="466.049389" y="14.436"/>
  <use xlink:href="#glyph0-9" x="471.473394" y="14.436"/>
  <use xlink:href="#glyph0-3" x="474.488669" y="14.436"/>
  <use xlink:href="#glyph0-21" x="477.503944" y="14.436"/>
  <use xlink:href="#glyph0-16" x="482.927949" y="14.436"/>
  <use xlink:href="#glyph0-13" x="488.954136" y="14.436"/>
  <use xlink:href="#glyph0-10" x="493.775958" y="14.436"/>
</g>
<g style="fill:rgb(0%,0%,0%);fill-opacity:1;">
  <use xlink:href="#glyph0-23" x="506.173059" y="14.436"/>
  <use xlink:href="#glyph0-3" x="514.005793" y="14.436"/>
</g>
<g style="fill:rgb(0%,0%,0%);fill-opacity:1;">
  <use xlink:href="#glyph0-14" x="517.010159" y="14.436"/>
  <use xlink:href="#glyph0-2" x="521.229799" y="14.436"/>
</g>
<g style="fill:rgb(0%,0%,0%);fill-opacity:1;">
  <use xlink:href="#glyph0-14" x="0.016" y="34.726"/>
  <use xlink:href="#glyph0-2" x="4.23564" y="34.726"/>
  <use xlink:href="#glyph0-13" x="10.261827" y="34.726"/>
</g>
<g style="fill:rgb(0%,0%,0%);fill-opacity:1;">
  <use xlink:href="#glyph0-13" x="18.694561" y="34.726"/>
  <use xlink:href="#glyph0-10" x="23.516383" y="34.726"/>
  <use xlink:href="#glyph0-21" x="29.54257" y="34.726"/>
  <use xlink:href="#glyph0-13" x="34.966575" y="34.726"/>
  <use xlink:href="#glyph0-17" x="39.788397" y="34.726"/>
</g>
<g style="fill:rgb(0%,0%,0%);fill-opacity:1;">
  <use xlink:href="#glyph0-18" x="47.625494" y="34.726"/>
  <use xlink:href="#glyph0-16" x="55.756046" y="34.726"/>
  <use xlink:href="#glyph0-10" x="61.782233" y="34.726"/>
</g>
<g style="fill:rgb(0%,0%,0%);fill-opacity:1;">
  <use xlink:href="#glyph0-4" x="71.430241" y="34.726"/>
  <use xlink:href="#glyph0-6" x="75.709881" y="34.726"/>
  <use xlink:href="#glyph0-15" x="81.133886" y="34.726"/>
  <use xlink:href="#glyph0-13" x="90.170984" y="34.726"/>
</g>
<g style="fill:rgb(0%,0%,0%);fill-opacity:1;">
  <use xlink:href="#glyph0-3" x="98.603719" y="34.726"/>
  <use xlink:href="#glyph0-16" x="101.618994" y="34.726"/>
</g>
<g style="fill:rgb(0%,0%,0%);fill-opacity:1;">
  <use xlink:href="#glyph0-11" x="111.267002" y="34.726"/>
</g>
<g style="fill:rgb(0%,0%,0%);fill-opacity:1;">
  <use xlink:href="#glyph0-20" x="120.301918" y="34.726"/>
  <use xlink:href="#glyph0-6" x="123.618285" y="34.726"/>
  <use xlink:href="#glyph0-24" x="129.042289" y="34.726"/>
  <use xlink:href="#glyph0-15" x="133.261929" y="34.726"/>
</g>
<g style="fill:rgb(0%,0%,0%);fill-opacity:1;">
  <use xlink:href="#glyph0-8" x="141.993573" y="34.726"/>
  <use xlink:href="#glyph0-9" x="148.01976" y="34.726"/>
  <use xlink:href="#glyph0-11" x="151.035035" y="34.726"/>
  <use xlink:href="#glyph0-25" x="156.459039" y="34.726"/>
</g>
<g style="fill:rgb(0%,0%,0%);fill-opacity:1;">
  <use xlink:href="#glyph1-1" x="164.298" y="34.726"/>
</g>
<g style="fill:rgb(0%,0%,0%);fill-opacity:1;">
  <use xlink:href="#glyph2-1" x="170.813" y="34.726"/>
</g>
<g style="fill:rgb(0%,0%,0%);fill-opacity:1;">
  <use xlink:href="#glyph1-2" x="175.055" y="34.726"/>
</g>
<g style="fill:rgb(0%,0%,0%);fill-opacity:1;">
  <use xlink:href="#glyph2-2" x="181.29" y="34.726"/>
</g>
<g style="fill:rgb(0%,0%,0%);fill-opacity:1;">
  <use xlink:href="#glyph2-3" x="188.565279" y="34.726"/>
</g>
<g style="fill:rgb(0%,0%,0%);fill-opacity:1;">
  <use xlink:href="#glyph3-1" x="213.283" y="30.431"/>
</g>
<path style="fill:none;stroke-width:0.436;stroke-linecap:butt;stroke-linejoin:miter;stroke:rgb(0%,0%,0%);stroke-opacity:1;stroke-miterlimit:10;" d="M 0.0004375 -0.001 L 28.254344 -0.001 " transform="matrix(1,0,0,-1,201.273,31.999)"/>
<g style="fill:rgb(0%,0%,0%);fill-opacity:1;">
  <use xlink:href="#glyph4-1" x="201.273" y="43.167"/>
</g>
<path style="fill-rule:nonzero;fill:rgb(100%,100%,100%);fill-opacity:1;stroke-width:1;stroke-linecap:butt;stroke-linejoin:miter;stroke:rgb(0%,0%,0%);stroke-opacity:1;stroke-miterlimit:10;" d="M 0.498562 10.014656 L 0.498562 -2.500969 L 22.674344 -2.500969 L 22.674344 10.014656 Z M 0.498562 10.014656 " transform="matrix(1,0,0,-1,206.353,43.167)"/>
<g style="fill:rgb(0%,0%,0%);fill-opacity:1;">
  <use xlink:href="#glyph0-5" x="209.353" y="43.167"/>
</g>
<g style="fill:rgb(0%,0%,0%);fill-opacity:1;">
  <use xlink:href="#glyph0-6" x="215.684642" y="43.167"/>
</g>
<g style="fill:rgb(0%,0%,0%);fill-opacity:1;">
  <use xlink:href="#glyph0-7" x="220.803191" y="43.167"/>
</g>
<path style="fill-rule:nonzero;fill:rgb(100%,100%,100%);fill-opacity:1;stroke-width:1;stroke-linecap:butt;stroke-linejoin:miter;stroke:rgb(0%,0%,0%);stroke-opacity:1;stroke-miterlimit:10;" d="M -296.04125 13.675219 L -296.04125 -5.168531 L -0.498281 -5.168531 L -0.498281 13.675219 Z M -296.04125 13.675219 " transform="matrix(1,0,0,-1,527.26,34.726)"/>
<g style="fill:rgb(0%,0%,0%);fill-opacity:1;">
  <use xlink:href="#glyph0-26" x="0.016" y="59.372"/>
  <use xlink:href="#glyph0-13" x="6.042187" y="59.372"/>
  <use xlink:href="#glyph0-13" x="10.864009" y="59.372"/>
</g>
<g style="fill:rgb(0%,0%,0%);fill-opacity:1;">
  <use xlink:href="#glyph0-2" x="19.296743" y="59.372"/>
  <use xlink:href="#glyph0-6" x="25.32293" y="59.372"/>
</g>
<g style="fill:rgb(0%,0%,0%);fill-opacity:1;">
  <use xlink:href="#glyph0-23" x="30.452389" y="59.372"/>
</g>
<g style="fill:rgb(0%,0%,0%);fill-opacity:1;">
  <use xlink:href="#glyph0-13" x="41.896035" y="59.372"/>
  <use xlink:href="#glyph0-12" x="46.717857" y="59.372"/>
</g>
<g style="fill:rgb(0%,0%,0%);fill-opacity:1;">
  <use xlink:href="#glyph0-13" x="52.148407" y="59.372"/>
  <use xlink:href="#glyph0-16" x="56.970229" y="59.372"/>
</g>
<g style="fill:rgb(0%,0%,0%);fill-opacity:1;">
  <use xlink:href="#glyph0-14" x="66.607328" y="59.372"/>
  <use xlink:href="#glyph0-2" x="70.826968" y="59.372"/>
  <use xlink:href="#glyph0-13" x="76.853155" y="59.372"/>
</g>
<g style="fill:rgb(0%,0%,0%);fill-opacity:1;">
  <use xlink:href="#glyph0-2" x="85.296798" y="59.372"/>
  <use xlink:href="#glyph0-6" x="91.322985" y="59.372"/>
</g>
<g style="fill:rgb(0%,0%,0%);fill-opacity:1;">
  <use xlink:href="#glyph0-24" x="96.736081" y="59.372"/>
  <use xlink:href="#glyph0-3" x="100.95572" y="59.372"/>
  <use xlink:href="#glyph0-27" x="103.970996" y="59.372"/>
  <use xlink:href="#glyph0-6" x="108.792818" y="59.372"/>
  <use xlink:href="#glyph0-16" x="114.216822" y="59.372"/>
</g>
<g style="fill:rgb(0%,0%,0%);fill-opacity:1;">
  <use xlink:href="#glyph0-14" x="119.948464" y="59.372"/>
  <use xlink:href="#glyph0-11" x="124.168103" y="59.372"/>
  <use xlink:href="#glyph0-9" x="129.592108" y="59.372"/>
  <use xlink:href="#glyph0-9" x="132.607383" y="59.372"/>
  <use xlink:href="#glyph0-22" x="135.622658" y="59.372"/>
</g>
<g style="fill:rgb(0%,0%,0%);fill-opacity:1;">
  <use xlink:href="#glyph0-4" x="144.958666" y="59.372"/>
  <use xlink:href="#glyph0-14" x="149.238306" y="59.372"/>
  <use xlink:href="#glyph0-24" x="153.457946" y="59.372"/>
  <use xlink:href="#glyph0-13" x="157.677586" y="59.372"/>
  <use xlink:href="#glyph0-14" x="162.499408" y="59.372"/>
  <use xlink:href="#glyph0-19" x="166.719048" y="59.372"/>
</g>
<g style="fill:rgb(0%,0%,0%);fill-opacity:1;">
  <use xlink:href="#glyph0-2" x="171.235415" y="59.372"/>
  <use xlink:href="#glyph0-3" x="177.261602" y="59.372"/>
  <use xlink:href="#glyph0-16" x="180.276877" y="59.372"/>
  <use xlink:href="#glyph0-21" x="186.303064" y="59.372"/>
</g>
<g style="fill:rgb(0%,0%,0%);fill-opacity:1;">
  <use xlink:href="#glyph0-5" x="195.34889" y="59.372"/>
</g>
<g style="fill:rgb(0%,0%,0%);fill-opacity:1;">
  <use xlink:href="#glyph0-6" x="201.669623" y="59.372"/>
</g>
<g style="fill:rgb(0%,0%,0%);fill-opacity:1;">
  <use xlink:href="#glyph0-7" x="206.799081" y="59.372"/>
</g>
<g style="fill:rgb(0%,0%,0%);fill-opacity:1;">
  <use xlink:href="#glyph0-3" x="216.135089" y="59.372"/>
  <use xlink:href="#glyph0-16" x="219.150364" y="59.372"/>
</g>
<g style="fill:rgb(0%,0%,0%);fill-opacity:1;">
  <use xlink:href="#glyph0-15" x="228.798372" y="59.372"/>
  <use xlink:href="#glyph0-11" x="237.835471" y="59.372"/>
</g>
<g style="fill:rgb(0%,0%,0%);fill-opacity:1;">
  <use xlink:href="#glyph0-14" x="243.248566" y="59.372"/>
  <use xlink:href="#glyph0-2" x="247.468206" y="59.372"/>
</g>
<g style="fill:rgb(0%,0%,0%);fill-opacity:1;">
  <use xlink:href="#glyph0-15" x="257.116214" y="59.372"/>
  <use xlink:href="#glyph0-6" x="266.153313" y="59.372"/>
</g>
<g style="fill:rgb(0%,0%,0%);fill-opacity:1;">
  <use xlink:href="#glyph0-10" x="271.882772" y="59.372"/>
</g>
<g style="fill:rgb(0%,0%,0%);fill-opacity:1;">
  <use xlink:href="#glyph0-13" x="277.89805" y="59.372"/>
</g>
<g style="fill:rgb(0%,0%,0%);fill-opacity:1;">
  <use xlink:href="#glyph0-23" x="286.341693" y="59.372"/>
</g>
<g style="fill:rgb(0%,0%,0%);fill-opacity:1;">
  <use xlink:href="#glyph0-6" x="293.868972" y="59.372"/>
  <use xlink:href="#glyph0-24" x="299.292977" y="59.372"/>
  <use xlink:href="#glyph0-28" x="303.512617" y="59.372"/>
  <use xlink:href="#glyph0-4" x="309.237712" y="59.372"/>
</g>
<g style="fill:rgb(0%,0%,0%);fill-opacity:1;">
  <use xlink:href="#glyph0-29" x="317.139173" y="59.372"/>
  <use xlink:href="#glyph0-16" x="323.168633" y="59.372"/>
  <use xlink:href="#glyph0-13" x="329.19482" y="59.372"/>
</g>
<g style="fill:rgb(0%,0%,0%);fill-opacity:1;">
  <use xlink:href="#glyph0-11" x="337.627554" y="59.372"/>
  <use xlink:href="#glyph0-16" x="343.051559" y="59.372"/>
  <use xlink:href="#glyph0-10" x="349.077745" y="59.372"/>
</g>
<g style="fill:rgb(0%,0%,0%);fill-opacity:1;">
  <use xlink:href="#glyph0-29" x="358.725753" y="59.372"/>
  <use xlink:href="#glyph0-9" x="364.755213" y="59.372"/>
  <use xlink:href="#glyph0-9" x="367.770488" y="59.372"/>
  <use xlink:href="#glyph0-4" x="370.785764" y="59.372"/>
</g>
<g style="fill:rgb(0%,0%,0%);fill-opacity:1;">
  <use xlink:href="#glyph0-8" x="378.676316" y="59.372"/>
  <use xlink:href="#glyph0-30" x="384.702502" y="59.372"/>
</g>
<g style="fill:rgb(0%,0%,0%);fill-opacity:1;">
  <use xlink:href="#glyph0-14" x="394.35051" y="59.372"/>
  <use xlink:href="#glyph0-6" x="398.57015" y="59.372"/>
</g>
<g style="fill:rgb(0%,0%,0%);fill-opacity:1;">
  <use xlink:href="#glyph0-14" x="407.605067" y="59.372"/>
  <use xlink:href="#glyph0-2" x="411.824707" y="59.372"/>
  <use xlink:href="#glyph0-13" x="417.850894" y="59.372"/>
</g>
<g style="fill:rgb(0%,0%,0%);fill-opacity:1;">
  <use xlink:href="#glyph0-23" x="426.294537" y="59.372"/>
  <use xlink:href="#glyph0-2" x="434.127271" y="59.372"/>
  <use xlink:href="#glyph0-6" x="440.153458" y="59.372"/>
</g>
<g style="fill:rgb(0%,0%,0%);fill-opacity:1;">
  <use xlink:href="#glyph0-9" x="445.566553" y="59.372"/>
  <use xlink:href="#glyph0-13" x="448.581828" y="59.372"/>
</g>
<g style="fill:rgb(0%,0%,0%);fill-opacity:1;">
  <use xlink:href="#glyph0-23" x="457.025472" y="59.372"/>
  <use xlink:href="#glyph0-3" x="464.858206" y="59.372"/>
  <use xlink:href="#glyph0-10" x="467.873481" y="59.372"/>
  <use xlink:href="#glyph0-14" x="473.899668" y="59.372"/>
  <use xlink:href="#glyph0-2" x="478.119308" y="59.372"/>
  <use xlink:href="#glyph0-31" x="484.145494" y="59.372"/>
</g>
<g style="fill:rgb(0%,0%,0%);fill-opacity:1;">
  <use xlink:href="#glyph0-26" x="0.016" y="151.535"/>
  <use xlink:href="#glyph0-6" x="6.042187" y="151.535"/>
  <use xlink:href="#glyph0-15" x="11.466191" y="151.535"/>
  <use xlink:href="#glyph0-13" x="20.50329" y="151.535"/>
</g>
<g style="fill:rgb(0%,0%,0%);fill-opacity:1;">
  <use xlink:href="#glyph0-19" x="28.936024" y="151.535"/>
  <use xlink:href="#glyph0-6" x="33.757846" y="151.535"/>
  <use xlink:href="#glyph0-15" x="39.181851" y="151.535"/>
  <use xlink:href="#glyph0-30" x="48.218949" y="151.535"/>
  <use xlink:href="#glyph0-9" x="54.245136" y="151.535"/>
  <use xlink:href="#glyph0-13" x="57.260411" y="151.535"/>
  <use xlink:href="#glyph0-7" x="62.082234" y="151.535"/>
</g>
<g style="fill:rgb(0%,0%,0%);fill-opacity:1;">
  <use xlink:href="#glyph0-3" x="71.42915" y="151.535"/>
  <use xlink:href="#glyph0-16" x="74.444426" y="151.535"/>
  <use xlink:href="#glyph0-9" x="80.470612" y="151.535"/>
  <use xlink:href="#glyph0-3" x="83.485888" y="151.535"/>
  <use xlink:href="#glyph0-16" x="86.501163" y="151.535"/>
  <use xlink:href="#glyph0-13" x="92.52735" y="151.535"/>
</g>
<g style="fill:rgb(0%,0%,0%);fill-opacity:1;">
  <use xlink:href="#glyph0-19" x="100.960084" y="151.535"/>
  <use xlink:href="#glyph0-6" x="105.781906" y="151.535"/>
  <use xlink:href="#glyph0-16" x="111.205911" y="151.535"/>
</g>
<g style="fill:rgb(0%,0%,0%);fill-opacity:1;">
  <use xlink:href="#glyph0-14" x="116.926643" y="151.535"/>
  <use xlink:href="#glyph0-13" x="121.146283" y="151.535"/>
  <use xlink:href="#glyph0-16" x="125.968105" y="151.535"/>
</g>
<g style="fill:rgb(0%,0%,0%);fill-opacity:1;">
  <use xlink:href="#glyph0-14" x="131.699746" y="151.535"/>
  <use xlink:href="#glyph0-25" x="135.919386" y="151.535"/>
</g>
<path style="fill-rule:nonzero;fill:rgb(100%,100%,100%);fill-opacity:1;stroke-width:1;stroke-linecap:butt;stroke-linejoin:miter;stroke:rgb(0%,0%,0%);stroke-opacity:1;stroke-miterlimit:10;" d="M 0.5 83.851406 L 0.5 -2.500156 L 315.855469 -2.500156 L 315.855469 83.851406 Z M 0.5 83.851406 " transform="matrix(1,0,0,-1,143.75,151.535)"/>
<g style="fill:rgb(0%,0%,0%);fill-opacity:1;">
  <use xlink:href="#glyph0-11" x="152.728" y="79.669"/>
  <use xlink:href="#glyph0-10" x="158.152005" y="79.669"/>
  <use xlink:href="#glyph0-4" x="164.178191" y="79.669"/>
  <use xlink:href="#glyph0-20" x="168.457831" y="79.669"/>
</g>
<g style="fill:rgb(0%,0%,0%);fill-opacity:1;">
  <use xlink:href="#glyph0-9" x="175.38511" y="79.669"/>
  <use xlink:href="#glyph0-28" x="178.400385" y="79.669"/>
</g>
<g style="fill:rgb(0%,0%,0%);fill-opacity:1;">
  <use xlink:href="#glyph0-11" x="183.52548" y="79.669"/>
  <use xlink:href="#glyph0-4" x="188.949485" y="79.669"/>
  <use xlink:href="#glyph0-32" x="193.229125" y="79.669"/>
  <use xlink:href="#glyph0-10" x="196.545491" y="79.669"/>
</g>
<g style="fill:rgb(0%,0%,0%);fill-opacity:1;">
  <use xlink:href="#glyph0-9" x="206.193499" y="79.669"/>
  <use xlink:href="#glyph0-28" x="209.208774" y="79.669"/>
</g>
<g style="fill:rgb(0%,0%,0%);fill-opacity:1;">
  <use xlink:href="#glyph0-4" x="214.922961" y="79.669"/>
  <use xlink:href="#glyph0-32" x="219.202601" y="79.669"/>
</g>
<g style="fill:rgb(0%,0%,0%);fill-opacity:1;">
  <use xlink:href="#glyph0-33" x="226.140788" y="79.669"/>
  <use xlink:href="#glyph0-28" x="232.170248" y="79.669"/>
  <use xlink:href="#glyph0-32" x="237.895344" y="79.669"/>
  <use xlink:href="#glyph0-4" x="241.21171" y="79.669"/>
  <use xlink:href="#glyph0-20" x="245.49135" y="79.669"/>
  <use xlink:href="#glyph0-10" x="248.807716" y="79.669"/>
</g>
<path style="fill:none;stroke-width:0.398;stroke-linecap:butt;stroke-linejoin:miter;stroke:rgb(0%,0%,0%);stroke-opacity:1;stroke-miterlimit:10;" d="M -0.0001875 -0.000375 L -0.0001875 13.550406 " transform="matrix(1,0,0,-1,261.008,83.734)"/>
<g style="fill:rgb(0%,0%,0%);fill-opacity:1;">
  <use xlink:href="#glyph0-5" x="267.185" y="79.669"/>
  <use xlink:href="#glyph0-9" x="273.211187" y="79.669"/>
  <use xlink:href="#glyph0-8" x="276.226462" y="79.669"/>
  <use xlink:href="#glyph0-5" x="282.252649" y="79.669"/>
</g>
<path style="fill:none;stroke-width:0.398;stroke-linecap:butt;stroke-linejoin:miter;stroke:rgb(0%,0%,0%);stroke-opacity:1;stroke-miterlimit:10;" d="M -0.000875 -0.000375 L -0.000875 13.550406 " transform="matrix(1,0,0,-1,294.454,83.734)"/>
<g style="fill:rgb(0%,0%,0%);fill-opacity:1;">
  <use xlink:href="#glyph0-21" x="300.631" y="79.669"/>
  <use xlink:href="#glyph0-11" x="306.055005" y="79.669"/>
  <use xlink:href="#glyph0-2" x="311.479009" y="79.669"/>
</g>
<path style="fill:none;stroke-width:0.398;stroke-linecap:butt;stroke-linejoin:miter;stroke:rgb(0%,0%,0%);stroke-opacity:1;stroke-miterlimit:10;" d="M 0 -0.00059375 L 310.351562 -0.00059375 " transform="matrix(1,0,0,-1,146.75,83.933)"/>
<g style="fill:rgb(0%,0%,0%);fill-opacity:1;">
  <use xlink:href="#glyph0-11" x="152.728" y="93.617"/>
  <use xlink:href="#glyph0-4" x="158.152005" y="93.617"/>
  <use xlink:href="#glyph0-10" x="162.431644" y="93.617"/>
  <use xlink:href="#glyph0-20" x="168.457831" y="93.617"/>
</g>
<path style="fill:none;stroke-width:0.398;stroke-linecap:butt;stroke-linejoin:miter;stroke:rgb(0%,0%,0%);stroke-opacity:1;stroke-miterlimit:10;" d="M -0.0001875 -0.00159375 L -0.0001875 13.549187 " transform="matrix(1,0,0,-1,261.008,97.682)"/>
<path style="fill:none;stroke-width:0.398;stroke-linecap:butt;stroke-linejoin:miter;stroke:rgb(0%,0%,0%);stroke-opacity:1;stroke-miterlimit:10;" d="M -0.000875 -0.00159375 L -0.000875 13.549187 " transform="matrix(1,0,0,-1,294.454,97.682)"/>
<g style="fill:rgb(0%,0%,0%);fill-opacity:1;">
  <use xlink:href="#glyph0-1" x="146.75" y="110.887"/>
  <use xlink:href="#glyph0-2" x="154.582734" y="110.887"/>
  <use xlink:href="#glyph0-3" x="160.608921" y="110.887"/>
  <use xlink:href="#glyph0-4" x="163.624196" y="110.887"/>
</g>
<g style="fill:rgb(0%,0%,0%);fill-opacity:1;">
  <use xlink:href="#glyph0-3" x="170.674747" y="110.887"/>
  <use xlink:href="#glyph0-4" x="173.690022" y="110.887"/>
</g>
<g style="fill:rgb(0%,0%,0%);fill-opacity:1;">
  <use xlink:href="#glyph0-11" x="180.740574" y="110.887"/>
</g>
<g style="fill:rgb(0%,0%,0%);fill-opacity:1;">
  <use xlink:href="#glyph0-30" x="188.924581" y="110.887"/>
  <use xlink:href="#glyph0-11" x="194.950767" y="110.887"/>
  <use xlink:href="#glyph0-24" x="200.374772" y="110.887"/>
  <use xlink:href="#glyph0-11" x="204.594412" y="110.887"/>
  <use xlink:href="#glyph0-21" x="210.018416" y="110.887"/>
  <use xlink:href="#glyph0-24" x="215.442421" y="110.887"/>
  <use xlink:href="#glyph0-11" x="219.662061" y="110.887"/>
  <use xlink:href="#glyph0-30" x="225.086065" y="110.887"/>
  <use xlink:href="#glyph0-2" x="231.112252" y="110.887"/>
</g>
<g style="fill:rgb(0%,0%,0%);fill-opacity:1;">
  <use xlink:href="#glyph0-23" x="239.90935" y="110.887"/>
  <use xlink:href="#glyph0-3" x="247.742084" y="110.887"/>
  <use xlink:href="#glyph0-14" x="250.757359" y="110.887"/>
  <use xlink:href="#glyph0-2" x="254.976999" y="110.887"/>
</g>
<g style="fill:rgb(0%,0%,0%);fill-opacity:1;">
  <use xlink:href="#glyph0-15" x="263.774098" y="110.887"/>
  <use xlink:href="#glyph0-6" x="272.811196" y="110.887"/>
  <use xlink:href="#glyph0-24" x="278.2352" y="110.887"/>
  <use xlink:href="#glyph0-13" x="282.45484" y="110.887"/>
</g>
<g style="fill:rgb(0%,0%,0%);fill-opacity:1;">
  <use xlink:href="#glyph0-14" x="290.036665" y="110.887"/>
  <use xlink:href="#glyph0-13" x="294.256305" y="110.887"/>
  <use xlink:href="#glyph0-7" x="299.078127" y="110.887"/>
  <use xlink:href="#glyph0-14" x="304.803223" y="110.887"/>
  <use xlink:href="#glyph0-17" x="309.022862" y="110.887"/>
</g>
<g style="fill:rgb(0%,0%,0%);fill-opacity:1;">
  <use xlink:href="#glyph0-1" x="316.576323" y="110.887"/>
  <use xlink:href="#glyph0-2" x="324.409057" y="110.887"/>
  <use xlink:href="#glyph0-3" x="330.435244" y="110.887"/>
  <use xlink:href="#glyph0-4" x="333.450519" y="110.887"/>
</g>
<g style="fill:rgb(0%,0%,0%);fill-opacity:1;">
  <use xlink:href="#glyph0-3" x="340.501071" y="110.887"/>
  <use xlink:href="#glyph0-4" x="343.516346" y="110.887"/>
</g>
<g style="fill:rgb(0%,0%,0%);fill-opacity:1;">
  <use xlink:href="#glyph0-11" x="350.566897" y="110.887"/>
</g>
<g style="fill:rgb(0%,0%,0%);fill-opacity:1;">
  <use xlink:href="#glyph0-30" x="358.761813" y="110.887"/>
  <use xlink:href="#glyph0-11" x="364.788" y="110.887"/>
  <use xlink:href="#glyph0-24" x="370.212004" y="110.887"/>
  <use xlink:href="#glyph0-11" x="374.431644" y="110.887"/>
  <use xlink:href="#glyph0-21" x="379.855649" y="110.887"/>
</g>
<g style="fill:rgb(0%,0%,0%);fill-opacity:1;">
  <use xlink:href="#glyph0-24" x="385.268744" y="110.887"/>
  <use xlink:href="#glyph0-11" x="389.488384" y="110.887"/>
  <use xlink:href="#glyph0-30" x="394.912389" y="110.887"/>
  <use xlink:href="#glyph0-2" x="400.938575" y="110.887"/>
</g>
<g style="fill:rgb(0%,0%,0%);fill-opacity:1;">
  <use xlink:href="#glyph0-23" x="409.735674" y="110.887"/>
  <use xlink:href="#glyph0-3" x="417.568407" y="110.887"/>
  <use xlink:href="#glyph0-14" x="420.583683" y="110.887"/>
  <use xlink:href="#glyph0-2" x="424.803323" y="110.887"/>
</g>
<g style="fill:rgb(0%,0%,0%);fill-opacity:1;">
  <use xlink:href="#glyph0-15" x="433.600421" y="110.887"/>
  <use xlink:href="#glyph0-6" x="442.637519" y="110.887"/>
  <use xlink:href="#glyph0-24" x="448.061524" y="110.887"/>
  <use xlink:href="#glyph0-13" x="452.281164" y="110.887"/>
</g>
<g style="fill:rgb(0%,0%,0%);fill-opacity:1;">
  <use xlink:href="#glyph0-14" x="146.75" y="124.436"/>
  <use xlink:href="#glyph0-13" x="150.96964" y="124.436"/>
  <use xlink:href="#glyph0-7" x="155.791462" y="124.436"/>
  <use xlink:href="#glyph0-14" x="161.516558" y="124.436"/>
  <use xlink:href="#glyph0-17" x="165.736198" y="124.436"/>
</g>
<g style="fill:rgb(0%,0%,0%);fill-opacity:1;">
  <use xlink:href="#glyph0-1" x="173.278749" y="124.436"/>
  <use xlink:href="#glyph0-2" x="181.111483" y="124.436"/>
  <use xlink:href="#glyph0-3" x="187.13767" y="124.436"/>
  <use xlink:href="#glyph0-4" x="190.152945" y="124.436"/>
</g>
<g style="fill:rgb(0%,0%,0%);fill-opacity:1;">
  <use xlink:href="#glyph0-3" x="197.181678" y="124.436"/>
  <use xlink:href="#glyph0-4" x="200.196954" y="124.436"/>
</g>
<g style="fill:rgb(0%,0%,0%);fill-opacity:1;">
  <use xlink:href="#glyph0-11" x="207.214778" y="124.436"/>
</g>
<g style="fill:rgb(0%,0%,0%);fill-opacity:1;">
  <use xlink:href="#glyph0-30" x="215.387875" y="124.436"/>
  <use xlink:href="#glyph0-11" x="221.414062" y="124.436"/>
  <use xlink:href="#glyph0-24" x="226.838067" y="124.436"/>
  <use xlink:href="#glyph0-11" x="231.057707" y="124.436"/>
</g>
<g style="fill:rgb(0%,0%,0%);fill-opacity:1;">
  <use xlink:href="#glyph0-21" x="236.470802" y="124.436"/>
  <use xlink:href="#glyph0-24" x="241.894807" y="124.436"/>
  <use xlink:href="#glyph0-11" x="246.114446" y="124.436"/>
  <use xlink:href="#glyph0-30" x="251.538451" y="124.436"/>
  <use xlink:href="#glyph0-2" x="257.564638" y="124.436"/>
</g>
<g style="fill:rgb(0%,0%,0%);fill-opacity:1;">
  <use xlink:href="#glyph0-23" x="266.339918" y="124.436"/>
  <use xlink:href="#glyph0-3" x="274.172652" y="124.436"/>
  <use xlink:href="#glyph0-14" x="277.187927" y="124.436"/>
  <use xlink:href="#glyph0-2" x="281.407567" y="124.436"/>
</g>
<g style="fill:rgb(0%,0%,0%);fill-opacity:1;">
  <use xlink:href="#glyph0-15" x="290.171938" y="124.436"/>
  <use xlink:href="#glyph0-6" x="299.209036" y="124.436"/>
  <use xlink:href="#glyph0-24" x="304.633041" y="124.436"/>
  <use xlink:href="#glyph0-13" x="308.852681" y="124.436"/>
</g>
<g style="fill:rgb(0%,0%,0%);fill-opacity:1;">
  <use xlink:href="#glyph0-14" x="316.423596" y="124.436"/>
  <use xlink:href="#glyph0-13" x="320.643236" y="124.436"/>
  <use xlink:href="#glyph0-7" x="325.465058" y="124.436"/>
  <use xlink:href="#glyph0-14" x="331.190154" y="124.436"/>
  <use xlink:href="#glyph0-17" x="335.409794" y="124.436"/>
</g>
<g style="fill:rgb(0%,0%,0%);fill-opacity:1;">
  <use xlink:href="#glyph0-1" x="342.952345" y="124.436"/>
  <use xlink:href="#glyph0-2" x="350.785079" y="124.436"/>
  <use xlink:href="#glyph0-3" x="356.811266" y="124.436"/>
  <use xlink:href="#glyph0-4" x="359.826541" y="124.436"/>
</g>
<g style="fill:rgb(0%,0%,0%);fill-opacity:1;">
  <use xlink:href="#glyph0-3" x="366.844365" y="124.436"/>
  <use xlink:href="#glyph0-4" x="369.85964" y="124.436"/>
</g>
<g style="fill:rgb(0%,0%,0%);fill-opacity:1;">
  <use xlink:href="#glyph0-11" x="376.888374" y="124.436"/>
</g>
<g style="fill:rgb(0%,0%,0%);fill-opacity:1;">
  <use xlink:href="#glyph0-30" x="385.050562" y="124.436"/>
  <use xlink:href="#glyph0-11" x="391.076749" y="124.436"/>
  <use xlink:href="#glyph0-24" x="396.500754" y="124.436"/>
  <use xlink:href="#glyph0-11" x="400.720393" y="124.436"/>
  <use xlink:href="#glyph0-21" x="406.144398" y="124.436"/>
  <use xlink:href="#glyph0-24" x="411.568402" y="124.436"/>
  <use xlink:href="#glyph0-11" x="415.788042" y="124.436"/>
  <use xlink:href="#glyph0-30" x="421.212047" y="124.436"/>
  <use xlink:href="#glyph0-2" x="427.238234" y="124.436"/>
</g>
<g style="fill:rgb(0%,0%,0%);fill-opacity:1;">
  <use xlink:href="#glyph0-23" x="436.013514" y="124.436"/>
  <use xlink:href="#glyph0-3" x="443.846248" y="124.436"/>
</g>
<g style="fill:rgb(0%,0%,0%);fill-opacity:1;">
  <use xlink:href="#glyph0-14" x="446.850614" y="124.436"/>
  <use xlink:href="#glyph0-2" x="451.070254" y="124.436"/>
</g>
<g style="fill:rgb(0%,0%,0%);fill-opacity:1;">
  <use xlink:href="#glyph0-15" x="146.75" y="137.986"/>
  <use xlink:href="#glyph0-6" x="155.787098" y="137.986"/>
  <use xlink:href="#glyph0-24" x="161.211103" y="137.986"/>
  <use xlink:href="#glyph0-13" x="165.430743" y="137.986"/>
</g>
<g style="fill:rgb(0%,0%,0%);fill-opacity:1;">
  <use xlink:href="#glyph0-14" x="172.772567" y="137.986"/>
  <use xlink:href="#glyph0-13" x="176.992207" y="137.986"/>
  <use xlink:href="#glyph0-7" x="181.814029" y="137.986"/>
  <use xlink:href="#glyph0-14" x="187.539125" y="137.986"/>
  <use xlink:href="#glyph0-17" x="191.758765" y="137.986"/>
</g>
<g style="fill:rgb(0%,0%,0%);fill-opacity:1;">
  <use xlink:href="#glyph0-1" x="199.224953" y="137.986"/>
  <use xlink:href="#glyph0-2" x="207.057687" y="137.986"/>
  <use xlink:href="#glyph0-3" x="213.083873" y="137.986"/>
  <use xlink:href="#glyph0-4" x="216.099149" y="137.986"/>
</g>
<g style="fill:rgb(0%,0%,0%);fill-opacity:1;">
  <use xlink:href="#glyph0-3" x="222.898791" y="137.986"/>
  <use xlink:href="#glyph0-4" x="225.914066" y="137.986"/>
</g>
<g style="fill:rgb(0%,0%,0%);fill-opacity:1;">
  <use xlink:href="#glyph0-11" x="232.713708" y="137.986"/>
</g>
<g style="fill:rgb(0%,0%,0%);fill-opacity:1;">
  <use xlink:href="#glyph0-30" x="240.646806" y="137.986"/>
  <use xlink:href="#glyph0-11" x="246.672992" y="137.986"/>
  <use xlink:href="#glyph0-24" x="252.096997" y="137.986"/>
  <use xlink:href="#glyph0-11" x="256.316637" y="137.986"/>
  <use xlink:href="#glyph0-21" x="261.740641" y="137.986"/>
  <use xlink:href="#glyph0-24" x="267.164646" y="137.986"/>
  <use xlink:href="#glyph0-11" x="271.384286" y="137.986"/>
  <use xlink:href="#glyph0-30" x="276.80829" y="137.986"/>
  <use xlink:href="#glyph0-2" x="282.834477" y="137.986"/>
</g>
<g style="fill:rgb(0%,0%,0%);fill-opacity:1;">
  <use xlink:href="#glyph0-23" x="291.380666" y="137.986"/>
  <use xlink:href="#glyph0-3" x="299.2134" y="137.986"/>
  <use xlink:href="#glyph0-14" x="302.228675" y="137.986"/>
  <use xlink:href="#glyph0-2" x="306.448315" y="137.986"/>
</g>
<g style="fill:rgb(0%,0%,0%);fill-opacity:1;">
  <use xlink:href="#glyph0-15" x="314.994504" y="137.986"/>
  <use xlink:href="#glyph0-6" x="324.031602" y="137.986"/>
  <use xlink:href="#glyph0-24" x="329.455607" y="137.986"/>
  <use xlink:href="#glyph0-13" x="333.675247" y="137.986"/>
</g>
<g style="fill:rgb(0%,0%,0%);fill-opacity:1;">
  <use xlink:href="#glyph0-14" x="341.006162" y="137.986"/>
  <use xlink:href="#glyph0-13" x="345.225802" y="137.986"/>
  <use xlink:href="#glyph0-7" x="350.047624" y="137.986"/>
  <use xlink:href="#glyph0-14" x="355.77272" y="137.986"/>
  <use xlink:href="#glyph0-17" x="359.99236" y="137.986"/>
</g>
<g style="fill:rgb(0%,0%,0%);fill-opacity:1;">
  <use xlink:href="#glyph0-1" x="367.469457" y="137.986"/>
  <use xlink:href="#glyph0-2" x="375.30219" y="137.986"/>
</g>
<g style="fill:rgb(0%,0%,0%);fill-opacity:1;">
  <use xlink:href="#glyph0-3" x="381.317468" y="137.986"/>
  <use xlink:href="#glyph0-4" x="384.332743" y="137.986"/>
</g>
<g style="fill:rgb(0%,0%,0%);fill-opacity:1;">
  <use xlink:href="#glyph0-3" x="391.132385" y="137.986"/>
  <use xlink:href="#glyph0-4" x="394.147661" y="137.986"/>
</g>
<g style="fill:rgb(0%,0%,0%);fill-opacity:1;">
  <use xlink:href="#glyph0-11" x="400.947303" y="137.986"/>
</g>
<g style="fill:rgb(0%,0%,0%);fill-opacity:1;">
  <use xlink:href="#glyph0-30" x="408.891309" y="137.986"/>
  <use xlink:href="#glyph0-11" x="414.917496" y="137.986"/>
  <use xlink:href="#glyph0-24" x="420.341501" y="137.986"/>
  <use xlink:href="#glyph0-11" x="424.561141" y="137.986"/>
  <use xlink:href="#glyph0-21" x="429.985145" y="137.986"/>
  <use xlink:href="#glyph0-24" x="435.40915" y="137.986"/>
  <use xlink:href="#glyph0-11" x="439.62879" y="137.986"/>
  <use xlink:href="#glyph0-30" x="445.052794" y="137.986"/>
  <use xlink:href="#glyph0-2" x="451.078981" y="137.986"/>
</g>
<g style="fill:rgb(0%,0%,0%);fill-opacity:1;">
  <use xlink:href="#glyph0-23" x="146.75" y="151.535"/>
  <use xlink:href="#glyph0-3" x="154.582734" y="151.535"/>
  <use xlink:href="#glyph0-14" x="157.598009" y="151.535"/>
  <use xlink:href="#glyph0-2" x="161.817649" y="151.535"/>
</g>
<g style="fill:rgb(0%,0%,0%);fill-opacity:1;">
  <use xlink:href="#glyph0-15" x="171.454748" y="151.535"/>
  <use xlink:href="#glyph0-6" x="180.491846" y="151.535"/>
  <use xlink:href="#glyph0-24" x="185.915851" y="151.535"/>
  <use xlink:href="#glyph0-13" x="190.135491" y="151.535"/>
</g>
<g style="fill:rgb(0%,0%,0%);fill-opacity:1;">
  <use xlink:href="#glyph0-14" x="198.579134" y="151.535"/>
  <use xlink:href="#glyph0-13" x="202.798774" y="151.535"/>
  <use xlink:href="#glyph0-7" x="207.620596" y="151.535"/>
  <use xlink:href="#glyph0-14" x="213.345692" y="151.535"/>
  <use xlink:href="#glyph0-17" x="217.565332" y="151.535"/>
</g>
</g>
</svg>
