<?xml version="1.0" encoding="UTF-8"?>
<svg xmlns="http://www.w3.org/2000/svg" xmlns:xlink="http://www.w3.org/1999/xlink" width="532pt" height="144pt" viewBox="0 0 532 144" version="1.2">
<defs>
<g>
<symbol overflow="visible" id="glyph0-0">
<path style="stroke:none;" d=""/>
</symbol>
<symbol overflow="visible" id="glyph0-1">
<path style="stroke:none;" d="M 2.546875 -7.265625 C 0.5 -7.078125 0.4375 -4.59375 0.4375 -3.4375 C 0.4375 -2.421875 0.53125 -1.203125 1.203125 -0.4375 C 1.578125 -0.015625 2.140625 0.234375 2.6875 0.234375 C 4.328125 0.234375 4.9375 -1.46875 4.96875 -2.984375 C 4.96875 -3.1875 4.96875 -3.375 4.96875 -3.578125 C 4.96875 -4.609375 4.875 -5.8125 4.203125 -6.578125 C 3.84375 -7 3.28125 -7.28125 2.71875 -7.28125 C 2.65625 -7.28125 2.609375 -7.265625 2.546875 -7.265625 Z M 1.3125 -2.828125 C 1.296875 -2.921875 1.296875 -3.015625 1.296875 -3.125 C 1.296875 -3.8125 1.296875 -4.5 1.359375 -5.1875 C 1.390625 -5.59375 1.421875 -6.046875 1.65625 -6.40625 C 1.890625 -6.765625 2.28125 -7.03125 2.703125 -7.03125 C 3.03125 -7.03125 3.34375 -6.875 3.578125 -6.625 C 4.0625 -6.125 4.09375 -5.265625 4.09375 -4.484375 L 4.09375 -3.84375 C 4.09375 -3.5625 4.109375 -3.25 4.109375 -2.9375 C 4.109375 -1.546875 3.921875 -0.015625 2.6875 -0.015625 L 2.65625 -0.015625 C 1.3125 -0.140625 1.421875 -1.75 1.3125 -2.828125 Z M 1.3125 -2.828125 "/>
</symbol>
<symbol overflow="visible" id="glyph0-2">
<path style="stroke:none;" d="M 1.421875 -1.09375 C 1.125 -1.046875 0.96875 -0.796875 0.96875 -0.5625 C 0.96875 -0.3125 1.140625 -0.015625 1.5 -0.015625 C 1.828125 -0.015625 2.046875 -0.28125 2.046875 -0.5625 C 2.046875 -0.8125 1.859375 -1.09375 1.515625 -1.09375 C 1.484375 -1.09375 1.453125 -1.09375 1.421875 -1.09375 Z M 1.421875 -1.09375 "/>
</symbol>
<symbol overflow="visible" id="glyph0-3">
<path style="stroke:none;" d="M 1 -6.5625 L 1 -6.234375 C 1.515625 -6.234375 1.90625 -6.328125 2.421875 -6.515625 L 2.421875 -0.8125 C 2.421875 -0.375 2.015625 -0.34375 1.625 -0.34375 L 1.0625 -0.34375 L 1.0625 -0.015625 L 2.53125 -0.015625 L 2.8125 -0.046875 L 4.546875 -0.046875 L 4.546875 -0.34375 C 4.375 -0.34375 4.171875 -0.328125 4 -0.328125 C 3.5625 -0.328125 3.203125 -0.390625 3.203125 -0.8125 L 3.203125 -7.09375 C 3.203125 -7.1875 3.15625 -7.265625 3.046875 -7.265625 C 2.90625 -7.265625 2.75 -7.0625 2.625 -6.96875 C 2.140625 -6.65625 1.5625 -6.5625 1 -6.5625 Z M 1 -6.5625 "/>
</symbol>
<symbol overflow="visible" id="glyph0-4">
<path style="stroke:none;" d="M 0.34375 -0.34375 L 0.34375 -0.015625 L 2.546875 -0.015625 L 2.546875 -0.34375 C 2.25 -0.34375 1.796875 -0.5 1.796875 -0.875 L 1.796875 -0.890625 C 1.796875 -1.0625 1.90625 -1.25 1.96875 -1.421875 C 2.109375 -1.78125 2.28125 -2.1875 2.359375 -2.546875 L 5.03125 -2.546875 C 5.234375 -2.546875 5.34375 -1.984375 5.4375 -1.703125 C 5.546875 -1.375 5.796875 -0.890625 5.796875 -0.671875 C 5.796875 -0.34375 5.265625 -0.34375 4.96875 -0.34375 L 4.96875 -0.015625 L 6.21875 -0.015625 L 6.453125 -0.046875 L 7.234375 -0.046875 L 7.765625 -0.015625 L 7.765625 -0.34375 L 7.484375 -0.34375 C 7.25 -0.34375 7.015625 -0.359375 6.859375 -0.484375 C 6.71875 -0.625 6.671875 -0.84375 6.625 -1.03125 C 6.046875 -2.625 5.46875 -4.234375 4.90625 -5.84375 L 4.28125 -7.609375 C 4.234375 -7.734375 4.203125 -7.796875 4.0625 -7.796875 C 3.84375 -7.796875 3.8125 -7.5625 3.734375 -7.359375 C 3 -5.328125 2.296875 -3.28125 1.578125 -1.21875 C 1.390625 -0.78125 1.21875 -0.34375 0.34375 -0.34375 Z M 2.46875 -2.875 L 3.75 -6.46875 L 5.03125 -2.875 Z M 2.46875 -2.875 "/>
</symbol>
<symbol overflow="visible" id="glyph0-5">
<path style="stroke:none;" d="M 0.3125 -4.6875 L 0.3125 -4.359375 L 0.484375 -4.359375 C 0.8125 -4.359375 1.140625 -4.328125 1.140625 -3.8125 L 1.140625 -0.796875 C 1.140625 -0.34375 0.84375 -0.34375 0.375 -0.34375 L 0.3125 -0.34375 L 0.3125 -0.015625 L 2.90625 -0.015625 L 2.90625 -0.34375 C 2.78125 -0.34375 2.65625 -0.328125 2.515625 -0.328125 C 2.171875 -0.328125 1.859375 -0.375 1.859375 -0.78125 L 1.859375 -2.265625 C 1.859375 -3.125 2.03125 -4.578125 3.125 -4.578125 C 3.171875 -4.578125 3.21875 -4.5625 3.265625 -4.5625 C 3.109375 -4.5 3.015625 -4.3125 3.015625 -4.15625 C 3.015625 -3.921875 3.203125 -3.734375 3.421875 -3.703125 C 3.734375 -3.703125 3.921875 -3.90625 3.921875 -4.171875 C 3.921875 -4.59375 3.5 -4.8125 3.140625 -4.8125 C 2.453125 -4.8125 1.9375 -4.1875 1.8125 -3.625 L 1.796875 -4.8125 Z M 0.3125 -4.6875 "/>
</symbol>
<symbol overflow="visible" id="glyph0-6">
<path style="stroke:none;" d="M 1.1875 -4.0625 C 1.46875 -4.40625 1.875 -4.640625 2.328125 -4.640625 C 3.125 -4.640625 3.53125 -3.953125 3.53125 -3.203125 L 3.53125 -2.84375 C 2.296875 -2.84375 0.46875 -2.4375 0.46875 -1.046875 C 0.46875 -0.234375 1.421875 0.09375 2.1875 0.09375 L 2.328125 0.09375 C 2.875 0.046875 3.46875 -0.34375 3.609375 -0.84375 L 3.625 -0.84375 C 3.65625 -0.390625 3.953125 0.046875 4.453125 0.046875 C 4.921875 0.046875 5.296875 -0.328125 5.34375 -0.796875 L 5.34375 -1.59375 L 5.078125 -1.59375 L 5.078125 -1.046875 C 5.078125 -0.75 5.03125 -0.296875 4.671875 -0.296875 C 4.34375 -0.296875 4.265625 -0.734375 4.265625 -1 C 4.265625 -1.125 4.28125 -1.25 4.28125 -1.375 L 4.28125 -2.875 C 4.28125 -3 4.28125 -3.125 4.28125 -3.265625 C 4.28125 -4.28125 3.328125 -4.859375 2.421875 -4.859375 C 1.734375 -4.859375 0.796875 -4.5 0.796875 -3.625 C 0.796875 -3.34375 0.984375 -3.125 1.265625 -3.125 C 1.53125 -3.125 1.734375 -3.328125 1.734375 -3.59375 C 1.734375 -3.84375 1.53125 -4.0625 1.265625 -4.0625 C 1.25 -4.0625 1.203125 -4.0625 1.1875 -4.0625 Z M 3.53125 -2.625 L 3.53125 -1.53125 C 3.53125 -0.78125 3.015625 -0.171875 2.296875 -0.125 L 2.25 -0.125 C 1.75 -0.125 1.28125 -0.53125 1.28125 -1.0625 L 1.28125 -1.109375 C 1.359375 -2.171875 2.515625 -2.59375 3.53125 -2.625 Z M 3.53125 -2.625 "/>
</symbol>
<symbol overflow="visible" id="glyph0-7">
<path style="stroke:none;" d="M 0.359375 -4.6875 L 0.359375 -4.359375 L 0.53125 -4.359375 C 0.859375 -4.359375 1.1875 -4.328125 1.1875 -3.8125 L 1.1875 -0.796875 C 1.1875 -0.34375 0.890625 -0.34375 0.421875 -0.34375 L 0.359375 -0.34375 L 0.359375 -0.015625 L 2.765625 -0.015625 L 2.765625 -0.34375 L 2.515625 -0.34375 C 2.1875 -0.34375 1.9375 -0.375 1.9375 -0.78125 L 1.9375 -2.8125 C 1.9375 -3.59375 2.359375 -4.578125 3.40625 -4.578125 C 4.09375 -4.578125 4.1875 -3.875 4.1875 -3.234375 L 4.1875 -0.75 C 4.1875 -0.375 3.890625 -0.34375 3.59375 -0.34375 L 3.359375 -0.34375 L 3.359375 -0.015625 L 5.765625 -0.015625 L 5.765625 -0.34375 L 5.5 -0.34375 C 5.21875 -0.34375 4.921875 -0.34375 4.921875 -0.765625 L 4.921875 -3.234375 C 4.921875 -3.5625 4.921875 -3.890625 4.75 -4.1875 C 4.5 -4.671875 3.953125 -4.8125 3.4375 -4.8125 C 2.75 -4.8125 2.078125 -4.3125 1.890625 -3.703125 L 1.875 -4.8125 Z M 0.359375 -4.6875 "/>
</symbol>
<symbol overflow="visible" id="glyph0-8">
<path style="stroke:none;" d="M 1.15625 -2.109375 C 0.9375 -1.890625 0.8125 -1.5 0.8125 -1.203125 C 0.8125 -0.8125 1 -0.53125 1.28125 -0.234375 C 0.78125 -0.140625 0.3125 0.3125 0.3125 0.84375 C 0.3125 1.96875 2.078125 2.234375 2.71875 2.234375 C 3.6875 2.234375 5.109375 1.859375 5.109375 0.796875 C 5.109375 -0.4375 3.859375 -0.71875 2.71875 -0.71875 L 1.96875 -0.71875 C 1.421875 -0.71875 1.140625 -1.015625 1.140625 -1.46875 C 1.140625 -1.671875 1.25 -1.828125 1.3125 -1.96875 C 1.609375 -1.78125 1.9375 -1.65625 2.296875 -1.640625 L 2.375 -1.640625 C 3.25 -1.640625 4 -2.171875 4.140625 -3.09375 L 4.140625 -3.203125 C 4.140625 -3.5625 4.015625 -3.921875 3.78125 -4.1875 C 3.765625 -4.21875 3.734375 -4.25 3.734375 -4.28125 L 3.734375 -4.296875 C 3.875 -4.515625 4.390625 -4.703125 4.703125 -4.703125 C 4.75 -4.703125 4.78125 -4.6875 4.828125 -4.6875 C 4.75 -4.625 4.671875 -4.5625 4.65625 -4.453125 L 4.65625 -4.421875 C 4.65625 -4.25 4.796875 -4.109375 4.96875 -4.109375 C 5.171875 -4.109375 5.25 -4.265625 5.25 -4.421875 C 5.25 -4.765625 4.9375 -4.921875 4.671875 -4.921875 C 4.3125 -4.921875 3.9375 -4.765625 3.65625 -4.53125 C 3.625 -4.5 3.59375 -4.453125 3.546875 -4.453125 L 3.53125 -4.453125 C 3.46875 -4.453125 3.25 -4.640625 3.09375 -4.671875 C 2.875 -4.765625 2.640625 -4.8125 2.40625 -4.8125 C 1.578125 -4.8125 0.75 -4.21875 0.65625 -3.359375 L 0.65625 -3.25 C 0.65625 -2.828125 0.8125 -2.375 1.15625 -2.109375 Z M 0.859375 0.921875 L 0.859375 0.828125 C 0.859375 0.234375 1.390625 -0.09375 1.96875 -0.09375 L 3.015625 -0.09375 C 3.609375 -0.09375 4.4375 0.046875 4.546875 0.765625 L 4.546875 0.84375 C 4.546875 1.65625 3.375 1.984375 2.6875 1.984375 C 1.96875 1.984375 0.96875 1.65625 0.859375 0.921875 Z M 1.4375 -3.015625 L 1.4375 -3.140625 C 1.4375 -3.734375 1.578125 -4.546875 2.390625 -4.546875 C 3.09375 -4.546875 3.359375 -3.921875 3.359375 -3.21875 C 3.359375 -2.671875 3.21875 -1.890625 2.40625 -1.890625 C 1.78125 -1.890625 1.515625 -2.40625 1.4375 -3.015625 Z M 1.4375 -3.015625 "/>
</symbol>
<symbol overflow="visible" id="glyph0-9">
<path style="stroke:none;" d="M 1.1875 -2.546875 L 4.34375 -2.546875 C 4.453125 -2.546875 4.5 -2.59375 4.5 -2.703125 C 4.5 -3.78125 3.921875 -4.859375 2.59375 -4.859375 C 1.28125 -4.859375 0.3125 -3.671875 0.3125 -2.421875 C 0.3125 -1.234375 1.171875 0.09375 2.640625 0.09375 C 3.46875 0.09375 4.171875 -0.34375 4.46875 -1.1875 C 4.484375 -1.234375 4.5 -1.265625 4.5 -1.3125 C 4.5 -1.375 4.4375 -1.421875 4.390625 -1.421875 C 4.203125 -1.421875 4.140625 -1.0625 4.078125 -0.9375 C 3.8125 -0.484375 3.296875 -0.15625 2.765625 -0.15625 C 2.15625 -0.15625 1.625 -0.59375 1.390625 -1.140625 C 1.203125 -1.578125 1.1875 -2.078125 1.1875 -2.546875 Z M 1.203125 -2.765625 C 1.203125 -3.609375 1.671875 -4.640625 2.578125 -4.640625 C 3.515625 -4.640625 3.796875 -3.546875 3.796875 -2.765625 Z M 1.203125 -2.765625 "/>
</symbol>
<symbol overflow="visible" id="glyph0-10">
<path style="stroke:none;" d="M 4.125 -0.6875 L 4.125 1.34375 C 4.125 1.703125 3.984375 1.78125 3.28125 1.78125 L 3.28125 2.109375 L 5.703125 2.109375 L 5.703125 1.78125 L 5.46875 1.78125 C 5.140625 1.78125 4.859375 1.75 4.859375 1.328125 L 4.859375 -4.8125 L 4.640625 -4.78125 L 4.515625 -4.53125 L 4.234375 -3.8125 C 4.140625 -3.921875 4.078125 -4.0625 4 -4.171875 C 3.703125 -4.5625 3.265625 -4.8125 2.765625 -4.8125 C 1.421875 -4.8125 0.375 -3.640625 0.375 -2.34375 C 0.375 -1.09375 1.375 0.109375 2.65625 0.109375 C 3.28125 0.109375 3.734375 -0.234375 4.125 -0.6875 Z M 1.25 -2.171875 L 1.25 -2.296875 C 1.25 -3.203125 1.6875 -4.546875 2.859375 -4.546875 C 3.5625 -4.546875 4.0625 -3.8125 4.15625 -3.203125 L 4.15625 -1.46875 C 4.15625 -0.859375 3.515625 -0.3125 3.0625 -0.171875 C 2.9375 -0.140625 2.8125 -0.125 2.6875 -0.125 C 1.609375 -0.15625 1.328125 -1.609375 1.25 -2.171875 Z M 1.25 -2.171875 "/>
</symbol>
<symbol overflow="visible" id="glyph0-11">
<path style="stroke:none;" d="M 0.359375 -4.6875 L 0.359375 -4.359375 L 0.5 -4.359375 C 0.78125 -4.359375 1.109375 -4.34375 1.171875 -4.03125 C 1.1875 -3.921875 1.1875 -3.796875 1.1875 -3.671875 L 1.1875 -1.484375 C 1.1875 -1.171875 1.203125 -0.84375 1.359375 -0.5625 C 1.640625 -0.015625 2.28125 0.09375 2.84375 0.09375 C 3.453125 0.09375 4 -0.28125 4.203125 -0.875 L 4.21875 0.09375 L 5.765625 -0.015625 L 5.765625 -0.34375 L 5.609375 -0.34375 C 5.265625 -0.34375 4.921875 -0.375 4.921875 -0.859375 L 4.921875 -4.8125 L 3.359375 -4.6875 L 3.359375 -4.359375 L 3.453125 -4.359375 C 3.828125 -4.359375 4.1875 -4.34375 4.1875 -3.8125 L 4.1875 -1.84375 C 4.1875 -1.046875 3.78125 -0.125 2.84375 -0.125 C 2.421875 -0.125 2.046875 -0.265625 1.953125 -0.8125 C 1.9375 -1.03125 1.9375 -1.234375 1.9375 -1.4375 L 1.9375 -4.8125 L 1.390625 -4.765625 Z M 0.359375 -4.6875 "/>
</symbol>
<symbol overflow="visible" id="glyph0-12">
<path style="stroke:none;" d="M 0.953125 -0.40625 C 1.140625 -0.078125 1.71875 0.09375 2.109375 0.09375 C 2.875 0.09375 3.8125 -0.15625 3.90625 -1.3125 C 3.90625 -2.03125 3.515625 -2.515625 2.90625 -2.765625 C 2.640625 -2.875 2.34375 -2.90625 2.078125 -2.96875 L 1.84375 -3.015625 C 1.421875 -3.09375 0.859375 -3.3125 0.859375 -3.84375 C 0.859375 -4.484375 1.578125 -4.671875 2.109375 -4.671875 C 2.90625 -4.671875 3.28125 -4.171875 3.375 -3.453125 C 3.375 -3.359375 3.375 -3.25 3.5 -3.25 C 3.625 -3.25 3.625 -3.359375 3.625 -3.453125 L 3.625 -4.734375 C 3.625 -4.78125 3.59375 -4.859375 3.515625 -4.859375 C 3.34375 -4.859375 3.234375 -4.5625 3.125 -4.5625 C 3.046875 -4.578125 2.984375 -4.640625 2.921875 -4.671875 C 2.6875 -4.8125 2.40625 -4.859375 2.125 -4.859375 C 1.46875 -4.859375 0.359375 -4.640625 0.359375 -3.5625 C 0.359375 -2.375 1.671875 -2.25 2.4375 -2.09375 C 2.90625 -2 3.390625 -1.671875 3.40625 -1.140625 C 3.40625 -0.34375 2.703125 -0.125 2.140625 -0.125 C 1.28125 -0.125 0.875 -0.796875 0.671875 -1.53125 C 0.640625 -1.640625 0.671875 -1.875 0.484375 -1.875 C 0.421875 -1.875 0.359375 -1.828125 0.359375 -1.75 L 0.359375 -0.3125 C 0.359375 -0.25 0.34375 -0.1875 0.34375 -0.125 C 0.34375 -0.03125 0.375 0.09375 0.484375 0.09375 C 0.640625 0.078125 0.78125 -0.265625 0.953125 -0.40625 Z M 0.953125 -0.40625 "/>
</symbol>
<symbol overflow="visible" id="glyph0-13">
<path style="stroke:none;" d="M 1.609375 -6.71875 C 1.609375 -5.984375 1.3125 -4.609375 0.203125 -4.609375 L 0.203125 -4.375 L 1.140625 -4.375 L 1.140625 -1.46875 C 1.140625 -1.140625 1.15625 -0.8125 1.3125 -0.53125 C 1.578125 -0.09375 2.078125 0.09375 2.546875 0.09375 C 3.421875 0.09375 3.609375 -0.859375 3.609375 -1.5625 L 3.609375 -1.984375 L 3.34375 -1.984375 C 3.34375 -1.828125 3.359375 -1.65625 3.359375 -1.5 C 3.359375 -0.984375 3.25 -0.15625 2.609375 -0.15625 C 1.984375 -0.15625 1.875 -0.921875 1.875 -1.421875 L 1.875 -4.375 L 3.421875 -4.375 L 3.421875 -4.703125 L 1.875 -4.703125 L 1.875 -6.71875 Z M 1.609375 -6.71875 "/>
</symbol>
<symbol overflow="visible" id="glyph0-14">
<path style="stroke:none;" d="M 0.421875 -4.6875 L 0.421875 -4.359375 L 0.59375 -4.359375 C 0.9375 -4.359375 1.203125 -4.3125 1.203125 -3.8125 L 1.203125 -0.796875 C 1.203125 -0.359375 0.921875 -0.34375 0.375 -0.34375 L 0.375 -0.015625 L 2.65625 -0.015625 L 2.65625 -0.34375 L 2.484375 -0.34375 C 2.1875 -0.34375 1.90625 -0.375 1.90625 -0.71875 L 1.90625 -4.8125 Z M 1.3125 -7.265625 C 1 -7.21875 0.84375 -6.96875 0.84375 -6.734375 C 0.84375 -6.484375 1.03125 -6.1875 1.375 -6.1875 C 1.71875 -6.1875 1.921875 -6.453125 1.921875 -6.734375 C 1.921875 -6.984375 1.75 -7.28125 1.390625 -7.28125 C 1.359375 -7.28125 1.328125 -7.265625 1.3125 -7.265625 Z M 1.3125 -7.265625 "/>
</symbol>
<symbol overflow="visible" id="glyph0-15">
<path style="stroke:none;" d="M 2.546875 -4.859375 C 1.15625 -4.703125 0.3125 -3.5625 0.3125 -2.328125 C 0.3125 -1.171875 1.203125 0.109375 2.703125 0.109375 C 4.0625 0.109375 5.09375 -1.0625 5.09375 -2.34375 C 5.09375 -3.625 4.125 -4.859375 2.65625 -4.859375 Z M 1.1875 -2.09375 C 1.171875 -2.1875 1.171875 -2.28125 1.171875 -2.359375 C 1.171875 -3.234375 1.375 -4.625 2.703125 -4.625 C 3.84375 -4.625 4.21875 -3.546875 4.21875 -2.5 C 4.21875 -1.609375 4.109375 -0.234375 2.765625 -0.15625 L 2.703125 -0.15625 C 1.828125 -0.15625 1.296875 -0.921875 1.21875 -1.765625 C 1.203125 -1.875 1.203125 -1.984375 1.1875 -2.09375 Z M 1.1875 -2.09375 "/>
</symbol>
<symbol overflow="visible" id="glyph0-16">
<path style="stroke:none;" d="M 0.375 -7.453125 L 0.375 -7.125 L 0.5625 -7.125 C 0.921875 -7.125 1.203125 -7.09375 1.203125 -6.578125 L 1.203125 -0.78125 C 1.203125 -0.375 0.90625 -0.34375 0.59375 -0.34375 L 0.375 -0.34375 L 0.375 -0.015625 L 2.734375 -0.015625 L 2.734375 -0.34375 L 2.484375 -0.34375 C 2.1875 -0.34375 1.90625 -0.375 1.90625 -0.765625 L 1.90625 -7.578125 Z M 0.375 -7.453125 "/>
</symbol>
<symbol overflow="visible" id="glyph0-17">
<path style="stroke:none;" d="M 0.203125 -4.703125 L 0.203125 -4.375 L 0.34375 -4.375 C 0.953125 -4.375 1 -4 1.25 -3.28125 C 1.609375 -2.234375 1.984375 -1.21875 2.34375 -0.1875 C 2.390625 -0.078125 2.421875 0.078125 2.5625 0.09375 L 2.578125 0.09375 C 2.828125 0.09375 2.984375 -0.625 3.125 -1 C 3.34375 -1.5625 3.53125 -2.125 3.734375 -2.6875 C 3.796875 -2.859375 3.859375 -3.015625 3.90625 -3.203125 L 3.921875 -3.203125 C 4.09375 -2.4375 4.453125 -1.71875 4.703125 -0.984375 C 4.828125 -0.609375 5 0.09375 5.21875 0.09375 L 5.25 0.09375 C 5.40625 0.09375 5.4375 -0.0625 5.46875 -0.1875 C 5.78125 -1.09375 6.125 -2 6.453125 -2.921875 C 6.703125 -3.609375 6.859375 -4.375 7.625 -4.375 L 7.625 -4.703125 L 6.875 -4.671875 L 5.859375 -4.671875 L 5.859375 -4.375 C 6.140625 -4.359375 6.4375 -4.203125 6.46875 -3.90625 L 6.46875 -3.859375 C 6.46875 -3.71875 6.40625 -3.578125 6.34375 -3.4375 C 6.078125 -2.65625 5.8125 -1.875 5.515625 -1.109375 C 5.484375 -1.03125 5.453125 -0.9375 5.4375 -0.84375 L 5.421875 -0.84375 C 5.140625 -1.84375 4.71875 -2.84375 4.359375 -3.8125 C 4.328125 -3.890625 4.28125 -3.984375 4.28125 -4.078125 C 4.28125 -4.359375 4.6875 -4.375 4.90625 -4.375 L 4.90625 -4.703125 L 2.828125 -4.703125 L 2.828125 -4.375 L 2.984375 -4.375 C 3.40625 -4.375 3.546875 -4.25 3.671875 -3.84375 C 3.703125 -3.78125 3.75 -3.671875 3.75 -3.59375 L 3.75 -3.5625 C 3.71875 -3.359375 3.59375 -3.109375 3.515625 -2.890625 C 3.375 -2.46875 3.234375 -2.078125 3.078125 -1.65625 C 3 -1.421875 2.890625 -1.203125 2.828125 -0.953125 C 2.765625 -1.21875 2.65625 -1.46875 2.5625 -1.71875 C 2.3125 -2.4375 2.046875 -3.140625 1.796875 -3.84375 C 1.78125 -3.921875 1.734375 -4 1.734375 -4.078125 C 1.734375 -4.359375 2.109375 -4.375 2.296875 -4.375 L 2.359375 -4.375 L 2.359375 -4.703125 Z M 0.203125 -4.703125 "/>
</symbol>
<symbol overflow="visible" id="glyph0-18">
<path style="stroke:none;" d="M 0.3125 -4.6875 L 0.3125 -4.359375 L 0.546875 -4.359375 C 0.859375 -4.359375 1.140625 -4.3125 1.140625 -3.875 L 1.140625 1.3125 C 1.140625 1.765625 0.84375 1.78125 0.3125 1.78125 L 0.3125 2.109375 L 2.71875 2.109375 L 2.71875 1.78125 L 2.46875 1.78125 C 2.15625 1.78125 1.890625 1.734375 1.890625 1.34375 L 1.890625 -0.578125 C 2.140625 -0.125 2.78125 0.09375 3.265625 0.09375 C 4.578125 0.09375 5.640625 -1.0625 5.640625 -2.359375 C 5.640625 -3.5625 4.734375 -4.8125 3.40625 -4.8125 C 2.796875 -4.8125 2.296875 -4.578125 1.859375 -4.09375 L 1.859375 -4.8125 Z M 4.75 -2.171875 C 4.71875 -1.34375 4.265625 -0.203125 3.265625 -0.125 L 3.15625 -0.125 C 2.640625 -0.125 1.890625 -0.625 1.890625 -1.171875 L 1.890625 -3 C 1.890625 -3.140625 1.875 -3.265625 1.875 -3.40625 C 1.875 -4 2.609375 -4.546875 3.265625 -4.546875 C 4.390625 -4.546875 4.765625 -3.140625 4.765625 -2.34375 C 4.765625 -2.296875 4.765625 -2.21875 4.75 -2.171875 Z M 4.75 -2.171875 "/>
</symbol>
<symbol overflow="visible" id="glyph0-19">
<path style="stroke:none;" d="M 0.921875 -5.71875 C 1.09375 -6.40625 1.75 -6.9375 2.4375 -6.9375 C 3.421875 -6.9375 3.921875 -6.015625 3.921875 -5.1875 L 3.921875 -5.03125 C 3.859375 -4.03125 3.203125 -3.234375 2.546875 -2.515625 C 2 -1.90625 1.46875 -1.296875 0.921875 -0.703125 L 0.6875 -0.4375 C 0.625 -0.34375 0.53125 -0.3125 0.53125 -0.15625 C 0.53125 -0.109375 0.546875 -0.046875 0.546875 -0.015625 L 4.5625 -0.015625 L 4.859375 -1.875 L 4.609375 -1.875 C 4.53125 -1.546875 4.5 -1.015625 4.328125 -0.890625 C 4.28125 -0.84375 4.140625 -0.828125 4.015625 -0.828125 L 3.578125 -0.828125 C 3.421875 -0.8125 3.265625 -0.8125 3.125 -0.8125 L 1.359375 -0.8125 C 1.9375 -1.390625 2.515625 -1.96875 3.125 -2.515625 C 3.875 -3.203125 4.8125 -3.9375 4.859375 -5.0625 L 4.859375 -5.140625 C 4.859375 -6.484375 3.734375 -7.265625 2.578125 -7.265625 C 1.53125 -7.265625 0.53125 -6.40625 0.53125 -5.296875 C 0.53125 -5 0.6875 -4.6875 1.0625 -4.6875 C 1.359375 -4.6875 1.59375 -4.921875 1.59375 -5.21875 C 1.59375 -5.46875 1.40625 -5.734375 1.09375 -5.734375 C 1.03125 -5.734375 0.984375 -5.71875 0.921875 -5.71875 Z M 0.921875 -5.71875 "/>
</symbol>
<symbol overflow="visible" id="glyph0-20">
<path style="stroke:none;" d="M 0.359375 -7.453125 L 0.359375 -7.125 L 0.5625 -7.125 C 0.90625 -7.125 1.1875 -7.09375 1.1875 -6.59375 L 1.1875 -0.78125 C 1.1875 -0.375 0.921875 -0.34375 0.625 -0.34375 L 0.359375 -0.34375 L 0.359375 -0.015625 L 2.765625 -0.015625 L 2.765625 -0.34375 L 2.515625 -0.34375 C 2.1875 -0.34375 1.9375 -0.375 1.9375 -0.78125 L 1.9375 -2.8125 C 1.9375 -3.59375 2.359375 -4.578125 3.40625 -4.578125 C 4.09375 -4.578125 4.1875 -3.875 4.1875 -3.234375 L 4.1875 -0.75 C 4.1875 -0.375 3.890625 -0.34375 3.59375 -0.34375 L 3.359375 -0.34375 L 3.359375 -0.015625 L 5.765625 -0.015625 L 5.765625 -0.34375 L 5.5 -0.34375 C 5.21875 -0.34375 4.921875 -0.34375 4.921875 -0.78125 L 4.921875 -3.21875 C 4.921875 -3.5625 4.921875 -3.921875 4.734375 -4.21875 C 4.484375 -4.65625 3.984375 -4.8125 3.484375 -4.8125 C 2.8125 -4.8125 2.078125 -4.390625 1.90625 -3.75 L 1.890625 -7.578125 Z M 0.359375 -7.453125 "/>
</symbol>
<symbol overflow="visible" id="glyph0-21">
<path style="stroke:none;" d="M 1.390625 -3.5625 L 1.375 -3.5625 C 1.375 -4.578125 1.421875 -5.75 2.21875 -6.515625 C 2.53125 -6.8125 2.921875 -6.984375 3.34375 -6.984375 C 3.703125 -6.984375 4.09375 -6.875 4.296875 -6.5625 C 4.03125 -6.5625 3.75 -6.453125 3.75 -6.109375 C 3.75 -5.859375 3.921875 -5.625 4.203125 -5.625 C 4.453125 -5.625 4.671875 -5.796875 4.6875 -6.0625 L 4.6875 -6.09375 C 4.6875 -6.875 4.03125 -7.265625 3.328125 -7.265625 C 1.5 -7.265625 0.453125 -5.25 0.453125 -3.5625 C 0.453125 -2.28125 0.59375 -0.53125 2 0.078125 C 2.234375 0.171875 2.5 0.234375 2.765625 0.234375 C 3.5625 0.234375 4.171875 -0.234375 4.578125 -0.84375 C 4.859375 -1.265625 4.96875 -1.75 4.96875 -2.234375 C 4.96875 -3.4375 4.140625 -4.65625 2.828125 -4.65625 C 2.1875 -4.65625 1.59375 -4.234375 1.390625 -3.5625 Z M 1.390625 -2.375 L 1.390625 -2.46875 C 1.390625 -3.296875 1.71875 -4.421875 2.875 -4.421875 C 3.609375 -4.421875 3.953125 -3.59375 4.015625 -3.015625 C 4.03125 -2.71875 4.03125 -2.421875 4.03125 -2.125 C 4.03125 -1.390625 3.96875 -0.078125 2.71875 -0.078125 L 2.65625 -0.078125 C 1.6875 -0.15625 1.46875 -1.21875 1.40625 -2.046875 C 1.40625 -2.15625 1.40625 -2.265625 1.390625 -2.375 Z M 1.390625 -2.375 "/>
</symbol>
<symbol overflow="visible" id="glyph0-22">
<path style="stroke:none;" d="M 1.15625 -6.296875 C 1.484375 -6.734375 2.03125 -6.984375 2.578125 -6.984375 C 3.203125 -6.984375 3.671875 -6.625 3.703125 -5.859375 L 3.703125 -5.78125 C 3.703125 -5.09375 3.453125 -4.25 2.765625 -4.015625 C 2.46875 -3.90625 1.796875 -4.03125 1.796875 -3.8125 C 1.796875 -3.703125 1.890625 -3.6875 1.984375 -3.6875 L 2.109375 -3.6875 C 2.234375 -3.6875 2.359375 -3.703125 2.515625 -3.703125 C 3.5625 -3.703125 3.921875 -2.78125 3.921875 -1.984375 L 3.921875 -1.890625 C 3.921875 -1.09375 3.625 -0.078125 2.609375 -0.078125 C 1.875 -0.078125 1.234375 -0.421875 0.875 -1.03125 L 0.96875 -1.03125 C 1.25 -1.03125 1.546875 -1.1875 1.546875 -1.546875 C 1.546875 -1.8125 1.359375 -2.078125 1.078125 -2.109375 L 1.015625 -2.109375 C 0.59375 -2.109375 0.453125 -1.828125 0.453125 -1.53125 C 0.453125 -0.34375 1.671875 0.21875 2.65625 0.21875 C 3.875 0.21875 4.96875 -0.671875 4.96875 -1.890625 C 4.96875 -2.875 4.015625 -3.8125 3.125 -3.84375 C 3.234375 -3.890625 3.375 -3.9375 3.484375 -3.984375 C 4.140625 -4.3125 4.65625 -4.96875 4.65625 -5.75 C 4.65625 -6.734375 3.578125 -7.265625 2.6875 -7.265625 C 1.828125 -7.265625 0.75 -6.8125 0.75 -5.828125 C 0.75 -5.515625 0.953125 -5.28125 1.25 -5.28125 C 1.515625 -5.28125 1.78125 -5.46875 1.78125 -5.78125 C 1.78125 -6.140625 1.5 -6.296875 1.15625 -6.296875 Z M 1.15625 -6.296875 "/>
</symbol>
<symbol overflow="visible" id="glyph0-23">
<path style="stroke:none;" d="M 0.953125 -7.390625 L 0.59375 -5.171875 L 0.859375 -5.171875 C 0.953125 -5.671875 0.921875 -6.203125 1.390625 -6.203125 L 1.671875 -6.203125 C 1.9375 -6.203125 2.1875 -6.234375 2.4375 -6.234375 L 4.5 -6.234375 C 4 -5.5 3.453125 -4.796875 2.984375 -4.03125 C 2.328125 -2.90625 1.9375 -1.59375 1.9375 -0.3125 L 1.9375 -0.1875 C 1.96875 0.046875 2.171875 0.21875 2.40625 0.21875 C 2.71875 0.21875 2.875 -0.03125 2.875 -0.34375 L 2.875 -0.515625 C 2.875 -1.828125 2.890625 -3.34375 3.625 -4.484375 C 4.09375 -5.1875 4.640625 -5.859375 5.109375 -6.5625 C 5.1875 -6.671875 5.25 -6.75 5.25 -6.90625 L 5.25 -7.03125 C 4.328125 -7.03125 3.65625 -7 2.515625 -7 C 1.890625 -7 1.25 -7.0625 1.203125 -7.390625 Z M 0.953125 -7.390625 "/>
</symbol>
</g>
</defs>
<g id="surface1">
<path style="fill:none;stroke-width:1;stroke-linecap:butt;stroke-linejoin:miter;stroke:rgb(0%,0%,0%);stroke-opacity:1;stroke-miterlimit:10;" d="M 9.421062 4.9595 C 9.421062 7.424344 7.424969 9.420438 4.960125 9.420438 C 2.495281 9.420438 0.499187 7.424344 0.499187 4.9595 C 0.499187 2.498563 2.495281 0.498563 4.960125 0.498563 C 7.424969 0.498563 9.421062 2.498563 9.421062 4.9595 Z M 9.421062 4.9595 " transform="matrix(1,0,0,-1,5.993,-6.978)"/>
<path style="fill:none;stroke-width:1;stroke-linecap:butt;stroke-linejoin:miter;stroke:rgb(0%,0%,0%);stroke-opacity:1;stroke-miterlimit:10;" d="M 9.422906 4.9595 C 9.422906 7.424344 7.422906 9.420438 4.961969 9.420438 C 2.497125 9.420438 0.501031 7.424344 0.501031 4.9595 C 0.501031 2.498563 2.497125 0.498563 4.961969 0.498563 C 7.422906 0.498563 9.422906 2.498563 9.422906 4.9595 Z M 9.422906 4.9595 " transform="matrix(1,0,0,-1,360.956,-6.978)"/>
<path style="fill:none;stroke-width:1;stroke-linecap:butt;stroke-linejoin:miter;stroke:rgb(0%,0%,0%);stroke-opacity:1;stroke-miterlimit:10;" d="M -1.991156 -1.993625 L 0.391656 0.818875 L 4.958063 4.9595 L 8.215875 8.264188 L 11.911188 11.912625 " transform="matrix(1,0,0,-1,360.956,-6.978)"/>
<path style="fill:none;stroke-width:1;stroke-linecap:butt;stroke-linejoin:miter;stroke:rgb(0%,0%,0%);stroke-opacity:1;stroke-miterlimit:10;" d="M -1.991156 11.912625 L 1.454156 8.705594 L 4.958063 4.963406 L 8.290094 2.580594 L 11.911188 -1.989719 " transform="matrix(1,0,0,-1,360.956,-6.978)"/>
<path style="fill:none;stroke-width:1;stroke-linecap:butt;stroke-linejoin:miter;stroke:rgb(0%,0%,0%);stroke-opacity:1;stroke-miterlimit:10;" d="M 9.422906 4.9595 C 9.422906 7.424344 7.422906 9.420438 4.961969 9.420438 C 2.497125 9.420438 0.501031 7.424344 0.501031 4.9595 C 0.501031 2.498563 2.497125 0.498563 4.961969 0.498563 C 7.422906 0.498563 9.422906 2.498563 9.422906 4.9595 Z M 9.422906 4.9595 " transform="matrix(1,0,0,-1,444.206,-6.978)"/>
<path style="fill:none;stroke-width:1;stroke-linecap:butt;stroke-linejoin:miter;stroke:rgb(0%,0%,0%);stroke-opacity:1;stroke-miterlimit:10;" d="M -1.991156 -1.993625 L 0.661188 0.80325 L 4.958063 4.9595 L 7.790094 7.654813 L 11.911188 11.912625 " transform="matrix(1,0,0,-1,444.206,-6.978)"/>
<path style="fill:none;stroke-width:1;stroke-linecap:butt;stroke-linejoin:miter;stroke:rgb(0%,0%,0%);stroke-opacity:1;stroke-miterlimit:10;" d="M -1.991156 11.912625 L 0.586969 10.045438 L 4.958063 4.963406 L 9.141656 2.119656 L 11.911188 -1.989719 " transform="matrix(1,0,0,-1,444.206,-6.978)"/>
<g style="fill:rgb(0%,0%,0%);fill-opacity:1;">
  <use xlink:href="#glyph0-1" x="0.016" y="15.755"/>
  <use xlink:href="#glyph0-2" x="5.440005" y="15.755"/>
  <use xlink:href="#glyph0-3" x="8.45528" y="15.755"/>
</g>
<g style="fill:rgb(0%,0%,0%);fill-opacity:1;">
  <use xlink:href="#glyph0-4" x="19.301107" y="15.755"/>
</g>
<g style="fill:rgb(0%,0%,0%);fill-opacity:1;">
  <use xlink:href="#glyph0-5" x="31.05348" y="15.755"/>
  <use xlink:href="#glyph0-6" x="35.27312" y="15.755"/>
  <use xlink:href="#glyph0-7" x="40.697125" y="15.755"/>
</g>
<g style="fill:rgb(0%,0%,0%);fill-opacity:1;">
  <use xlink:href="#glyph0-8" x="46.712403" y="15.755"/>
  <use xlink:href="#glyph0-9" x="52.136407" y="15.755"/>
</g>
<g style="fill:rgb(0%,0%,0%);fill-opacity:1;">
  <use xlink:href="#glyph0-10" x="60.58005" y="15.755"/>
  <use xlink:href="#glyph0-11" x="66.305146" y="15.755"/>
  <use xlink:href="#glyph0-9" x="72.331333" y="15.755"/>
  <use xlink:href="#glyph0-12" x="77.153155" y="15.755"/>
  <use xlink:href="#glyph0-13" x="81.432795" y="15.755"/>
  <use xlink:href="#glyph0-14" x="85.652435" y="15.755"/>
  <use xlink:href="#glyph0-15" x="88.66771" y="15.755"/>
  <use xlink:href="#glyph0-7" x="94.091715" y="15.755"/>
</g>
<g style="fill:rgb(0%,0%,0%);fill-opacity:1;">
  <use xlink:href="#glyph0-16" x="178.26" y="34.996"/>
  <use xlink:href="#glyph0-15" x="181.275275" y="34.996"/>
</g>
<g style="fill:rgb(0%,0%,0%);fill-opacity:1;">
  <use xlink:href="#glyph0-17" x="186.393825" y="34.996"/>
</g>
<g style="fill:rgb(0%,0%,0%);fill-opacity:1;">
  <use xlink:href="#glyph0-9" x="193.932013" y="34.996"/>
  <use xlink:href="#glyph0-5" x="198.753835" y="34.996"/>
</g>
<path style="fill-rule:nonzero;fill:rgb(100%,100%,100%);fill-opacity:1;stroke-width:1;stroke-linecap:butt;stroke-linejoin:miter;stroke:rgb(0%,0%,0%);stroke-opacity:1;stroke-miterlimit:10;" d="M 9.41975 4.961719 C 9.41975 7.422656 7.423656 9.422656 4.958812 9.422656 C 2.497875 9.422656 0.501781 7.422656 0.501781 4.961719 C 0.501781 2.496875 2.497875 0.500781 4.958812 0.500781 C 7.423656 0.500781 9.41975 2.496875 9.41975 4.961719 Z M 9.41975 4.961719 " transform="matrix(1,0,0,-1,214.924,36.2)"/>
<path style="fill-rule:nonzero;fill:rgb(100%,100%,100%);fill-opacity:1;stroke-width:1;stroke-linecap:butt;stroke-linejoin:miter;stroke:rgb(0%,0%,0%);stroke-opacity:1;stroke-miterlimit:10;" d="M 9.421656 4.961719 C 9.421656 7.422656 7.425562 9.422656 4.960719 9.422656 C 2.495875 9.422656 0.499781 7.422656 0.499781 4.961719 C 0.499781 2.496875 2.495875 0.500781 4.960719 0.500781 C 7.425562 0.500781 9.421656 2.496875 9.421656 4.961719 Z M 9.421656 4.961719 " transform="matrix(1,0,0,-1,236.801,36.2)"/>
<path style="fill-rule:nonzero;fill:rgb(100%,100%,100%);fill-opacity:1;stroke-width:1;stroke-linecap:butt;stroke-linejoin:miter;stroke:rgb(0%,0%,0%);stroke-opacity:1;stroke-miterlimit:10;" d="M 9.420656 4.961719 C 9.420656 7.422656 7.424562 9.422656 4.959719 9.422656 C 2.498781 9.422656 0.498781 7.422656 0.498781 4.961719 C 0.498781 2.496875 2.498781 0.500781 4.959719 0.500781 C 7.424562 0.500781 9.420656 2.496875 9.420656 4.961719 Z M 9.420656 4.961719 " transform="matrix(1,0,0,-1,258.677,36.2)"/>
<path style="fill-rule:nonzero;fill:rgb(100%,100%,100%);fill-opacity:1;stroke-width:1;stroke-linecap:butt;stroke-linejoin:miter;stroke:rgb(0%,0%,0%);stroke-opacity:1;stroke-miterlimit:10;" d="M 9.422562 4.961719 C 9.422562 7.422656 7.422562 9.422656 4.961625 9.422656 C 2.496781 9.422656 0.500687 7.422656 0.500687 4.961719 C 0.500687 2.496875 2.496781 0.500781 4.961625 0.500781 C 7.422562 0.500781 9.422562 2.496875 9.422562 4.961719 Z M 9.422562 4.961719 " transform="matrix(1,0,0,-1,280.554,36.2)"/>
<path style="fill-rule:nonzero;fill:rgb(100%,100%,100%);fill-opacity:1;stroke-width:1;stroke-linecap:butt;stroke-linejoin:miter;stroke:rgb(0%,0%,0%);stroke-opacity:1;stroke-miterlimit:10;" d="M 9.421562 4.961719 C 9.421562 7.422656 7.425469 9.422656 4.960625 9.422656 C 2.495781 9.422656 0.499687 7.422656 0.499687 4.961719 C 0.499687 2.496875 2.495781 0.500781 4.960625 0.500781 C 7.425469 0.500781 9.421562 2.496875 9.421562 4.961719 Z M 9.421562 4.961719 " transform="matrix(1,0,0,-1,302.43,36.2)"/>
<g style="fill:rgb(0%,0%,0%);fill-opacity:1;">
  <use xlink:href="#glyph0-11" x="324.306" y="34.996"/>
  <use xlink:href="#glyph0-18" x="330.332187" y="34.996"/>
  <use xlink:href="#glyph0-18" x="336.358374" y="34.996"/>
</g>
<g style="fill:rgb(0%,0%,0%);fill-opacity:1;">
  <use xlink:href="#glyph0-9" x="342.690015" y="34.996"/>
  <use xlink:href="#glyph0-5" x="347.511838" y="34.996"/>
</g>
<g style="fill:rgb(0%,0%,0%);fill-opacity:1;">
  <use xlink:href="#glyph0-1" x="0.016" y="55.607"/>
  <use xlink:href="#glyph0-2" x="5.440005" y="55.607"/>
  <use xlink:href="#glyph0-19" x="8.45528" y="55.607"/>
</g>
<g style="fill:rgb(0%,0%,0%);fill-opacity:1;">
  <use xlink:href="#glyph0-4" x="19.301107" y="55.607"/>
</g>
<g style="fill:rgb(0%,0%,0%);fill-opacity:1;">
  <use xlink:href="#glyph0-5" x="31.05348" y="55.607"/>
  <use xlink:href="#glyph0-6" x="35.27312" y="55.607"/>
  <use xlink:href="#glyph0-7" x="40.697125" y="55.607"/>
</g>
<g style="fill:rgb(0%,0%,0%);fill-opacity:1;">
  <use xlink:href="#glyph0-8" x="46.712403" y="55.607"/>
  <use xlink:href="#glyph0-9" x="52.136407" y="55.607"/>
</g>
<g style="fill:rgb(0%,0%,0%);fill-opacity:1;">
  <use xlink:href="#glyph0-10" x="60.58005" y="55.607"/>
  <use xlink:href="#glyph0-11" x="66.305146" y="55.607"/>
  <use xlink:href="#glyph0-9" x="72.331333" y="55.607"/>
  <use xlink:href="#glyph0-12" x="77.153155" y="55.607"/>
  <use xlink:href="#glyph0-13" x="81.432795" y="55.607"/>
  <use xlink:href="#glyph0-14" x="85.652435" y="55.607"/>
  <use xlink:href="#glyph0-15" x="88.66771" y="55.607"/>
  <use xlink:href="#glyph0-7" x="94.091715" y="55.607"/>
</g>
<g style="fill:rgb(0%,0%,0%);fill-opacity:1;">
  <use xlink:href="#glyph0-17" x="103.728814" y="55.607"/>
  <use xlink:href="#glyph0-14" x="111.561548" y="55.607"/>
  <use xlink:href="#glyph0-13" x="114.576823" y="55.607"/>
  <use xlink:href="#glyph0-20" x="118.796463" y="55.607"/>
</g>
<g style="fill:rgb(0%,0%,0%);fill-opacity:1;">
  <use xlink:href="#glyph0-21" x="128.444471" y="55.607"/>
</g>
<g style="fill:rgb(0%,0%,0%);fill-opacity:1;">
  <use xlink:href="#glyph0-6" x="137.479387" y="55.607"/>
  <use xlink:href="#glyph0-7" x="142.903392" y="55.607"/>
  <use xlink:href="#glyph0-12" x="148.929579" y="55.607"/>
  <use xlink:href="#glyph0-17" x="153.209219" y="55.607"/>
</g>
<g style="fill:rgb(0%,0%,0%);fill-opacity:1;">
  <use xlink:href="#glyph0-9" x="160.736498" y="55.607"/>
  <use xlink:href="#glyph0-5" x="165.55832" y="55.607"/>
  <use xlink:href="#glyph0-12" x="169.77796" y="55.607"/>
</g>
<g style="fill:rgb(0%,0%,0%);fill-opacity:1;">
  <use xlink:href="#glyph0-16" x="167.322" y="74.848"/>
  <use xlink:href="#glyph0-15" x="170.337275" y="74.848"/>
</g>
<g style="fill:rgb(0%,0%,0%);fill-opacity:1;">
  <use xlink:href="#glyph0-17" x="175.455825" y="74.848"/>
</g>
<g style="fill:rgb(0%,0%,0%);fill-opacity:1;">
  <use xlink:href="#glyph0-9" x="182.994013" y="74.848"/>
  <use xlink:href="#glyph0-5" x="187.815835" y="74.848"/>
</g>
<path style="fill-rule:nonzero;fill:rgb(100%,100%,100%);fill-opacity:1;stroke-width:1;stroke-linecap:butt;stroke-linejoin:miter;stroke:rgb(0%,0%,0%);stroke-opacity:1;stroke-miterlimit:10;" d="M 9.42025 4.962156 C 9.42025 7.423094 7.424156 9.423094 4.959312 9.423094 C 2.498375 9.423094 0.498375 7.423094 0.498375 4.962156 C 0.498375 2.497313 2.498375 0.501219 4.959312 0.501219 C 7.424156 0.501219 9.42025 2.497313 9.42025 4.962156 Z M 9.42025 4.962156 " transform="matrix(1,0,0,-1,203.986,76.052)"/>
<path style="fill-rule:nonzero;fill:rgb(100%,100%,100%);fill-opacity:1;stroke-width:1;stroke-linecap:butt;stroke-linejoin:miter;stroke:rgb(0%,0%,0%);stroke-opacity:1;stroke-miterlimit:10;" d="M 9.422156 4.962156 C 9.422156 7.423094 7.426062 9.423094 4.961219 9.423094 C 2.496375 9.423094 0.500281 7.423094 0.500281 4.962156 C 0.500281 2.497313 2.496375 0.501219 4.961219 0.501219 C 7.426062 0.501219 9.422156 2.497313 9.422156 4.962156 Z M 9.422156 4.962156 " transform="matrix(1,0,0,-1,225.863,76.052)"/>
<path style="fill-rule:nonzero;fill:rgb(100%,100%,100%);fill-opacity:1;stroke-width:1;stroke-linecap:butt;stroke-linejoin:miter;stroke:rgb(0%,0%,0%);stroke-opacity:1;stroke-miterlimit:10;" d="M 9.421156 4.962156 C 9.421156 7.423094 7.425062 9.423094 4.960219 9.423094 C 2.495375 9.423094 0.499281 7.423094 0.499281 4.962156 C 0.499281 2.497313 2.495375 0.501219 4.960219 0.501219 C 7.425062 0.501219 9.421156 2.497313 9.421156 4.962156 Z M 9.421156 4.962156 " transform="matrix(1,0,0,-1,247.739,76.052)"/>
<path style="fill-rule:nonzero;fill:rgb(100%,100%,100%);fill-opacity:1;stroke-width:1;stroke-linecap:butt;stroke-linejoin:miter;stroke:rgb(0%,0%,0%);stroke-opacity:1;stroke-miterlimit:10;" d="M 9.420156 4.962156 C 9.420156 7.423094 7.424062 9.423094 4.959219 9.423094 C 2.498281 9.423094 0.498281 7.423094 0.498281 4.962156 C 0.498281 2.497313 2.498281 0.501219 4.959219 0.501219 C 7.424062 0.501219 9.420156 2.497313 9.420156 4.962156 Z M 9.420156 4.962156 " transform="matrix(1,0,0,-1,269.615,76.052)"/>
<path style="fill-rule:nonzero;fill:rgb(100%,100%,100%);fill-opacity:1;stroke-width:1;stroke-linecap:butt;stroke-linejoin:miter;stroke:rgb(0%,0%,0%);stroke-opacity:1;stroke-miterlimit:10;" d="M 9.422062 4.962156 C 9.422062 7.423094 7.425969 9.423094 4.961125 9.423094 C 2.496281 9.423094 0.500187 7.423094 0.500187 4.962156 C 0.500187 2.497313 2.496281 0.501219 4.961125 0.501219 C 7.425969 0.501219 9.422062 2.497313 9.422062 4.962156 Z M 9.422062 4.962156 " transform="matrix(1,0,0,-1,291.492,76.052)"/>
<path style="fill-rule:nonzero;fill:rgb(100%,100%,100%);fill-opacity:1;stroke-width:1;stroke-linecap:butt;stroke-linejoin:miter;stroke:rgb(0%,0%,0%);stroke-opacity:1;stroke-miterlimit:10;" d="M 9.421062 4.962156 C 9.421062 7.423094 7.424969 9.423094 4.960125 9.423094 C 2.495281 9.423094 0.499187 7.423094 0.499187 4.962156 C 0.499187 2.497313 2.495281 0.501219 4.960125 0.501219 C 7.424969 0.501219 9.421062 2.497313 9.421062 4.962156 Z M 9.421062 4.962156 " transform="matrix(1,0,0,-1,313.368,76.052)"/>
<g style="fill:rgb(0%,0%,0%);fill-opacity:1;">
  <use xlink:href="#glyph0-11" x="335.245" y="74.848"/>
  <use xlink:href="#glyph0-18" x="341.271187" y="74.848"/>
  <use xlink:href="#glyph0-18" x="347.297374" y="74.848"/>
</g>
<g style="fill:rgb(0%,0%,0%);fill-opacity:1;">
  <use xlink:href="#glyph0-9" x="353.618106" y="74.848"/>
  <use xlink:href="#glyph0-5" x="358.439928" y="74.848"/>
</g>
<g style="fill:rgb(0%,0%,0%);fill-opacity:1;">
  <use xlink:href="#glyph0-1" x="0.016" y="109.008"/>
  <use xlink:href="#glyph0-2" x="5.440005" y="109.008"/>
  <use xlink:href="#glyph0-22" x="8.45528" y="109.008"/>
</g>
<g style="fill:rgb(0%,0%,0%);fill-opacity:1;">
  <use xlink:href="#glyph0-4" x="19.301107" y="109.008"/>
</g>
<g style="fill:rgb(0%,0%,0%);fill-opacity:1;">
  <use xlink:href="#glyph0-5" x="31.05348" y="109.008"/>
  <use xlink:href="#glyph0-6" x="35.27312" y="109.008"/>
  <use xlink:href="#glyph0-7" x="40.697125" y="109.008"/>
</g>
<g style="fill:rgb(0%,0%,0%);fill-opacity:1;">
  <use xlink:href="#glyph0-8" x="46.712403" y="109.008"/>
  <use xlink:href="#glyph0-9" x="52.136407" y="109.008"/>
</g>
<g style="fill:rgb(0%,0%,0%);fill-opacity:1;">
  <use xlink:href="#glyph0-10" x="60.58005" y="109.008"/>
  <use xlink:href="#glyph0-11" x="66.305146" y="109.008"/>
  <use xlink:href="#glyph0-9" x="72.331333" y="109.008"/>
  <use xlink:href="#glyph0-12" x="77.153155" y="109.008"/>
  <use xlink:href="#glyph0-13" x="81.432795" y="109.008"/>
  <use xlink:href="#glyph0-14" x="85.652435" y="109.008"/>
  <use xlink:href="#glyph0-15" x="88.66771" y="109.008"/>
  <use xlink:href="#glyph0-7" x="94.091715" y="109.008"/>
</g>
<g style="fill:rgb(0%,0%,0%);fill-opacity:1;">
  <use xlink:href="#glyph0-17" x="103.728814" y="109.008"/>
  <use xlink:href="#glyph0-14" x="111.561548" y="109.008"/>
  <use xlink:href="#glyph0-13" x="114.576823" y="109.008"/>
  <use xlink:href="#glyph0-20" x="118.796463" y="109.008"/>
</g>
<g style="fill:rgb(0%,0%,0%);fill-opacity:1;">
  <use xlink:href="#glyph0-23" x="128.444471" y="109.008"/>
</g>
<g style="fill:rgb(0%,0%,0%);fill-opacity:1;">
  <use xlink:href="#glyph0-6" x="137.479387" y="109.008"/>
  <use xlink:href="#glyph0-7" x="142.903392" y="109.008"/>
  <use xlink:href="#glyph0-12" x="148.929579" y="109.008"/>
  <use xlink:href="#glyph0-17" x="153.209219" y="109.008"/>
</g>
<g style="fill:rgb(0%,0%,0%);fill-opacity:1;">
  <use xlink:href="#glyph0-9" x="160.736498" y="109.008"/>
  <use xlink:href="#glyph0-5" x="165.55832" y="109.008"/>
  <use xlink:href="#glyph0-12" x="169.77796" y="109.008"/>
</g>
<g style="fill:rgb(0%,0%,0%);fill-opacity:1;">
  <use xlink:href="#glyph0-16" x="156.384" y="128.249"/>
  <use xlink:href="#glyph0-15" x="159.399275" y="128.249"/>
</g>
<g style="fill:rgb(0%,0%,0%);fill-opacity:1;">
  <use xlink:href="#glyph0-17" x="164.517825" y="128.249"/>
</g>
<g style="fill:rgb(0%,0%,0%);fill-opacity:1;">
  <use xlink:href="#glyph0-9" x="172.056013" y="128.249"/>
  <use xlink:href="#glyph0-5" x="176.877835" y="128.249"/>
</g>
<path style="fill-rule:nonzero;fill:rgb(100%,100%,100%);fill-opacity:1;stroke-width:1;stroke-linecap:butt;stroke-linejoin:miter;stroke:rgb(0%,0%,0%);stroke-opacity:1;stroke-miterlimit:10;" d="M 9.42075 4.960813 C 9.42075 7.425656 7.424656 9.42175 4.959812 9.42175 C 2.498875 9.42175 0.498875 7.425656 0.498875 4.960813 C 0.498875 2.495969 2.498875 0.499875 4.959812 0.499875 C 7.424656 0.499875 9.42075 2.495969 9.42075 4.960813 Z M 9.42075 4.960813 " transform="matrix(1,0,0,-1,193.048,129.453)"/>
<path style="fill-rule:nonzero;fill:rgb(100%,100%,100%);fill-opacity:1;stroke-width:1;stroke-linecap:butt;stroke-linejoin:miter;stroke:rgb(0%,0%,0%);stroke-opacity:1;stroke-miterlimit:10;" d="M 9.41975 4.960813 C 9.41975 7.425656 7.423656 9.42175 4.958812 9.42175 C 2.497875 9.42175 0.501781 7.425656 0.501781 4.960813 C 0.501781 2.495969 2.497875 0.499875 4.958812 0.499875 C 7.423656 0.499875 9.41975 2.495969 9.41975 4.960813 Z M 9.41975 4.960813 " transform="matrix(1,0,0,-1,214.924,129.453)"/>
<path style="fill-rule:nonzero;fill:rgb(100%,100%,100%);fill-opacity:1;stroke-width:1;stroke-linecap:butt;stroke-linejoin:miter;stroke:rgb(0%,0%,0%);stroke-opacity:1;stroke-miterlimit:10;" d="M 9.421656 4.960813 C 9.421656 7.425656 7.425562 9.42175 4.960719 9.42175 C 2.495875 9.42175 0.499781 7.425656 0.499781 4.960813 C 0.499781 2.495969 2.495875 0.499875 4.960719 0.499875 C 7.425562 0.499875 9.421656 2.495969 9.421656 4.960813 Z M 9.421656 4.960813 " transform="matrix(1,0,0,-1,236.801,129.453)"/>
<path style="fill-rule:nonzero;fill:rgb(100%,100%,100%);fill-opacity:1;stroke-width:1;stroke-linecap:butt;stroke-linejoin:miter;stroke:rgb(0%,0%,0%);stroke-opacity:1;stroke-miterlimit:10;" d="M 9.420656 4.960813 C 9.420656 7.425656 7.424562 9.42175 4.959719 9.42175 C 2.498781 9.42175 0.498781 7.425656 0.498781 4.960813 C 0.498781 2.495969 2.498781 0.499875 4.959719 0.499875 C 7.424562 0.499875 9.420656 2.495969 9.420656 4.960813 Z M 9.420656 4.960813 " transform="matrix(1,0,0,-1,258.677,129.453)"/>
<path style="fill-rule:nonzero;fill:rgb(100%,100%,100%);fill-opacity:1;stroke-width:1;stroke-linecap:butt;stroke-linejoin:miter;stroke:rgb(0%,0%,0%);stroke-opacity:1;stroke-miterlimit:10;" d="M 9.422562 4.960813 C 9.422562 7.425656 7.422562 9.42175 4.961625 9.42175 C 2.496781 9.42175 0.500687 7.425656 0.500687 4.960813 C 0.500687 2.495969 2.496781 0.499875 4.961625 0.499875 C 7.422562 0.499875 9.422562 2.495969 9.422562 4.960813 Z M 9.422562 4.960813 " transform="matrix(1,0,0,-1,280.554,129.453)"/>
<path style="fill-rule:nonzero;fill:rgb(100%,100%,100%);fill-opacity:1;stroke-width:1;stroke-linecap:butt;stroke-linejoin:miter;stroke:rgb(0%,0%,0%);stroke-opacity:1;stroke-miterlimit:10;" d="M 9.421562 4.960813 C 9.421562 7.425656 7.425469 9.42175 4.960625 9.42175 C 2.495781 9.42175 0.499687 7.425656 0.499687 4.960813 C 0.499687 2.495969 2.495781 0.499875 4.960625 0.499875 C 7.425469 0.499875 9.421562 2.495969 9.421562 4.960813 Z M 9.421562 4.960813 " transform="matrix(1,0,0,-1,302.43,129.453)"/>
<path style="fill-rule:nonzero;fill:rgb(100%,100%,100%);fill-opacity:1;stroke-width:1;stroke-linecap:butt;stroke-linejoin:miter;stroke:rgb(0%,0%,0%);stroke-opacity:1;stroke-miterlimit:10;" d="M 9.420562 4.960813 C 9.420562 7.425656 7.424469 9.42175 4.959625 9.42175 C 2.498687 9.42175 0.498687 7.425656 0.498687 4.960813 C 0.498687 2.495969 2.498687 0.499875 4.959625 0.499875 C 7.424469 0.499875 9.420562 2.495969 9.420562 4.960813 Z M 9.420562 4.960813 " transform="matrix(1,0,0,-1,324.306,129.453)"/>
<g style="fill:rgb(0%,0%,0%);fill-opacity:1;">
  <use xlink:href="#glyph0-11" x="346.183" y="128.249"/>
  <use xlink:href="#glyph0-18" x="352.209187" y="128.249"/>
  <use xlink:href="#glyph0-18" x="358.235374" y="128.249"/>
</g>
<g style="fill:rgb(0%,0%,0%);fill-opacity:1;">
  <use xlink:href="#glyph0-9" x="364.556106" y="128.249"/>
  <use xlink:href="#glyph0-5" x="369.377928" y="128.249"/>
</g>
</g>
</svg>
