<?xml version="1.0" encoding="UTF-8"?>
<svg xmlns="http://www.w3.org/2000/svg" xmlns:xlink="http://www.w3.org/1999/xlink" width="532pt" height="155pt" viewBox="0 0 532 155" version="1.2">
<defs>
<g>
<symbol overflow="visible" id="glyph0-0">
<path style="stroke:none;" d=""/>
</symbol>
<symbol overflow="visible" id="glyph0-1">
<path style="stroke:none;" d="M 0.46875 -7.453125 L 0.46875 -7.125 L 0.828125 -7.125 C 1.1875 -7.125 1.53125 -7.09375 1.53125 -6.703125 C 1.53125 -6.625 1.515625 -6.546875 1.515625 -6.484375 L 1.515625 -0.8125 C 1.515625 -0.375 1.171875 -0.328125 0.8125 -0.328125 C 0.703125 -0.328125 0.578125 -0.34375 0.46875 -0.34375 L 0.46875 -0.015625 L 1.71875 -0.015625 L 1.96875 -0.046875 L 3.46875 -0.046875 L 3.46875 -0.34375 C 3.34375 -0.34375 3.203125 -0.328125 3.078125 -0.328125 C 2.71875 -0.328125 2.421875 -0.390625 2.421875 -0.8125 L 2.421875 -3.46875 L 4.453125 -3.46875 C 5.46875 -3.546875 6.765625 -4.203125 6.765625 -5.4375 C 6.765625 -6.546875 5.6875 -7.296875 4.640625 -7.4375 C 4.421875 -7.453125 4.234375 -7.453125 4.03125 -7.453125 Z M 2.390625 -3.734375 L 2.390625 -6.796875 C 2.390625 -7.0625 2.5625 -7.125 2.796875 -7.125 L 4.09375 -7.125 C 4.921875 -7.125 5.71875 -6.734375 5.71875 -5.4375 C 5.71875 -5.046875 5.6875 -4.625 5.4375 -4.3125 C 5.03125 -3.84375 4.40625 -3.734375 3.84375 -3.734375 Z M 2.390625 -3.734375 "/>
</symbol>
<symbol overflow="visible" id="glyph0-2">
<path style="stroke:none;" d="M 0.375 -7.453125 L 0.375 -7.125 L 0.5625 -7.125 C 0.921875 -7.125 1.203125 -7.09375 1.203125 -6.578125 L 1.203125 -0.78125 C 1.203125 -0.375 0.90625 -0.34375 0.59375 -0.34375 L 0.375 -0.34375 L 0.375 -0.015625 L 2.734375 -0.015625 L 2.734375 -0.34375 L 2.484375 -0.34375 C 2.1875 -0.34375 1.90625 -0.375 1.90625 -0.765625 L 1.90625 -7.578125 Z M 0.375 -7.453125 "/>
</symbol>
<symbol overflow="visible" id="glyph0-3">
<path style="stroke:none;" d="M 1.1875 -4.0625 C 1.46875 -4.40625 1.875 -4.640625 2.328125 -4.640625 C 3.125 -4.640625 3.53125 -3.953125 3.53125 -3.203125 L 3.53125 -2.84375 C 2.296875 -2.84375 0.46875 -2.4375 0.46875 -1.046875 C 0.46875 -0.234375 1.421875 0.09375 2.1875 0.09375 L 2.328125 0.09375 C 2.875 0.046875 3.46875 -0.34375 3.609375 -0.84375 L 3.625 -0.84375 C 3.65625 -0.390625 3.953125 0.046875 4.453125 0.046875 C 4.921875 0.046875 5.296875 -0.328125 5.34375 -0.796875 L 5.34375 -1.59375 L 5.078125 -1.59375 L 5.078125 -1.046875 C 5.078125 -0.75 5.03125 -0.296875 4.671875 -0.296875 C 4.34375 -0.296875 4.265625 -0.734375 4.265625 -1 C 4.265625 -1.125 4.28125 -1.25 4.28125 -1.375 L 4.28125 -2.875 C 4.28125 -3 4.28125 -3.125 4.28125 -3.265625 C 4.28125 -4.28125 3.328125 -4.859375 2.421875 -4.859375 C 1.734375 -4.859375 0.796875 -4.5 0.796875 -3.625 C 0.796875 -3.34375 0.984375 -3.125 1.265625 -3.125 C 1.53125 -3.125 1.734375 -3.328125 1.734375 -3.59375 C 1.734375 -3.84375 1.53125 -4.0625 1.265625 -4.0625 C 1.25 -4.0625 1.203125 -4.0625 1.1875 -4.0625 Z M 3.53125 -2.625 L 3.53125 -1.53125 C 3.53125 -0.78125 3.015625 -0.171875 2.296875 -0.125 L 2.25 -0.125 C 1.75 -0.125 1.28125 -0.53125 1.28125 -1.0625 L 1.28125 -1.109375 C 1.359375 -2.171875 2.515625 -2.59375 3.53125 -2.625 Z M 3.53125 -2.625 "/>
</symbol>
<symbol overflow="visible" id="glyph0-4">
<path style="stroke:none;" d="M 3.953125 -4.140625 C 3.671875 -4.140625 3.453125 -3.953125 3.453125 -3.671875 C 3.453125 -3.421875 3.65625 -3.1875 3.921875 -3.1875 C 4.171875 -3.1875 4.390625 -3.390625 4.390625 -3.6875 L 4.390625 -3.78125 C 4.28125 -4.609375 3.296875 -4.859375 2.6875 -4.859375 C 1.359375 -4.859375 0.375 -3.625 0.375 -2.359375 C 0.375 -1.078125 1.359375 0.09375 2.71875 0.09375 C 3.421875 0.09375 4.140625 -0.3125 4.421875 -1.0625 C 4.453125 -1.140625 4.5 -1.21875 4.5 -1.296875 L 4.5 -1.34375 C 4.46875 -1.390625 4.421875 -1.421875 4.375 -1.421875 C 4.203125 -1.421875 4.140625 -0.96875 4 -0.8125 C 3.734375 -0.40625 3.296875 -0.15625 2.8125 -0.15625 C 1.65625 -0.15625 1.25 -1.421875 1.25 -2.359375 C 1.25 -3.265625 1.546875 -4.53125 2.65625 -4.609375 L 2.734375 -4.609375 C 3.140625 -4.609375 3.671875 -4.484375 3.953125 -4.140625 Z M 3.953125 -4.140625 "/>
</symbol>
<symbol overflow="visible" id="glyph0-5">
<path style="stroke:none;" d="M 1.1875 -2.546875 L 4.34375 -2.546875 C 4.453125 -2.546875 4.5 -2.59375 4.5 -2.703125 C 4.5 -3.78125 3.921875 -4.859375 2.59375 -4.859375 C 1.28125 -4.859375 0.3125 -3.671875 0.3125 -2.421875 C 0.3125 -1.234375 1.171875 0.09375 2.640625 0.09375 C 3.46875 0.09375 4.171875 -0.34375 4.46875 -1.1875 C 4.484375 -1.234375 4.5 -1.265625 4.5 -1.3125 C 4.5 -1.375 4.4375 -1.421875 4.390625 -1.421875 C 4.203125 -1.421875 4.140625 -1.0625 4.078125 -0.9375 C 3.8125 -0.484375 3.296875 -0.15625 2.765625 -0.15625 C 2.15625 -0.15625 1.625 -0.59375 1.390625 -1.140625 C 1.203125 -1.578125 1.1875 -2.078125 1.1875 -2.546875 Z M 1.203125 -2.765625 C 1.203125 -3.609375 1.671875 -4.640625 2.578125 -4.640625 C 3.515625 -4.640625 3.796875 -3.546875 3.796875 -2.765625 Z M 1.203125 -2.765625 "/>
</symbol>
<symbol overflow="visible" id="glyph0-6">
<path style="stroke:none;" d="M 0.3125 -7.453125 L 0.3125 -7.125 L 0.46875 -7.125 C 0.8125 -7.125 1.140625 -7.09375 1.140625 -6.59375 L 1.140625 -0.015625 L 1.390625 -0.03125 L 1.8125 -0.703125 C 2.078125 -0.1875 2.6875 0.09375 3.25 0.09375 C 4.578125 0.09375 5.640625 -1.0625 5.640625 -2.359375 C 5.640625 -3.59375 4.71875 -4.8125 3.28125 -4.8125 C 2.703125 -4.8125 2.25 -4.53125 1.859375 -4.09375 L 1.859375 -7.578125 Z M 4.75 -2.109375 C 4.71875 -1.578125 4.640625 -1.078125 4.28125 -0.671875 C 4.015625 -0.34375 3.59375 -0.140625 3.171875 -0.140625 C 2.71875 -0.140625 2.328125 -0.375 2.0625 -0.765625 C 1.96875 -0.890625 1.890625 -1.03125 1.890625 -1.1875 L 1.890625 -3.015625 C 1.890625 -3.15625 1.875 -3.28125 1.875 -3.421875 C 1.875 -4.0625 2.640625 -4.578125 3.28125 -4.578125 C 4.46875 -4.578125 4.765625 -3.25 4.765625 -2.34375 C 4.765625 -2.265625 4.765625 -2.1875 4.75 -2.109375 Z M 4.75 -2.109375 "/>
</symbol>
<symbol overflow="visible" id="glyph0-7">
<path style="stroke:none;" d="M 0.3125 -4.6875 L 0.3125 -4.359375 L 0.484375 -4.359375 C 0.8125 -4.359375 1.140625 -4.328125 1.140625 -3.8125 L 1.140625 -0.796875 C 1.140625 -0.34375 0.84375 -0.34375 0.375 -0.34375 L 0.3125 -0.34375 L 0.3125 -0.015625 L 2.90625 -0.015625 L 2.90625 -0.34375 C 2.78125 -0.34375 2.65625 -0.328125 2.515625 -0.328125 C 2.171875 -0.328125 1.859375 -0.375 1.859375 -0.78125 L 1.859375 -2.265625 C 1.859375 -3.125 2.03125 -4.578125 3.125 -4.578125 C 3.171875 -4.578125 3.21875 -4.5625 3.265625 -4.5625 C 3.109375 -4.5 3.015625 -4.3125 3.015625 -4.15625 C 3.015625 -3.921875 3.203125 -3.734375 3.421875 -3.703125 C 3.734375 -3.703125 3.921875 -3.90625 3.921875 -4.171875 C 3.921875 -4.59375 3.5 -4.8125 3.140625 -4.8125 C 2.453125 -4.8125 1.9375 -4.1875 1.8125 -3.625 L 1.796875 -4.8125 Z M 0.3125 -4.6875 "/>
</symbol>
<symbol overflow="visible" id="glyph0-8">
<path style="stroke:none;" d="M 2.546875 -4.859375 C 1.15625 -4.703125 0.3125 -3.5625 0.3125 -2.328125 C 0.3125 -1.171875 1.203125 0.109375 2.703125 0.109375 C 4.0625 0.109375 5.09375 -1.0625 5.09375 -2.34375 C 5.09375 -3.625 4.125 -4.859375 2.65625 -4.859375 Z M 1.1875 -2.09375 C 1.171875 -2.1875 1.171875 -2.28125 1.171875 -2.359375 C 1.171875 -3.234375 1.375 -4.625 2.703125 -4.625 C 3.84375 -4.625 4.21875 -3.546875 4.21875 -2.5 C 4.21875 -1.609375 4.109375 -0.234375 2.765625 -0.15625 L 2.703125 -0.15625 C 1.828125 -0.15625 1.296875 -0.921875 1.21875 -1.765625 C 1.203125 -1.875 1.203125 -1.984375 1.1875 -2.09375 Z M 1.1875 -2.09375 "/>
</symbol>
<symbol overflow="visible" id="glyph0-9">
<path style="stroke:none;" d="M 3.328125 -7.453125 L 3.328125 -7.125 L 3.453125 -7.125 C 3.875 -7.125 4.15625 -7.109375 4.15625 -6.453125 L 4.15625 -4.140625 C 3.796875 -4.546875 3.34375 -4.8125 2.765625 -4.8125 C 1.46875 -4.8125 0.375 -3.703125 0.375 -2.34375 C 0.375 -1.140625 1.296875 0.09375 2.65625 0.09375 C 3.25 0.09375 3.703125 -0.15625 4.125 -0.625 L 4.125 0.09375 L 5.6875 -0.015625 L 5.6875 -0.34375 L 5.546875 -0.34375 C 5.1875 -0.34375 4.859375 -0.375 4.859375 -0.890625 L 4.859375 -7.578125 Z M 1.25 -2.09375 L 1.25 -2.25 C 1.25 -3.0625 1.359375 -3.875 2.109375 -4.390625 C 2.328125 -4.515625 2.578125 -4.5625 2.8125 -4.5625 C 3.375 -4.5625 4.140625 -4.140625 4.140625 -3.453125 C 4.140625 -3.3125 4.125 -3.171875 4.125 -3.03125 L 4.125 -1.21875 C 4.125 -1.0625 4.0625 -0.984375 3.984375 -0.859375 C 3.703125 -0.4375 3.21875 -0.125 2.71875 -0.125 C 1.890625 -0.125 1.390625 -0.90625 1.28125 -1.640625 C 1.265625 -1.78125 1.265625 -1.9375 1.25 -2.09375 Z M 1.25 -2.09375 "/>
</symbol>
<symbol overflow="visible" id="glyph0-10">
<path style="stroke:none;" d="M 0.953125 -0.40625 C 1.140625 -0.078125 1.71875 0.09375 2.109375 0.09375 C 2.875 0.09375 3.8125 -0.15625 3.90625 -1.3125 C 3.90625 -2.03125 3.515625 -2.515625 2.90625 -2.765625 C 2.640625 -2.875 2.34375 -2.90625 2.078125 -2.96875 L 1.84375 -3.015625 C 1.421875 -3.09375 0.859375 -3.3125 0.859375 -3.84375 C 0.859375 -4.484375 1.578125 -4.671875 2.109375 -4.671875 C 2.90625 -4.671875 3.28125 -4.171875 3.375 -3.453125 C 3.375 -3.359375 3.375 -3.25 3.5 -3.25 C 3.625 -3.25 3.625 -3.359375 3.625 -3.453125 L 3.625 -4.734375 C 3.625 -4.78125 3.59375 -4.859375 3.515625 -4.859375 C 3.34375 -4.859375 3.234375 -4.5625 3.125 -4.5625 C 3.046875 -4.578125 2.984375 -4.640625 2.921875 -4.671875 C 2.6875 -4.8125 2.40625 -4.859375 2.125 -4.859375 C 1.46875 -4.859375 0.359375 -4.640625 0.359375 -3.5625 C 0.359375 -2.375 1.671875 -2.25 2.4375 -2.09375 C 2.90625 -2 3.390625 -1.671875 3.40625 -1.140625 C 3.40625 -0.34375 2.703125 -0.125 2.140625 -0.125 C 1.28125 -0.125 0.875 -0.796875 0.671875 -1.53125 C 0.640625 -1.640625 0.671875 -1.875 0.484375 -1.875 C 0.421875 -1.875 0.359375 -1.828125 0.359375 -1.75 L 0.359375 -0.3125 C 0.359375 -0.25 0.34375 -0.1875 0.34375 -0.125 C 0.34375 -0.03125 0.375 0.09375 0.484375 0.09375 C 0.640625 0.078125 0.78125 -0.265625 0.953125 -0.40625 Z M 0.953125 -0.40625 "/>
</symbol>
<symbol overflow="visible" id="glyph0-11">
<path style="stroke:none;" d="M 1.609375 -6.71875 C 1.609375 -5.984375 1.3125 -4.609375 0.203125 -4.609375 L 0.203125 -4.375 L 1.140625 -4.375 L 1.140625 -1.46875 C 1.140625 -1.140625 1.15625 -0.8125 1.3125 -0.53125 C 1.578125 -0.09375 2.078125 0.09375 2.546875 0.09375 C 3.421875 0.09375 3.609375 -0.859375 3.609375 -1.5625 L 3.609375 -1.984375 L 3.34375 -1.984375 C 3.34375 -1.828125 3.359375 -1.65625 3.359375 -1.5 C 3.359375 -0.984375 3.25 -0.15625 2.609375 -0.15625 C 1.984375 -0.15625 1.875 -0.921875 1.875 -1.421875 L 1.875 -4.375 L 3.421875 -4.375 L 3.421875 -4.703125 L 1.875 -4.703125 L 1.875 -6.71875 Z M 1.609375 -6.71875 "/>
</symbol>
<symbol overflow="visible" id="glyph0-12">
<path style="stroke:none;" d="M 0.421875 -4.6875 L 0.421875 -4.359375 L 0.59375 -4.359375 C 0.9375 -4.359375 1.203125 -4.3125 1.203125 -3.8125 L 1.203125 -0.796875 C 1.203125 -0.359375 0.921875 -0.34375 0.375 -0.34375 L 0.375 -0.015625 L 2.65625 -0.015625 L 2.65625 -0.34375 L 2.484375 -0.34375 C 2.1875 -0.34375 1.90625 -0.375 1.90625 -0.71875 L 1.90625 -4.8125 Z M 1.3125 -7.265625 C 1 -7.21875 0.84375 -6.96875 0.84375 -6.734375 C 0.84375 -6.484375 1.03125 -6.1875 1.375 -6.1875 C 1.71875 -6.1875 1.921875 -6.453125 1.921875 -6.734375 C 1.921875 -6.984375 1.75 -7.28125 1.390625 -7.28125 C 1.359375 -7.28125 1.328125 -7.265625 1.3125 -7.265625 Z M 1.3125 -7.265625 "/>
</symbol>
<symbol overflow="visible" id="glyph0-13">
<path style="stroke:none;" d="M 0.3125 -7.453125 L 0.3125 -7.125 L 0.515625 -7.125 C 0.859375 -7.125 1.140625 -7.09375 1.140625 -6.59375 L 1.140625 -0.78125 C 1.140625 -0.375 0.875 -0.34375 0.59375 -0.34375 L 0.3125 -0.34375 L 0.3125 -0.015625 L 2.65625 -0.015625 L 2.65625 -0.34375 L 2.40625 -0.34375 C 2.078125 -0.34375 1.828125 -0.375 1.828125 -0.8125 L 1.828125 -1.828125 C 1.828125 -2.078125 2.28125 -2.359375 2.53125 -2.578125 C 2.625 -2.40625 2.765625 -2.21875 2.890625 -2.0625 L 3.671875 -0.953125 C 3.734375 -0.84375 3.828125 -0.703125 3.828125 -0.578125 C 3.828125 -0.375 3.609375 -0.34375 3.453125 -0.34375 L 3.453125 -0.015625 L 5.546875 -0.015625 L 5.546875 -0.34375 C 5.25 -0.34375 5 -0.359375 4.75 -0.625 C 4.578125 -0.796875 4.453125 -1 4.3125 -1.1875 C 3.9375 -1.71875 3.578125 -2.25 3.1875 -2.78125 C 3.125 -2.859375 3.09375 -2.9375 3.015625 -3 L 3.015625 -3.015625 C 3.734375 -3.484375 4.296875 -4.375 5.296875 -4.375 L 5.296875 -4.703125 L 3.34375 -4.703125 L 3.34375 -4.375 C 3.515625 -4.375 3.640625 -4.25 3.640625 -4.109375 C 3.640625 -3.84375 3.375 -3.671875 3.203125 -3.515625 C 2.765625 -3.109375 2.296875 -2.71875 1.859375 -2.34375 L 1.859375 -7.578125 Z M 0.3125 -7.453125 "/>
</symbol>
<symbol overflow="visible" id="glyph0-14">
<path style="stroke:none;" d="M 0.359375 -4.6875 L 0.359375 -4.359375 L 0.53125 -4.359375 C 0.859375 -4.359375 1.1875 -4.328125 1.1875 -3.8125 L 1.1875 -0.796875 C 1.1875 -0.34375 0.890625 -0.34375 0.421875 -0.34375 L 0.359375 -0.34375 L 0.359375 -0.015625 L 2.765625 -0.015625 L 2.765625 -0.34375 L 2.515625 -0.34375 C 2.1875 -0.34375 1.9375 -0.375 1.9375 -0.78125 L 1.9375 -2.8125 C 1.9375 -3.59375 2.359375 -4.578125 3.40625 -4.578125 C 4.09375 -4.578125 4.1875 -3.875 4.1875 -3.234375 L 4.1875 -0.75 C 4.1875 -0.375 3.890625 -0.34375 3.59375 -0.34375 L 3.359375 -0.34375 L 3.359375 -0.015625 L 5.765625 -0.015625 L 5.765625 -0.34375 L 5.5 -0.34375 C 5.21875 -0.34375 4.921875 -0.34375 4.921875 -0.765625 L 4.921875 -3.234375 C 4.921875 -3.5625 4.921875 -3.890625 4.75 -4.1875 C 4.5 -4.671875 3.953125 -4.8125 3.4375 -4.8125 C 2.75 -4.8125 2.078125 -4.3125 1.890625 -3.703125 L 1.875 -4.8125 Z M 0.359375 -4.6875 "/>
</symbol>
<symbol overflow="visible" id="glyph0-15">
<path style="stroke:none;" d="M 0.359375 -7.453125 L 0.359375 -7.125 L 0.5625 -7.125 C 0.90625 -7.125 1.1875 -7.09375 1.1875 -6.59375 L 1.1875 -0.78125 C 1.1875 -0.375 0.921875 -0.34375 0.625 -0.34375 L 0.359375 -0.34375 L 0.359375 -0.015625 L 2.765625 -0.015625 L 2.765625 -0.34375 L 2.515625 -0.34375 C 2.1875 -0.34375 1.9375 -0.375 1.9375 -0.78125 L 1.9375 -2.8125 C 1.9375 -3.59375 2.359375 -4.578125 3.40625 -4.578125 C 4.09375 -4.578125 4.1875 -3.875 4.1875 -3.234375 L 4.1875 -0.75 C 4.1875 -0.375 3.890625 -0.34375 3.59375 -0.34375 L 3.359375 -0.34375 L 3.359375 -0.015625 L 5.765625 -0.015625 L 5.765625 -0.34375 L 5.5 -0.34375 C 5.21875 -0.34375 4.921875 -0.34375 4.921875 -0.78125 L 4.921875 -3.21875 C 4.921875 -3.5625 4.921875 -3.921875 4.734375 -4.21875 C 4.484375 -4.65625 3.984375 -4.8125 3.484375 -4.8125 C 2.8125 -4.8125 2.078125 -4.390625 1.90625 -3.75 L 1.890625 -7.578125 Z M 0.359375 -7.453125 "/>
</symbol>
<symbol overflow="visible" id="glyph0-16">
<path style="stroke:none;" d="M 0.171875 -4.703125 L 0.171875 -4.375 L 0.375 -4.375 C 0.890625 -4.375 1.09375 -4.171875 1.34375 -3.84375 C 1.703125 -3.390625 2.03125 -2.9375 2.390625 -2.484375 C 2.421875 -2.4375 2.515625 -2.359375 2.515625 -2.28125 C 2.515625 -2.21875 2.4375 -2.15625 2.390625 -2.109375 L 2.03125 -1.640625 C 1.46875 -0.9375 1.03125 -0.34375 0.125 -0.34375 L 0.125 -0.015625 L 2.046875 -0.015625 L 2.046875 -0.34375 C 1.84375 -0.34375 1.734375 -0.53125 1.734375 -0.6875 C 1.734375 -0.953125 2 -1.171875 2.15625 -1.375 C 2.34375 -1.609375 2.515625 -1.859375 2.71875 -2.078125 C 2.796875 -1.9375 2.90625 -1.8125 3 -1.6875 C 3.15625 -1.46875 3.34375 -1.25 3.5 -1.03125 C 3.59375 -0.921875 3.78125 -0.75 3.78125 -0.59375 C 3.78125 -0.4375 3.546875 -0.34375 3.40625 -0.34375 L 3.40625 -0.015625 L 5.609375 -0.015625 L 5.609375 -0.34375 L 5.390625 -0.34375 C 4.828125 -0.34375 4.640625 -0.578125 4.390625 -0.921875 C 4.171875 -1.21875 3.921875 -1.53125 3.703125 -1.828125 L 3.296875 -2.359375 C 3.25 -2.40625 3.15625 -2.5 3.140625 -2.578125 C 3.140625 -2.640625 3.21875 -2.703125 3.25 -2.75 L 3.59375 -3.171875 C 4.109375 -3.796875 4.53125 -4.375 5.375 -4.375 L 5.421875 -4.375 L 5.421875 -4.703125 L 3.5 -4.703125 L 3.5 -4.375 C 3.703125 -4.375 3.8125 -4.171875 3.8125 -4.03125 C 3.8125 -3.625 3.203125 -3.234375 2.953125 -2.796875 L 2.9375 -2.796875 C 2.875 -2.90625 2.796875 -3.015625 2.71875 -3.109375 L 2.25 -3.703125 C 2.171875 -3.8125 2 -3.96875 2 -4.109375 C 2 -4.28125 2.21875 -4.359375 2.359375 -4.375 L 2.359375 -4.703125 Z M 0.171875 -4.703125 "/>
</symbol>
<symbol overflow="visible" id="glyph0-17">
<path style="stroke:none;" d="M 1.421875 -4.6875 C 1.125 -4.640625 0.96875 -4.390625 0.96875 -4.15625 C 0.96875 -3.90625 1.140625 -3.609375 1.5 -3.609375 C 1.828125 -3.609375 2.046875 -3.875 2.046875 -4.15625 C 2.046875 -4.40625 1.859375 -4.703125 1.515625 -4.703125 C 1.484375 -4.703125 1.453125 -4.6875 1.421875 -4.6875 Z M 1.421875 -1.09375 C 1.125 -1.046875 0.96875 -0.796875 0.96875 -0.5625 C 0.96875 -0.3125 1.140625 -0.015625 1.5 -0.015625 C 1.828125 -0.015625 2.046875 -0.28125 2.046875 -0.5625 C 2.046875 -0.8125 1.859375 -1.09375 1.515625 -1.09375 C 1.484375 -1.09375 1.453125 -1.09375 1.421875 -1.09375 Z M 1.421875 -1.09375 "/>
</symbol>
</g>
</defs>
<g id="surface1">
<path style="fill:none;stroke-width:1;stroke-linecap:butt;stroke-linejoin:miter;stroke:rgb(0%,0%,0%);stroke-opacity:1;stroke-miterlimit:10;" d="M 9.421062 4.9595 C 9.421062 7.424344 7.424969 9.420438 4.960125 9.420438 C 2.495281 9.420438 0.499187 7.424344 0.499187 4.9595 C 0.499187 2.498563 2.495281 0.498563 4.960125 0.498563 C 7.424969 0.498563 9.421062 2.498563 9.421062 4.9595 Z M 9.421062 4.9595 " transform="matrix(1,0,0,-1,5.993,-6.978)"/>
<path style="fill:none;stroke-width:1;stroke-linecap:butt;stroke-linejoin:miter;stroke:rgb(0%,0%,0%);stroke-opacity:1;stroke-miterlimit:10;" d="M 9.422906 4.9595 C 9.422906 7.424344 7.422906 9.420438 4.961969 9.420438 C 2.497125 9.420438 0.501031 7.424344 0.501031 4.9595 C 0.501031 2.498563 2.497125 0.498563 4.961969 0.498563 C 7.422906 0.498563 9.422906 2.498563 9.422906 4.9595 Z M 9.422906 4.9595 " transform="matrix(1,0,0,-1,360.956,-6.978)"/>
<path style="fill:none;stroke-width:1;stroke-linecap:butt;stroke-linejoin:miter;stroke:rgb(0%,0%,0%);stroke-opacity:1;stroke-miterlimit:10;" d="M -1.991156 -1.993625 L 0.391656 0.818875 L 4.958063 4.9595 L 8.215875 8.264188 L 11.911188 11.912625 " transform="matrix(1,0,0,-1,360.956,-6.978)"/>
<path style="fill:none;stroke-width:1;stroke-linecap:butt;stroke-linejoin:miter;stroke:rgb(0%,0%,0%);stroke-opacity:1;stroke-miterlimit:10;" d="M -1.991156 11.912625 L 1.454156 8.705594 L 4.958063 4.963406 L 8.290094 2.580594 L 11.911188 -1.989719 " transform="matrix(1,0,0,-1,360.956,-6.978)"/>
<path style="fill:none;stroke-width:1;stroke-linecap:butt;stroke-linejoin:miter;stroke:rgb(0%,0%,0%);stroke-opacity:1;stroke-miterlimit:10;" d="M 9.422906 4.9595 C 9.422906 7.424344 7.422906 9.420438 4.961969 9.420438 C 2.497125 9.420438 0.501031 7.424344 0.501031 4.9595 C 0.501031 2.498563 2.497125 0.498563 4.961969 0.498563 C 7.422906 0.498563 9.422906 2.498563 9.422906 4.9595 Z M 9.422906 4.9595 " transform="matrix(1,0,0,-1,444.206,-6.978)"/>
<path style="fill:none;stroke-width:1;stroke-linecap:butt;stroke-linejoin:miter;stroke:rgb(0%,0%,0%);stroke-opacity:1;stroke-miterlimit:10;" d="M -1.991156 -1.993625 L 0.661188 0.80325 L 4.958063 4.9595 L 7.790094 7.654813 L 11.911188 11.912625 " transform="matrix(1,0,0,-1,444.206,-6.978)"/>
<path style="fill:none;stroke-width:1;stroke-linecap:butt;stroke-linejoin:miter;stroke:rgb(0%,0%,0%);stroke-opacity:1;stroke-miterlimit:10;" d="M -1.991156 11.912625 L 0.586969 10.045438 L 4.958063 4.963406 L 9.141656 2.119656 L 11.911188 -1.989719 " transform="matrix(1,0,0,-1,444.206,-6.978)"/>
<g style="fill:rgb(0%,0%,0%);fill-opacity:1;">
  <use xlink:href="#glyph0-1" x="0.016" y="91.962"/>
  <use xlink:href="#glyph0-2" x="7.394915" y="91.962"/>
  <use xlink:href="#glyph0-3" x="10.41019" y="91.962"/>
  <use xlink:href="#glyph0-4" x="15.834195" y="91.962"/>
  <use xlink:href="#glyph0-5" x="20.656017" y="91.962"/>
</g>
<g style="fill:rgb(0%,0%,0%);fill-opacity:1;">
  <use xlink:href="#glyph0-6" x="29.088751" y="91.962"/>
  <use xlink:href="#glyph0-3" x="35.114938" y="91.962"/>
  <use xlink:href="#glyph0-7" x="40.538943" y="91.962"/>
  <use xlink:href="#glyph0-4" x="44.758583" y="91.962"/>
  <use xlink:href="#glyph0-8" x="49.580405" y="91.962"/>
</g>
<g style="fill:rgb(0%,0%,0%);fill-opacity:1;">
  <use xlink:href="#glyph0-9" x="55.309864" y="91.962"/>
  <use xlink:href="#glyph0-5" x="61.336051" y="91.962"/>
</g>
<g style="fill:rgb(0%,0%,0%);fill-opacity:1;">
  <use xlink:href="#glyph0-10" x="69.768785" y="91.962"/>
  <use xlink:href="#glyph0-11" x="74.048425" y="91.962"/>
  <use xlink:href="#glyph0-12" x="78.268065" y="91.962"/>
  <use xlink:href="#glyph0-4" x="81.28334" y="91.962"/>
</g>
<g style="fill:rgb(0%,0%,0%);fill-opacity:1;">
  <use xlink:href="#glyph0-13" x="85.810617" y="91.962"/>
</g>
<g style="fill:rgb(0%,0%,0%);fill-opacity:1;">
  <use xlink:href="#glyph0-5" x="91.230258" y="91.962"/>
  <use xlink:href="#glyph0-7" x="96.05208" y="91.962"/>
</g>
<g style="fill:rgb(0%,0%,0%);fill-opacity:1;">
  <use xlink:href="#glyph0-12" x="103.882632" y="91.962"/>
  <use xlink:href="#glyph0-14" x="106.897907" y="91.962"/>
</g>
<g style="fill:rgb(0%,0%,0%);fill-opacity:1;">
  <use xlink:href="#glyph0-11" x="112.629548" y="91.962"/>
  <use xlink:href="#glyph0-8" x="116.849188" y="91.962"/>
</g>
<g style="fill:rgb(0%,0%,0%);fill-opacity:1;">
  <use xlink:href="#glyph0-11" x="125.884105" y="91.962"/>
  <use xlink:href="#glyph0-15" x="130.103745" y="91.962"/>
  <use xlink:href="#glyph0-5" x="136.129932" y="91.962"/>
</g>
<g style="fill:rgb(0%,0%,0%);fill-opacity:1;">
  <use xlink:href="#glyph0-6" x="144.573575" y="91.962"/>
</g>
<g style="fill:rgb(0%,0%,0%);fill-opacity:1;">
  <use xlink:href="#glyph0-8" x="150.894308" y="91.962"/>
</g>
<g style="fill:rgb(0%,0%,0%);fill-opacity:1;">
  <use xlink:href="#glyph0-16" x="156.023766" y="91.962"/>
  <use xlink:href="#glyph0-17" x="161.748862" y="91.962"/>
</g>
<path style="fill-rule:nonzero;fill:rgb(100%,100%,100%);fill-opacity:1;stroke-width:1;stroke-linecap:butt;stroke-linejoin:miter;stroke:rgb(0%,0%,0%);stroke-opacity:1;stroke-miterlimit:10;" d="M 0.498125 87.540125 L 0.498125 -59.19425 L 235.892656 -59.19425 L 235.892656 87.540125 Z M 0.498125 87.540125 " transform="matrix(1,0,0,-1,169.58,91.962)"/>
<path style="fill-rule:nonzero;fill:rgb(0%,0%,0%);fill-opacity:1;stroke-width:0.3985;stroke-linecap:butt;stroke-linejoin:miter;stroke:rgb(0%,0%,0%);stroke-opacity:1;stroke-miterlimit:10;" d="M -2.834344 -0.00028125 L -2.834344 -14.176063 L 11.337531 -14.176063 L 11.337531 -0.00028125 Z M 19.845344 -0.00028125 L 19.845344 -14.176063 L 34.017219 -14.176063 L 34.017219 -0.00028125 Z M 0.00159375 -2.836219 L 8.5055 -2.836219 L 8.5055 -11.340125 L 0.00159375 -11.340125 Z M 22.677375 -2.836219 L 31.185187 -2.836219 L 31.185187 -11.340125 L 22.677375 -11.340125 Z M 2.833625 -5.66825 L 2.833625 -8.504188 L 5.669562 -8.504188 L 5.669562 -5.66825 Z M 14.173469 -5.66825 L 14.173469 -8.504188 L 17.009406 -8.504188 L 17.009406 -5.66825 Z M 25.513312 -5.66825 L 25.513312 -8.504188 L 28.34925 -8.504188 L 28.34925 -5.66825 Z M 14.173469 -11.340125 L 14.173469 -17.008094 L 5.669562 -17.008094 L 5.669562 -19.844031 L 17.009406 -19.844031 L 17.009406 -11.340125 Z M 0.00159375 -17.008094 L 0.00159375 -19.844031 L 2.833625 -19.844031 L 2.833625 -17.008094 Z M 19.845344 -17.008094 L 19.845344 -19.844031 L 22.677375 -19.844031 L 22.677375 -17.008094 Z M -2.834344 -22.679969 L -2.834344 -36.851844 L 11.337531 -36.851844 L 11.337531 -22.679969 Z M 14.173469 -22.679969 L 14.173469 -36.851844 L 17.009406 -36.851844 L 17.009406 -22.679969 Z M 19.845344 -22.679969 L 19.845344 -25.512 L 22.677375 -25.512 L 22.677375 -28.347938 L 19.845344 -28.347938 L 19.845344 -36.851844 L 22.677375 -36.851844 L 22.677375 -31.183875 L 25.513312 -31.183875 L 25.513312 -28.347938 L 28.34925 -28.347938 L 28.34925 -25.512 L 25.513312 -25.512 L 25.513312 -22.679969 Z M 28.34925 -25.512 L 34.017219 -25.512 L 34.017219 -22.679969 L 28.34925 -22.679969 Z M 0.00159375 -25.512 L 8.5055 -25.512 L 8.5055 -34.019813 L 0.00159375 -34.019813 Z M 2.833625 -28.347938 L 2.833625 -31.183875 L 5.669562 -31.183875 L 5.669562 -28.347938 Z M 31.185187 -28.347938 L 31.185187 -31.183875 L 34.017219 -31.183875 L 34.017219 -28.347938 Z M 31.185187 -31.183875 L 28.34925 -31.183875 L 28.34925 -34.019813 L 25.513312 -34.019813 L 25.513312 -36.851844 L 34.017219 -36.851844 L 34.017219 -34.019813 L 31.185187 -34.019813 Z M 31.185187 -31.183875 " transform="matrix(1,0,0,-1,272.182,59.363)"/>
</g>
</svg>
