StartFontMetrics 2.0
Comment Generated by FontForge 20051018
Comment Creation Date: Mon Oct 24 22:45:28 2005
FontName umranda
FullName umranda
FamilyName umranda
Weight Medium
Notice (Created by Rolf Niepraschk with FontForge 1.0 (http://fontforge.sf.net))
ItalicAngle 0
IsFixedPitch false
UnderlinePosition -100
UnderlineThickness 50
Version 001.000
EncodingScheme FontSpecific
FontBBox -216 -216 2015 2014
StartCharMetrics 102
C 0 ; WX 1000 ; N enc-0 ; B -7 -9 1012 1011 ;
C 1 ; WX 1000 ; N enc-1 ; B -39 -39 1039 1039 ;
C 2 ; WX 1000 ; N enc-2 ; B -9 -7 1012 1012 ;
C 3 ; WX 1000 ; N enc-3 ; B -39 -39 1039 1039 ;
C 4 ; WX 1000 ; N enc-4 ; B -7 -9 1012 1011 ;
C 5 ; WX 1000 ; N enc-5 ; B -39 -39 1039 1039 ;
C 6 ; WX 1000 ; N enc-6 ; B -9 -9 1012 1012 ;
C 7 ; WX 1000 ; N enc-7 ; B -39 -39 1039 1039 ;
C 8 ; WX 1000 ; N enc-8 ; B -9 -9 1012 1012 ;
C 9 ; WX 1000 ; N enc-9 ; B -11 -11 1011 1010 ;
C 10 ; WX 1000 ; N enc-10 ; B -11 -11 1011 1011 ;
C 11 ; WX 1000 ; N enc-11 ; B -9 -9 1012 1012 ;
C 12 ; WX 1000 ; N enc-12 ; B -11 -11 1011 1010 ;
C 13 ; WX 1000 ; N enc-13 ; B -11 -11 1011 1011 ;
C 14 ; WX 1000 ; N enc-14 ; B -9 -9 1012 1012 ;
C 15 ; WX 1000 ; N enc-15 ; B -11 -11 1011 1010 ;
C 16 ; WX 1000 ; N enc-16 ; B -11 -11 1011 1011 ;
C 17 ; WX 1000 ; N enc-17 ; B -9 -9 1012 1012 ;
C 18 ; WX 1000 ; N enc-18 ; B -11 -11 1011 1010 ;
C 19 ; WX 1000 ; N enc-19 ; B -11 -11 1011 1011 ;
C 20 ; WX 1000 ; N enc-20 ; B -16 -17 1015 1016 ;
C 21 ; WX 1000 ; N enc-21 ; B -22 -25 1022 1025 ;
C 22 ; WX 1000 ; N enc-22 ; B -25 -23 1025 1022 ;
C 23 ; WX 1000 ; N enc-23 ; B -17 -15 1017 1016 ;
C 24 ; WX 1000 ; N enc-24 ; B -25 -22 1025 1022 ;
C 25 ; WX 1000 ; N enc-25 ; B -23 -25 1023 1025 ;
C 26 ; WX 1000 ; N enc-26 ; B -28 -28 1028 1028 ;
C 27 ; WX 1000 ; N enc-27 ; B -34 -35 1034 1035 ;
C 28 ; WX 1000 ; N enc-28 ; B -37 -33 1036 1034 ;
C 29 ; WX 1000 ; N enc-29 ; B -28 -28 1028 1028 ;
C 30 ; WX 1000 ; N enc-30 ; B -35 -34 1035 1034 ;
C 31 ; WX 1000 ; N enc-31 ; B -33 -37 1033 1037 ;
C 32 ; WX 1000 ; N enc-32 ; B 0 0 1000 1000 ;
C 33 ; WX 1000 ; N enc-33 ; B -156 -156 1155 1156 ;
C 34 ; WX 1000 ; N enc-34 ; B -6 -6 1009 1010 ;
C 35 ; WX 1000 ; N enc-35 ; B -9 -9 1012 1012 ;
C 36 ; WX 1000 ; N enc-36 ; B -9 -8 1010 1011 ;
C 37 ; WX 1414 ; N enc-37 ; B -12 -12 1425 1425 ;
C 38 ; WX 1000 ; N enc-38 ; B -9 -8 1010 1011 ;
C 39 ; WX 1414 ; N enc-39 ; B -12 -12 1425 1425 ;
C 40 ; WX 1000 ; N enc-40 ; B -9 -8 1010 1011 ;
C 41 ; WX 1414 ; N enc-41 ; B -12 -12 1425 1425 ;
C 42 ; WX 1000 ; N enc-42 ; B -9 -8 1010 1011 ;
C 43 ; WX 1414 ; N enc-43 ; B -12 -12 1425 1425 ;
C 44 ; WX 1000 ; N enc-44 ; B -9 -8 1010 1011 ;
C 45 ; WX 1414 ; N enc-45 ; B -12 -12 1425 1425 ;
C 46 ; WX 1000 ; N enc-46 ; B -9 -8 1010 1011 ;
C 47 ; WX 1414 ; N enc-47 ; B -12 -12 1425 1425 ;
C 48 ; WX 1000 ; N enc-48 ; B -9 -8 1010 1011 ;
C 49 ; WX 1414 ; N enc-49 ; B -12 -12 1425 1425 ;
C 50 ; WX 1000 ; N enc-50 ; B -9 -8 1010 1011 ;
C 51 ; WX 1414 ; N enc-51 ; B -12 -12 1425 1425 ;
C 52 ; WX 1000 ; N enc-52 ; B -9 -8 1010 1011 ;
C 53 ; WX 2000 ; N enc-53 ; B -9 -8 2011 1011 ;
C 54 ; WX 1707 ; N enc-54 ; B 52 52 1656 1656 ;
C 55 ; WX 1000 ; N enc-55 ; B -8 -9 1010 2011 ;
C 56 ; WX 1707 ; N enc-56 ; B 52 52 1656 1656 ;
C 57 ; WX 1000 ; N enc-57 ; B -9 -8 1011 1012 ;
C 58 ; WX 1000 ; N enc-58 ; B -9 -7 1010 1011 ;
C 59 ; WX 1000 ; N enc-59 ; B -8 -7 1010 1011 ;
C 60 ; WX 1000 ; N enc-60 ; B -9 -9 1011 1012 ;
C 61 ; WX 1000 ; N enc-61 ; B -9 -7 1011 1012 ;
C 62 ; WX 1000 ; N enc-62 ; B -9 -7 1012 1011 ;
C 63 ; WX 1000 ; N enc-63 ; B -7 -9 1011 1011 ;
C 64 ; WX 1000 ; N enc-64 ; B -7 -7 1012 1011 ;
C 65 ; WX 2000 ; N enc-65 ; B -10 -15 2014 1011 ;
C 66 ; WX 2000 ; N enc-66 ; B -14 -15 2012 1011 ;
C 67 ; WX 1000 ; N enc-67 ; B -8 -10 1015 2014 ;
C 68 ; WX 1000 ; N enc-68 ; B -7 -14 1015 2012 ;
C 69 ; WX 2000 ; N enc-69 ; B -14 -7 2012 1015 ;
C 70 ; WX 2000 ; N enc-70 ; B -9 -7 2015 1014 ;
C 71 ; WX 1000 ; N enc-71 ; B -15 -14 1010 2012 ;
C 72 ; WX 1000 ; N enc-72 ; B -15 -10 1010 2014 ;
C 73 ; WX 2000 ; N enc-73 ; B -9 -9 2012 1012 ;
C 74 ; WX 1000 ; N enc-74 ; B -9 -7 1012 2011 ;
C 75 ; WX 1000 ; N enc-75 ; B -7 -7 1010 1010 ;
C 76 ; WX 1000 ; N enc-76 ; B -9 -8 1010 1011 ;
C 77 ; WX 1000 ; N enc-77 ; B -216 -216 1215 1216 ;
C 78 ; WX 1000 ; N enc-78 ; B -8 -9 1011 1011 ;
C 79 ; WX 1000 ; N enc-79 ; B -7 -7 1010 1011 ;
C 80 ; WX 1000 ; N enc-80 ; B -8 -8 1011 1011 ;
C 81 ; WX 1000 ; N enc-81 ; B -8 -7 1010 1011 ;
C 82 ; WX 1000 ; N enc-82 ; B -9 -8 1010 1012 ;
C 83 ; WX 1000 ; N enc-83 ; B -8 -8 1011 1011 ;
C 84 ; WX 1000 ; N enc-84 ; B -7 -7 1010 1011 ;
C 85 ; WX 1000 ; N enc-85 ; B -9 -8 1011 1011 ;
C 86 ; WX 2000 ; N enc-86 ; B -8 8 2000 992 ;
C 87 ; WX 2000 ; N enc-87 ; B 0 8 2012 992 ;
C 88 ; WX 1000 ; N enc-88 ; B 8 -8 992 2000 ;
C 89 ; WX 1000 ; N enc-89 ; B 8 0 992 2012 ;
C 90 ; WX 2000 ; N enc-90 ; B 0 8 2011 992 ;
C 91 ; WX 2000 ; N enc-91 ; B -9 8 2000 992 ;
C 92 ; WX 1000 ; N enc-92 ; B 8 0 992 2011 ;
C 93 ; WX 1000 ; N enc-93 ; B 8 -8 992 2000 ;
C 94 ; WX 1000 ; N enc-94 ; B 91 -7 1011 911 ;
C 95 ; WX 1000 ; N enc-95 ; B -7 91 1011 911 ;
C 96 ; WX 1000 ; N enc-96 ; B -7 -7 910 911 ;
C 97 ; WX 1000 ; N enc-97 ; B 91 -7 911 1011 ;
C 98 ; WX 1000 ; N enc-98 ; B -7 92 911 1011 ;
C 99 ; WX 1000 ; N enc-99 ; B -9 92 1011 912 ;
C 100 ; WX 1000 ; N enc-100 ; B 91 92 1011 1012 ;
C 101 ; WX 1000 ; N enc-101 ; B 91 -7 910 1012 ;
EndCharMetrics
EndFontMetrics
