%!PS-Adobe-3.0 EPSF-3.0
%%Creator: 0.46
%%Pages: 1
%%Orientation: Portrait
%%BoundingBox: 25 639 210 817
%%HiResBoundingBox: 25.793577 639.09093 209.41296 816.90907
%%EndComments
%%Page: 1 1
0 842 translate
0.8 -0.8 scale
0 0 0 setrgbcolor
[] 0 setdash
1 setlinewidth
0 setlinejoin
0 setlinecap
gsave [1 0 0 1 0 0] concat
gsave
0 0 0 setrgbcolor
newpath
104.3451 250.16296 moveto
102.82769 248.23388 101.16408 244.27422 100.6482 241.36373 curveto
98.768407 230.75857 99.050542 231.00972 92.405023 234.02669 curveto
75.612151 241.65036 70.911975 232.40886 77.334293 204.39472 curveto
78.843209 197.81289 80.094024 191.63584 80.113901 190.66793 curveto
80.140171 189.38842 76.710417 188.90808 67.548445 188.90808 curveto
46.319086 188.90808 35.097971 184.91656 35.097971 177.36495 curveto
35.097971 175.6047 38.441579 171.03519 43.242612 166.23413 curveto
51.387253 158.08949 lineto
45.74925 155.54837 lineto
32.156426 149.42188 28.51036 141.6158 36.236482 135.18193 curveto
38.411329 133.37085 46.964159 129.36236 55.242813 126.27414 curveto
63.521467 123.18597 70.294895 120.12045 70.294895 119.46192 curveto
70.294895 118.80341 67.426975 114.99467 63.921719 110.99805 curveto
56.802928 102.8814 50.584625 91.487615 50.584625 86.560573 curveto
50.584625 84.77679 51.930013 81.971918 53.574374 80.327558 curveto
56.230944 77.670965 57.729307 77.412597 67.020441 78.008861 curveto
76.227241 78.599715 77.360765 78.410231 76.505865 76.423012 curveto
75.971868 75.181699 75.228488 70.500662 74.853903 66.020688 curveto
73.466571 49.428322 82.48525 48.086332 105.96149 61.391924 curveto
113.57594 65.707565 119.99678 69.238534 120.23 69.238534 curveto
120.46324 69.238534 121.0781 65.595642 121.59641 61.143236 curveto
123.74776 42.661981 129.23679 31.225849 135.95592 31.225849 curveto
141.48518 31.225849 144.46129 33.527622 148.70771 41.088228 curveto
150.87914 44.954319 152.99428 48.118147 153.40806 48.118929 curveto
153.82187 48.119712 155.22703 46.314778 156.53063 44.107959 curveto
160.28021 37.760472 167.68326 31.225849 171.12481 31.225849 curveto
174.39347 31.225849 177.73646 33.831533 180.07583 38.202712 curveto
180.82161 39.596215 182.77589 48.258063 184.41867 57.451225 curveto
186.06141 66.644408 187.51451 74.280071 187.64769 74.419361 curveto
187.7809 74.558628 192.87105 72.475874 198.95914 69.790975 curveto
218.88181 61.004886 228.85133 60.621156 232.44217 68.502151 curveto
233.96584 71.846229 233.21337 76.779376 229.83792 85.57566 curveto
229.25842 87.08585 230.6179 87.540925 235.70905 87.540925 curveto
244.13076 87.540925 251.67765 91.048372 252.78973 95.479224 curveto
254.24982 101.2968 250.42998 107.56349 238.15299 119.49159 curveto
226.27907 131.028 lineto
239.447 137.20809 lineto
254.015 144.04523 261.7662 150.76203 261.7662 156.54876 curveto
261.7662 161.07888 257.08854 165.71178 250.05656 168.14632 curveto
244.80741 169.96362 lineto
249.066 175.75441 lineto
254.8096 183.56443 255.72968 188.7664 252.14895 193.18431 curveto
249.49001 196.46494 248.55619 196.65091 234.78633 196.64221 curveto
226.78246 196.63714 217.14271 196.1629 213.36469 195.58832 curveto
206.49559 194.54363 lineto
207.72629 204.74871 lineto
208.40311 210.36151 208.96005 219.18022 208.96386 224.34585 curveto
208.96983 232.40549 208.47678 234.26343 205.48846 237.44237 curveto
201.45933 241.72848 197.96149 241.42747 189.80345 236.09266 curveto
184.71492 232.76507 lineto
183.11661 238.09956 lineto
180.78115 245.89467 176.39828 250.85465 171.84559 250.85465 curveto
167.32747 250.85465 161.30248 244.93874 151.41338 230.7924 curveto
147.75958 225.56568 144.32696 221.29954 143.78534 221.31209 curveto
143.24373 221.32469 139.68472 225.77244 135.87644 231.196 curveto
121.49882 251.67197 110.66044 258.19157 104.34513 250.16296 curveto
104.3451 250.16296 lineto
closepath
115.77202 243.78313 moveto
117.76329 242.2168 123.64099 235.14697 128.83356 228.07245 curveto
137.6691 216.03457 138.10899 215.08858 135.69288 213.32188 curveto
131.1326 209.98731 126.17539 211.22431 116.45846 218.12153 curveto
107.55821 224.43903 107.03369 225.12045 106.97623 230.44045 curveto
106.90596 236.94804 109.31221 246.63104 110.99965 246.63104 curveto
111.63317 246.63104 113.78071 245.34948 115.772 243.78313 curveto
115.77202 243.78313 lineto
closepath
176.71189 233.09941 moveto
177.81952 227.19544 175.85428 224.6278 166.35156 219.56344 curveto
158.59797 215.43129 152.43661 213.73428 151.3821 215.44048 curveto
150.97389 216.101 152.65313 219.42943 155.11377 222.837 curveto
157.5744 226.24453 162.08597 232.46475 165.13945 236.65962 curveto
170.69121 244.2867 lineto
173.2435 241.13479 lineto
174.64726 239.40121 176.20805 235.78531 176.71193 233.09943 curveto
176.71189 233.09941 lineto
closepath
201.22748 223.1644 moveto
201.22748 218.00111 200.52358 209.73447 199.66325 204.79412 curveto
198.14137 196.05507 198.01739 195.86532 195.08766 197.79237 curveto
191.58184 200.09827 188.90788 207.24649 187.69699 217.54921 curveto
186.84911 224.76309 186.8993 224.8857 192.25703 228.6978 curveto
200.38601 234.48167 201.22748 233.96265 201.22748 223.1644 curveto
closepath
94.378 224.49688 moveto
98.007029 222.35314 98.265219 221.64669 97.577109 215.74361 curveto
96.031124 202.48112 94.013811 194.78141 91.485709 192.49349 curveto
90.050821 191.19496 88.577164 190.64896 88.210919 191.28015 curveto
86.524906 194.18569 81.136642 225.20008 81.949734 227.31896 curveto
82.955103 229.93886 86.545587 229.12356 94.377978 224.49688 curveto
94.378 224.49688 lineto
closepath
181.44381 209.16065 moveto
183.44919 199.07174 188.98997 190.96754 194.89573 189.48528 curveto
196.97548 188.96331 198.38094 187.30216 198.888 184.76684 curveto
200.15035 178.45493 206.3179 172.41829 214.71357 169.27709 curveto
218.96928 167.68483 223.85296 166.3662 225.56616 166.34684 curveto
228.33059 166.31558 228.02788 165.69495 222.87527 160.83019 curveto
211.58245 150.16829 209.25027 144.63511 212.47473 136.15412 curveto
213.57097 133.27074 213.41033 132.31734 211.71875 131.66822 curveto
208.87712 130.57778 205.4511 123.79134 205.4511 119.25294 curveto
205.4511 117.25933 207.60119 111.35864 210.22911 106.14034 curveto
215.00713 96.652501 lineto
204.67369 97.174314 lineto
195.86717 97.619035 193.7172 97.252499 190.12379 94.693767 curveto
187.80478 93.042454 185.5104 90.440772 185.02526 88.912226 curveto
184.30659 86.647881 182.87674 86.133045 177.30672 86.133045 curveto
169.36959 86.133045 163.75733 82.266954 157.59992 72.557726 curveto
153.8663 66.670366 lineto
149.91725 71.61952 lineto
145.28536 77.424469 138.74132 80.501549 131.02771 80.501549 curveto
126.83413 80.501549 124.41308 81.516777 120.99726 84.707637 curveto
114.67246 90.615857 107.71044 92.426649 97.850769 90.727959 curveto
90.733498 89.501738 89.966264 89.598749 90.844506 91.613669 curveto
91.386954 92.858157 92.493091 96.874314 93.302627 100.53845 curveto
95.029287 108.3538 92.508025 115.40149 86.600878 119.27201 curveto
83.769313 121.12734 83.242939 122.36371 83.895523 125.62659 curveto
85.366519 132.9816 83.180828 138.82904 75.912395 146.98406 curveto
68.577984 155.21303 67.831832 156.52689 70.492673 156.52689 curveto
73.68816 156.52689 83.728084 162.44242 86.199956 165.78168 curveto
87.591604 167.66159 89.09455 172.27616 89.539898 176.0363 curveto
90.193844 181.55815 91.095943 183.31379 94.230593 185.16547 curveto
99.156183 188.07511 102.13055 194.34962 103.95527 205.68025 curveto
104.74737 210.59864 105.69268 214.91998 106.05598 215.28331 curveto
106.41932 215.64662 110.34539 213.34531 114.78063 210.1693 curveto
121.41919 205.41553 123.9864 204.39566 129.30296 204.39999 curveto
133.15488 204.40312 137.52606 205.48145 140.13438 207.07194 curveto
142.97932 208.80677 145.19332 209.30443 146.46982 208.49613 curveto
151.56352 205.27073 166.39293 209.23056 175.18175 216.16293 curveto
176.73041 217.3845 178.35642 218.40409 178.7951 218.42873 curveto
179.23381 218.45335 180.42575 214.28271 181.44384 209.16065 curveto
181.44381 209.16065 lineto
closepath
244.05258 189.46138 moveto
247.67647 188.07075 246.62534 184.02657 241.00001 177.71661 curveto
235.72047 171.79455 lineto
225.47761 174.13684 lineto
215.29705 176.46488 206.85898 181.557 206.85898 185.37262 curveto
206.85898 188.0814 238.56552 191.56698 244.05258 189.46138 curveto
closepath
81.557933 176.87387 moveto
81.557933 170.56628 77.303328 166.40215 67.730998 163.34105 curveto
60.685787 161.08807 lineto
52.115518 168.02261 lineto
47.40186 171.83661 43.545249 175.84999 43.545249 176.94124 curveto
43.545249 179.20418 48.505112 180.27677 61.84764 180.89925 curveto
66.880815 181.13405 73.374635 181.44822 76.278372 181.59742 curveto
81.438072 181.86256 81.557933 181.75531 81.557933 176.8739 curveto
81.557933 176.87387 lineto
closepath
246.61787 161.36128 moveto
254.95181 158.5216 255.80877 156.08756 250.02715 151.67773 curveto
245.02107 147.85935 224.74409 138.22451 221.71434 138.22451 curveto
218.9839 138.22451 217.89303 142.16621 219.64059 145.71783 curveto
221.44124 149.3772 236.4837 163.48337 238.6374 163.53214 curveto
239.46739 163.55091 243.05857 162.57402 246.61782 161.36127 curveto
246.61787 161.36128 lineto
closepath
67.214149 145.12667 moveto
73.796753 138.54403 78.770568 129.33635 76.805327 127.37111 curveto
75.128683 125.69446 39.32161 140.30231 39.32161 142.66296 curveto
39.32161 144.03126 55.755525 152.30022 58.478789 152.30216 curveto
59.336082 152.30277 63.266989 149.0738 67.214127 145.12667 curveto
67.214149 145.12667 lineto
closepath
231.08703 116.05043 moveto
237.26567 110.04936 243.23196 103.3892 244.34549 101.2501 curveto
246.28323 97.527591 246.20599 97.298399 242.54379 95.906037 curveto
240.43932 95.105936 235.50899 94.6387 231.58747 94.867779 curveto
224.45746 95.28424 lineto
218.24943 107.50762 lineto
212.20286 119.41311 212.10302 119.82497 214.41025 123.34623 curveto
215.71304 125.33459 217.47073 126.96148 218.31613 126.96148 curveto
219.16155 126.96148 224.90846 122.0515 231.08705 116.05043 curveto
231.08703 116.05043 lineto
closepath
83.614484 111.28374 moveto
87.756494 106.36124 87.590911 102.35431 82.858986 93.003976 curveto
80.762884 88.862056 79.096792 87.609988 73.9601 86.316559 curveto
66.995354 84.562823 59.987258 84.239125 58.618415 85.607945 curveto
56.927819 87.298542 61.939843 96.491368 69.770624 106.06289 curveto
74.106343 111.36248 78.159101 115.69847 78.776761 115.69847 curveto
79.394399 115.69847 81.571393 113.71184 83.614484 111.28374 curveto
83.614484 111.28374 lineto
closepath
211.04249 89.434777 moveto
219.70495 88.529391 219.90954 88.409776 222.48112 82.747381 curveto
223.92124 79.576354 225.11346 75.473985 225.13047 73.63102 curveto
225.15922 70.515283 224.73921 70.327789 219.14404 70.95844 curveto
215.8345 71.33146 207.76204 74.140446 201.20519 77.200599 curveto
189.28372 82.764507 lineto
193.07976 86.560596 lineto
197.20361 90.684429 197.94759 90.803463 211.04251 89.434799 curveto
211.04249 89.434777 lineto
closepath
114.58399 80.149568 moveto
118.20168 76.981849 lineto
103.87635 68.90426 lineto
87.178676 59.488949 82.421308 58.340087 81.940678 63.607014 curveto
81.764028 65.542855 82.714353 70.294275 84.052498 74.165732 curveto
86.78399 82.068371 88.425622 82.848954 102.94954 83.150719 curveto
109.40263 83.284821 111.67196 82.699423 114.58399 80.149568 curveto
closepath
179.34033 77.791006 moveto
180.16278 76.46026 176.8119 54.478289 174.33447 44.952642 curveto
172.1639 36.606601 168.41597 38.298873 161.31187 50.832648 curveto
157.77959 57.06461 lineto
160.69072 62.799602 lineto
166.91097 75.053767 176.34513 82.637358 179.34035 77.791006 curveto
179.34033 77.791006 lineto
closepath
138.53923 71.456843 moveto
141.72124 70.127306 144.32431 67.51943 146.2635 63.718313 curveto
149.18834 57.985132 lineto
145.79029 51.279471 lineto
143.92142 47.591349 141.14917 43.038601 139.62976 41.162211 curveto
136.86724 37.750635 lineto
134.45307 41.435068 lineto
132.20942 44.859297 128.17896 63.073442 128.067 70.294432 curveto
128.00833 74.078402 131.37145 74.451734 138.5392 71.456821 curveto
138.53923 71.456843 lineto
closepath
fill
grestore
grestore
showpage
%%EOF
