%!PS-Adobe-3.0 EPSF-3.0
%%BoundingBox: 0 0 72 158 
%%HiResBoundingBox: 0.8117 0.1664 71.81319 157.123 
%%Creator: MetaPost 2.00
%%CreationDate: 2019.05.12:0351
%%Pages: 1
%%DocumentFonts: Helvetica
%%BeginProlog
 /phvr /Helvetica def
/fshow {exch findfont exch scalefont setfont show}bind def
%%EndProlog
%%Page: 1 1
 0.1 0.1 0.1 setrgbcolor
newpath 69.60161 30.89839 moveto
69.60161 30.89839 lineto
69.60161 65.10161 lineto
49.8008 99.3008 lineto
3 30.89839 lineto
 closepath fill
 0 0 0 setrgbcolor 0 0.45 dtransform truncate idtransform setlinewidth pop [] 0 setdash 0 setlinecap
 0 setlinejoin 10 setmiterlimit
newpath 69.60161 30.89839 moveto
69.60161 30.89839 lineto
69.60161 65.10161 lineto
49.8008 99.3008 lineto
3 30.89839 lineto stroke
 0.8 0.8 0.8 setrgbcolor
newpath 3 30.89839 moveto
3 58.8008 lineto
7.5 65.10161 lineto
12 58.8008 lineto
21.89839 73.1992 lineto
28.1992 64.1992 lineto
32.6992 70.5 lineto
55.1992 30.89839 lineto
3 30.89839 lineto
 closepath fill
 1 1 1 setrgbcolor
newpath 7.5 64.1992 moveto
12 57.89839 lineto
21.89839 72.3008 lineto
28.1992 63.3008 lineto
32.6992 69.60161 lineto
22.8008 86.6992 lineto
7.5 65.10161 lineto
12 57.89839 lineto
 closepath fill
 0 0 0 setrgbcolor
newpath 55.1992 30.89839 moveto
22.8008 87.60161 lineto
3 58.8008 lineto stroke
newpath 69.60161 30.89839 moveto
3 30.89839 lineto
3 156.898 lineto
69.60161 156.898 lineto
 closepath stroke
 0.9 0.9 0.9 setrgbcolor
newpath 66.89839 82.1992 moveto
66.89839 77.2305 62.4648 73.1992 57 73.1992 curveto
51.5352 73.1992 47.10161 77.2305 47.10161 82.1992 curveto
47.10161 87.168 51.5352 91.1992 57 91.1992 curveto
62.4648 91.1992 66.89839 87.168 66.89839 82.1992 curveto
 closepath fill
 0 0 0 setrgbcolor
0.87616 19.2 moveto
(A\040\040\040\040M\040\040\040\040I\040\040\040\040\040S) phvr 11.70006 fshow
0.8117 9.30005 moveto
(MONTAGNARDS) phvr 9.00006 fshow
2.54608 0.30005 moveto
(G\040\040\040E\040\040\040N\040\040\040E\040\040\040V\040\040\040E) phvr 8.09996 fshow
showpage
%%EOF
