SplineFontDB: 3.2
FontName: Plimsoll-Sans
FullName: Plimsoll Sans
FamilyName: Plimsoll
Weight: Regular
Copyright: Copyright (c) 2020, Palle Jorgensen\n\nThis file is part of the LaTeX plimsoll package.\n\nthe LaTeX plimsoll package is free software: you can redistribute it\nand/or modify it under the terms of the GNU General Public License\nas published by the Free Software Foundation, either version 3 of\nthe License, or (at your option) any later version.\n\nThe LaTeX plimsoll package is distributed in the hope that it will\nbe useful, but WITHOUT ANY WARRANTY; without even the implied\nwarranty of MERCHANTABILITY or FITNESS FOR A PARTICULAR PURPOSE. See\nthe GNU General Public License for more details.\n\nYou should have received a copy of the GNU General Public License\nalong with the LaTeX plimsoll package. If not, see\n<https://www.gnu.org/licenses/>.\n
UComments: "2020-10-7: Created with FontForge (http://fontforge.org)"
Version: 001.000
DefaultBaseFilename: plimsoll-sans
ItalicAngle: 0
UnderlinePosition: -100
UnderlineWidth: 50
Ascent: 800
Descent: 200
InvalidEm: 0
LayerCount: 2
Layer: 0 0 "Back" 1
Layer: 1 0 "Fore" 0
XUID: [1021 259 529409426 15502714]
OS2Version: 0
OS2_WeightWidthSlopeOnly: 0
OS2_UseTypoMetrics: 1
CreationTime: 1602061044
ModificationTime: 1602182764
OS2TypoAscent: 0
OS2TypoAOffset: 1
OS2TypoDescent: 0
OS2TypoDOffset: 1
OS2TypoLinegap: 0
OS2WinAscent: 0
OS2WinAOffset: 1
OS2WinDescent: 0
OS2WinDOffset: 1
HheadAscent: 0
HheadAOffset: 1
HheadDescent: 0
HheadDOffset: 1
OS2Vendor: 'PfEd'
MarkAttachClasses: 1
DEI: 91125
Encoding: Custom
UnicodeInterp: none
NameList: AGL For New Fonts
DisplaySize: -48
AntiAlias: 1
FitToEm: 0
WinInfo: 0 37 14
BeginPrivate: 0
EndPrivate
TeXData: 1 0 0 346030 173015 115343 0 1048576 115343 783286 444596 497025 792723 393216 433062 380633 303038 157286 324010 404750 52429 2506097 1059062 262144
BeginChars: 256 1

StartChar: CIRCLE_WITH_HORIZONTAL_BAR
Encoding: 1 10677 0
Width: 757
Flags: W
HStem: 64 73<299.723 457.686> 265 63<66 153.929 225.023 532.767 604.025 692> 455 73<297.756 457.976>
VStem: 150.342 74.4678<212.551 265 328 380.989> 532.997 74.6611<213.502 265 328 380.117>
LayerCount: 2
Fore
SplineSet
379 455 m 0
 302.97265625 455 257.014648438 409.809570312 232 357 c 0
 229.157226562 349.28515625 226.809570312 336.240234375 225.0234375 328 c 1
 532.766601562 328 l 1
 520.237304688 381.51171875 486.756835938 422.532226562 439 443 c 0
 422 451 402 455 379 455 c 0
379 528 m 0
 451.481445312 528 503.498046875 498.501953125 542 460 c 0
 576.713867188 425.286132812 599.5390625 382.317382812 607.391601562 328 c 1
 692 328 l 1
 692 265 l 1
 607.658203125 265 l 1
 595.736328125 179.940429688 537.084960938 111.036132812 467 81 c 0
 440 70 411 64 379 64 c 0
 306.518554688 64 254.501953125 93.498046875 216 132 c 0
 181.233398438 166.766601562 157.977539062 210.5234375 150.341796875 265 c 1
 66 265 l 1
 66 328 l 1
 150.608398438 328 l 1
 162.848632812 412.665039062 221.037109375 481.015625 291 511 c 0
 318 522 347 528 379 528 c 0
224.809570312 265 m 1
 236.28125 210.58984375 271.596679688 169.881835938 318 149 c 0
 336 141 356 137 379 137 c 0
 462.091796875 137 517.556640625 197.05078125 532.997070312 265 c 1
 224.809570312 265 l 1
EndSplineSet
Validated: 1
EndChar
EndChars
EndSplineFont
