StartFontMetrics 2.0
Comment Generated by FontForge 20190801
Comment Creation Date: Wed Oct  7 20:10:07 2020
FontName Plimsoll
FullName Plimsoll
FamilyName Plimsoll
Weight Regular
Notice (Copyright (c) 2020, Palle Jorgensen)
ItalicAngle 0
IsFixedPitch true
UnderlinePosition -100
UnderlineThickness 50
Version 001.000
EncodingScheme FontSpecific
FontBBox 63 56 594 444
StartCharMetrics 1
C 1 ; WX 657 ; N CIRCLE_WITH_HORIZONTAL_BAR ; B 63 56 594 444 ;
EndCharMetrics
EndFontMetrics
