% X1  X2      Y1      Y2
  2   55.1500 10.35   11.26
 31   59.7167 11.06   11.11
 34   65.7167 11.87   10.83
 40   62.1833 11.59   11.19
 45   56.0500 10.74   11.50
 47   68.2667 12.65   11.11
 52   69.7500 13.23   11.38
 55   76.3333 14.28   11.22
 59   75.4000 14.69   11.69
 62   78.6000 15.25   11.64
 66   69.3167 14.06   12.17
 69   77.5500 15.24   11.79
 73   70.8833 14.52   12.29
 75   60.6167 13.10   12.97
 79   68.3833 14.43   12.66
 82   56.6833 12.05   12.75
 87   95.1333 21.10   13.31
