#FIG 3.2
Landscape
Center
Metric
A4      
100.00
Single
-2
1200 2
5 1 0 2 0 7 49 0 -1 0.000 0 0 0 0 -867.857 3696.428 1440 1395 1845 1890 2205 2610
5 1 0 2 0 7 49 0 -1 0.000 0 0 0 0 3293.654 3120.577 1395 2565 1710 1935 2250 1440
6 1395 1440 2205 1755
2 1 0 2 0 7 50 0 -1 0.000 0 0 -1 0 0 2
	 1440 1485 2160 1485
2 1 0 2 0 7 50 0 -1 0.000 0 0 -1 0 0 2
	 1440 1530 2160 1530
2 1 0 2 0 7 50 0 -1 0.000 0 0 -1 0 0 2
	 1440 1575 2160 1575
2 1 0 2 0 7 50 0 -1 0.000 0 0 -1 0 0 2
	 1440 1620 2160 1620
2 1 0 2 0 7 50 0 -1 0.000 0 0 -1 0 0 2
	 1440 1665 2160 1665
2 1 0 2 0 7 50 0 -1 0.000 0 0 -1 0 0 2
	 1440 1710 1845 1710
-6
2 2 0 1 0 7 50 0 -1 0.000 0 0 -1 0 0 5
	 1350 1350 2295 1350 2295 2700 1350 2700 1350 1350
2 2 0 1 0 7 50 0 -1 0.000 0 0 -1 0 0 5
	 1440 1485 2160 1485 2160 2520 1440 2520 1440 1485
2 1 0 2 0 7 50 0 -1 0.000 0 0 -1 0 0 2
	 1485 2205 2160 2205
2 1 0 2 0 7 50 0 -1 0.000 0 0 -1 0 0 2
	 1440 2250 2160 2250
2 1 0 2 0 7 50 0 -1 0.000 0 0 -1 0 0 2
	 1440 2340 2025 2340
2 1 0 2 0 7 50 0 -1 0.000 0 0 -1 0 0 2
	 1485 2385 2160 2385
2 1 0 2 0 7 50 0 -1 0.000 0 0 -1 0 0 2
	 1440 2430 2160 2430
2 1 0 2 0 7 50 0 -1 0.000 0 0 -1 0 0 2
	 1440 2475 2160 2475
2 1 0 2 0 7 50 0 -1 0.000 0 0 -1 0 0 2
	 1440 2520 2160 2520
2 1 0 2 0 7 50 0 -1 0.000 0 0 -1 0 0 2
	 1440 2295 2160 2295
2 2 0 2 0 0 50 0 10 0.000 0 0 -1 0 0 5
	 1530 1800 2070 1800 2070 2115 1530 2115 1530 1800
