%!PS-Adobe-2.0 EPSF-2.0
%%Title: bild_oben_unten.eps
%%Creator: fig2dev Version 3.2.3 Patchlevel 
%%CreationDate: Tue Oct  9 23:00:01 2001
%%For: harders@dose (Harald Harders)
%%BoundingBox: 0 0 62 87
%%Magnification: 1.0000
%%EndComments
/$F2psDict 200 dict def
$F2psDict begin
$F2psDict /mtrx matrix put
/col-1 {0 setgray} bind def
/col0 {0.000 0.000 0.000 srgb} bind def
/col1 {0.000 0.000 1.000 srgb} bind def
/col2 {0.000 1.000 0.000 srgb} bind def
/col3 {0.000 1.000 1.000 srgb} bind def
/col4 {1.000 0.000 0.000 srgb} bind def
/col5 {1.000 0.000 1.000 srgb} bind def
/col6 {1.000 1.000 0.000 srgb} bind def
/col7 {1.000 1.000 1.000 srgb} bind def
/col8 {0.000 0.000 0.560 srgb} bind def
/col9 {0.000 0.000 0.690 srgb} bind def
/col10 {0.000 0.000 0.820 srgb} bind def
/col11 {0.530 0.810 1.000 srgb} bind def
/col12 {0.000 0.560 0.000 srgb} bind def
/col13 {0.000 0.690 0.000 srgb} bind def
/col14 {0.000 0.820 0.000 srgb} bind def
/col15 {0.000 0.560 0.560 srgb} bind def
/col16 {0.000 0.690 0.690 srgb} bind def
/col17 {0.000 0.820 0.820 srgb} bind def
/col18 {0.560 0.000 0.000 srgb} bind def
/col19 {0.690 0.000 0.000 srgb} bind def
/col20 {0.820 0.000 0.000 srgb} bind def
/col21 {0.560 0.000 0.560 srgb} bind def
/col22 {0.690 0.000 0.690 srgb} bind def
/col23 {0.820 0.000 0.820 srgb} bind def
/col24 {0.500 0.190 0.000 srgb} bind def
/col25 {0.630 0.250 0.000 srgb} bind def
/col26 {0.750 0.380 0.000 srgb} bind def
/col27 {1.000 0.500 0.500 srgb} bind def
/col28 {1.000 0.630 0.630 srgb} bind def
/col29 {1.000 0.750 0.750 srgb} bind def
/col30 {1.000 0.880 0.880 srgb} bind def
/col31 {1.000 0.840 0.000 srgb} bind def

end
save
newpath 0 87 moveto 0 0 lineto 62 0 lineto 62 87 lineto closepath clip newpath
-84.0 171.0 translate
1 -1 scale

/cp {closepath} bind def
/ef {eofill} bind def
/gr {grestore} bind def
/gs {gsave} bind def
/sa {save} bind def
/rs {restore} bind def
/l {lineto} bind def
/m {moveto} bind def
/rm {rmoveto} bind def
/n {newpath} bind def
/s {stroke} bind def
/sh {show} bind def
/slc {setlinecap} bind def
/slj {setlinejoin} bind def
/slw {setlinewidth} bind def
/srgb {setrgbcolor} bind def
/rot {rotate} bind def
/sc {scale} bind def
/sd {setdash} bind def
/ff {findfont} bind def
/sf {setfont} bind def
/scf {scalefont} bind def
/sw {stringwidth} bind def
/tr {translate} bind def
/tnt {dup dup currentrgbcolor
  4 -2 roll dup 1 exch sub 3 -1 roll mul add
  4 -2 roll dup 1 exch sub 3 -1 roll mul add
  4 -2 roll dup 1 exch sub 3 -1 roll mul add srgb}
  bind def
/shd {dup dup currentrgbcolor 4 -2 roll mul 4 -2 roll mul
  4 -2 roll mul srgb} bind def
/$F2psBegin {$F2psDict begin /$F2psEnteredState save def} def
/$F2psEnd {$F2psEnteredState restore end} def

$F2psBegin
%%Page: 1 1
10 setmiterlimit
 0.06299 0.06299 sc
% Polyline
7.500 slw
n 1350 1350 m 2295 1350 l 2295 2700 l 1350 2700 l
 cp gs col0 s gr 
% Polyline
n 1440 1485 m 2160 1485 l 2160 2520 l 1440 2520 l
 cp gs col0 s gr 
% Polyline
15.000 slw
n 1440 1935 m
 2160 1935 l gs col0 s gr 
% Polyline
n 1440 1980 m
 2160 1980 l gs col0 s gr 
% Polyline
n 1440 2025 m
 2160 2025 l gs col0 s gr 
% Polyline
n 1440 2070 m
 2160 2070 l gs col0 s gr 
% Polyline
n 1440 2115 m
 2160 2115 l gs col0 s gr 
% Polyline
n 1440 2160 m
 1845 2160 l gs col0 s gr 
% Polyline
n 1485 2205 m
 2160 2205 l gs col0 s gr 
% Polyline
n 1440 2250 m
 2160 2250 l gs col0 s gr 
% Polyline
n 1530 1485 m 2070 1485 l 2070 1800 l 1530 1800 l
 cp gs 0.50 setgray ef gr gs col0 s gr 
% Polyline
n 1620 2520 m 1980 2520 l 1980 2340 l 1620 2340 l
 cp gs 0.50 setgray ef gr gs col0 s gr 
$F2psEnd
rs
