#FIG 3.2
Landscape
Center
Metric
A4      
100.00
Single
-2
1200 2
6 1575 1440 2385 1755
2 1 0 2 0 7 50 0 -1 0.000 0 0 -1 0 0 2
	 1620 1485 2340 1485
2 1 0 2 0 7 50 0 -1 0.000 0 0 -1 0 0 2
	 1620 1530 2340 1530
2 1 0 2 0 7 50 0 -1 0.000 0 0 -1 0 0 2
	 1620 1575 2340 1575
2 1 0 2 0 7 50 0 -1 0.000 0 0 -1 0 0 2
	 1620 1620 2340 1620
2 1 0 2 0 7 50 0 -1 0.000 0 0 -1 0 0 2
	 1620 1665 2340 1665
2 1 0 2 0 7 50 0 -1 0.000 0 0 -1 0 0 2
	 1620 1710 2025 1710
-6
6 1575 2340 2385 2565
2 1 0 2 0 7 50 0 -1 0.000 0 0 -1 0 0 2
	 1665 2385 2340 2385
2 1 0 2 0 7 50 0 -1 0.000 0 0 -1 0 0 2
	 1620 2430 2340 2430
2 1 0 2 0 7 50 0 -1 0.000 0 0 -1 0 0 2
	 1620 2475 2340 2475
2 1 0 2 0 7 50 0 -1 0.000 0 0 -1 0 0 2
	 1620 2520 2340 2520
-6
6 1575 1935 2385 2160
2 1 0 2 0 7 50 0 -1 0.000 0 0 -1 0 0 2
	 1665 1980 2340 1980
2 1 0 2 0 7 50 0 -1 0.000 0 0 -1 0 0 2
	 1620 2025 2340 2025
2 1 0 2 0 7 50 0 -1 0.000 0 0 -1 0 0 2
	 1620 2115 2205 2115
2 1 0 2 0 7 50 0 -1 0.000 0 0 -1 0 0 2
	 1620 2070 2340 2070
-6
2 2 0 1 0 7 50 0 -1 0.000 0 0 -1 0 0 5
	 2430 1350 1485 1350 1485 2700 2430 2700 2430 1350
2 2 0 1 0 7 50 0 -1 0.000 0 0 -1 0 0 5
	 2340 1485 1620 1485 1620 2520 2340 2520 2340 1485
2 2 0 1 0 7 50 0 -1 0.000 0 0 -1 0 0 5
	 2430 1350 3375 1350 3375 2700 2430 2700 2430 1350
2 2 0 1 0 7 50 0 -1 0.000 0 0 -1 0 0 5
	 2520 1485 3240 1485 3240 2520 2520 2520 2520 1485
2 1 0 2 0 7 50 0 -1 0.000 0 0 -1 0 0 2
	 2520 2025 3240 2025
2 1 0 2 0 7 50 0 -1 0.000 0 0 -1 0 0 2
	 2520 2070 3240 2070
2 1 0 2 0 7 50 0 -1 0.000 0 0 -1 0 0 2
	 2520 2115 3240 2115
2 1 0 2 0 7 50 0 -1 0.000 0 0 -1 0 0 2
	 2520 2160 2925 2160
2 1 0 2 0 7 50 0 -1 0.000 0 0 -1 0 0 2
	 2565 2205 3240 2205
2 1 0 2 0 7 50 0 -1 0.000 0 0 -1 0 0 2
	 2520 2250 3240 2250
2 1 0 2 0 7 50 0 -1 0.000 0 0 -1 0 0 2
	 2520 2340 3105 2340
2 1 0 2 0 7 50 0 -1 0.000 0 0 -1 0 0 2
	 2565 2385 3240 2385
2 1 0 2 0 7 50 0 -1 0.000 0 0 -1 0 0 2
	 2520 2430 3240 2430
2 1 0 2 0 7 50 0 -1 0.000 0 0 -1 0 0 2
	 2520 2475 3240 2475
2 1 0 2 0 7 50 0 -1 0.000 0 0 -1 0 0 2
	 2520 2520 3240 2520
2 1 0 2 0 7 50 0 -1 0.000 0 0 -1 0 0 2
	 2520 2295 3240 2295
2 2 0 2 0 0 50 0 10 0.000 0 0 -1 0 0 5
	 3150 1485 2610 1485 2610 1935 3150 1935 3150 1485
