\relax

\metrics

% This metrics file is loaded after having read the cmsy glyphs.
% We unset those glyphs that should be taken from Times or Symbol.

\unsetglyph{infinity}
\unsetglyph{proportional}

\unsetglyph{emptysetstress}

\unsetglyph{Rfraktur}
\unsetglyph{Ifraktur}

\unsetglyph{aleph}

\unsetglyph{coproduct}
\unsetglyph{gradient}

\unsetglyph{section}
\unsetglyph{dagger}
\unsetglyph{daggerdbl}
\unsetglyph{paragraph}

\endmetrics
