\relax
\metrics

\needsfontinstversion{1.801}

\setrawglyph{lslashslash}{cmbx5}{5.0pt}{32}{436}{444}{0}{0}
\setglyph{hslash}
  \push
    \moveup{180}
    \movert{75}
    \glyph{lslashslash}{1000}
  \pop
  \glyph{h}{1000}
\endsetglyph

\endmetrics
