StartFontMetrics 2.0
Comment Generated by FontForge 20190801
Comment Creation Date: Mon Sep  9 20:18:55 2019
FontName NewPXBMI_gnu
FullName NewPX Bold Math Italic GNU
FamilyName NewPXMath_gnu
Weight Bold
Notice (Based on PXFonts, GNU3.0)
Comment Modifications Copyright (c) 2017-2019, Michael Sharpe
Comment 
ItalicAngle -10
IsFixedPitch false
UnderlinePosition -100
UnderlineThickness 50
Version 001.000
EncodingScheme FontSpecific
FontBBox -42 -302 1004 794
StartCharMetrics 92
C 4 ; WX 531 ; N uni019B ; B 0 -7 569 699 ;
C 15 ; WX 529 ; N uni03F6 ; B 28 -17 505 471 ;
C 19 ; WX 427 ; N uni2113 ; B 18 -14 439 677 ;
C 20 ; WX 697 ; N uni2126 ; B 44 0 653 658 ;
C 21 ; WX 697 ; N uni2127 ; B 44 -7 653 651 ;
C 23 ; WX 556 ; N u1D71E ; B -6 -3 593 682 ;
C 24 ; WX 695 ; N u1D71F ; B -5 -4 614 689 ;
C 25 ; WX 833 ; N u1D723 ; B 76 -17 794 695 ;
C 26 ; WX 722 ; N u1D726 ; B -34 -4 686 689 ;
C 27 ; WX 686 ; N u1D729 ; B 15 -3 678 689 ;
C 28 ; WX 778 ; N u1D72B ; B -15 -3 821 689 ;
C 29 ; WX 716 ; N u1D72E ; B 20 -3 660 689 ;
C 30 ; WX 700 ; N u1D730 ; B 56 -3 757 702 ;
C 31 ; WX 954 ; N u1D731 ; B 75 -3 909 689 ;
C 32 ; WX 961 ; N u1D733 ; B 87 -3 1004 690 ;
C 33 ; WX 866 ; N u1D734 ; B 15 -3 829 701 ;
C 34 ; WX 664 ; N u1D736 ; B 49 -21 633 478 ;
C 35 ; WX 583 ; N u1D737 ; B -19 -282 573 705 ;
C 36 ; WX 633 ; N u1D738 ; B 26 -291 608 480 ;
C 37 ; WX 557 ; N u1D739 ; B 49 -22 506 708 ;
C 38 ; WX 529 ; N u1D750 ; B 28 -17 505 471 ;
C 39 ; WX 559 ; N u1D73B ; B 36 -193 527 704 ;
C 40 ; WX 561 ; N u1D73C ; B 26 -279 515 480 ;
C 41 ; WX 646 ; N u1D73D ; B 75 -21 601 701 ;
C 42 ; WX 273 ; N u1D73E ; B 35 -17 252 481 ;
C 43 ; WX 540 ; N u1D73F ; B 26 -17 543 481 ;
C 44 ; WX 588 ; N u1D740 ; B 0 -7 569 699 ;
C 45 ; WX 611 ; N u1D741 ; B 29 -302 582 492 ;
C 46 ; WX 562 ; N u1D742 ; B 26 -16 539 480 ;
C 47 ; WX 525 ; N u1D743 ; B 41 -193 541 705 ;
C 48 ; WX 634 ; N u1D745 ; B 26 -16 623 476 ;
C 49 ; WX 567 ; N u1D746 ; B -21 -279 534 476 ;
C 50 ; WX 571 ; N u1D748 ; B 49 -25 602 492 ;
C 51 ; WX 519 ; N u1D749 ; B 44 -17 527 480 ;
C 52 ; WX 577 ; N u1D74A ; B 26 -18 526 480 ;
C 53 ; WX 743 ; N u1D753 ; B 49 -279 694 688 ;
C 54 ; WX 584 ; N u1D74C ; B -42 -185 595 480 ;
C 55 ; WX 763 ; N u1D74D ; B 28 -279 734 688 ;
C 56 ; WX 818 ; N u1D74E ; B 49 -14 767 480 ;
C 57 ; WX 464 ; N u1D73A ; B 49 -21 435 479 ;
C 58 ; WX 591 ; N u1D751 ; B 13 -18 567 700 ;
C 59 ; WX 818 ; N u1D755 ; B 49 -14 767 567 ;
C 60 ; WX 563 ; N u1D754 ; B 82 -266 561 476 ;
C 61 ; WX 516 ; N u1D747 ; B 49 -193 486 477 ;
C 62 ; WX 837 ; N u1D74B ; B 49 -277 786 478 ;
C 63 ; WX 695 ; N u1D735 ; B 75 -14 694 679 ;
C 64 ; WX 576 ; N u1D74F ; B 19 -10 557 753 ;
C 68 ; WX 645 ; N u1D752 ; B 35 -23 622 505 ;
C 125 ; WX 526 ; N u1D742.alt ; B 33 -11 500 445 ;
C 127 ; WX 500 ; N zero.oldstyle ; B 24 -13 476 544 ;
C 128 ; WX 500 ; N one.oldstyle ; B 65 0 442 544 ;
C 129 ; WX 500 ; N two.oldstyle ; B 17 0 478 554 ;
C 130 ; WX 500 ; N three.oldstyle ; B 16 -158 468 544 ;
C 131 ; WX 500 ; N four.oldstyle ; B 19 -144 475 544 ;
C 132 ; WX 500 ; N five.oldstyle ; B 22 -152 470 532 ;
C 133 ; WX 500 ; N six.oldstyle ; B 28 -13 475 688 ;
C 134 ; WX 500 ; N seven.oldstyle ; B 17 -144 477 532 ;
C 135 ; WX 500 ; N eight.oldstyle ; B 28 -13 472 688 ;
C 136 ; WX 500 ; N nine.oldstyle ; B 26 -157 473 544 ;
C 137 ; WX 532 ; N zero ; B 40 -14 492 676 ;
C 138 ; WX 323 ; N one ; B 20 0 303 676 ;
C 139 ; WX 525 ; N two ; B 40 0 485 676 ;
C 140 ; WX 469 ; N three ; B 40 -14 429 676 ;
C 141 ; WX 500 ; N four ; B 20 0 480 676 ;
C 142 ; WX 486 ; N five ; B 40 -14 446 688 ;
C 143 ; WX 514 ; N six ; B 40 -14 474 684 ;
C 144 ; WX 469 ; N seven ; B 20 -8 449 662 ;
C 145 ; WX 469 ; N eight ; B 40 -14 429 676 ;
C 146 ; WX 509 ; N nine ; B 40 -22 469 676 ;
C 147 ; WX 250 ; N period ; B 41 -13 210 156 ;
C 148 ; WX 250 ; N comma ; B 39 -180 223 155 ;
C 149 ; WX 964 ; N uni21BC ; B 62 209 902 491 ;
C 150 ; WX 964 ; N uni21BD ; B 62 23 902 305 ;
C 151 ; WX 964 ; N uni21C0 ; B 62 209 902 491 ;
C 152 ; WX 964 ; N uni21C1 ; B 62 23 902 305 ;
C 153 ; WX 359 ; N uni21A9 ; B 62 209 297 510 ;
C 154 ; WX 359 ; N uni21AA ; B 62 209 297 510 ;
C 155 ; WX 601 ; N uni22B2 ; B 22 -25 579 541 ;
C 156 ; WX 601 ; N uni22B3 ; B 22 -25 579 541 ;
C 157 ; WX 676 ; N less ; B 62 -25 614 539 ;
C 158 ; WX 482 ; N slash ; B 62 -176 420 693 ;
C 159 ; WX 676 ; N greater ; B 62 -25 614 539 ;
C 160 ; WX 820 ; N uni2605 ; B 44 -47 776 607 ;
C 161 ; WX 396 ; N uni266D ; B 32 -21 374 737 ;
C 162 ; WX 374 ; N uni266E ; B 32 -221 342 719 ;
C 163 ; WX 419 ; N uni266F ; B 32 -207 387 770 ;
C 164 ; WX 951 ; N uni2323 ; B 62 131 889 400 ;
C 165 ; WX 951 ; N uni2322 ; B 62 131 889 400 ;
C 166 ; WX 666 ; N uni2118 ; B 53 -193 624 479 ;
C 167 ; WX 492 ; N uni20D7 ; B 136 507 572 794 ;
C 168 ; WX 265 ; N uni2040 ; B 214 516 626 678 ;
C 169 ; WX 547 ; N u1D488.alt ; B -1 -271 519 482 ;
EndCharMetrics
EndFontMetrics
