StartFontMetrics 2.0
Comment Generated by FontForge 20190801
Comment Creation Date: Tue Oct 15 22:34:07 2019
FontName cochBMI
FullName Cochineal Math Bold Italic
FamilyName coch
Weight Bold
Notice (Copyright (c) 2019, Michael Sharpe)
ItalicAngle -11
IsFixedPitch false
UnderlinePosition -100
UnderlineThickness 50
Version 001.000
EncodingScheme FontSpecific
FontBBox -174 -246 970 816
StartCharMetrics 148
C 0 ; WX 289 ; N degree ; B 34 425 256 647 ;
C 1 ; WX 310 ; N u1D6A4.bit ; B 11 -8 284 452 ;
C 2 ; WX 524 ; N uni019B ; B 0 -7 521 697 ;
C 3 ; WX 640 ; N uni01B5 ; B 19 0 614 666 ;
C 4 ; WX 286 ; N u1D6A5.bit ; B -89 -219 244 452 ;
C 5 ; WX 253 ; N gravecomb ; B 20 522 193 687 ;
C 6 ; WX 253 ; N acutecomb ; B 60 522 233 687 ;
C 7 ; WX 284 ; N uni0302 ; B 31 493 267 662 ;
C 8 ; WX 368 ; N tildecomb ; B 26 519 335 646 ;
C 9 ; WX 350 ; N uni0304 ; B 33 559 317 608 ;
C 10 ; WX 279 ; N uni0306 ; B 26 510 253 631 ;
C 11 ; WX 174 ; N uni0307 ; B 20 515 154 651 ;
C 12 ; WX 368 ; N uni0308 ; B 20 513 348 652 ;
C 13 ; WX 237 ; N uni030A ; B 20 510 217 707 ;
C 14 ; WX 284 ; N uni030C ; B 31 493 267 662 ;
C 15 ; WX 450 ; N uni03F6 ; B -1 -5 399 445 ;
C 16 ; WX 537 ; N uni20DB ; B 20 513 517 652 ;
C 17 ; WX 716 ; N uni20DC ; B 20 513 696 652 ;
C 18 ; WX 540 ; N uni2107 ; B 31 -14 496 664 ;
C 19 ; WX 363 ; N lscript ; B 51 -7 441 629 ;
C 20 ; WX 831 ; N uni2126 ; B 8 0 774 671 ;
C 21 ; WX 831 ; N uni2127 ; B 7 0 773 671 ;
C 22 ; WX 674 ; N uni212B ; B -14 -4 682 816 ;
C 23 ; WX 484 ; N u1D71E ; B -14 -42 543 668 ;
C 24 ; WX 712 ; N u1D71F ; B -39 -4 634 694 ;
C 25 ; WX 806 ; N u1D723 ; B 60 -10 778 671 ;
C 26 ; WX 593 ; N u1D726 ; B -81 -12 549 670 ;
C 27 ; WX 533 ; N u1D729 ; B -25 0 570 666 ;
C 28 ; WX 599 ; N u1D72B ; B -13 -42 645 675 ;
C 29 ; WX 612 ; N u1D72E ; B -35 -2 614 669 ;
C 30 ; WX 629 ; N u1D730 ; B 67 -3 723 671 ;
C 31 ; WX 706 ; N u1D731 ; B 51 -3 687 666 ;
C 32 ; WX 753 ; N u1D733 ; B 64 -3 915 670 ;
C 33 ; WX 831 ; N u1D734 ; B 8 0 774 671 ;
C 34 ; WX 569 ; N u1D736 ; B 14 -7 530 445 ;
C 35 ; WX 541 ; N u1D737 ; B -1 -222 485 701 ;
C 36 ; WX 462 ; N u1D738 ; B 18 -246 494 456 ;
C 37 ; WX 463 ; N u1D739 ; B 20 -5 539 701 ;
C 38 ; WX 392 ; N u1D750 ; B 17 -5 363 443 ;
C 39 ; WX 427 ; N u1D73B ; B 16 -112 528 738 ;
C 40 ; WX 545 ; N u1D73C ; B 30 -216 474 447 ;
C 41 ; WX 449 ; N u1D73D ; B -7 -5 448 700 ;
C 42 ; WX 282 ; N u1D73E ; B 29 -4 222 471 ;
C 43 ; WX 507 ; N u1D73F ; B 34 -7 497 444 ;
C 44 ; WX 542 ; N u1D740 ; B -53 -9 493 698 ;
C 45 ; WX 541 ; N u1D741 ; B -31 -222 485 476 ;
C 46 ; WX 460 ; N u1D742 ; B 18 -4 436 450 ;
C 47 ; WX 454 ; N u1D743 ; B 8 -112 492 737 ;
C 48 ; WX 526 ; N u1D745 ; B 40 -3 578 459 ;
C 49 ; WX 475 ; N u1D746 ; B -54 -203 434 443 ;
C 50 ; WX 516 ; N u1D748 ; B 20 -4 607 459 ;
C 51 ; WX 454 ; N u1D749 ; B 33 -3 484 453 ;
C 52 ; WX 486 ; N u1D74A ; B 36 -6 440 469 ;
C 53 ; WX 615 ; N u1D753 ; B 29 -229 571 712 ;
C 54 ; WX 492 ; N u1D74C ; B -74 -245 485 454 ;
C 55 ; WX 696 ; N u1D74D ; B 28 -231 739 554 ;
C 56 ; WX 662 ; N u1D74E ; B 26 -6 603 471 ;
C 57 ; WX 447 ; N u1D73A ; B 28 -5 429 445 ;
C 58 ; WX 576 ; N u1D751 ; B 53 -5 561 699 ;
C 59 ; WX 616 ; N u1D755 ; B 36 -6 622 586 ;
C 60 ; WX 463 ; N u1D754 ; B 17 -243 423 443 ;
C 61 ; WX 443 ; N u1D747 ; B 11 -112 425 446 ;
C 62 ; WX 606 ; N u1D74B ; B 23 -229 556 445 ;
C 63 ; WX 603 ; N u1D735 ; B 23 29 610 646 ;
C 64 ; WX 461 ; N u1D74F ; B 17 0 436 646 ;
C 65 ; WX 542 ; N uni019B.alt ; B -53 -9 495 698 ;
C 66 ; WX 506 ; N uni210F ; B 15 -8 482 700 ;
C 67 ; WX 506 ; N uni210F.alt ; B 15 -8 482 700 ;
C 68 ; WX 522 ; N u1D752 ; B -1 -9 516 448 ;
C 70 ; WX 542 ; N uni019B.bit ; B -53 -9 493 698 ;
C 71 ; WX 622 ; N u1D468 ; B -63 -7 589 662 ;
C 72 ; WX 591 ; N u1D469 ; B -10 -1 560 668 ;
C 73 ; WX 648 ; N u1D46A ; B 52 -7 642 671 ;
C 74 ; WX 723 ; N u1D46B ; B -10 0 698 668 ;
C 75 ; WX 574 ; N u1D46C ; B -10 -1 560 670 ;
C 76 ; WX 527 ; N u1D46D ; B -10 -6 560 666 ;
C 77 ; WX 681 ; N u1D46E ; B 52 -7 668 671 ;
C 78 ; WX 710 ; N u1D46F ; B -10 -7 745 662 ;
C 79 ; WX 354 ; N u1D470 ; B -10 -7 389 662 ;
C 80 ; WX 337 ; N u1D471 ; B -110 -219 383 666 ;
C 81 ; WX 691 ; N u1D472 ; B -10 -7 732 666 ;
C 82 ; WX 549 ; N u1D473 ; B -10 -1 532 668 ;
C 83 ; WX 863 ; N u1D474 ; B -28 -7 880 662 ;
C 84 ; WX 718 ; N u1D475 ; B -19 -8 776 663 ;
C 85 ; WX 708 ; N u1D476 ; B 49 -10 683 671 ;
C 86 ; WX 559 ; N u1D477 ; B -10 -6 580 662 ;
C 87 ; WX 709 ; N u1D478 ; B 50 -141 697 671 ;
C 88 ; WX 647 ; N u1D479 ; B -10 -11 642 661 ;
C 89 ; WX 495 ; N u1D47A ; B 21 -10 486 674 ;
C 90 ; WX 598 ; N u1D47B ; B 54 -7 643 677 ;
C 91 ; WX 695 ; N u1D47C ; B 86 -9 763 666 ;
C 92 ; WX 629 ; N u1D47D ; B 57 -11 723 666 ;
C 93 ; WX 881 ; N u1D47E ; B 58 -11 970 666 ;
C 94 ; WX 661 ; N u1D47F ; B -59 -7 728 662 ;
C 95 ; WX 578 ; N u1D480 ; B 69 -7 671 662 ;
C 96 ; WX 610 ; N u1D481 ; B -23 0 638 670 ;
C 97 ; WX 490 ; N u1D482 ; B 11 -8 461 452 ;
C 98 ; WX 466 ; N u1D483 ; B 35 -6 440 700 ;
C 99 ; WX 378 ; N u1D484 ; B 15 -6 371 452 ;
C 100 ; WX 488 ; N u1D485 ; B 10 -8 473 700 ;
C 101 ; WX 395 ; N u1D486 ; B 16 -6 381 452 ;
C 102 ; WX 318 ; N u1D487 ; B 19 -230 429 699 ;
C 103 ; WX 445 ; N u1D488 ; B -57 -227 458 461 ;
C 104 ; WX 506 ; N u1D489 ; B 15 -8 482 700 ;
C 105 ; WX 310 ; N u1D48A ; B 11 -8 284 691 ;
C 106 ; WX 286 ; N u1D48B ; B -89 -219 296 693 ;
C 107 ; WX 505 ; N u1D48C ; B 15 -6 475 700 ;
C 108 ; WX 283 ; N u1D48D ; B 31 -8 265 700 ;
C 109 ; WX 758 ; N u1D48E ; B 11 -8 734 452 ;
C 110 ; WX 538 ; N u1D48F ; B 11 -8 514 452 ;
C 111 ; WX 456 ; N u1D490 ; B 15 -6 424 452 ;
C 112 ; WX 497 ; N u1D491 ; B -55 -220 472 452 ;
C 113 ; WX 455 ; N u1D492 ; B 11 -221 422 452 ;
C 114 ; WX 433 ; N u1D493 ; B 11 -6 449 452 ;
C 115 ; WX 367 ; N u1D494 ; B -1 -7 346 452 ;
C 116 ; WX 328 ; N u1D495 ; B 33 -8 328 573 ;
C 117 ; WX 535 ; N u1D496 ; B 7 -8 507 452 ;
C 118 ; WX 498 ; N u1D497 ; B 13 -7 478 452 ;
C 119 ; WX 728 ; N u1D498 ; B 17 -8 706 452 ;
C 120 ; WX 513 ; N u1D499 ; B -12 -8 504 454 ;
C 121 ; WX 503 ; N u1D49A ; B -76 -219 474 452 ;
C 122 ; WX 442 ; N u1D49B ; B -16 -3 442 453 ;
C 123 ; WX 466 ; N u1D497.alt ; B 9 -5 453 452 ;
C 124 ; WX 728 ; N u1D498.alt ; B 8 -5 715 452 ;
C 125 ; WX 527 ; N zero.oldstyle ; B 24 -11 503 475 ;
C 126 ; WX 337 ; N one.oldstyle ; B 23 0 312 467 ;
C 127 ; WX 467 ; N two.oldstyle ; B 20 -1 444 472 ;
C 128 ; WX 428 ; N three.oldstyle ; B 12 -205 402 468 ;
C 129 ; WX 541 ; N four.oldstyle ; B 17 -193 523 483 ;
C 130 ; WX 385 ; N five.oldstyle ; B 13 -193 365 473 ;
C 131 ; WX 519 ; N six.oldstyle ; B 20 -12 500 664 ;
C 132 ; WX 472 ; N seven.oldstyle ; B 15 -200 467 467 ;
C 133 ; WX 487 ; N eight.oldstyle ; B 20 -12 468 644 ;
C 134 ; WX 519 ; N nine.oldstyle ; B 20 -207 500 469 ;
C 135 ; WX 485 ; N zero ; B 30 -3 456 626 ;
C 136 ; WX 485 ; N one ; B 119 -3 367 627 ;
C 137 ; WX 485 ; N two ; B 42 0 443 627 ;
C 138 ; WX 485 ; N three ; B 59 -5 426 627 ;
C 139 ; WX 485 ; N four ; B 26 -6 459 629 ;
C 140 ; WX 485 ; N five ; B 59 -5 426 629 ;
C 141 ; WX 485 ; N six ; B 48 -6 438 632 ;
C 142 ; WX 485 ; N seven ; B 38 -5 448 621 ;
C 143 ; WX 485 ; N eight ; B 59 -9 427 628 ;
C 144 ; WX 485 ; N nine ; B 48 -6 437 632 ;
C 145 ; WX 233 ; N period ; B 42 -11 193 139 ;
C 146 ; WX 223 ; N comma ; B 19 -157 177 139 ;
C 147 ; WX 318 ; N u1D487.alt ; B -142 -219 429 699 ;
C 148 ; WX 475 ; N u1D746.alt ; B -174 -203 434 443 ;
EndCharMetrics
EndFontMetrics
