StartFontMetrics 2.0
Comment Generated by FontForge 20190801
Comment Creation Date: Mon Oct 14 14:18:31 2019
FontName cochBRM
FullName Cochineal Math Bold Roman
FamilyName coch
Weight Bold
Notice (Copyright (c) 2019, Michael Sharpe)
ItalicAngle 0
IsFixedPitch false
UnderlinePosition -100
UnderlineThickness 50
Version 001.000
EncodingScheme FontSpecific
FontBBox -125 -244 965 815
StartCharMetrics 116
C 0 ; WX 548 ; N u1D6AA ; B 41 -16 542 664 ;
C 1 ; WX 642 ; N u1D6AB ; B 20 -4 614 656 ;
C 2 ; WX 737 ; N u1D6AF ; B 48 -10 690 667 ;
C 3 ; WX 591 ; N u1D6B2 ; B -14 -12 601 662 ;
C 4 ; WX 536 ; N u1D6B5 ; B 29 0 506 662 ;
C 5 ; WX 648 ; N u1D6B7 ; B 41 -16 610 669 ;
C 6 ; WX 586 ; N u1D6BA ; B 26 -2 548 664 ;
C 7 ; WX 598 ; N u1D6BC ; B -13 -3 605 666 ;
C 8 ; WX 638 ; N u1D6BD ; B 41 -7 599 672 ;
C 9 ; WX 726 ; N u1D6BF ; B -14 -7 729 672 ;
C 10 ; WX 763 ; N u1D6C0 ; B 32 0 733 667 ;
C 11 ; WX 505 ; N u1D6C2 ; B 41 -10 479 449 ;
C 12 ; WX 532 ; N u1D6C3 ; B 71 -218 493 699 ;
C 13 ; WX 502 ; N u1D6C4 ; B 0 -218 465 449 ;
C 14 ; WX 484 ; N u1D6C5 ; B 41 -9 446 699 ;
C 15 ; WX 441 ; N u1D6DC ; B 36 -5 416 443 ;
C 16 ; WX 411 ; N u1D6C7 ; B 47 -110 417 698 ;
C 17 ; WX 527 ; N u1D6C8 ; B 13 -230 480 449 ;
C 18 ; WX 510 ; N u1D6C9 ; B 47 -8 466 700 ;
C 19 ; WX 267 ; N u1D6CA ; B 67 -3 250 450 ;
C 20 ; WX 515 ; N u1D6CB ; B 15 -6 491 449 ;
C 21 ; WX 524 ; N u1D6CC ; B 0 -7 521 697 ;
C 22 ; WX 548 ; N u1D6CD ; B 55 -218 508 450 ;
C 23 ; WX 445 ; N u1D6CE ; B 0 -5 411 447 ;
C 24 ; WX 450 ; N u1D6CF ; B 43 -109 411 698 ;
C 25 ; WX 509 ; N u1D6D1 ; B 27 -4 522 455 ;
C 26 ; WX 513 ; N u1D6D2 ; B 61 -218 475 449 ;
C 27 ; WX 526 ; N u1D6D4 ; B 41 -9 565 453 ;
C 28 ; WX 439 ; N u1D6D5 ; B 19 -3 440 455 ;
C 29 ; WX 448 ; N u1D6D6 ; B 32 -7 409 445 ;
C 30 ; WX 638 ; N u1D6DF ; B 34 -244 605 693 ;
C 31 ; WX 516 ; N u1D6D8 ; B 22 -220 506 449 ;
C 32 ; WX 621 ; N u1D6D9 ; B 45 -218 583 546 ;
C 33 ; WX 665 ; N u1D6DA ; B 41 -7 625 445 ;
C 34 ; WX 372 ; N u1D6C6 ; B 43 -6 350 446 ;
C 35 ; WX 485 ; N u1D6DD ; B 10 -5 472 695 ;
C 36 ; WX 601 ; N u1D6E1 ; B 20 -6 598 583 ;
C 37 ; WX 519 ; N u1D6E0 ; B 58 -219 484 442 ;
C 38 ; WX 442 ; N u1D6D3 ; B 43 -106 407 449 ;
C 39 ; WX 685 ; N u1D6D7 ; B 38 -218 646 445 ;
C 40 ; WX 680 ; N u1D6C1 ; B 27 29 655 642 ;
C 41 ; WX 502 ; N u1D6DB ; B 44 0 450 642 ;
C 46 ; WX 506 ; N u1D6DE ; B 30 -26 483 438 ;
C 47 ; WX 440 ; N uni03F6 ; B 25 -5 406 443 ;
C 48 ; WX 674 ; N uni212B ; B -14 -4 682 815 ;
C 49 ; WX 640 ; N uni01B5 ; B 19 0 614 666 ;
C 50 ; WX 763 ; N uni2126 ; B 32 0 733 667 ;
C 51 ; WX 763 ; N uni2127 ; B 32 0 733 667 ;
C 52 ; WX 540 ; N uni2107 ; B 31 -14 496 664 ;
C 53 ; WX 253 ; N uni0300 ; B 20 522 193 687 ;
C 54 ; WX 253 ; N uni0301 ; B 60 522 233 687 ;
C 55 ; WX 284 ; N uni0302 ; B 31 493 267 662 ;
C 56 ; WX 368 ; N uni0303 ; B 26 519 335 646 ;
C 57 ; WX 350 ; N uni0304 ; B 33 559 317 608 ;
C 58 ; WX 279 ; N uni0306 ; B 26 510 253 631 ;
C 59 ; WX 174 ; N uni0307 ; B 20 515 154 651 ;
C 60 ; WX 368 ; N uni0308 ; B 20 513 348 652 ;
C 61 ; WX 473 ; N uni030A ; B 121 510 318 707 ;
C 62 ; WX 284 ; N uni030C ; B 31 493 267 662 ;
C 63 ; WX 537 ; N uni20DB ; B 20 513 517 652 ;
C 64 ; WX 716 ; N uni20DC ; B 20 513 696 652 ;
C 65 ; WX 289 ; N degree ; B 34 425 256 647 ;
C 66 ; WX 314 ; N u1D6A4.bup ; B 25 -4 300 446 ;
C 67 ; WX 285 ; N u1D6A5.bup ; B -12 -218 230 446 ;
C 68 ; WX 674 ; N u1D400 ; B -14 -4 682 662 ;
C 69 ; WX 618 ; N u1D401 ; B 34 -1 584 660 ;
C 70 ; WX 673 ; N u1D402 ; B 40 -7 644 667 ;
C 71 ; WX 760 ; N u1D403 ; B 34 0 718 660 ;
C 72 ; WX 601 ; N u1D404 ; B 34 -1 580 664 ;
C 73 ; WX 548 ; N u1D405 ; B 34 -4 535 664 ;
C 74 ; WX 721 ; N u1D406 ; B 40 -7 706 667 ;
C 75 ; WX 740 ; N u1D407 ; B 34 -4 707 662 ;
C 76 ; WX 359 ; N u1D408 ; B 34 -4 326 662 ;
C 77 ; WX 344 ; N u1D409 ; B -125 -218 320 662 ;
C 78 ; WX 718 ; N u1D40A ; B 34 -8 733 662 ;
C 79 ; WX 578 ; N u1D40B ; B 34 -3 580 662 ;
C 80 ; WX 906 ; N u1D40C ; B 16 -8 882 662 ;
C 81 ; WX 759 ; N u1D40D ; B 29 -9 741 663 ;
C 82 ; WX 759 ; N u1D40E ; B 40 -10 720 667 ;
C 83 ; WX 584 ; N u1D40F ; B 34 -7 565 660 ;
C 84 ; WX 759 ; N u1D410 ; B 40 -143 801 667 ;
C 85 ; WX 692 ; N u1D411 ; B 34 -8 732 660 ;
C 86 ; WX 520 ; N u1D412 ; B 47 -10 479 670 ;
C 87 ; WX 633 ; N u1D413 ; B 8 -7 626 676 ;
C 88 ; WX 729 ; N u1D414 ; B 18 -9 730 662 ;
C 89 ; WX 683 ; N u1D415 ; B -7 -11 702 662 ;
C 90 ; WX 950 ; N u1D416 ; B -6 -11 965 662 ;
C 91 ; WX 709 ; N u1D417 ; B -9 -4 715 662 ;
C 92 ; WX 623 ; N u1D418 ; B -1 -7 639 662 ;
C 93 ; WX 640 ; N u1D419 ; B 19 0 614 666 ;
C 94 ; WX 471 ; N u1D41A ; B 31 -8 458 449 ;
C 95 ; WX 541 ; N u1D41B ; B -3 -8 511 695 ;
C 96 ; WX 446 ; N u1D41C ; B 31 -9 425 449 ;
C 97 ; WX 546 ; N u1D41D ; B 32 -8 526 695 ;
C 98 ; WX 459 ; N u1D41E ; B 32 -9 429 447 ;
C 99 ; WX 360 ; N u1D41F ; B 23 -4 416 698 ;
C 100 ; WX 477 ; N u1D420 ; B 24 -218 469 443 ;
C 101 ; WX 582 ; N u1D421 ; B 12 -4 579 695 ;
C 102 ; WX 314 ; N u1D422 ; B 25 -4 300 688 ;
C 103 ; WX 285 ; N u1D423 ; B -12 -218 230 690 ;
C 104 ; WX 589 ; N u1D424 ; B 12 -6 590 695 ;
C 105 ; WX 305 ; N u1D425 ; B 12 -4 294 695 ;
C 106 ; WX 882 ; N u1D426 ; B 25 -4 878 446 ;
C 107 ; WX 595 ; N u1D427 ; B 25 -4 592 446 ;
C 108 ; WX 531 ; N u1D428 ; B 32 -7 500 447 ;
C 109 ; WX 552 ; N u1D429 ; B 9 -218 521 449 ;
C 110 ; WX 533 ; N u1D42A ; B 32 -218 542 446 ;
C 111 ; WX 448 ; N u1D42B ; B 25 -4 437 447 ;
C 112 ; WX 403 ; N u1D42C ; B 38 -8 367 449 ;
C 113 ; WX 340 ; N u1D42D ; B 6 -7 332 592 ;
C 114 ; WX 565 ; N u1D42E ; B 8 -7 542 446 ;
C 115 ; WX 532 ; N u1D42F ; B -4 -11 538 443 ;
C 116 ; WX 788 ; N u1D430 ; B -4 -11 794 443 ;
C 117 ; WX 557 ; N u1D431 ; B 4 -4 554 443 ;
C 118 ; WX 533 ; N u1D432 ; B -4 -218 538 443 ;
C 119 ; WX 459 ; N u1D433 ; B 29 0 434 436 ;
EndCharMetrics
EndFontMetrics
